{"results":[{"id":177945,"adult":false},{"id":66022,"adult":false},{"id":15121,"adult":false},{"id":316684,"adult":false},{"id":64811,"adult":false},{"id":285213,"adult":false},{"id":119207,"adult":false},{"id":293828,"adult":false},{"id":316685,"adult":false},{"id":316686,"adult":false},{"id":53879,"adult":false},{"id":27118,"adult":false},{"id":316687,"adult":false},{"id":58235,"adult":false},{"id":316688,"adult":false},{"id":286668,"adult":false},{"id":64851,"adult":false},{"id":316689,"adult":false},{"id":298173,"adult":false},{"id":227425,"adult":false},{"id":316690,"adult":false},{"id":316691,"adult":false},{"id":99635,"adult":false},{"id":262738,"adult":false},{"id":10580,"adult":false},{"id":41532,"adult":false},{"id":316692,"adult":false},{"id":316693,"adult":false},{"id":73529,"adult":false},{"id":10581,"adult":false},{"id":316694,"adult":false},{"id":10582,"adult":false},{"id":10583,"adult":false},{"id":73567,"adult":false},{"id":38172,"adult":false},{"id":30060,"adult":false},{"id":38173,"adult":false},{"id":55602,"adult":false},{"id":316695,"adult":false},{"id":212455,"adult":false},{"id":316696,"adult":false},{"id":85172,"adult":false},{"id":74461,"adult":false},{"id":316697,"adult":false},{"id":316698,"adult":false},{"id":239623,"adult":false},{"id":316699,"adult":false},{"id":316700,"adult":false},{"id":24574,"adult":false},{"id":186971,"adult":false},{"id":145220,"adult":false},{"id":241885,"adult":false},{"id":257276,"adult":false},{"id":10079,"adult":false},{"id":73873,"adult":false},{"id":201544,"adult":false},{"id":316701,"adult":null},{"id":316702,"adult":false},{"id":298439,"adult":false},{"id":316703,"adult":false},{"id":265019,"adult":false},{"id":107,"adult":false},{"id":110699,"adult":false},{"id":316704,"adult":false},{"id":265368,"adult":false},{"id":69703,"adult":false},{"id":130182,"adult":false},{"id":260211,"adult":false},{"id":202972,"adult":null},{"id":316705,"adult":false},{"id":17829,"adult":false},{"id":282979,"adult":false},{"id":29885,"adult":false},{"id":129815,"adult":false},{"id":316706,"adult":false},{"id":316707,"adult":false},{"id":116532,"adult":false},{"id":13345,"adult":false},{"id":316708,"adult":false},{"id":10668,"adult":false},{"id":26654,"adult":false},{"id":316709,"adult":false},{"id":20362,"adult":false},{"id":316710,"adult":false},{"id":21835,"adult":false},{"id":35404,"adult":false},{"id":24109,"adult":false},{"id":216953,"adult":false},{"id":316711,"adult":false},{"id":131766,"adult":false},{"id":316712,"adult":false},{"id":316713,"adult":false},{"id":43836,"adult":false},{"id":98648,"adult":false},{"id":37504,"adult":false},{"id":53229,"adult":false},{"id":272724,"adult":false},{"id":31527,"adult":false},{"id":32945,"adult":false},{"id":51617,"adult":false}],"page":78,"total_pages":115,"total_results":11442}