{"results":[{"id":16992,"adult":false},{"id":73215,"adult":false},{"id":371071,"adult":false},{"id":69040,"adult":false},{"id":27873,"adult":false},{"id":256232,"adult":false},{"id":103663,"adult":false},{"id":294098,"adult":false},{"id":83485,"adult":false},{"id":41554,"adult":false},{"id":2164,"adult":false},{"id":242250,"adult":false},{"id":301162,"adult":false},{"id":269698,"adult":false},{"id":371072,"adult":false},{"id":96773,"adult":false},{"id":272800,"adult":false},{"id":359542,"adult":false},{"id":371073,"adult":false},{"id":54218,"adult":false},{"id":305002,"adult":false},{"id":265531,"adult":false},{"id":352446,"adult":false},{"id":26302,"adult":false},{"id":240825,"adult":false},{"id":39517,"adult":false},{"id":10048,"adult":false},{"id":43785,"adult":false},{"id":253914,"adult":false},{"id":327749,"adult":false},{"id":295485,"adult":false},{"id":2172,"adult":false},{"id":30462,"adult":false},{"id":244057,"adult":false},{"id":29456,"adult":false},{"id":371074,"adult":false},{"id":43040,"adult":false},{"id":26787,"adult":false},{"id":342179,"adult":false},{"id":215001,"adult":false},{"id":46147,"adult":false},{"id":8321,"adult":false},{"id":342183,"adult":false},{"id":40630,"adult":false},{"id":156236,"adult":false},{"id":101471,"adult":false},{"id":93858,"adult":false},{"id":277432,"adult":false},{"id":204345,"adult":false},{"id":37347,"adult":false},{"id":308024,"adult":false},{"id":285022,"adult":false},{"id":29244,"adult":false},{"id":36277,"adult":false},{"id":142833,"adult":false},{"id":165095,"adult":false},{"id":44269,"adult":false},{"id":816,"adult":false},{"id":18264,"adult":false},{"id":11590,"adult":false},{"id":351574,"adult":false},{"id":35738,"adult":false},{"id":353060,"adult":false},{"id":43828,"adult":false},{"id":817,"adult":false},{"id":267579,"adult":false},{"id":371075,"adult":false},{"id":818,"adult":false},{"id":364760,"adult":false},{"id":223706,"adult":false},{"id":118683,"adult":false},{"id":57809,"adult":false},{"id":130794,"adult":false},{"id":435,"adult":false},{"id":254392,"adult":false},{"id":9096,"adult":false},{"id":71582,"adult":false},{"id":287594,"adult":false},{"id":371076,"adult":false},{"id":22745,"adult":false},{"id":104744,"adult":false},{"id":227975,"adult":false},{"id":11617,"adult":false},{"id":11810,"adult":false},{"id":285860,"adult":false},{"id":148526,"adult":false},{"id":371077,"adult":false},{"id":16925,"adult":false},{"id":371078,"adult":false},{"id":53093,"adult":false},{"id":14161,"adult":false},{"id":371079,"adult":false},{"id":293271,"adult":false},{"id":64635,"adult":false},{"id":371080,"adult":false},{"id":186976,"adult":false},{"id":371081,"adult":false},{"id":371082,"adult":false},{"id":235407,"adult":true},{"id":184352,"adult":false}],"page":24,"total_pages":97,"total_results":9613}