{"results":[{"id":329444,"adult":false},{"id":12143,"adult":false},{"id":8095,"adult":false},{"id":124301,"adult":false},{"id":291188,"adult":false},{"id":13345,"adult":false},{"id":329445,"adult":false},{"id":287904,"adult":false},{"id":43448,"adult":false},{"id":60072,"adult":false},{"id":257094,"adult":false},{"id":262169,"adult":false},{"id":225667,"adult":false},{"id":102899,"adult":false},{"id":253343,"adult":false},{"id":274167,"adult":false},{"id":145197,"adult":false},{"id":329446,"adult":false},{"id":21407,"adult":false},{"id":174341,"adult":false},{"id":291876,"adult":false},{"id":275044,"adult":false},{"id":195590,"adult":false},{"id":171325,"adult":false},{"id":29244,"adult":false},{"id":329447,"adult":false},{"id":324805,"adult":null},{"id":302946,"adult":false},{"id":82208,"adult":false},{"id":133548,"adult":false},{"id":223568,"adult":false},{"id":100182,"adult":false},{"id":329448,"adult":false},{"id":329449,"adult":false},{"id":24649,"adult":false},{"id":157447,"adult":false},{"id":329450,"adult":false},{"id":53003,"adult":false},{"id":275585,"adult":false},{"id":329451,"adult":false},{"id":270089,"adult":false},{"id":165911,"adult":false},{"id":68665,"adult":false},{"id":329452,"adult":false},{"id":33943,"adult":false},{"id":21266,"adult":false},{"id":256092,"adult":false},{"id":329453,"adult":false},{"id":127061,"adult":false},{"id":329454,"adult":false},{"id":56790,"adult":false},{"id":261825,"adult":false},{"id":329455,"adult":false},{"id":326533,"adult":false},{"id":56869,"adult":false},{"id":329456,"adult":false},{"id":293046,"adult":null},{"id":329457,"adult":false},{"id":329458,"adult":false},{"id":56870,"adult":false},{"id":49368,"adult":false},{"id":261826,"adult":false},{"id":261827,"adult":false},{"id":261828,"adult":false},{"id":329459,"adult":false},{"id":329460,"adult":false},{"id":261829,"adult":false},{"id":3469,"adult":false},{"id":329461,"adult":false},{"id":329462,"adult":false},{"id":287357,"adult":false},{"id":261831,"adult":false},{"id":329463,"adult":false},{"id":261833,"adult":false},{"id":92702,"adult":false},{"id":43068,"adult":null},{"id":261834,"adult":false},{"id":329464,"adult":false},{"id":261835,"adult":false},{"id":261836,"adult":false},{"id":162954,"adult":false},{"id":261837,"adult":false},{"id":261838,"adult":false},{"id":329465,"adult":false},{"id":88269,"adult":false},{"id":261839,"adult":false},{"id":261840,"adult":false},{"id":88270,"adult":false},{"id":261842,"adult":false},{"id":261844,"adult":false},{"id":310142,"adult":false},{"id":261845,"adult":false},{"id":47269,"adult":false},{"id":247494,"adult":null},{"id":167510,"adult":false},{"id":290092,"adult":false},{"id":168777,"adult":false},{"id":329466,"adult":false},{"id":9044,"adult":false},{"id":9065,"adult":false}],"page":79,"total_pages":123,"total_results":12300}