{"results":[{"id":9806,"adult":false},{"id":41152,"adult":false},{"id":136278,"adult":false},{"id":330850,"adult":false},{"id":63174,"adult":false},{"id":50917,"adult":false},{"id":225117,"adult":false},{"id":109532,"adult":false},{"id":85278,"adult":false},{"id":42309,"adult":false},{"id":319338,"adult":null},{"id":330851,"adult":false},{"id":18410,"adult":false},{"id":257091,"adult":false},{"id":293657,"adult":false},{"id":330852,"adult":false},{"id":330853,"adult":false},{"id":132099,"adult":false},{"id":150689,"adult":false},{"id":319340,"adult":false},{"id":330854,"adult":false},{"id":330855,"adult":false},{"id":95597,"adult":false},{"id":12503,"adult":false},{"id":131846,"adult":false},{"id":533,"adult":false},{"id":329923,"adult":null},{"id":141653,"adult":false},{"id":330856,"adult":true},{"id":297596,"adult":false},{"id":110305,"adult":false},{"id":330857,"adult":false},{"id":270342,"adult":false},{"id":67015,"adult":false},{"id":330858,"adult":false},{"id":53776,"adult":false},{"id":330859,"adult":false},{"id":532,"adult":false},{"id":330860,"adult":false},{"id":11368,"adult":false},{"id":330861,"adult":false},{"id":330862,"adult":false},{"id":222935,"adult":false},{"id":139716,"adult":false},{"id":18009,"adult":false},{"id":14447,"adult":false},{"id":90286,"adult":false},{"id":194662,"adult":false},{"id":330863,"adult":false},{"id":17131,"adult":false},{"id":32071,"adult":false},{"id":167116,"adult":false},{"id":129333,"adult":false},{"id":216015,"adult":false},{"id":137533,"adult":false},{"id":100875,"adult":false},{"id":286971,"adult":false},{"id":21355,"adult":false},{"id":119316,"adult":false},{"id":101201,"adult":false},{"id":319341,"adult":false},{"id":68573,"adult":false},{"id":58289,"adult":false},{"id":265787,"adult":false},{"id":2722,"adult":false},{"id":80263,"adult":false},{"id":30988,"adult":false},{"id":46704,"adult":false},{"id":89764,"adult":false},{"id":23710,"adult":false},{"id":328759,"adult":false},{"id":48368,"adult":false},{"id":129867,"adult":false},{"id":330661,"adult":false},{"id":24466,"adult":false},{"id":302627,"adult":false},{"id":94684,"adult":false},{"id":18321,"adult":false},{"id":28840,"adult":true},{"id":330864,"adult":false},{"id":330865,"adult":false},{"id":330866,"adult":false},{"id":330867,"adult":false},{"id":330868,"adult":false},{"id":10571,"adult":false},{"id":314578,"adult":false},{"id":190632,"adult":false},{"id":56913,"adult":false},{"id":37923,"adult":false},{"id":9544,"adult":false},{"id":255406,"adult":false},{"id":183048,"adult":false},{"id":190659,"adult":false},{"id":36899,"adult":false},{"id":29682,"adult":false},{"id":135092,"adult":false},{"id":117369,"adult":false},{"id":329915,"adult":false},{"id":166204,"adult":false},{"id":284296,"adult":false}],"page":6,"total_pages":129,"total_results":12871}