{"results":[{"id":167032,"adult":false},{"id":256005,"adult":false},{"id":278619,"adult":false},{"id":338983,"adult":false},{"id":11951,"adult":false},{"id":157447,"adult":false},{"id":24420,"adult":false},{"id":288338,"adult":false},{"id":22244,"adult":false},{"id":83539,"adult":false},{"id":71996,"adult":false},{"id":340457,"adult":false},{"id":336744,"adult":false},{"id":227735,"adult":false},{"id":184352,"adult":false},{"id":340458,"adult":false},{"id":754,"adult":false},{"id":315274,"adult":false},{"id":340459,"adult":false},{"id":43046,"adult":false},{"id":268690,"adult":false},{"id":15559,"adult":false},{"id":3124,"adult":false},{"id":42984,"adult":false},{"id":340460,"adult":false},{"id":27409,"adult":false},{"id":25103,"adult":false},{"id":29079,"adult":false},{"id":296896,"adult":false},{"id":77971,"adult":false},{"id":275562,"adult":false},{"id":2487,"adult":false},{"id":340461,"adult":false},{"id":331434,"adult":false},{"id":39695,"adult":false},{"id":283564,"adult":false},{"id":98566,"adult":false},{"id":228968,"adult":false},{"id":310803,"adult":false},{"id":28266,"adult":false},{"id":19356,"adult":false},{"id":13405,"adult":false},{"id":340462,"adult":false},{"id":291888,"adult":false},{"id":67376,"adult":false},{"id":340463,"adult":false},{"id":340464,"adult":false},{"id":18443,"adult":false},{"id":82028,"adult":false},{"id":85009,"adult":false},{"id":142773,"adult":false},{"id":278236,"adult":false},{"id":32847,"adult":false},{"id":340465,"adult":null},{"id":315597,"adult":false},{"id":25543,"adult":false},{"id":209179,"adult":false},{"id":234013,"adult":false},{"id":134478,"adult":false},{"id":332976,"adult":false},{"id":137141,"adult":false},{"id":43253,"adult":false},{"id":18573,"adult":false},{"id":181472,"adult":false},{"id":332270,"adult":false},{"id":21735,"adult":false},{"id":340466,"adult":false},{"id":42807,"adult":false},{"id":332177,"adult":false},{"id":340467,"adult":false},{"id":130398,"adult":false},{"id":207933,"adult":false},{"id":278347,"adult":false},{"id":11037,"adult":false},{"id":340468,"adult":false},{"id":9045,"adult":false},{"id":73454,"adult":false},{"id":49836,"adult":false},{"id":40153,"adult":false},{"id":11930,"adult":false},{"id":41424,"adult":false},{"id":1437,"adult":false},{"id":338330,"adult":false},{"id":262391,"adult":false},{"id":340469,"adult":false},{"id":313972,"adult":false},{"id":94039,"adult":false},{"id":94204,"adult":false},{"id":254005,"adult":false},{"id":9423,"adult":false},{"id":87359,"adult":false},{"id":38067,"adult":false},{"id":21635,"adult":false},{"id":340470,"adult":false},{"id":954,"adult":false},{"id":955,"adult":false},{"id":44918,"adult":false},{"id":956,"adult":false},{"id":187447,"adult":false},{"id":10952,"adult":false}],"page":14,"total_pages":103,"total_results":10276}