{"results":[{"id":334164,"adult":null},{"id":211387,"adult":false},{"id":33138,"adult":false},{"id":119569,"adult":false},{"id":61278,"adult":false},{"id":239184,"adult":false},{"id":333346,"adult":false},{"id":17168,"adult":false},{"id":252512,"adult":false},{"id":329729,"adult":false},{"id":344840,"adult":false},{"id":344841,"adult":false},{"id":20548,"adult":false},{"id":68148,"adult":false},{"id":46059,"adult":false},{"id":46069,"adult":false},{"id":68490,"adult":false},{"id":48136,"adult":false},{"id":42224,"adult":false},{"id":344842,"adult":false},{"id":120605,"adult":false},{"id":344843,"adult":false},{"id":2168,"adult":false},{"id":343921,"adult":false},{"id":44357,"adult":false},{"id":4837,"adult":false},{"id":344844,"adult":false},{"id":27969,"adult":false},{"id":270303,"adult":false},{"id":343981,"adult":false},{"id":344845,"adult":false},{"id":28410,"adult":false},{"id":285549,"adult":false},{"id":70761,"adult":false},{"id":22311,"adult":false},{"id":38810,"adult":false},{"id":344847,"adult":true},{"id":31995,"adult":false},{"id":208277,"adult":false},{"id":344848,"adult":false},{"id":344849,"adult":false},{"id":38984,"adult":false},{"id":330220,"adult":false},{"id":135870,"adult":false},{"id":24992,"adult":true},{"id":331161,"adult":false},{"id":307479,"adult":false},{"id":8393,"adult":false},{"id":318340,"adult":false},{"id":244539,"adult":false},{"id":87093,"adult":false},{"id":344850,"adult":false},{"id":12569,"adult":false},{"id":330544,"adult":false},{"id":57903,"adult":false},{"id":344851,"adult":false},{"id":172803,"adult":false},{"id":261817,"adult":false},{"id":168051,"adult":false},{"id":344852,"adult":false},{"id":14136,"adult":false},{"id":480,"adult":false},{"id":56247,"adult":false},{"id":283302,"adult":false},{"id":325626,"adult":false},{"id":172533,"adult":false},{"id":33077,"adult":false},{"id":32151,"adult":false},{"id":113921,"adult":false},{"id":266396,"adult":false},{"id":18721,"adult":false},{"id":344853,"adult":false},{"id":291802,"adult":false},{"id":320626,"adult":false},{"id":344854,"adult":false},{"id":344855,"adult":false},{"id":113947,"adult":false},{"id":284278,"adult":false},{"id":199647,"adult":false},{"id":101724,"adult":false},{"id":289314,"adult":false},{"id":297462,"adult":false},{"id":18724,"adult":false},{"id":307103,"adult":false},{"id":122081,"adult":false},{"id":344856,"adult":false},{"id":118513,"adult":false},{"id":41936,"adult":false},{"id":43135,"adult":false},{"id":82693,"adult":false},{"id":344857,"adult":false},{"id":344858,"adult":false},{"id":64553,"adult":false},{"id":43093,"adult":false},{"id":252384,"adult":false},{"id":344859,"adult":false},{"id":74539,"adult":false},{"id":84178,"adult":false},{"id":275094,"adult":false},{"id":271227,"adult":false}],"page":13,"total_pages":111,"total_results":11023}