{"results":[{"id":338792,"adult":false},{"id":338793,"adult":false},{"id":338794,"adult":false},{"id":338795,"adult":false},{"id":338796,"adult":false},{"id":250219,"adult":false},{"id":338797,"adult":false},{"id":338798,"adult":false},{"id":260449,"adult":false},{"id":270254,"adult":false},{"id":179449,"adult":false},{"id":338799,"adult":false},{"id":10764,"adult":false},{"id":17796,"adult":false},{"id":81619,"adult":false},{"id":116876,"adult":false},{"id":338800,"adult":false},{"id":254904,"adult":false},{"id":253262,"adult":false},{"id":331493,"adult":false},{"id":36557,"adult":false},{"id":82079,"adult":false},{"id":159006,"adult":false},{"id":287491,"adult":false},{"id":682,"adult":false},{"id":14475,"adult":false},{"id":17836,"adult":false},{"id":338801,"adult":null},{"id":681,"adult":false},{"id":338802,"adult":false},{"id":21135,"adult":false},{"id":158640,"adult":false},{"id":338803,"adult":false},{"id":55086,"adult":false},{"id":646,"adult":false},{"id":124115,"adult":false},{"id":313995,"adult":false},{"id":710,"adult":false},{"id":193,"adult":false},{"id":658,"adult":false},{"id":26629,"adult":false},{"id":199,"adult":false},{"id":338804,"adult":false},{"id":200,"adult":false},{"id":714,"adult":false},{"id":151,"adult":false},{"id":152,"adult":false},{"id":157,"adult":false},{"id":168,"adult":false},{"id":172,"adult":false},{"id":174,"adult":false},{"id":338805,"adult":false},{"id":14746,"adult":false},{"id":709,"adult":false},{"id":338806,"adult":false},{"id":24236,"adult":false},{"id":338807,"adult":false},{"id":99920,"adult":false},{"id":330141,"adult":false},{"id":322470,"adult":false},{"id":76934,"adult":false},{"id":106182,"adult":false},{"id":227159,"adult":false},{"id":21387,"adult":false},{"id":86740,"adult":false},{"id":228973,"adult":false},{"id":273645,"adult":false},{"id":338808,"adult":false},{"id":18476,"adult":false},{"id":8068,"adult":false},{"id":271114,"adult":false},{"id":19158,"adult":false},{"id":39761,"adult":true},{"id":297400,"adult":false},{"id":9434,"adult":false},{"id":36215,"adult":false},{"id":287171,"adult":false},{"id":84466,"adult":false},{"id":2171,"adult":false},{"id":125495,"adult":false},{"id":10398,"adult":false},{"id":15394,"adult":false},{"id":48593,"adult":false},{"id":37900,"adult":false},{"id":10145,"adult":false},{"id":338809,"adult":false},{"id":338810,"adult":false},{"id":114745,"adult":false},{"id":46979,"adult":false},{"id":338811,"adult":false},{"id":267790,"adult":false},{"id":210370,"adult":false},{"id":24382,"adult":false},{"id":58383,"adult":false},{"id":31293,"adult":false},{"id":328040,"adult":false},{"id":11521,"adult":false},{"id":45098,"adult":false},{"id":136942,"adult":false},{"id":49214,"adult":false}],"page":44,"total_pages":106,"total_results":10547}