{"results":[{"id":83107,"adult":false},{"id":131069,"adult":false},{"id":7549,"adult":false},{"id":60192,"adult":false},{"id":25977,"adult":false},{"id":100693,"adult":false},{"id":3597,"adult":false},{"id":343744,"adult":false},{"id":10320,"adult":false},{"id":24231,"adult":false},{"id":343745,"adult":false},{"id":9543,"adult":false},{"id":12542,"adult":false},{"id":125570,"adult":false},{"id":87492,"adult":false},{"id":261307,"adult":false},{"id":275,"adult":false},{"id":251937,"adult":false},{"id":343746,"adult":false},{"id":282946,"adult":false},{"id":302904,"adult":false},{"id":109298,"adult":false},{"id":239566,"adult":false},{"id":3600,"adult":false},{"id":343747,"adult":false},{"id":174,"adult":false},{"id":162321,"adult":false},{"id":107662,"adult":false},{"id":26810,"adult":false},{"id":13475,"adult":false},{"id":177919,"adult":false},{"id":1965,"adult":false},{"id":339042,"adult":false},{"id":239583,"adult":false},{"id":161605,"adult":false},{"id":188927,"adult":false},{"id":114108,"adult":false},{"id":156510,"adult":false},{"id":21792,"adult":false},{"id":27453,"adult":false},{"id":290,"adult":false},{"id":79257,"adult":false},{"id":343748,"adult":false},{"id":87828,"adult":false},{"id":343749,"adult":false},{"id":2994,"adult":false},{"id":858,"adult":false},{"id":109846,"adult":false},{"id":343750,"adult":false},{"id":49938,"adult":false},{"id":182560,"adult":false},{"id":31582,"adult":false},{"id":279148,"adult":false},{"id":297580,"adult":false},{"id":285647,"adult":false},{"id":9602,"adult":false},{"id":207769,"adult":false},{"id":343751,"adult":false},{"id":159211,"adult":false},{"id":89283,"adult":false},{"id":343752,"adult":false},{"id":52837,"adult":false},{"id":332446,"adult":false},{"id":27251,"adult":false},{"id":12837,"adult":false},{"id":57463,"adult":false},{"id":40438,"adult":false},{"id":343753,"adult":false},{"id":339822,"adult":null},{"id":183433,"adult":false},{"id":343754,"adult":false},{"id":343755,"adult":false},{"id":268920,"adult":false},{"id":343756,"adult":false},{"id":64,"adult":false},{"id":44132,"adult":false},{"id":343757,"adult":false},{"id":99,"adult":false},{"id":262784,"adult":false},{"id":140,"adult":false},{"id":267,"adult":false},{"id":1283,"adult":false},{"id":343758,"adult":false},{"id":343759,"adult":false},{"id":1285,"adult":false},{"id":96087,"adult":false},{"id":1414,"adult":false},{"id":1418,"adult":false},{"id":2434,"adult":false},{"id":301412,"adult":false},{"id":264770,"adult":false},{"id":2904,"adult":false},{"id":2906,"adult":false},{"id":3096,"adult":false},{"id":249546,"adult":false},{"id":1433,"adult":false},{"id":5166,"adult":false},{"id":271077,"adult":false},{"id":20071,"adult":false},{"id":26846,"adult":false}],"page":53,"total_pages":95,"total_results":9488}