{"results":[{"id":235040,"adult":false},{"id":305748,"adult":false},{"id":101920,"adult":false},{"id":9462,"adult":false},{"id":351839,"adult":false},{"id":84127,"adult":false},{"id":351840,"adult":false},{"id":351841,"adult":false},{"id":229657,"adult":false},{"id":113335,"adult":false},{"id":302115,"adult":false},{"id":100064,"adult":false},{"id":244208,"adult":false},{"id":13567,"adult":false},{"id":81500,"adult":false},{"id":346638,"adult":false},{"id":351842,"adult":false},{"id":47547,"adult":false},{"id":351843,"adult":false},{"id":17731,"adult":false},{"id":31822,"adult":false},{"id":52605,"adult":false},{"id":15850,"adult":false},{"id":26823,"adult":false},{"id":199310,"adult":false},{"id":351844,"adult":false},{"id":297449,"adult":null},{"id":351845,"adult":false},{"id":12548,"adult":false},{"id":262551,"adult":false},{"id":343824,"adult":false},{"id":96846,"adult":false},{"id":157704,"adult":false},{"id":88052,"adult":false},{"id":2649,"adult":false},{"id":351847,"adult":false},{"id":62580,"adult":false},{"id":22910,"adult":false},{"id":308821,"adult":false},{"id":314522,"adult":false},{"id":218342,"adult":false},{"id":97768,"adult":false},{"id":253025,"adult":false},{"id":271006,"adult":false},{"id":136714,"adult":false},{"id":351848,"adult":false},{"id":327547,"adult":false},{"id":28669,"adult":false},{"id":314597,"adult":false},{"id":333039,"adult":false},{"id":333373,"adult":false},{"id":334224,"adult":false},{"id":351849,"adult":false},{"id":315587,"adult":false},{"id":237346,"adult":false},{"id":292602,"adult":false},{"id":43837,"adult":false},{"id":299594,"adult":false},{"id":168258,"adult":false},{"id":351850,"adult":false},{"id":219520,"adult":false},{"id":44967,"adult":false},{"id":162537,"adult":false},{"id":351851,"adult":false},{"id":38134,"adult":false},{"id":70293,"adult":false},{"id":351852,"adult":false},{"id":39216,"adult":false},{"id":330695,"adult":false},{"id":109276,"adult":false},{"id":351853,"adult":false},{"id":216558,"adult":false},{"id":351854,"adult":false},{"id":99990,"adult":false},{"id":21486,"adult":false},{"id":270509,"adult":false},{"id":167581,"adult":false},{"id":41868,"adult":false},{"id":14205,"adult":false},{"id":351855,"adult":false},{"id":35668,"adult":false},{"id":68097,"adult":false},{"id":333252,"adult":false},{"id":201298,"adult":false},{"id":59272,"adult":false},{"id":67787,"adult":false},{"id":74876,"adult":false},{"id":224815,"adult":false},{"id":249676,"adult":false},{"id":66800,"adult":false},{"id":21380,"adult":false},{"id":317155,"adult":false},{"id":67603,"adult":false},{"id":51935,"adult":false},{"id":73614,"adult":false},{"id":351856,"adult":false},{"id":351857,"adult":false},{"id":71203,"adult":false},{"id":351858,"adult":false},{"id":63199,"adult":false}],"page":100,"total_pages":103,"total_results":10231}