{"results":[{"id":11821,"adult":false},{"id":8077,"adult":false},{"id":5233,"adult":false},{"id":9903,"adult":false},{"id":22971,"adult":false},{"id":49981,"adult":false},{"id":62838,"adult":false},{"id":4806,"adult":false},{"id":236737,"adult":false},{"id":341737,"adult":false},{"id":16002,"adult":false},{"id":16257,"adult":false},{"id":322470,"adult":false},{"id":16344,"adult":false},{"id":16345,"adult":false},{"id":31035,"adult":false},{"id":3060,"adult":false},{"id":16855,"adult":false},{"id":59979,"adult":false},{"id":12703,"adult":false},{"id":22124,"adult":false},{"id":24409,"adult":false},{"id":333381,"adult":false},{"id":16891,"adult":false},{"id":16928,"adult":false},{"id":327294,"adult":false},{"id":341738,"adult":true},{"id":90957,"adult":false},{"id":75984,"adult":false},{"id":264811,"adult":false},{"id":34335,"adult":false},{"id":329134,"adult":false},{"id":510,"adult":false},{"id":311166,"adult":false},{"id":329133,"adult":false},{"id":19976,"adult":false},{"id":16143,"adult":false},{"id":153820,"adult":false},{"id":242978,"adult":false},{"id":110554,"adult":false},{"id":42104,"adult":false},{"id":193696,"adult":false},{"id":43983,"adult":false},{"id":303126,"adult":false},{"id":75004,"adult":false},{"id":117815,"adult":false},{"id":59921,"adult":false},{"id":69383,"adult":false},{"id":18464,"adult":false},{"id":162510,"adult":false},{"id":114784,"adult":false},{"id":68726,"adult":false},{"id":341739,"adult":false},{"id":59516,"adult":true},{"id":341740,"adult":false},{"id":341741,"adult":false},{"id":11606,"adult":false},{"id":341742,"adult":false},{"id":14533,"adult":false},{"id":341743,"adult":false},{"id":329712,"adult":false},{"id":341744,"adult":false},{"id":24183,"adult":false},{"id":137533,"adult":false},{"id":7090,"adult":false},{"id":304613,"adult":false},{"id":9572,"adult":false},{"id":336206,"adult":false},{"id":47246,"adult":false},{"id":299238,"adult":false},{"id":283700,"adult":false},{"id":186992,"adult":false},{"id":126856,"adult":false},{"id":84354,"adult":false},{"id":91679,"adult":false},{"id":337110,"adult":false},{"id":336200,"adult":false},{"id":110956,"adult":false},{"id":59507,"adult":false},{"id":288158,"adult":false},{"id":11983,"adult":false},{"id":112508,"adult":false},{"id":77844,"adult":false},{"id":116005,"adult":false},{"id":51297,"adult":false},{"id":29968,"adult":false},{"id":17059,"adult":false},{"id":92472,"adult":false},{"id":63555,"adult":false},{"id":17083,"adult":false},{"id":61242,"adult":false},{"id":142178,"adult":false},{"id":84520,"adult":false},{"id":17164,"adult":false},{"id":17165,"adult":false},{"id":55774,"adult":false},{"id":17367,"adult":false},{"id":34647,"adult":false},{"id":17413,"adult":false},{"id":17609,"adult":false}],"page":80,"total_pages":103,"total_results":10276}