{"results":[{"id":129163,"adult":false},{"id":61999,"adult":false},{"id":86834,"adult":false},{"id":80305,"adult":false},{"id":365943,"adult":null},{"id":29182,"adult":false},{"id":180679,"adult":false},{"id":15310,"adult":false},{"id":328847,"adult":false},{"id":85735,"adult":false},{"id":29907,"adult":false},{"id":12123,"adult":false},{"id":27022,"adult":false},{"id":585,"adult":false},{"id":11632,"adult":false},{"id":76170,"adult":false},{"id":114150,"adult":false},{"id":1891,"adult":false},{"id":253626,"adult":false},{"id":1892,"adult":false},{"id":334414,"adult":false},{"id":367491,"adult":false},{"id":275687,"adult":false},{"id":64635,"adult":false},{"id":295508,"adult":false},{"id":256298,"adult":false},{"id":1894,"adult":false},{"id":335,"adult":false},{"id":22419,"adult":false},{"id":857,"adult":false},{"id":9946,"adult":false},{"id":367492,"adult":false},{"id":20927,"adult":false},{"id":11141,"adult":false},{"id":49026,"adult":false},{"id":204046,"adult":false},{"id":4909,"adult":false},{"id":319311,"adult":false},{"id":82633,"adult":false},{"id":367493,"adult":false},{"id":49517,"adult":false},{"id":65762,"adult":false},{"id":3548,"adult":false},{"id":239899,"adult":false},{"id":275563,"adult":false},{"id":855,"adult":false},{"id":21143,"adult":false},{"id":96682,"adult":false},{"id":237334,"adult":false},{"id":9407,"adult":false},{"id":306399,"adult":false},{"id":45136,"adult":false},{"id":10592,"adult":false},{"id":367494,"adult":false},{"id":7270,"adult":false},{"id":41163,"adult":false},{"id":236749,"adult":false},{"id":367495,"adult":false},{"id":10900,"adult":false},{"id":96936,"adult":false},{"id":15712,"adult":false},{"id":201281,"adult":false},{"id":25579,"adult":false},{"id":133557,"adult":false},{"id":209262,"adult":false},{"id":16843,"adult":false},{"id":531,"adult":false},{"id":153518,"adult":false},{"id":278927,"adult":false},{"id":27007,"adult":false},{"id":259943,"adult":false},{"id":256057,"adult":false},{"id":152745,"adult":false},{"id":62450,"adult":false},{"id":313962,"adult":false},{"id":266619,"adult":false},{"id":313964,"adult":false},{"id":23150,"adult":false},{"id":2274,"adult":false},{"id":295799,"adult":false},{"id":41257,"adult":false},{"id":23151,"adult":false},{"id":201303,"adult":false},{"id":38731,"adult":false},{"id":23153,"adult":false},{"id":367496,"adult":false},{"id":12201,"adult":false},{"id":18037,"adult":false},{"id":260957,"adult":false},{"id":21610,"adult":false},{"id":208393,"adult":false},{"id":9691,"adult":false},{"id":268245,"adult":false},{"id":120771,"adult":false},{"id":367497,"adult":false},{"id":20133,"adult":false},{"id":38319,"adult":false},{"id":12454,"adult":false},{"id":154137,"adult":false},{"id":367498,"adult":true}],"page":73,"total_pages":108,"total_results":10787}