{"results":[{"id":17591,"adult":false},{"id":643,"adult":false},{"id":18209,"adult":false},{"id":59421,"adult":false},{"id":648,"adult":false},{"id":59969,"adult":false},{"id":38732,"adult":false},{"id":22342,"adult":false},{"id":16662,"adult":false},{"id":21717,"adult":false},{"id":336653,"adult":false},{"id":43367,"adult":false},{"id":12481,"adult":false},{"id":5334,"adult":false},{"id":325759,"adult":false},{"id":336654,"adult":false},{"id":60278,"adult":false},{"id":16391,"adult":false},{"id":59762,"adult":false},{"id":13981,"adult":false},{"id":336655,"adult":false},{"id":14839,"adult":false},{"id":54880,"adult":false},{"id":336656,"adult":false},{"id":37707,"adult":false},{"id":336657,"adult":true},{"id":336658,"adult":false},{"id":283746,"adult":false},{"id":16241,"adult":false},{"id":336659,"adult":false},{"id":9270,"adult":false},{"id":23220,"adult":false},{"id":336660,"adult":false},{"id":18283,"adult":false},{"id":261735,"adult":true},{"id":37292,"adult":false},{"id":43114,"adult":false},{"id":336661,"adult":false},{"id":336662,"adult":false},{"id":336663,"adult":false},{"id":13075,"adult":false},{"id":265805,"adult":false},{"id":63310,"adult":false},{"id":14807,"adult":false},{"id":1942,"adult":false},{"id":10086,"adult":false},{"id":239566,"adult":false},{"id":82961,"adult":false},{"id":29381,"adult":false},{"id":336664,"adult":false},{"id":265010,"adult":false},{"id":11349,"adult":false},{"id":336665,"adult":true},{"id":56268,"adult":false},{"id":271924,"adult":false},{"id":19201,"adult":false},{"id":61864,"adult":false},{"id":206408,"adult":false},{"id":34059,"adult":false},{"id":87800,"adult":false},{"id":33436,"adult":false},{"id":336666,"adult":false},{"id":159130,"adult":false},{"id":288241,"adult":false},{"id":13522,"adult":false},{"id":1630,"adult":false},{"id":288454,"adult":false},{"id":336668,"adult":false},{"id":336669,"adult":false},{"id":8065,"adult":false},{"id":13665,"adult":false},{"id":10858,"adult":false},{"id":336670,"adult":true},{"id":42941,"adult":false},{"id":1734,"adult":false},{"id":26044,"adult":false},{"id":239563,"adult":false},{"id":336671,"adult":false},{"id":336672,"adult":null},{"id":316967,"adult":true},{"id":336673,"adult":false},{"id":274685,"adult":false},{"id":46821,"adult":false},{"id":58102,"adult":false},{"id":336674,"adult":false},{"id":267679,"adult":false},{"id":336675,"adult":true},{"id":80070,"adult":false},{"id":76263,"adult":false},{"id":92965,"adult":false},{"id":336676,"adult":false},{"id":16992,"adult":false},{"id":150540,"adult":false},{"id":321109,"adult":false},{"id":336677,"adult":false},{"id":267466,"adult":false},{"id":9318,"adult":false},{"id":11625,"adult":false},{"id":336678,"adult":false},{"id":336679,"adult":false}],"page":42,"total_pages":102,"total_results":10168}