{"results":[{"id":278793,"adult":false},{"id":285939,"adult":false},{"id":283115,"adult":false},{"id":201918,"adult":false},{"id":20430,"adult":false},{"id":350838,"adult":false},{"id":160647,"adult":false},{"id":240264,"adult":false},{"id":29452,"adult":false},{"id":240214,"adult":false},{"id":337686,"adult":false},{"id":329999,"adult":false},{"id":115376,"adult":false},{"id":177014,"adult":false},{"id":350839,"adult":false},{"id":240213,"adult":false},{"id":117956,"adult":false},{"id":55950,"adult":false},{"id":346917,"adult":null},{"id":279091,"adult":false},{"id":35751,"adult":false},{"id":25648,"adult":false},{"id":278148,"adult":false},{"id":96724,"adult":false},{"id":76819,"adult":false},{"id":230883,"adult":false},{"id":132923,"adult":false},{"id":142093,"adult":false},{"id":32161,"adult":false},{"id":76537,"adult":false},{"id":56485,"adult":false},{"id":7509,"adult":false},{"id":16447,"adult":false},{"id":306602,"adult":false},{"id":280191,"adult":false},{"id":3476,"adult":false},{"id":65847,"adult":false},{"id":350840,"adult":false},{"id":350841,"adult":false},{"id":350842,"adult":false},{"id":350843,"adult":false},{"id":278143,"adult":false},{"id":278063,"adult":false},{"id":350844,"adult":false},{"id":350845,"adult":false},{"id":144204,"adult":false},{"id":280261,"adult":false},{"id":350846,"adult":false},{"id":237672,"adult":false},{"id":350847,"adult":false},{"id":350848,"adult":false},{"id":350849,"adult":false},{"id":278038,"adult":false},{"id":301888,"adult":null},{"id":67005,"adult":false},{"id":350850,"adult":false},{"id":350851,"adult":false},{"id":78353,"adult":false},{"id":15709,"adult":false},{"id":49530,"adult":false},{"id":350852,"adult":null},{"id":268896,"adult":false},{"id":350853,"adult":false},{"id":55888,"adult":false},{"id":51152,"adult":false},{"id":297946,"adult":false},{"id":27217,"adult":false},{"id":81219,"adult":false},{"id":30048,"adult":false},{"id":695,"adult":false},{"id":350854,"adult":false},{"id":350855,"adult":false},{"id":55111,"adult":false},{"id":377,"adult":false},{"id":350856,"adult":false},{"id":66872,"adult":false},{"id":315029,"adult":false},{"id":350857,"adult":false},{"id":81382,"adult":false},{"id":203964,"adult":false},{"id":66834,"adult":false},{"id":17078,"adult":false},{"id":350858,"adult":false},{"id":9772,"adult":false},{"id":319067,"adult":false},{"id":10573,"adult":false},{"id":8747,"adult":false},{"id":90,"adult":false},{"id":306,"adult":false},{"id":286217,"adult":false},{"id":98642,"adult":false},{"id":53119,"adult":false},{"id":40048,"adult":false},{"id":33251,"adult":false},{"id":350859,"adult":false},{"id":87541,"adult":false},{"id":350860,"adult":false},{"id":58156,"adult":false},{"id":293,"adult":false},{"id":8905,"adult":false}],"page":66,"total_pages":103,"total_results":10231}