{"results":[{"id":13243,"adult":false},{"id":233920,"adult":false},{"id":256204,"adult":false},{"id":269559,"adult":false},{"id":127887,"adult":false},{"id":74175,"adult":false},{"id":69454,"adult":false},{"id":320596,"adult":false},{"id":86676,"adult":false},{"id":107453,"adult":false},{"id":272639,"adult":false},{"id":109611,"adult":false},{"id":224102,"adult":false},{"id":97082,"adult":false},{"id":162317,"adult":false},{"id":351,"adult":false},{"id":125794,"adult":false},{"id":84849,"adult":false},{"id":56694,"adult":false},{"id":4996,"adult":false},{"id":328806,"adult":false},{"id":153770,"adult":false},{"id":49942,"adult":false},{"id":110380,"adult":false},{"id":54890,"adult":false},{"id":209669,"adult":false},{"id":187657,"adult":false},{"id":84716,"adult":false},{"id":159675,"adult":false},{"id":209641,"adult":false},{"id":988,"adult":false},{"id":128244,"adult":false},{"id":50129,"adult":false},{"id":169642,"adult":false},{"id":217296,"adult":false},{"id":314552,"adult":false},{"id":28370,"adult":false},{"id":184681,"adult":false},{"id":57253,"adult":false},{"id":73249,"adult":false},{"id":169221,"adult":false},{"id":104037,"adult":false},{"id":37345,"adult":false},{"id":267863,"adult":false},{"id":71157,"adult":false},{"id":14720,"adult":false},{"id":41963,"adult":false},{"id":328809,"adult":false},{"id":70989,"adult":false},{"id":11335,"adult":false},{"id":23954,"adult":false},{"id":260312,"adult":false},{"id":43620,"adult":false},{"id":328810,"adult":false},{"id":26973,"adult":false},{"id":13746,"adult":false},{"id":106302,"adult":false},{"id":50700,"adult":false},{"id":315839,"adult":false},{"id":160706,"adult":false},{"id":154820,"adult":false},{"id":18254,"adult":false},{"id":184627,"adult":false},{"id":231741,"adult":false},{"id":91599,"adult":false},{"id":310450,"adult":false},{"id":310447,"adult":false},{"id":138435,"adult":false},{"id":11890,"adult":false},{"id":228233,"adult":false},{"id":245168,"adult":false},{"id":11336,"adult":false},{"id":169990,"adult":false},{"id":9426,"adult":false},{"id":21074,"adult":false},{"id":226140,"adult":false},{"id":1946,"adult":false},{"id":193726,"adult":false},{"id":29786,"adult":false},{"id":18495,"adult":false},{"id":26198,"adult":false},{"id":87744,"adult":false},{"id":126277,"adult":false},{"id":692,"adult":false},{"id":299604,"adult":false},{"id":65214,"adult":false},{"id":123235,"adult":false},{"id":30943,"adult":false},{"id":203933,"adult":false},{"id":200487,"adult":false},{"id":174368,"adult":false},{"id":200490,"adult":false},{"id":189030,"adult":false},{"id":80990,"adult":false},{"id":33623,"adult":false},{"id":187416,"adult":false},{"id":11250,"adult":false},{"id":328811,"adult":false},{"id":25896,"adult":false},{"id":661,"adult":false}],"page":46,"total_pages":123,"total_results":12300}