{"results":[{"id":95775,"adult":false},{"id":314303,"adult":false},{"id":339635,"adult":false},{"id":320144,"adult":false},{"id":339638,"adult":false},{"id":76338,"adult":false},{"id":150657,"adult":false},{"id":243817,"adult":false},{"id":276909,"adult":false},{"id":339639,"adult":false},{"id":325189,"adult":false},{"id":161773,"adult":false},{"id":339640,"adult":false},{"id":197233,"adult":false},{"id":54186,"adult":false},{"id":339641,"adult":false},{"id":265965,"adult":false},{"id":169692,"adult":false},{"id":261910,"adult":false},{"id":283022,"adult":false},{"id":14553,"adult":false},{"id":339642,"adult":false},{"id":326990,"adult":false},{"id":339643,"adult":false},{"id":259873,"adult":false},{"id":103920,"adult":false},{"id":339644,"adult":false},{"id":15092,"adult":false},{"id":97256,"adult":null},{"id":118646,"adult":false},{"id":339645,"adult":false},{"id":231767,"adult":false},{"id":295832,"adult":false},{"id":339646,"adult":false},{"id":339647,"adult":false},{"id":117878,"adult":false},{"id":339648,"adult":false},{"id":136347,"adult":false},{"id":299847,"adult":false},{"id":293476,"adult":false},{"id":37139,"adult":false},{"id":339649,"adult":false},{"id":339650,"adult":false},{"id":104452,"adult":false},{"id":156188,"adult":false},{"id":105632,"adult":false},{"id":339651,"adult":false},{"id":339652,"adult":false},{"id":301348,"adult":false},{"id":41863,"adult":false},{"id":41184,"adult":false},{"id":108230,"adult":false},{"id":268514,"adult":false},{"id":44863,"adult":false},{"id":268515,"adult":false},{"id":339653,"adult":false},{"id":242296,"adult":false},{"id":266093,"adult":false},{"id":339654,"adult":false},{"id":318911,"adult":false},{"id":202031,"adult":false},{"id":10176,"adult":false},{"id":339655,"adult":false},{"id":13954,"adult":false},{"id":326987,"adult":null},{"id":339656,"adult":false},{"id":206759,"adult":false},{"id":119984,"adult":false},{"id":236141,"adult":false},{"id":339657,"adult":false},{"id":339658,"adult":false},{"id":64866,"adult":false},{"id":183612,"adult":false},{"id":231937,"adult":false},{"id":339659,"adult":false},{"id":97377,"adult":false},{"id":37258,"adult":false},{"id":292952,"adult":null},{"id":315204,"adult":false},{"id":315206,"adult":false},{"id":315687,"adult":false},{"id":22954,"adult":false},{"id":313944,"adult":false},{"id":278381,"adult":false},{"id":298979,"adult":false},{"id":277163,"adult":false},{"id":216580,"adult":false},{"id":18807,"adult":false},{"id":339660,"adult":false},{"id":171944,"adult":false},{"id":33427,"adult":false},{"id":339661,"adult":false},{"id":148884,"adult":false},{"id":72400,"adult":false},{"id":262956,"adult":false},{"id":380,"adult":false},{"id":10195,"adult":false},{"id":334684,"adult":false},{"id":285387,"adult":false},{"id":339662,"adult":false}],"page":86,"total_pages":106,"total_results":10547}