{"results":[{"id":299044,"adult":false},{"id":13747,"adult":false},{"id":354070,"adult":false},{"id":331297,"adult":false},{"id":201593,"adult":false},{"id":67240,"adult":false},{"id":337739,"adult":false},{"id":28145,"adult":false},{"id":128825,"adult":false},{"id":191825,"adult":false},{"id":20932,"adult":false},{"id":354071,"adult":false},{"id":340968,"adult":false},{"id":294289,"adult":false},{"id":354072,"adult":false},{"id":42170,"adult":false},{"id":85349,"adult":false},{"id":260916,"adult":false},{"id":354073,"adult":false},{"id":40081,"adult":false},{"id":347979,"adult":false},{"id":31345,"adult":false},{"id":284294,"adult":false},{"id":301566,"adult":false},{"id":19621,"adult":false},{"id":145228,"adult":false},{"id":59006,"adult":false},{"id":351616,"adult":false},{"id":334388,"adult":false},{"id":265307,"adult":false},{"id":14904,"adult":false},{"id":325348,"adult":false},{"id":6498,"adult":false},{"id":2125,"adult":false},{"id":354074,"adult":false},{"id":354075,"adult":false},{"id":36095,"adult":false},{"id":10135,"adult":false},{"id":27846,"adult":false},{"id":354077,"adult":false},{"id":1389,"adult":false},{"id":99444,"adult":false},{"id":5520,"adult":false},{"id":34530,"adult":false},{"id":9804,"adult":false},{"id":354078,"adult":false},{"id":335053,"adult":false},{"id":273865,"adult":false},{"id":13848,"adult":false},{"id":26505,"adult":false},{"id":354079,"adult":false},{"id":354080,"adult":false},{"id":133174,"adult":false},{"id":1271,"adult":false},{"id":198903,"adult":false},{"id":9564,"adult":false},{"id":114060,"adult":false},{"id":286568,"adult":false},{"id":296241,"adult":false},{"id":3527,"adult":false},{"id":86616,"adult":false},{"id":314606,"adult":false},{"id":348128,"adult":false},{"id":92283,"adult":false},{"id":613,"adult":false},{"id":299705,"adult":false},{"id":29333,"adult":false},{"id":241257,"adult":false},{"id":258075,"adult":false},{"id":269625,"adult":false},{"id":269626,"adult":false},{"id":352417,"adult":false},{"id":314220,"adult":false},{"id":44370,"adult":false},{"id":59962,"adult":false},{"id":354081,"adult":false},{"id":342672,"adult":false},{"id":135303,"adult":false},{"id":354082,"adult":false},{"id":10765,"adult":false},{"id":354083,"adult":false},{"id":67697,"adult":false},{"id":299438,"adult":false},{"id":354084,"adult":false},{"id":150038,"adult":false},{"id":147778,"adult":false},{"id":301570,"adult":false},{"id":354085,"adult":true},{"id":316397,"adult":false},{"id":301571,"adult":false},{"id":206222,"adult":false},{"id":336940,"adult":false},{"id":16435,"adult":false},{"id":243279,"adult":false},{"id":354086,"adult":false},{"id":42411,"adult":false},{"id":59297,"adult":false},{"id":158719,"adult":false},{"id":339219,"adult":false},{"id":5156,"adult":false}],"page":73,"total_pages":89,"total_results":8876}