{"results":[{"id":138026,"adult":false},{"id":161482,"adult":false},{"id":5881,"adult":false},{"id":8200,"adult":false},{"id":4839,"adult":false},{"id":8846,"adult":false},{"id":2922,"adult":false},{"id":348294,"adult":false},{"id":8205,"adult":false},{"id":6148,"adult":false},{"id":2156,"adult":false},{"id":5518,"adult":false},{"id":12132,"adult":false},{"id":3425,"adult":false},{"id":10415,"adult":false},{"id":313009,"adult":false},{"id":11684,"adult":false},{"id":5443,"adult":false},{"id":5592,"adult":false},{"id":27222,"adult":false},{"id":3520,"adult":false},{"id":1837,"adult":false},{"id":10636,"adult":false},{"id":331378,"adult":false},{"id":12478,"adult":false},{"id":356321,"adult":false},{"id":27154,"adult":false},{"id":6690,"adult":false},{"id":36679,"adult":false},{"id":3542,"adult":false},{"id":316,"adult":false},{"id":347,"adult":false},{"id":1558,"adult":false},{"id":460,"adult":false},{"id":79722,"adult":false},{"id":2299,"adult":false},{"id":330415,"adult":false},{"id":157295,"adult":false},{"id":151614,"adult":false},{"id":311000,"adult":false},{"id":54318,"adult":false},{"id":210818,"adult":false},{"id":17525,"adult":false},{"id":12089,"adult":false},{"id":4024,"adult":false},{"id":6639,"adult":false},{"id":137094,"adult":false},{"id":12579,"adult":false},{"id":12629,"adult":false},{"id":10989,"adult":false},{"id":1421,"adult":false},{"id":2731,"adult":false},{"id":9716,"adult":false},{"id":5252,"adult":false},{"id":39465,"adult":false},{"id":1622,"adult":false},{"id":10697,"adult":false},{"id":12479,"adult":false},{"id":25132,"adult":false},{"id":2060,"adult":false},{"id":3631,"adult":false},{"id":12513,"adult":false},{"id":27104,"adult":false},{"id":4440,"adult":false},{"id":12229,"adult":false},{"id":196254,"adult":false},{"id":101907,"adult":false},{"id":894,"adult":false},{"id":8906,"adult":false},{"id":6641,"adult":false},{"id":360427,"adult":null},{"id":6575,"adult":false},{"id":9687,"adult":false},{"id":9729,"adult":false},{"id":1641,"adult":false},{"id":60663,"adult":false},{"id":237,"adult":false},{"id":4588,"adult":false},{"id":10541,"adult":false},{"id":844,"adult":false},{"id":294512,"adult":false},{"id":12561,"adult":false},{"id":10998,"adult":false},{"id":258,"adult":false},{"id":10683,"adult":false},{"id":170522,"adult":false},{"id":4196,"adult":false},{"id":5708,"adult":false},{"id":28313,"adult":false},{"id":77499,"adult":false},{"id":12615,"adult":false},{"id":11183,"adult":false},{"id":255,"adult":false},{"id":8219,"adult":false},{"id":4888,"adult":false},{"id":10533,"adult":false},{"id":129533,"adult":false},{"id":1647,"adult":false},{"id":843,"adult":false},{"id":284,"adult":false}],"page":33,"total_pages":98,"total_results":9775}