{"results":[{"id":12222,"adult":false},{"id":325971,"adult":false},{"id":94191,"adult":false},{"id":15034,"adult":false},{"id":304386,"adult":false},{"id":325972,"adult":false},{"id":14411,"adult":false},{"id":87558,"adult":false},{"id":246320,"adult":false},{"id":221214,"adult":false},{"id":234200,"adult":false},{"id":76155,"adult":false},{"id":325973,"adult":false},{"id":11357,"adult":false},{"id":1852,"adult":false},{"id":277499,"adult":false},{"id":325974,"adult":false},{"id":11361,"adult":false},{"id":59961,"adult":false},{"id":77878,"adult":false},{"id":18975,"adult":false},{"id":64512,"adult":false},{"id":130562,"adult":false},{"id":10882,"adult":false},{"id":300480,"adult":false},{"id":324467,"adult":false},{"id":10987,"adult":false},{"id":325438,"adult":false},{"id":44718,"adult":false},{"id":11442,"adult":false},{"id":306045,"adult":false},{"id":11246,"adult":false},{"id":1685,"adult":false},{"id":201085,"adult":false},{"id":254023,"adult":false},{"id":222649,"adult":false},{"id":51121,"adult":false},{"id":112289,"adult":false},{"id":27683,"adult":false},{"id":52960,"adult":false},{"id":11675,"adult":false},{"id":42583,"adult":false},{"id":325975,"adult":null},{"id":325976,"adult":false},{"id":41446,"adult":false},{"id":5070,"adult":false},{"id":261565,"adult":false},{"id":67123,"adult":false},{"id":297271,"adult":false},{"id":325977,"adult":false},{"id":100697,"adult":false},{"id":325978,"adult":false},{"id":184098,"adult":false},{"id":325979,"adult":false},{"id":246911,"adult":false},{"id":263480,"adult":false},{"id":199989,"adult":false},{"id":270328,"adult":false},{"id":325980,"adult":false},{"id":162791,"adult":false},{"id":9782,"adult":false},{"id":325981,"adult":false},{"id":4234,"adult":false},{"id":24648,"adult":false},{"id":162965,"adult":false},{"id":32237,"adult":false},{"id":51996,"adult":false},{"id":54111,"adult":false},{"id":52413,"adult":false},{"id":14202,"adult":false},{"id":28403,"adult":false},{"id":99946,"adult":false},{"id":20134,"adult":false},{"id":278920,"adult":false},{"id":53988,"adult":false},{"id":8487,"adult":false},{"id":325982,"adult":false},{"id":250080,"adult":false},{"id":135945,"adult":false},{"id":1690,"adult":false},{"id":325984,"adult":false},{"id":325985,"adult":false},{"id":57733,"adult":false},{"id":96878,"adult":false},{"id":325986,"adult":false},{"id":11172,"adult":false},{"id":9315,"adult":false},{"id":173911,"adult":false},{"id":10760,"adult":false},{"id":253259,"adult":false},{"id":804,"adult":false},{"id":325987,"adult":false},{"id":297628,"adult":false},{"id":1947,"adult":false},{"id":10304,"adult":false},{"id":55692,"adult":false},{"id":247809,"adult":false},{"id":1124,"adult":false},{"id":264770,"adult":false},{"id":142430,"adult":false}],"page":26,"total_pages":112,"total_results":11193}