{"results":[{"id":105299,"adult":false},{"id":110734,"adult":false},{"id":45564,"adult":false},{"id":282984,"adult":false},{"id":337511,"adult":false},{"id":18846,"adult":false},{"id":40461,"adult":false},{"id":30870,"adult":false},{"id":80004,"adult":false},{"id":328395,"adult":null},{"id":338160,"adult":false},{"id":328394,"adult":null},{"id":338161,"adult":false},{"id":338162,"adult":false},{"id":65230,"adult":null},{"id":323969,"adult":null},{"id":27145,"adult":false},{"id":328401,"adult":null},{"id":285038,"adult":false},{"id":66850,"adult":false},{"id":66135,"adult":false},{"id":10247,"adult":false},{"id":338163,"adult":false},{"id":158622,"adult":false},{"id":2912,"adult":false},{"id":64454,"adult":false},{"id":338164,"adult":false},{"id":159650,"adult":false},{"id":80639,"adult":false},{"id":113801,"adult":false},{"id":65935,"adult":false},{"id":14885,"adult":false},{"id":66852,"adult":false},{"id":190853,"adult":false},{"id":227300,"adult":false},{"id":85521,"adult":false},{"id":25508,"adult":false},{"id":66862,"adult":false},{"id":30871,"adult":false},{"id":289029,"adult":false},{"id":102586,"adult":false},{"id":1628,"adult":false},{"id":14491,"adult":false},{"id":290637,"adult":false},{"id":66863,"adult":false},{"id":80596,"adult":false},{"id":128216,"adult":false},{"id":318910,"adult":null},{"id":5483,"adult":false},{"id":301849,"adult":false},{"id":5481,"adult":false},{"id":5001,"adult":false},{"id":78598,"adult":false},{"id":259109,"adult":false},{"id":338165,"adult":null},{"id":49350,"adult":false},{"id":31658,"adult":false},{"id":338166,"adult":false},{"id":23280,"adult":false},{"id":338167,"adult":false},{"id":338168,"adult":false},{"id":255482,"adult":false},{"id":281060,"adult":null},{"id":338169,"adult":false},{"id":188500,"adult":false},{"id":10337,"adult":false},{"id":338170,"adult":false},{"id":5708,"adult":false},{"id":7288,"adult":false},{"id":747,"adult":false},{"id":338171,"adult":false},{"id":42973,"adult":false},{"id":338172,"adult":false},{"id":42513,"adult":false},{"id":338173,"adult":false},{"id":294308,"adult":false},{"id":181310,"adult":false},{"id":338174,"adult":false},{"id":276401,"adult":false},{"id":312118,"adult":null},{"id":98545,"adult":false},{"id":331936,"adult":false},{"id":337981,"adult":false},{"id":9715,"adult":false},{"id":275060,"adult":false},{"id":31016,"adult":false},{"id":338175,"adult":true},{"id":24983,"adult":false},{"id":204768,"adult":false},{"id":63973,"adult":false},{"id":19027,"adult":false},{"id":160512,"adult":false},{"id":13250,"adult":false},{"id":11863,"adult":false},{"id":282631,"adult":false},{"id":300649,"adult":false},{"id":157829,"adult":false},{"id":59296,"adult":false},{"id":338176,"adult":false},{"id":10424,"adult":false}],"page":8,"total_pages":106,"total_results":10547}