{"results":[{"id":200732,"adult":false},{"id":3594,"adult":false},{"id":52208,"adult":false},{"id":11933,"adult":false},{"id":11397,"adult":false},{"id":9757,"adult":false},{"id":370130,"adult":true},{"id":35212,"adult":false},{"id":370131,"adult":false},{"id":6977,"adult":false},{"id":124300,"adult":false},{"id":32640,"adult":false},{"id":22832,"adult":false},{"id":370132,"adult":false},{"id":25602,"adult":false},{"id":10985,"adult":false},{"id":225898,"adult":false},{"id":11472,"adult":false},{"id":10068,"adult":false},{"id":370133,"adult":false},{"id":370134,"adult":true},{"id":9479,"adult":false},{"id":334649,"adult":false},{"id":95243,"adult":false},{"id":35983,"adult":false},{"id":228108,"adult":false},{"id":49719,"adult":false},{"id":235704,"adult":false},{"id":99922,"adult":false},{"id":196165,"adult":true},{"id":17599,"adult":false},{"id":370138,"adult":null},{"id":370139,"adult":false},{"id":370140,"adult":true},{"id":299221,"adult":false},{"id":160785,"adult":false},{"id":10249,"adult":false},{"id":69526,"adult":false},{"id":11575,"adult":false},{"id":370141,"adult":false},{"id":34843,"adult":false},{"id":312295,"adult":false},{"id":25568,"adult":false},{"id":370142,"adult":false},{"id":51300,"adult":false},{"id":24001,"adult":false},{"id":64717,"adult":false},{"id":370143,"adult":true},{"id":370144,"adult":false},{"id":11287,"adult":false},{"id":77553,"adult":false},{"id":10142,"adult":false},{"id":1493,"adult":false},{"id":27367,"adult":false},{"id":370145,"adult":false},{"id":20441,"adult":false},{"id":370146,"adult":null},{"id":255262,"adult":false},{"id":49872,"adult":false},{"id":370147,"adult":true},{"id":370148,"adult":null},{"id":370149,"adult":false},{"id":2055,"adult":false},{"id":53070,"adult":false},{"id":50374,"adult":false},{"id":65347,"adult":false},{"id":53994,"adult":false},{"id":110004,"adult":false},{"id":60215,"adult":false},{"id":65118,"adult":false},{"id":174512,"adult":false},{"id":297624,"adult":false},{"id":205891,"adult":false},{"id":65622,"adult":true},{"id":80335,"adult":true},{"id":170132,"adult":true},{"id":241868,"adult":false},{"id":140849,"adult":false},{"id":196970,"adult":false},{"id":370150,"adult":false},{"id":38659,"adult":false},{"id":240712,"adult":false},{"id":262734,"adult":false},{"id":370151,"adult":false},{"id":43367,"adult":false},{"id":11897,"adult":false},{"id":25627,"adult":false},{"id":9343,"adult":false},{"id":18691,"adult":false},{"id":84185,"adult":false},{"id":64353,"adult":false},{"id":370152,"adult":false},{"id":12721,"adult":false},{"id":94405,"adult":false},{"id":13555,"adult":false},{"id":370153,"adult":null},{"id":43885,"adult":false},{"id":296253,"adult":false},{"id":43351,"adult":false},{"id":26811,"adult":false}],"page":93,"total_pages":101,"total_results":10039}