{"results":[{"id":30658,"adult":false},{"id":18639,"adult":false},{"id":32319,"adult":false},{"id":78229,"adult":false},{"id":340100,"adult":false},{"id":371065,"adult":false},{"id":37412,"adult":false},{"id":371066,"adult":false},{"id":12482,"adult":false},{"id":7736,"adult":false},{"id":10244,"adult":false},{"id":69472,"adult":false},{"id":6643,"adult":false},{"id":60971,"adult":false},{"id":13910,"adult":false},{"id":966,"adult":false},{"id":367502,"adult":false},{"id":96937,"adult":false},{"id":126216,"adult":false},{"id":211753,"adult":false},{"id":363624,"adult":false},{"id":371067,"adult":false},{"id":81622,"adult":false},{"id":10734,"adult":false},{"id":78215,"adult":false},{"id":221966,"adult":false},{"id":42703,"adult":false},{"id":87631,"adult":false},{"id":256377,"adult":false},{"id":109592,"adult":false},{"id":163907,"adult":false},{"id":4563,"adult":false},{"id":365501,"adult":false},{"id":166698,"adult":false},{"id":64345,"adult":false},{"id":11141,"adult":false},{"id":10122,"adult":false},{"id":37239,"adult":false},{"id":10184,"adult":false},{"id":60735,"adult":false},{"id":88284,"adult":false},{"id":371068,"adult":false},{"id":64720,"adult":false},{"id":249070,"adult":false},{"id":42491,"adult":false},{"id":42326,"adult":false},{"id":319374,"adult":false},{"id":61044,"adult":false},{"id":102678,"adult":false},{"id":277154,"adult":false},{"id":36515,"adult":false},{"id":37748,"adult":false},{"id":295829,"adult":false},{"id":251671,"adult":false},{"id":179053,"adult":false},{"id":58156,"adult":false},{"id":190882,"adult":false},{"id":11853,"adult":false},{"id":48267,"adult":false},{"id":345496,"adult":false},{"id":20988,"adult":false},{"id":266044,"adult":false},{"id":844,"adult":false},{"id":105757,"adult":false},{"id":197983,"adult":false},{"id":147287,"adult":false},{"id":210479,"adult":false},{"id":127142,"adult":false},{"id":245,"adult":false},{"id":122270,"adult":false},{"id":2755,"adult":false},{"id":361199,"adult":false},{"id":275631,"adult":false},{"id":268738,"adult":false},{"id":195150,"adult":null},{"id":10065,"adult":false},{"id":12178,"adult":false},{"id":35588,"adult":false},{"id":343491,"adult":false},{"id":171815,"adult":false},{"id":25789,"adult":false},{"id":258867,"adult":false},{"id":62589,"adult":false},{"id":371069,"adult":false},{"id":4551,"adult":false},{"id":207252,"adult":false},{"id":21635,"adult":false},{"id":65796,"adult":false},{"id":10740,"adult":false},{"id":259562,"adult":false},{"id":398,"adult":false},{"id":32634,"adult":false},{"id":10743,"adult":false},{"id":269699,"adult":false},{"id":21612,"adult":false},{"id":9959,"adult":false},{"id":5137,"adult":false},{"id":371070,"adult":false},{"id":293636,"adult":false},{"id":48161,"adult":false}],"page":23,"total_pages":97,"total_results":9613}