{"results":[{"id":195657,"adult":false},{"id":17483,"adult":false},{"id":363891,"adult":false},{"id":254472,"adult":false},{"id":37516,"adult":false},{"id":16642,"adult":false},{"id":56790,"adult":false},{"id":226766,"adult":false},{"id":8337,"adult":false},{"id":51691,"adult":false},{"id":315992,"adult":false},{"id":103164,"adult":false},{"id":233490,"adult":false},{"id":363892,"adult":false},{"id":45937,"adult":false},{"id":244197,"adult":false},{"id":98,"adult":false},{"id":11543,"adult":false},{"id":26790,"adult":false},{"id":5753,"adult":false},{"id":7992,"adult":false},{"id":315011,"adult":false},{"id":17640,"adult":false},{"id":184363,"adult":false},{"id":9502,"adult":false},{"id":363893,"adult":false},{"id":24987,"adult":false},{"id":162903,"adult":false},{"id":363894,"adult":false},{"id":156277,"adult":false},{"id":9399,"adult":false},{"id":36347,"adult":false},{"id":45176,"adult":false},{"id":43845,"adult":false},{"id":363895,"adult":false},{"id":82401,"adult":false},{"id":9606,"adult":false},{"id":363896,"adult":false},{"id":214217,"adult":false},{"id":77930,"adult":false},{"id":115225,"adult":false},{"id":290999,"adult":false},{"id":92475,"adult":false},{"id":187412,"adult":false},{"id":338642,"adult":false},{"id":363897,"adult":false},{"id":354152,"adult":false},{"id":290456,"adult":false},{"id":4286,"adult":false},{"id":80987,"adult":false},{"id":154307,"adult":false},{"id":86666,"adult":false},{"id":115046,"adult":false},{"id":40723,"adult":false},{"id":19929,"adult":false},{"id":47425,"adult":false},{"id":61864,"adult":false},{"id":363898,"adult":false},{"id":33517,"adult":false},{"id":42536,"adult":false},{"id":2565,"adult":false},{"id":33206,"adult":false},{"id":2623,"adult":false},{"id":64724,"adult":false},{"id":15143,"adult":false},{"id":10878,"adult":false},{"id":43832,"adult":false},{"id":214081,"adult":false},{"id":9681,"adult":false},{"id":271155,"adult":false},{"id":10862,"adult":false},{"id":79,"adult":false},{"id":11454,"adult":false},{"id":3635,"adult":false},{"id":110843,"adult":false},{"id":28642,"adult":false},{"id":327087,"adult":false},{"id":133563,"adult":false},{"id":287619,"adult":false},{"id":97822,"adult":false},{"id":363899,"adult":true},{"id":25939,"adult":false},{"id":5767,"adult":false},{"id":34193,"adult":false},{"id":260567,"adult":false},{"id":24159,"adult":false},{"id":46466,"adult":false},{"id":74795,"adult":false},{"id":363900,"adult":false},{"id":262040,"adult":false},{"id":267110,"adult":false},{"id":363901,"adult":false},{"id":74790,"adult":false},{"id":64213,"adult":false},{"id":78359,"adult":false},{"id":363902,"adult":false},{"id":363903,"adult":false},{"id":20452,"adult":false},{"id":84806,"adult":false},{"id":8850,"adult":false}],"page":107,"total_pages":108,"total_results":10774}