{"results":[{"id":271724,"adult":false},{"id":15990,"adult":false},{"id":135652,"adult":false},{"id":36072,"adult":false},{"id":185824,"adult":false},{"id":185819,"adult":false},{"id":305085,"adult":false},{"id":274008,"adult":false},{"id":315545,"adult":false},{"id":190972,"adult":false},{"id":238619,"adult":false},{"id":646,"adult":false},{"id":657,"adult":false},{"id":315547,"adult":false},{"id":147683,"adult":false},{"id":315548,"adult":false},{"id":40330,"adult":false},{"id":55424,"adult":false},{"id":165420,"adult":false},{"id":58224,"adult":false},{"id":157841,"adult":false},{"id":100269,"adult":false},{"id":315549,"adult":false},{"id":285315,"adult":null},{"id":285316,"adult":null},{"id":285111,"adult":null},{"id":314814,"adult":false},{"id":604,"adult":false},{"id":315550,"adult":false},{"id":315551,"adult":false},{"id":81267,"adult":false},{"id":315552,"adult":false},{"id":146249,"adult":false},{"id":220933,"adult":false},{"id":21733,"adult":false},{"id":306273,"adult":false},{"id":315553,"adult":false},{"id":290864,"adult":false},{"id":150402,"adult":false},{"id":52083,"adult":false},{"id":54486,"adult":false},{"id":109841,"adult":false},{"id":87235,"adult":false},{"id":315555,"adult":false},{"id":11205,"adult":false},{"id":34943,"adult":false},{"id":315556,"adult":false},{"id":315557,"adult":false},{"id":12528,"adult":false},{"id":11051,"adult":false},{"id":34996,"adult":false},{"id":295791,"adult":false},{"id":264125,"adult":false},{"id":289124,"adult":false},{"id":154753,"adult":false},{"id":315558,"adult":false},{"id":102631,"adult":false},{"id":301313,"adult":null},{"id":47450,"adult":false},{"id":38121,"adult":false},{"id":288497,"adult":null},{"id":315559,"adult":false},{"id":174171,"adult":false},{"id":158962,"adult":false},{"id":209764,"adult":false},{"id":28270,"adult":false},{"id":34069,"adult":false},{"id":284122,"adult":false},{"id":94525,"adult":false},{"id":244268,"adult":false},{"id":126503,"adult":false},{"id":315560,"adult":false},{"id":65086,"adult":false},{"id":315561,"adult":false},{"id":205048,"adult":false},{"id":315562,"adult":false},{"id":315563,"adult":false},{"id":64682,"adult":false},{"id":315564,"adult":false},{"id":38757,"adult":false},{"id":174909,"adult":false},{"id":88794,"adult":false},{"id":27500,"adult":false},{"id":27205,"adult":false},{"id":640,"adult":false},{"id":7340,"adult":false},{"id":3131,"adult":false},{"id":188406,"adult":false},{"id":46145,"adult":false},{"id":307054,"adult":null},{"id":254681,"adult":false},{"id":75172,"adult":false},{"id":133805,"adult":false},{"id":227735,"adult":false},{"id":72898,"adult":false},{"id":315565,"adult":false},{"id":50318,"adult":false},{"id":100834,"adult":false},{"id":135397,"adult":false},{"id":78096,"adult":false}],"page":29,"total_pages":115,"total_results":11442}