{"results":[{"id":368675,"adult":false},{"id":290594,"adult":false},{"id":368676,"adult":false},{"id":283689,"adult":false},{"id":367276,"adult":false},{"id":367233,"adult":false},{"id":292355,"adult":false},{"id":3015,"adult":false},{"id":367242,"adult":false},{"id":208467,"adult":false},{"id":10189,"adult":false},{"id":367259,"adult":false},{"id":67276,"adult":false},{"id":332748,"adult":false},{"id":297584,"adult":false},{"id":65989,"adult":false},{"id":368677,"adult":false},{"id":315360,"adult":false},{"id":367279,"adult":false},{"id":63183,"adult":false},{"id":259903,"adult":false},{"id":204342,"adult":false},{"id":98333,"adult":false},{"id":368678,"adult":false},{"id":597,"adult":false},{"id":174077,"adult":false},{"id":236261,"adult":false},{"id":6003,"adult":false},{"id":368679,"adult":false},{"id":37165,"adult":false},{"id":215028,"adult":false},{"id":367569,"adult":null},{"id":157843,"adult":false},{"id":300153,"adult":false},{"id":38,"adult":false},{"id":13,"adult":false},{"id":157845,"adult":false},{"id":55101,"adult":false},{"id":365829,"adult":false},{"id":431,"adult":false},{"id":261590,"adult":false},{"id":135509,"adult":false},{"id":29167,"adult":false},{"id":10998,"adult":false},{"id":75355,"adult":true},{"id":30128,"adult":false},{"id":81867,"adult":false},{"id":220289,"adult":false},{"id":332502,"adult":false},{"id":368680,"adult":false},{"id":169845,"adult":false},{"id":131473,"adult":false},{"id":368681,"adult":false},{"id":291172,"adult":false},{"id":368682,"adult":false},{"id":10733,"adult":false},{"id":9341,"adult":false},{"id":368683,"adult":false},{"id":96114,"adult":false},{"id":309770,"adult":false},{"id":47561,"adult":false},{"id":121282,"adult":false},{"id":35432,"adult":false},{"id":82377,"adult":false},{"id":368684,"adult":false},{"id":319056,"adult":false},{"id":368685,"adult":false},{"id":50454,"adult":false},{"id":355176,"adult":false},{"id":36494,"adult":false},{"id":353313,"adult":null},{"id":330860,"adult":false},{"id":65288,"adult":false},{"id":329134,"adult":false},{"id":10478,"adult":false},{"id":10657,"adult":false},{"id":368686,"adult":false},{"id":368687,"adult":false},{"id":330262,"adult":false},{"id":31924,"adult":false},{"id":313445,"adult":false},{"id":314218,"adult":false},{"id":278259,"adult":false},{"id":275300,"adult":false},{"id":142329,"adult":false},{"id":361663,"adult":false},{"id":238615,"adult":false},{"id":277685,"adult":false},{"id":358721,"adult":false},{"id":23710,"adult":false},{"id":297518,"adult":false},{"id":142638,"adult":false},{"id":330577,"adult":false},{"id":368688,"adult":false},{"id":330073,"adult":false},{"id":6068,"adult":false},{"id":28385,"adult":false},{"id":282647,"adult":false},{"id":286722,"adult":false},{"id":226327,"adult":false}],"page":3,"total_pages":101,"total_results":10039}