{"results":[{"id":10753,"adult":false},{"id":12429,"adult":false},{"id":13150,"adult":false},{"id":55958,"adult":false},{"id":11322,"adult":false},{"id":85157,"adult":false},{"id":680,"adult":false},{"id":316422,"adult":false},{"id":8428,"adult":false},{"id":316423,"adult":false},{"id":13455,"adult":false},{"id":58423,"adult":null},{"id":316424,"adult":false},{"id":13836,"adult":false},{"id":16860,"adult":false},{"id":1368,"adult":false},{"id":316425,"adult":false},{"id":1370,"adult":false},{"id":39254,"adult":false},{"id":12289,"adult":false},{"id":15384,"adult":false},{"id":71883,"adult":false},{"id":10637,"adult":false},{"id":9389,"adult":false},{"id":500,"adult":false},{"id":10851,"adult":false},{"id":172385,"adult":false},{"id":13054,"adult":false},{"id":11780,"adult":false},{"id":20662,"adult":false},{"id":97020,"adult":false},{"id":122708,"adult":false},{"id":13809,"adult":false},{"id":9326,"adult":false},{"id":256106,"adult":false},{"id":252713,"adult":false},{"id":142773,"adult":false},{"id":118913,"adult":false},{"id":2085,"adult":false},{"id":309289,"adult":false},{"id":92048,"adult":null},{"id":10412,"adult":false},{"id":117646,"adult":false},{"id":92054,"adult":null},{"id":8195,"adult":false},{"id":44774,"adult":false},{"id":92058,"adult":null},{"id":10220,"adult":false},{"id":69310,"adult":false},{"id":216191,"adult":false},{"id":132279,"adult":false},{"id":75007,"adult":false},{"id":9257,"adult":false},{"id":49259,"adult":false},{"id":149949,"adult":false},{"id":54445,"adult":false},{"id":7364,"adult":false},{"id":285682,"adult":false},{"id":1584,"adult":false},{"id":807,"adult":false},{"id":76025,"adult":false},{"id":4141,"adult":false},{"id":10192,"adult":false},{"id":34772,"adult":false},{"id":5137,"adult":false},{"id":7516,"adult":false},{"id":29564,"adult":false},{"id":12101,"adult":false},{"id":61984,"adult":false},{"id":10336,"adult":false},{"id":163070,"adult":false},{"id":16767,"adult":false},{"id":199,"adult":false},{"id":193,"adult":false},{"id":154,"adult":false},{"id":157,"adult":false},{"id":200,"adult":false},{"id":168,"adult":false},{"id":104396,"adult":false},{"id":201,"adult":false},{"id":316426,"adult":false},{"id":172,"adult":false},{"id":269453,"adult":false},{"id":1893,"adult":false},{"id":269571,"adult":false},{"id":1894,"adult":false},{"id":1891,"adult":false},{"id":1892,"adult":false},{"id":316427,"adult":false},{"id":2270,"adult":false},{"id":10304,"adult":false},{"id":11127,"adult":false},{"id":8953,"adult":false},{"id":44667,"adult":false},{"id":28874,"adult":false},{"id":9705,"adult":false},{"id":231,"adult":false},{"id":22907,"adult":false},{"id":9067,"adult":false},{"id":3989,"adult":false}],"page":70,"total_pages":115,"total_results":11442}