{"results":[{"id":321860,"adult":false},{"id":326038,"adult":false},{"id":475,"adult":false},{"id":11397,"adult":false},{"id":52120,"adult":false},{"id":29976,"adult":false},{"id":51216,"adult":false},{"id":18282,"adult":false},{"id":72442,"adult":false},{"id":159230,"adult":false},{"id":16175,"adult":false},{"id":91083,"adult":false},{"id":320458,"adult":false},{"id":19908,"adult":false},{"id":334191,"adult":false},{"id":8976,"adult":false},{"id":334192,"adult":false},{"id":300530,"adult":false},{"id":6537,"adult":false},{"id":2069,"adult":false},{"id":258184,"adult":false},{"id":334193,"adult":false},{"id":15004,"adult":false},{"id":39168,"adult":false},{"id":33794,"adult":false},{"id":28319,"adult":false},{"id":334194,"adult":null},{"id":19119,"adult":false},{"id":253357,"adult":null},{"id":314351,"adult":false},{"id":31713,"adult":false},{"id":328716,"adult":false},{"id":11317,"adult":false},{"id":24963,"adult":false},{"id":161932,"adult":false},{"id":47942,"adult":false},{"id":289443,"adult":false},{"id":20367,"adult":false},{"id":322715,"adult":false},{"id":1537,"adult":false},{"id":334195,"adult":false},{"id":307201,"adult":false},{"id":316053,"adult":false},{"id":242828,"adult":false},{"id":68450,"adult":false},{"id":1365,"adult":false},{"id":236735,"adult":false},{"id":334196,"adult":false},{"id":62143,"adult":false},{"id":56272,"adult":false},{"id":2755,"adult":false},{"id":14396,"adult":false},{"id":13526,"adult":false},{"id":16,"adult":false},{"id":250388,"adult":false},{"id":188776,"adult":false},{"id":157849,"adult":false},{"id":334197,"adult":false},{"id":103597,"adult":false},{"id":10743,"adult":false},{"id":72204,"adult":false},{"id":102236,"adult":null},{"id":334198,"adult":false},{"id":334199,"adult":false},{"id":74273,"adult":false},{"id":20508,"adult":false},{"id":334200,"adult":false},{"id":24266,"adult":false},{"id":334201,"adult":false},{"id":334202,"adult":false},{"id":334203,"adult":false},{"id":334204,"adult":false},{"id":334205,"adult":false},{"id":72914,"adult":false},{"id":58547,"adult":false},{"id":13158,"adult":false},{"id":10603,"adult":false},{"id":21793,"adult":false},{"id":46708,"adult":false},{"id":14239,"adult":false},{"id":185441,"adult":null},{"id":315560,"adult":false},{"id":33539,"adult":false},{"id":276902,"adult":false},{"id":15139,"adult":false},{"id":26264,"adult":false},{"id":24662,"adult":false},{"id":334206,"adult":false},{"id":138706,"adult":false},{"id":334207,"adult":false},{"id":334208,"adult":false},{"id":334209,"adult":false},{"id":28552,"adult":true},{"id":184663,"adult":false},{"id":9994,"adult":false},{"id":10144,"adult":false},{"id":44283,"adult":false},{"id":8587,"adult":false},{"id":135483,"adult":false},{"id":18937,"adult":false}],"page":31,"total_pages":100,"total_results":9923}