{"results":[{"id":313368,"adult":null},{"id":240905,"adult":false},{"id":52685,"adult":false},{"id":173980,"adult":false},{"id":315217,"adult":true},{"id":101299,"adult":false},{"id":289603,"adult":false},{"id":36234,"adult":false},{"id":315218,"adult":false},{"id":315219,"adult":true},{"id":8010,"adult":false},{"id":242361,"adult":false},{"id":8011,"adult":false},{"id":69781,"adult":false},{"id":28161,"adult":false},{"id":315220,"adult":null},{"id":315221,"adult":false},{"id":280004,"adult":false},{"id":263471,"adult":false},{"id":860,"adult":false},{"id":4645,"adult":false},{"id":300983,"adult":false},{"id":314910,"adult":true},{"id":198289,"adult":false},{"id":315226,"adult":false},{"id":315227,"adult":false},{"id":25149,"adult":false},{"id":315228,"adult":false},{"id":32122,"adult":false},{"id":315229,"adult":false},{"id":18533,"adult":false},{"id":96696,"adult":false},{"id":315230,"adult":true},{"id":189457,"adult":false},{"id":152603,"adult":false},{"id":76757,"adult":false},{"id":7454,"adult":false},{"id":207703,"adult":false},{"id":272693,"adult":false},{"id":293382,"adult":false},{"id":315231,"adult":true},{"id":315232,"adult":false},{"id":15489,"adult":false},{"id":150689,"adult":false},{"id":20107,"adult":false},{"id":81591,"adult":false},{"id":205775,"adult":false},{"id":262500,"adult":false},{"id":66667,"adult":false},{"id":315233,"adult":false},{"id":141331,"adult":false},{"id":315234,"adult":true},{"id":10900,"adult":false},{"id":315235,"adult":false},{"id":74491,"adult":false},{"id":60438,"adult":false},{"id":315236,"adult":false},{"id":315237,"adult":false},{"id":315238,"adult":false},{"id":30618,"adult":false},{"id":90248,"adult":true},{"id":755,"adult":false},{"id":315239,"adult":false},{"id":161674,"adult":false},{"id":532,"adult":false},{"id":315240,"adult":false},{"id":267462,"adult":false},{"id":221667,"adult":false},{"id":262682,"adult":false},{"id":185359,"adult":false},{"id":51739,"adult":false},{"id":9845,"adult":false},{"id":12724,"adult":false},{"id":127533,"adult":false},{"id":315241,"adult":false},{"id":531,"adult":false},{"id":315242,"adult":false},{"id":315243,"adult":false},{"id":315244,"adult":false},{"id":315245,"adult":false},{"id":315246,"adult":false},{"id":186,"adult":false},{"id":13019,"adult":false},{"id":28311,"adult":false},{"id":315247,"adult":false},{"id":315248,"adult":false},{"id":279259,"adult":false},{"id":315249,"adult":false},{"id":23601,"adult":false},{"id":315250,"adult":false},{"id":135429,"adult":null},{"id":9509,"adult":false},{"id":154435,"adult":false},{"id":315251,"adult":false},{"id":315252,"adult":false},{"id":126973,"adult":false},{"id":53568,"adult":false},{"id":12762,"adult":false},{"id":31774,"adult":false},{"id":15846,"adult":false}],"page":12,"total_pages":115,"total_results":11442}