{"results":[{"id":69570,"adult":false},{"id":318979,"adult":false},{"id":356905,"adult":false},{"id":1597,"adult":false},{"id":3981,"adult":false},{"id":308150,"adult":false},{"id":257187,"adult":false},{"id":81694,"adult":false},{"id":271674,"adult":false},{"id":324865,"adult":null},{"id":113082,"adult":false},{"id":367611,"adult":false},{"id":45503,"adult":false},{"id":346401,"adult":false},{"id":18857,"adult":false},{"id":352057,"adult":false},{"id":42024,"adult":false},{"id":283235,"adult":false},{"id":365136,"adult":true},{"id":366088,"adult":true},{"id":365137,"adult":true},{"id":322148,"adult":false},{"id":343409,"adult":false},{"id":277725,"adult":false},{"id":25278,"adult":false},{"id":67633,"adult":false},{"id":27395,"adult":false},{"id":226437,"adult":false},{"id":39253,"adult":false},{"id":42139,"adult":false},{"id":44028,"adult":false},{"id":11378,"adult":false},{"id":79771,"adult":false},{"id":38372,"adult":false},{"id":70863,"adult":false},{"id":174097,"adult":false},{"id":53187,"adult":false},{"id":76726,"adult":false},{"id":78326,"adult":false},{"id":90949,"adult":false},{"id":367612,"adult":true},{"id":367613,"adult":false},{"id":30655,"adult":false},{"id":224,"adult":false},{"id":241211,"adult":false},{"id":13647,"adult":false},{"id":36142,"adult":false},{"id":41377,"adult":false},{"id":100661,"adult":false},{"id":167179,"adult":false},{"id":118065,"adult":false},{"id":367614,"adult":false},{"id":199604,"adult":false},{"id":48572,"adult":false},{"id":367615,"adult":false},{"id":30254,"adult":false},{"id":281455,"adult":false},{"id":74262,"adult":false},{"id":58655,"adult":false},{"id":32559,"adult":false},{"id":367616,"adult":false},{"id":133303,"adult":null},{"id":36377,"adult":false},{"id":42170,"adult":false},{"id":38941,"adult":false},{"id":79868,"adult":false},{"id":367617,"adult":false},{"id":367618,"adult":false},{"id":66788,"adult":false},{"id":36389,"adult":false},{"id":364453,"adult":false},{"id":23056,"adult":false},{"id":135161,"adult":false},{"id":329833,"adult":false},{"id":61046,"adult":false},{"id":242683,"adult":false},{"id":71595,"adult":false},{"id":1405,"adult":false},{"id":7984,"adult":false},{"id":35227,"adult":false},{"id":42638,"adult":false},{"id":95503,"adult":false},{"id":361617,"adult":false},{"id":234944,"adult":false},{"id":270672,"adult":false},{"id":58492,"adult":false},{"id":264393,"adult":false},{"id":42537,"adult":false},{"id":35560,"adult":true},{"id":69995,"adult":false},{"id":367619,"adult":false},{"id":172408,"adult":true},{"id":70806,"adult":false},{"id":367620,"adult":false},{"id":71277,"adult":false},{"id":341738,"adult":true},{"id":150161,"adult":false},{"id":11814,"adult":false},{"id":163710,"adult":false},{"id":367621,"adult":false}],"page":80,"total_pages":108,"total_results":10787}