{"results":[{"id":335979,"adult":true},{"id":335980,"adult":false},{"id":24424,"adult":false},{"id":39536,"adult":false},{"id":335981,"adult":true},{"id":335982,"adult":true},{"id":335983,"adult":false},{"id":208277,"adult":false},{"id":51008,"adult":true},{"id":335984,"adult":false},{"id":335985,"adult":false},{"id":51009,"adult":true},{"id":36812,"adult":false},{"id":25154,"adult":false},{"id":135675,"adult":false},{"id":137769,"adult":false},{"id":335986,"adult":true},{"id":283686,"adult":false},{"id":66075,"adult":false},{"id":167683,"adult":false},{"id":75736,"adult":false},{"id":168259,"adult":false},{"id":145481,"adult":false},{"id":243940,"adult":false},{"id":171274,"adult":false},{"id":228161,"adult":false},{"id":335987,"adult":true},{"id":192145,"adult":false},{"id":261203,"adult":false},{"id":120303,"adult":false},{"id":335988,"adult":false},{"id":335989,"adult":false},{"id":335990,"adult":null},{"id":335991,"adult":false},{"id":335992,"adult":true},{"id":83841,"adult":true},{"id":335993,"adult":false},{"id":218050,"adult":true},{"id":335994,"adult":null},{"id":290542,"adult":false},{"id":335995,"adult":false},{"id":335996,"adult":true},{"id":335997,"adult":false},{"id":335998,"adult":true},{"id":335999,"adult":null},{"id":336000,"adult":false},{"id":320412,"adult":false},{"id":900,"adult":false},{"id":336001,"adult":null},{"id":336002,"adult":false},{"id":336003,"adult":true},{"id":336004,"adult":false},{"id":134794,"adult":false},{"id":336005,"adult":false},{"id":240130,"adult":true},{"id":117257,"adult":true},{"id":296503,"adult":false},{"id":336006,"adult":true},{"id":336007,"adult":false},{"id":53327,"adult":null},{"id":336008,"adult":null},{"id":154200,"adult":false},{"id":323671,"adult":null},{"id":336009,"adult":false},{"id":58832,"adult":false},{"id":336010,"adult":false},{"id":25214,"adult":false},{"id":39139,"adult":false},{"id":215211,"adult":false},{"id":200727,"adult":false},{"id":256961,"adult":false},{"id":125915,"adult":false},{"id":270434,"adult":false},{"id":336011,"adult":false},{"id":67216,"adult":false},{"id":296097,"adult":null},{"id":189572,"adult":false},{"id":336012,"adult":true},{"id":148884,"adult":false},{"id":336013,"adult":false},{"id":266294,"adult":false},{"id":306819,"adult":false},{"id":336014,"adult":false},{"id":261023,"adult":false},{"id":127517,"adult":false},{"id":253412,"adult":false},{"id":272160,"adult":false},{"id":146198,"adult":false},{"id":27786,"adult":false},{"id":336015,"adult":false},{"id":56772,"adult":false},{"id":336016,"adult":false},{"id":65542,"adult":false},{"id":251201,"adult":false},{"id":25093,"adult":false},{"id":51399,"adult":false},{"id":43089,"adult":false},{"id":27183,"adult":false},{"id":62944,"adult":false},{"id":64262,"adult":false}],"page":10,"total_pages":102,"total_results":10168}