{"results":[{"id":197273,"adult":false},{"id":346961,"adult":false},{"id":16859,"adult":false},{"id":204344,"adult":false},{"id":59678,"adult":false},{"id":346962,"adult":false},{"id":338520,"adult":false},{"id":263281,"adult":false},{"id":202382,"adult":false},{"id":346963,"adult":false},{"id":346964,"adult":false},{"id":87101,"adult":false},{"id":43947,"adult":false},{"id":207768,"adult":false},{"id":171502,"adult":false},{"id":346965,"adult":false},{"id":346796,"adult":false},{"id":104206,"adult":false},{"id":243688,"adult":false},{"id":223485,"adult":false},{"id":18627,"adult":false},{"id":39410,"adult":false},{"id":332940,"adult":false},{"id":302401,"adult":false},{"id":346966,"adult":false},{"id":159824,"adult":false},{"id":346967,"adult":false},{"id":247146,"adult":false},{"id":346968,"adult":false},{"id":346969,"adult":false},{"id":268973,"adult":false},{"id":346970,"adult":false},{"id":346971,"adult":false},{"id":346972,"adult":false},{"id":346973,"adult":false},{"id":66461,"adult":false},{"id":35807,"adult":false},{"id":10076,"adult":false},{"id":11051,"adult":false},{"id":346974,"adult":null},{"id":346975,"adult":false},{"id":343735,"adult":false},{"id":346976,"adult":false},{"id":346977,"adult":false},{"id":346978,"adult":false},{"id":346979,"adult":false},{"id":346980,"adult":false},{"id":9340,"adult":false},{"id":346981,"adult":false},{"id":346982,"adult":false},{"id":197242,"adult":false},{"id":145961,"adult":false},{"id":293329,"adult":false},{"id":134439,"adult":false},{"id":346983,"adult":false},{"id":346984,"adult":false},{"id":346985,"adult":false},{"id":346986,"adult":false},{"id":346987,"adult":false},{"id":346988,"adult":false},{"id":8844,"adult":false},{"id":86065,"adult":false},{"id":217083,"adult":false},{"id":122885,"adult":false},{"id":98578,"adult":false},{"id":74387,"adult":false},{"id":241622,"adult":false},{"id":97880,"adult":false},{"id":344295,"adult":false},{"id":346989,"adult":false},{"id":11161,"adult":false},{"id":316408,"adult":false},{"id":534,"adult":false},{"id":285023,"adult":false},{"id":346990,"adult":false},{"id":343934,"adult":false},{"id":3101,"adult":false},{"id":346991,"adult":false},{"id":207992,"adult":false},{"id":13223,"adult":false},{"id":346992,"adult":false},{"id":346993,"adult":false},{"id":339989,"adult":false},{"id":346994,"adult":false},{"id":47957,"adult":false},{"id":346547,"adult":false},{"id":135945,"adult":false},{"id":346995,"adult":false},{"id":770,"adult":false},{"id":346996,"adult":false},{"id":272139,"adult":false},{"id":346960,"adult":false},{"id":173797,"adult":false},{"id":269,"adult":false},{"id":314649,"adult":false},{"id":346997,"adult":false},{"id":111125,"adult":false},{"id":270350,"adult":false},{"id":347000,"adult":false},{"id":72849,"adult":false}],"page":1,"total_pages":86,"total_results":8586}