{"results":[{"id":319152,"adult":false},{"id":360756,"adult":null},{"id":39064,"adult":false},{"id":360758,"adult":false},{"id":82992,"adult":false},{"id":257093,"adult":false},{"id":341045,"adult":false},{"id":360759,"adult":false},{"id":341044,"adult":false},{"id":341043,"adult":false},{"id":341094,"adult":false},{"id":286239,"adult":false},{"id":300955,"adult":false},{"id":341039,"adult":false},{"id":360760,"adult":false},{"id":206197,"adult":false},{"id":360761,"adult":false},{"id":39061,"adult":false},{"id":360762,"adult":false},{"id":257193,"adult":false},{"id":22421,"adult":false},{"id":311146,"adult":false},{"id":238277,"adult":false},{"id":306031,"adult":false},{"id":360763,"adult":false},{"id":247414,"adult":false},{"id":213927,"adult":false},{"id":360764,"adult":false},{"id":17000,"adult":false},{"id":2841,"adult":false},{"id":174341,"adult":false},{"id":297326,"adult":false},{"id":360765,"adult":false},{"id":297327,"adult":false},{"id":360766,"adult":false},{"id":277654,"adult":false},{"id":290252,"adult":false},{"id":360767,"adult":false},{"id":360768,"adult":false},{"id":146526,"adult":false},{"id":285024,"adult":false},{"id":360769,"adult":false},{"id":156022,"adult":false},{"id":360770,"adult":false},{"id":172785,"adult":false},{"id":168724,"adult":false},{"id":13515,"adult":false},{"id":14087,"adult":false},{"id":359438,"adult":false},{"id":360771,"adult":false},{"id":15794,"adult":false},{"id":360772,"adult":false},{"id":3111,"adult":false},{"id":13396,"adult":false},{"id":346565,"adult":false},{"id":23168,"adult":false},{"id":360773,"adult":false},{"id":16458,"adult":false},{"id":11568,"adult":false},{"id":27957,"adult":false},{"id":186023,"adult":false},{"id":360774,"adult":false},{"id":360775,"adult":false},{"id":32555,"adult":false},{"id":8194,"adult":false},{"id":239241,"adult":false},{"id":360776,"adult":false},{"id":360777,"adult":false},{"id":257189,"adult":false},{"id":51707,"adult":false},{"id":360778,"adult":false},{"id":360779,"adult":false},{"id":360780,"adult":false},{"id":322211,"adult":false},{"id":138254,"adult":false},{"id":349176,"adult":false},{"id":360781,"adult":false},{"id":64259,"adult":false},{"id":128715,"adult":false},{"id":253240,"adult":false},{"id":360782,"adult":false},{"id":346680,"adult":false},{"id":40517,"adult":false},{"id":14206,"adult":false},{"id":25020,"adult":false},{"id":295128,"adult":false},{"id":301914,"adult":false},{"id":325901,"adult":false},{"id":127962,"adult":false},{"id":355245,"adult":false},{"id":335393,"adult":false},{"id":339570,"adult":false},{"id":304410,"adult":false},{"id":55539,"adult":false},{"id":173083,"adult":false},{"id":289201,"adult":false},{"id":326928,"adult":false},{"id":203101,"adult":false},{"id":360783,"adult":false},{"id":226458,"adult":false}],"page":50,"total_pages":98,"total_results":9775}