{"results":[{"id":118148,"adult":false},{"id":301825,"adult":false},{"id":15339,"adult":false},{"id":124173,"adult":false},{"id":317319,"adult":false},{"id":316717,"adult":false},{"id":317318,"adult":false},{"id":135904,"adult":false},{"id":120627,"adult":false},{"id":135903,"adult":false},{"id":187318,"adult":false},{"id":305002,"adult":false},{"id":305708,"adult":false},{"id":213781,"adult":null},{"id":204965,"adult":false},{"id":135899,"adult":false},{"id":145998,"adult":false},{"id":344268,"adult":false},{"id":133519,"adult":false},{"id":62071,"adult":false},{"id":15264,"adult":false},{"id":233806,"adult":false},{"id":354972,"adult":false},{"id":354973,"adult":false},{"id":354974,"adult":false},{"id":128411,"adult":false},{"id":128241,"adult":false},{"id":354977,"adult":false},{"id":313642,"adult":false},{"id":68097,"adult":false},{"id":178221,"adult":false},{"id":354978,"adult":false},{"id":163221,"adult":false},{"id":209180,"adult":null},{"id":324343,"adult":false},{"id":154733,"adult":true},{"id":114975,"adult":false},{"id":325938,"adult":false},{"id":354979,"adult":false},{"id":149232,"adult":false},{"id":1398,"adult":false},{"id":167618,"adult":false},{"id":125097,"adult":false},{"id":6948,"adult":false},{"id":354980,"adult":false},{"id":346401,"adult":false},{"id":462,"adult":false},{"id":141997,"adult":false},{"id":39385,"adult":false},{"id":305044,"adult":false},{"id":354981,"adult":false},{"id":354982,"adult":false},{"id":354983,"adult":false},{"id":10796,"adult":false},{"id":354984,"adult":false},{"id":10234,"adult":false},{"id":228614,"adult":false},{"id":289206,"adult":false},{"id":293614,"adult":false},{"id":354985,"adult":false},{"id":5001,"adult":false},{"id":2566,"adult":false},{"id":115166,"adult":false},{"id":13481,"adult":false},{"id":813,"adult":false},{"id":335051,"adult":false},{"id":352988,"adult":false},{"id":36896,"adult":false},{"id":354986,"adult":false},{"id":4369,"adult":false},{"id":128154,"adult":false},{"id":68742,"adult":false},{"id":350579,"adult":false},{"id":50927,"adult":false},{"id":34088,"adult":false},{"id":48903,"adult":false},{"id":79087,"adult":false},{"id":1791,"adult":false},{"id":354987,"adult":false},{"id":11703,"adult":false},{"id":190218,"adult":false},{"id":36869,"adult":false},{"id":12480,"adult":false},{"id":354988,"adult":false},{"id":297348,"adult":false},{"id":64131,"adult":false},{"id":225873,"adult":false},{"id":4927,"adult":false},{"id":10533,"adult":false},{"id":9261,"adult":false},{"id":65831,"adult":false},{"id":353257,"adult":false},{"id":153518,"adult":false},{"id":145561,"adult":false},{"id":354989,"adult":false},{"id":180808,"adult":false},{"id":227436,"adult":false},{"id":47714,"adult":false},{"id":297167,"adult":false},{"id":92679,"adult":false}],"page":23,"total_pages":100,"total_results":9908}