{"results":[{"id":328176,"adult":false},{"id":59101,"adult":false},{"id":43093,"adult":false},{"id":60938,"adult":false},{"id":9930,"adult":false},{"id":24130,"adult":false},{"id":65777,"adult":false},{"id":264581,"adult":false},{"id":284942,"adult":false},{"id":6155,"adult":false},{"id":300892,"adult":false},{"id":4557,"adult":false},{"id":152038,"adult":false},{"id":43801,"adult":false},{"id":293353,"adult":false},{"id":328177,"adult":false},{"id":62725,"adult":false},{"id":114333,"adult":false},{"id":131292,"adult":false},{"id":64407,"adult":false},{"id":112355,"adult":false},{"id":39008,"adult":false},{"id":221518,"adult":false},{"id":29094,"adult":false},{"id":94917,"adult":false},{"id":321340,"adult":false},{"id":42731,"adult":false},{"id":52561,"adult":false},{"id":89862,"adult":false},{"id":117441,"adult":false},{"id":328178,"adult":false},{"id":328179,"adult":false},{"id":226282,"adult":false},{"id":11053,"adult":false},{"id":52238,"adult":false},{"id":240566,"adult":false},{"id":265195,"adult":false},{"id":42530,"adult":false},{"id":328180,"adult":false},{"id":217000,"adult":false},{"id":209595,"adult":false},{"id":111750,"adult":false},{"id":328181,"adult":false},{"id":328182,"adult":false},{"id":328183,"adult":false},{"id":66920,"adult":false},{"id":301054,"adult":false},{"id":328184,"adult":false},{"id":294991,"adult":false},{"id":50758,"adult":false},{"id":81342,"adult":false},{"id":10741,"adult":false},{"id":311324,"adult":false},{"id":161822,"adult":false},{"id":10269,"adult":false},{"id":52914,"adult":false},{"id":27759,"adult":false},{"id":277701,"adult":false},{"id":82693,"adult":false},{"id":105398,"adult":false},{"id":328185,"adult":false},{"id":185908,"adult":null},{"id":299135,"adult":false},{"id":65709,"adult":false},{"id":177918,"adult":false},{"id":10866,"adult":false},{"id":37834,"adult":false},{"id":166378,"adult":false},{"id":99559,"adult":null},{"id":99555,"adult":false},{"id":121628,"adult":false},{"id":48871,"adult":false},{"id":248487,"adult":false},{"id":298653,"adult":false},{"id":237614,"adult":false},{"id":99549,"adult":false},{"id":99541,"adult":false},{"id":16763,"adult":false},{"id":328186,"adult":false},{"id":328187,"adult":false},{"id":87,"adult":false},{"id":21714,"adult":false},{"id":131635,"adult":false},{"id":99540,"adult":null},{"id":92264,"adult":false},{"id":75612,"adult":false},{"id":52628,"adult":false},{"id":328188,"adult":false},{"id":128131,"adult":false},{"id":74018,"adult":false},{"id":328189,"adult":false},{"id":255533,"adult":false},{"id":12263,"adult":false},{"id":328190,"adult":false},{"id":327713,"adult":null},{"id":328191,"adult":null},{"id":33644,"adult":false},{"id":195020,"adult":false},{"id":136478,"adult":false},{"id":328192,"adult":false}],"page":13,"total_pages":123,"total_results":12300}