{"results":[{"id":332828,"adult":null},{"id":332829,"adult":false},{"id":12238,"adult":false},{"id":332830,"adult":false},{"id":36797,"adult":false},{"id":17100,"adult":false},{"id":10280,"adult":false},{"id":332831,"adult":false},{"id":332832,"adult":false},{"id":68184,"adult":false},{"id":226188,"adult":false},{"id":332833,"adult":false},{"id":253626,"adult":false},{"id":65945,"adult":false},{"id":9085,"adult":false},{"id":332834,"adult":false},{"id":332835,"adult":false},{"id":138614,"adult":false},{"id":121818,"adult":false},{"id":150202,"adult":false},{"id":3055,"adult":false},{"id":58939,"adult":false},{"id":42688,"adult":false},{"id":13950,"adult":false},{"id":315653,"adult":false},{"id":98499,"adult":false},{"id":315,"adult":false},{"id":332836,"adult":null},{"id":212520,"adult":false},{"id":692,"adult":false},{"id":69321,"adult":false},{"id":56157,"adult":false},{"id":90537,"adult":false},{"id":283297,"adult":null},{"id":37833,"adult":false},{"id":86518,"adult":false},{"id":77403,"adult":false},{"id":59927,"adult":false},{"id":13282,"adult":false},{"id":332837,"adult":false},{"id":86664,"adult":false},{"id":25155,"adult":false},{"id":49069,"adult":false},{"id":177496,"adult":false},{"id":46498,"adult":false},{"id":42870,"adult":false},{"id":277414,"adult":false},{"id":12100,"adult":false},{"id":56168,"adult":false},{"id":22642,"adult":false},{"id":7091,"adult":false},{"id":283707,"adult":false},{"id":328251,"adult":false},{"id":332838,"adult":false},{"id":42658,"adult":false},{"id":245454,"adult":false},{"id":287011,"adult":false},{"id":268725,"adult":false},{"id":332839,"adult":false},{"id":332840,"adult":false},{"id":265342,"adult":false},{"id":332841,"adult":false},{"id":96989,"adult":false},{"id":9445,"adult":false},{"id":332842,"adult":false},{"id":332843,"adult":false},{"id":332844,"adult":false},{"id":12138,"adult":false},{"id":332845,"adult":false},{"id":9021,"adult":false},{"id":332846,"adult":false},{"id":300263,"adult":false},{"id":497,"adult":false},{"id":28806,"adult":false},{"id":332847,"adult":false},{"id":253301,"adult":false},{"id":332848,"adult":false},{"id":332849,"adult":false},{"id":11313,"adult":false},{"id":5621,"adult":false},{"id":193462,"adult":false},{"id":332850,"adult":false},{"id":332851,"adult":false},{"id":332852,"adult":false},{"id":332853,"adult":false},{"id":332854,"adult":false},{"id":332855,"adult":false},{"id":111329,"adult":false},{"id":332856,"adult":false},{"id":10084,"adult":false},{"id":74394,"adult":false},{"id":90484,"adult":false},{"id":110556,"adult":false},{"id":152207,"adult":false},{"id":34314,"adult":false},{"id":96680,"adult":false},{"id":1493,"adult":false},{"id":10040,"adult":false},{"id":57862,"adult":false},{"id":295401,"adult":false}],"page":121,"total_pages":129,"total_results":12871}