{"results":[{"id":77878,"adult":false},{"id":79956,"adult":false},{"id":367401,"adult":false},{"id":362069,"adult":false},{"id":45269,"adult":false},{"id":39781,"adult":false},{"id":310713,"adult":false},{"id":4959,"adult":false},{"id":367402,"adult":false},{"id":277464,"adult":false},{"id":316436,"adult":false},{"id":367403,"adult":false},{"id":283827,"adult":false},{"id":9008,"adult":false},{"id":367404,"adult":false},{"id":25598,"adult":false},{"id":337502,"adult":false},{"id":10316,"adult":false},{"id":2259,"adult":false},{"id":340653,"adult":false},{"id":367405,"adult":false},{"id":365358,"adult":false},{"id":39560,"adult":false},{"id":345324,"adult":false},{"id":367406,"adult":false},{"id":323260,"adult":false},{"id":367407,"adult":false},{"id":367408,"adult":false},{"id":290055,"adult":false},{"id":292279,"adult":false},{"id":111632,"adult":false},{"id":14090,"adult":false},{"id":81169,"adult":false},{"id":367409,"adult":false},{"id":329365,"adult":false},{"id":367410,"adult":false},{"id":297923,"adult":false},{"id":367411,"adult":false},{"id":19075,"adult":false},{"id":41805,"adult":false},{"id":13960,"adult":false},{"id":22657,"adult":false},{"id":367412,"adult":false},{"id":103165,"adult":false},{"id":190084,"adult":false},{"id":254002,"adult":false},{"id":367413,"adult":false},{"id":357974,"adult":false},{"id":65580,"adult":false},{"id":274758,"adult":false},{"id":192415,"adult":false},{"id":18405,"adult":false},{"id":63447,"adult":false},{"id":99283,"adult":false},{"id":48138,"adult":false},{"id":111969,"adult":false},{"id":367414,"adult":false},{"id":358760,"adult":false},{"id":328039,"adult":false},{"id":212673,"adult":false},{"id":42836,"adult":false},{"id":356578,"adult":false},{"id":32194,"adult":false},{"id":362343,"adult":false},{"id":138697,"adult":false},{"id":22538,"adult":false},{"id":339934,"adult":false},{"id":367415,"adult":false},{"id":354803,"adult":false},{"id":86654,"adult":true},{"id":367416,"adult":false},{"id":335796,"adult":false},{"id":367417,"adult":false},{"id":825,"adult":false},{"id":309063,"adult":false},{"id":9903,"adult":false},{"id":56369,"adult":false},{"id":335333,"adult":false},{"id":18884,"adult":false},{"id":309245,"adult":false},{"id":211528,"adult":false},{"id":304640,"adult":false},{"id":215814,"adult":false},{"id":315545,"adult":false},{"id":278154,"adult":false},{"id":2359,"adult":false},{"id":1777,"adult":false},{"id":15192,"adult":false},{"id":1430,"adult":false},{"id":43535,"adult":false},{"id":26790,"adult":false},{"id":497,"adult":false},{"id":11034,"adult":false},{"id":338273,"adult":false},{"id":367418,"adult":null},{"id":328,"adult":false},{"id":110972,"adult":false},{"id":63334,"adult":false},{"id":250622,"adult":false},{"id":353802,"adult":null}],"page":69,"total_pages":108,"total_results":10787}