{"results":[{"id":48171,"adult":false},{"id":8619,"adult":false},{"id":28007,"adult":false},{"id":62835,"adult":false},{"id":336419,"adult":false},{"id":333355,"adult":false},{"id":72393,"adult":false},{"id":39922,"adult":false},{"id":60591,"adult":false},{"id":87235,"adult":false},{"id":160,"adult":false},{"id":608,"adult":false},{"id":10764,"adult":false},{"id":243142,"adult":false},{"id":100402,"adult":false},{"id":231176,"adult":false},{"id":11780,"adult":false},{"id":209269,"adult":false},{"id":10588,"adult":false},{"id":1878,"adult":false},{"id":245402,"adult":false},{"id":9910,"adult":false},{"id":340352,"adult":false},{"id":102382,"adult":false},{"id":180,"adult":false},{"id":219250,"adult":false},{"id":121175,"adult":false},{"id":44334,"adult":false},{"id":585,"adult":false},{"id":253296,"adult":false},{"id":340353,"adult":false},{"id":9349,"adult":false},{"id":207498,"adult":false},{"id":96118,"adult":false},{"id":10704,"adult":false},{"id":49040,"adult":false},{"id":340354,"adult":false},{"id":340355,"adult":false},{"id":340356,"adult":false},{"id":265353,"adult":false},{"id":340357,"adult":false},{"id":340358,"adult":false},{"id":340359,"adult":false},{"id":227156,"adult":false},{"id":81005,"adult":false},{"id":318850,"adult":false},{"id":260786,"adult":false},{"id":243940,"adult":false},{"id":340360,"adult":false},{"id":340361,"adult":false},{"id":151024,"adult":false},{"id":28365,"adult":false},{"id":27259,"adult":false},{"id":235589,"adult":false},{"id":198155,"adult":false},{"id":76231,"adult":false},{"id":278368,"adult":false},{"id":71538,"adult":false},{"id":21876,"adult":false},{"id":297231,"adult":false},{"id":67126,"adult":false},{"id":74958,"adult":false},{"id":157283,"adult":false},{"id":90541,"adult":false},{"id":94944,"adult":false},{"id":79094,"adult":false},{"id":220463,"adult":false},{"id":201822,"adult":false},{"id":117567,"adult":false},{"id":67661,"adult":false},{"id":314526,"adult":null},{"id":314528,"adult":null},{"id":293523,"adult":null},{"id":340362,"adult":false},{"id":209024,"adult":false},{"id":340363,"adult":null},{"id":67010,"adult":false},{"id":340364,"adult":false},{"id":340365,"adult":false},{"id":44945,"adult":false},{"id":340366,"adult":false},{"id":92321,"adult":false},{"id":109333,"adult":false},{"id":144784,"adult":false},{"id":340367,"adult":false},{"id":324272,"adult":false},{"id":340368,"adult":false},{"id":340369,"adult":false},{"id":168259,"adult":false},{"id":340370,"adult":false},{"id":658,"adult":false},{"id":710,"adult":false},{"id":94996,"adult":false},{"id":657,"adult":false},{"id":336306,"adult":false},{"id":340371,"adult":false},{"id":263301,"adult":false},{"id":242582,"adult":false},{"id":646,"adult":false},{"id":187017,"adult":false}],"page":7,"total_pages":103,"total_results":10276}