{"results":[{"id":365424,"adult":false},{"id":372317,"adult":false},{"id":372318,"adult":false},{"id":372319,"adult":false},{"id":372320,"adult":false},{"id":372321,"adult":null},{"id":68724,"adult":false},{"id":280624,"adult":false},{"id":270653,"adult":false},{"id":372322,"adult":null},{"id":28938,"adult":false},{"id":10714,"adult":false},{"id":372325,"adult":false},{"id":768,"adult":false},{"id":22307,"adult":false},{"id":199982,"adult":false},{"id":372326,"adult":false},{"id":347600,"adult":false},{"id":333411,"adult":false},{"id":372327,"adult":false},{"id":38025,"adult":false},{"id":372328,"adult":null},{"id":369014,"adult":false},{"id":372329,"adult":false},{"id":29751,"adult":false},{"id":61105,"adult":false},{"id":302218,"adult":null},{"id":29668,"adult":true},{"id":30827,"adult":false},{"id":10149,"adult":false},{"id":372330,"adult":false},{"id":372331,"adult":false},{"id":372332,"adult":false},{"id":175606,"adult":false},{"id":160004,"adult":false},{"id":27085,"adult":false},{"id":334521,"adult":false},{"id":289962,"adult":false},{"id":9398,"adult":false},{"id":274205,"adult":false},{"id":126889,"adult":false},{"id":4780,"adult":false},{"id":75210,"adult":false},{"id":372333,"adult":false},{"id":290242,"adult":false},{"id":372334,"adult":null},{"id":372335,"adult":false},{"id":273665,"adult":false},{"id":372336,"adult":false},{"id":372337,"adult":false},{"id":367174,"adult":false},{"id":302539,"adult":false},{"id":80009,"adult":false},{"id":8649,"adult":false},{"id":18,"adult":false},{"id":53565,"adult":false},{"id":186411,"adult":false},{"id":11491,"adult":false},{"id":69381,"adult":false},{"id":372338,"adult":true},{"id":372339,"adult":false},{"id":338953,"adult":false},{"id":372340,"adult":false},{"id":289232,"adult":false},{"id":11527,"adult":false},{"id":135065,"adult":false},{"id":260,"adult":false},{"id":239149,"adult":false},{"id":31258,"adult":false},{"id":372341,"adult":false},{"id":339964,"adult":false},{"id":372342,"adult":false},{"id":1738,"adult":false},{"id":76975,"adult":false},{"id":252623,"adult":false},{"id":214317,"adult":false},{"id":372343,"adult":false},{"id":318941,"adult":false},{"id":372344,"adult":false},{"id":372345,"adult":false},{"id":372346,"adult":false},{"id":114623,"adult":false},{"id":2344,"adult":false},{"id":604,"adult":false},{"id":605,"adult":false},{"id":262578,"adult":false},{"id":78466,"adult":false},{"id":55931,"adult":false},{"id":372347,"adult":false},{"id":372348,"adult":false},{"id":372349,"adult":false},{"id":365344,"adult":false},{"id":361025,"adult":false},{"id":372350,"adult":false},{"id":372351,"adult":false},{"id":372352,"adult":false},{"id":372353,"adult":false},{"id":299795,"adult":false},{"id":22734,"adult":false},{"id":372354,"adult":false}],"page":89,"total_pages":97,"total_results":9613}