{"results":[{"id":12521,"adult":false},{"id":81250,"adult":false},{"id":368331,"adult":false},{"id":368332,"adult":false},{"id":326092,"adult":null},{"id":353267,"adult":false},{"id":368333,"adult":false},{"id":368334,"adult":false},{"id":368335,"adult":false},{"id":368336,"adult":false},{"id":368337,"adult":false},{"id":368338,"adult":false},{"id":264656,"adult":false},{"id":368339,"adult":false},{"id":368340,"adult":false},{"id":280149,"adult":false},{"id":67740,"adult":false},{"id":368341,"adult":false},{"id":194924,"adult":false},{"id":205587,"adult":false},{"id":28370,"adult":false},{"id":106717,"adult":false},{"id":365845,"adult":true},{"id":103600,"adult":false},{"id":152760,"adult":false},{"id":268618,"adult":false},{"id":13320,"adult":false},{"id":235202,"adult":false},{"id":136597,"adult":false},{"id":11800,"adult":false},{"id":10881,"adult":false},{"id":31289,"adult":false},{"id":522,"adult":false},{"id":21035,"adult":false},{"id":312873,"adult":false},{"id":15005,"adult":false},{"id":260186,"adult":false},{"id":39327,"adult":false},{"id":192145,"adult":false},{"id":351186,"adult":false},{"id":11447,"adult":false},{"id":127862,"adult":false},{"id":334039,"adult":false},{"id":18680,"adult":false},{"id":354596,"adult":false},{"id":157353,"adult":false},{"id":220820,"adult":false},{"id":323663,"adult":false},{"id":11566,"adult":false},{"id":354593,"adult":false},{"id":15014,"adult":false},{"id":85516,"adult":false},{"id":368342,"adult":false},{"id":23449,"adult":false},{"id":2088,"adult":false},{"id":121572,"adult":false},{"id":343426,"adult":false},{"id":368343,"adult":false},{"id":364002,"adult":false},{"id":106610,"adult":false},{"id":332742,"adult":false},{"id":6075,"adult":false},{"id":212716,"adult":false},{"id":28294,"adult":false},{"id":824,"adult":false},{"id":79218,"adult":false},{"id":355811,"adult":false},{"id":368344,"adult":null},{"id":368345,"adult":false},{"id":3580,"adult":false},{"id":50463,"adult":false},{"id":772,"adult":false},{"id":10137,"adult":false},{"id":74924,"adult":false},{"id":99727,"adult":false},{"id":10996,"adult":false},{"id":368346,"adult":false},{"id":342282,"adult":false},{"id":30178,"adult":false},{"id":318044,"adult":false},{"id":11186,"adult":false},{"id":11932,"adult":false},{"id":10455,"adult":false},{"id":42745,"adult":false},{"id":364864,"adult":false},{"id":106573,"adult":false},{"id":298437,"adult":false},{"id":42455,"adult":false},{"id":47003,"adult":false},{"id":176007,"adult":false},{"id":52520,"adult":false},{"id":103126,"adult":false},{"id":36513,"adult":false},{"id":298505,"adult":false},{"id":10879,"adult":false},{"id":354320,"adult":true},{"id":64892,"adult":false},{"id":94528,"adult":false},{"id":166864,"adult":false},{"id":81110,"adult":false}],"page":105,"total_pages":108,"total_results":10787}