{"results":[{"id":7737,"adult":false},{"id":71679,"adult":false},{"id":315963,"adult":false},{"id":114411,"adult":false},{"id":9285,"adult":false},{"id":153998,"adult":false},{"id":1685,"adult":false},{"id":295393,"adult":false},{"id":19611,"adult":false},{"id":296778,"adult":false},{"id":313322,"adult":false},{"id":126432,"adult":false},{"id":13573,"adult":false},{"id":10744,"adult":false},{"id":315964,"adult":false},{"id":152215,"adult":false},{"id":315965,"adult":false},{"id":125421,"adult":false},{"id":57444,"adult":true},{"id":11468,"adult":false},{"id":315966,"adult":false},{"id":80973,"adult":false},{"id":186021,"adult":false},{"id":31300,"adult":false},{"id":38880,"adult":false},{"id":173056,"adult":false},{"id":315967,"adult":false},{"id":8881,"adult":false},{"id":42032,"adult":false},{"id":94798,"adult":false},{"id":294816,"adult":false},{"id":242828,"adult":false},{"id":231389,"adult":false},{"id":180702,"adult":false},{"id":245678,"adult":false},{"id":314222,"adult":false},{"id":250761,"adult":false},{"id":1630,"adult":false},{"id":19994,"adult":false},{"id":315968,"adult":false},{"id":281126,"adult":false},{"id":160037,"adult":false},{"id":87584,"adult":false},{"id":14675,"adult":false},{"id":315969,"adult":false},{"id":307305,"adult":false},{"id":54518,"adult":false},{"id":103292,"adult":false},{"id":311659,"adult":false},{"id":31151,"adult":false},{"id":8745,"adult":false},{"id":45335,"adult":false},{"id":18690,"adult":false},{"id":7506,"adult":false},{"id":43781,"adult":false},{"id":190648,"adult":false},{"id":18645,"adult":false},{"id":16129,"adult":false},{"id":315970,"adult":false},{"id":254018,"adult":false},{"id":12138,"adult":false},{"id":60989,"adult":false},{"id":8880,"adult":false},{"id":308371,"adult":null},{"id":93856,"adult":false},{"id":21256,"adult":false},{"id":308373,"adult":null},{"id":50862,"adult":false},{"id":39770,"adult":false},{"id":250225,"adult":false},{"id":41347,"adult":false},{"id":897,"adult":false},{"id":48649,"adult":false},{"id":18,"adult":false},{"id":25541,"adult":false},{"id":315971,"adult":false},{"id":207021,"adult":false},{"id":50914,"adult":false},{"id":48891,"adult":false},{"id":107052,"adult":false},{"id":896,"adult":false},{"id":48905,"adult":false},{"id":233277,"adult":false},{"id":152736,"adult":false},{"id":46026,"adult":false},{"id":315972,"adult":false},{"id":315973,"adult":false},{"id":50856,"adult":false},{"id":72784,"adult":false},{"id":46498,"adult":false},{"id":87428,"adult":false},{"id":182973,"adult":null},{"id":1281,"adult":false},{"id":61005,"adult":false},{"id":315974,"adult":false},{"id":125702,"adult":false},{"id":46921,"adult":false},{"id":31592,"adult":false},{"id":1254,"adult":false},{"id":920,"adult":false}],"page":49,"total_pages":115,"total_results":11442}