{"results":[{"id":75195,"adult":false},{"id":83615,"adult":false},{"id":100556,"adult":false},{"id":111955,"adult":false},{"id":332479,"adult":false},{"id":37380,"adult":false},{"id":337989,"adult":false},{"id":262543,"adult":false},{"id":85966,"adult":false},{"id":33019,"adult":false},{"id":344724,"adult":false},{"id":110415,"adult":false},{"id":344725,"adult":true},{"id":278768,"adult":false},{"id":225958,"adult":false},{"id":85872,"adult":false},{"id":144423,"adult":false},{"id":276908,"adult":false},{"id":344726,"adult":false},{"id":292908,"adult":false},{"id":246860,"adult":false},{"id":344727,"adult":false},{"id":26378,"adult":false},{"id":285841,"adult":false},{"id":230779,"adult":false},{"id":206296,"adult":false},{"id":271938,"adult":null},{"id":260346,"adult":false},{"id":52970,"adult":false},{"id":158852,"adult":false},{"id":105248,"adult":false},{"id":8690,"adult":false},{"id":344728,"adult":false},{"id":344729,"adult":true},{"id":150689,"adult":false},{"id":259018,"adult":false},{"id":13460,"adult":false},{"id":324676,"adult":null},{"id":344730,"adult":false},{"id":344731,"adult":false},{"id":215028,"adult":false},{"id":116397,"adult":false},{"id":24740,"adult":false},{"id":344428,"adult":false},{"id":344732,"adult":false},{"id":344733,"adult":true},{"id":204922,"adult":false},{"id":294825,"adult":false},{"id":69870,"adult":false},{"id":303483,"adult":false},{"id":344734,"adult":true},{"id":123287,"adult":false},{"id":127373,"adult":false},{"id":280509,"adult":false},{"id":6471,"adult":false},{"id":335896,"adult":null},{"id":74128,"adult":false},{"id":297733,"adult":false},{"id":335894,"adult":true},{"id":244761,"adult":false},{"id":56002,"adult":false},{"id":283699,"adult":false},{"id":283839,"adult":false},{"id":317219,"adult":false},{"id":297265,"adult":false},{"id":309316,"adult":false},{"id":259084,"adult":false},{"id":51409,"adult":false},{"id":344735,"adult":true},{"id":13432,"adult":false},{"id":74461,"adult":false},{"id":241239,"adult":false},{"id":118496,"adult":false},{"id":40739,"adult":false},{"id":14750,"adult":false},{"id":74225,"adult":false},{"id":120169,"adult":false},{"id":344736,"adult":true},{"id":273271,"adult":false},{"id":344737,"adult":true},{"id":197082,"adult":false},{"id":344738,"adult":false},{"id":25338,"adult":false},{"id":12137,"adult":false},{"id":344739,"adult":false},{"id":11253,"adult":false},{"id":34052,"adult":false},{"id":174682,"adult":false},{"id":53136,"adult":false},{"id":329984,"adult":false},{"id":344740,"adult":false},{"id":36085,"adult":false},{"id":140443,"adult":false},{"id":59835,"adult":false},{"id":115131,"adult":false},{"id":5592,"adult":false},{"id":193756,"adult":false},{"id":33489,"adult":false},{"id":41446,"adult":false},{"id":329628,"adult":false}],"page":6,"total_pages":111,"total_results":11023}