{"results":[{"id":16110,"adult":false},{"id":13972,"adult":false},{"id":30079,"adult":false},{"id":4592,"adult":false},{"id":317974,"adult":null},{"id":20210,"adult":false},{"id":336893,"adult":false},{"id":85848,"adult":false},{"id":105237,"adult":false},{"id":41754,"adult":false},{"id":10585,"adult":false},{"id":2001,"adult":false},{"id":11932,"adult":false},{"id":64991,"adult":false},{"id":191446,"adult":false},{"id":11249,"adult":false},{"id":2122,"adult":false},{"id":10823,"adult":false},{"id":336894,"adult":null},{"id":283127,"adult":false},{"id":25748,"adult":false},{"id":336895,"adult":false},{"id":14846,"adult":false},{"id":609,"adult":false},{"id":74837,"adult":false},{"id":296643,"adult":false},{"id":10918,"adult":false},{"id":41016,"adult":false},{"id":336896,"adult":false},{"id":199207,"adult":false},{"id":29927,"adult":false},{"id":74623,"adult":false},{"id":85311,"adult":false},{"id":20637,"adult":false},{"id":267177,"adult":false},{"id":27103,"adult":false},{"id":80701,"adult":false},{"id":44641,"adult":false},{"id":10018,"adult":false},{"id":336897,"adult":false},{"id":167668,"adult":false},{"id":336898,"adult":false},{"id":62842,"adult":false},{"id":336899,"adult":false},{"id":4560,"adult":false},{"id":41875,"adult":false},{"id":283126,"adult":false},{"id":76360,"adult":false},{"id":44183,"adult":false},{"id":279387,"adult":false},{"id":45671,"adult":false},{"id":336900,"adult":false},{"id":58134,"adult":false},{"id":183026,"adult":false},{"id":336901,"adult":false},{"id":71698,"adult":false},{"id":39063,"adult":false},{"id":111927,"adult":false},{"id":322437,"adult":false},{"id":290084,"adult":false},{"id":185283,"adult":false},{"id":289692,"adult":false},{"id":290256,"adult":false},{"id":137700,"adult":false},{"id":61929,"adult":false},{"id":80475,"adult":false},{"id":112156,"adult":false},{"id":336902,"adult":false},{"id":111798,"adult":false},{"id":243089,"adult":false},{"id":336903,"adult":null},{"id":57025,"adult":false},{"id":314327,"adult":false},{"id":289976,"adult":false},{"id":66825,"adult":false},{"id":286804,"adult":false},{"id":336904,"adult":false},{"id":332936,"adult":false},{"id":25749,"adult":false},{"id":111648,"adult":false},{"id":121828,"adult":false},{"id":308681,"adult":false},{"id":25750,"adult":false},{"id":322725,"adult":false},{"id":94282,"adult":false},{"id":25751,"adult":false},{"id":336905,"adult":false},{"id":329418,"adult":false},{"id":271724,"adult":false},{"id":25752,"adult":false},{"id":25753,"adult":false},{"id":41094,"adult":false},{"id":70575,"adult":false},{"id":17457,"adult":false},{"id":13428,"adult":false},{"id":10514,"adult":false},{"id":10958,"adult":false},{"id":336906,"adult":false},{"id":336907,"adult":false},{"id":106296,"adult":false}],"page":54,"total_pages":102,"total_results":10168}