{"results":[{"id":346369,"adult":false},{"id":787,"adult":false},{"id":56009,"adult":false},{"id":280303,"adult":false},{"id":36912,"adult":false},{"id":346370,"adult":null},{"id":141086,"adult":false},{"id":176,"adult":false},{"id":11827,"adult":false},{"id":346371,"adult":false},{"id":16225,"adult":false},{"id":74997,"adult":false},{"id":346372,"adult":false},{"id":13752,"adult":false},{"id":9335,"adult":false},{"id":75591,"adult":true},{"id":127475,"adult":false},{"id":295537,"adult":false},{"id":243439,"adult":false},{"id":323168,"adult":false},{"id":39092,"adult":false},{"id":285743,"adult":false},{"id":16305,"adult":false},{"id":285400,"adult":false},{"id":50619,"adult":false},{"id":32078,"adult":false},{"id":43441,"adult":false},{"id":50620,"adult":false},{"id":305661,"adult":false},{"id":346373,"adult":false},{"id":346374,"adult":false},{"id":34377,"adult":false},{"id":67123,"adult":false},{"id":308671,"adult":false},{"id":67200,"adult":false},{"id":346375,"adult":false},{"id":332309,"adult":false},{"id":34003,"adult":false},{"id":266520,"adult":false},{"id":67201,"adult":false},{"id":73629,"adult":false},{"id":122355,"adult":false},{"id":346376,"adult":false},{"id":70443,"adult":false},{"id":289354,"adult":false},{"id":84575,"adult":false},{"id":346377,"adult":false},{"id":308760,"adult":false},{"id":212,"adult":false},{"id":9072,"adult":false},{"id":10932,"adult":false},{"id":703,"adult":false},{"id":16591,"adult":false},{"id":346378,"adult":true},{"id":346379,"adult":false},{"id":10829,"adult":false},{"id":10891,"adult":false},{"id":319167,"adult":false},{"id":57654,"adult":false},{"id":267035,"adult":false},{"id":66955,"adult":false},{"id":198935,"adult":false},{"id":78112,"adult":false},{"id":254206,"adult":true},{"id":63587,"adult":false},{"id":57639,"adult":false},{"id":278206,"adult":false},{"id":346380,"adult":false},{"id":72563,"adult":false},{"id":60074,"adult":false},{"id":29492,"adult":false},{"id":250837,"adult":false},{"id":10019,"adult":false},{"id":15472,"adult":false},{"id":3134,"adult":false},{"id":21183,"adult":false},{"id":88359,"adult":false},{"id":44935,"adult":false},{"id":49236,"adult":false},{"id":280206,"adult":false},{"id":9667,"adult":false},{"id":93461,"adult":false},{"id":307,"adult":false},{"id":47354,"adult":false},{"id":51825,"adult":false},{"id":8429,"adult":false},{"id":96367,"adult":false},{"id":346381,"adult":false},{"id":8016,"adult":false},{"id":346382,"adult":false},{"id":346383,"adult":false},{"id":119970,"adult":false},{"id":65313,"adult":false},{"id":33583,"adult":false},{"id":29960,"adult":false},{"id":77814,"adult":false},{"id":346384,"adult":false},{"id":346385,"adult":false},{"id":151431,"adult":false},{"id":346386,"adult":false}],"page":108,"total_pages":111,"total_results":11023}