{"results":[{"id":18519,"adult":false},{"id":492,"adult":false},{"id":34751,"adult":false},{"id":26389,"adult":false},{"id":314996,"adult":false},{"id":327304,"adult":false},{"id":43779,"adult":false},{"id":327305,"adult":null},{"id":327306,"adult":false},{"id":327307,"adult":false},{"id":327308,"adult":false},{"id":7451,"adult":false},{"id":10796,"adult":false},{"id":327309,"adult":false},{"id":290595,"adult":false},{"id":25059,"adult":false},{"id":6878,"adult":false},{"id":175774,"adult":false},{"id":13457,"adult":false},{"id":704,"adult":false},{"id":15300,"adult":false},{"id":43643,"adult":false},{"id":30287,"adult":true},{"id":24795,"adult":false},{"id":65158,"adult":false},{"id":37108,"adult":false},{"id":26441,"adult":false},{"id":32574,"adult":false},{"id":12559,"adult":false},{"id":273479,"adult":false},{"id":20735,"adult":false},{"id":327310,"adult":false},{"id":19429,"adult":false},{"id":84921,"adult":false},{"id":40688,"adult":false},{"id":12560,"adult":false},{"id":11888,"adult":false},{"id":84274,"adult":false},{"id":115392,"adult":false},{"id":287939,"adult":false},{"id":49406,"adult":false},{"id":17915,"adult":false},{"id":80196,"adult":false},{"id":137333,"adult":false},{"id":40732,"adult":false},{"id":37087,"adult":false},{"id":74724,"adult":false},{"id":256872,"adult":false},{"id":9665,"adult":false},{"id":35119,"adult":false},{"id":83995,"adult":false},{"id":32684,"adult":false},{"id":33228,"adult":false},{"id":36514,"adult":false},{"id":91727,"adult":false},{"id":193547,"adult":false},{"id":147393,"adult":false},{"id":327311,"adult":false},{"id":208399,"adult":false},{"id":68247,"adult":false},{"id":10193,"adult":false},{"id":863,"adult":false},{"id":31530,"adult":false},{"id":43787,"adult":false},{"id":13671,"adult":false},{"id":14811,"adult":false},{"id":9919,"adult":false},{"id":147412,"adult":false},{"id":16427,"adult":false},{"id":284538,"adult":false},{"id":39641,"adult":false},{"id":324793,"adult":null},{"id":10254,"adult":false},{"id":51391,"adult":false},{"id":327312,"adult":false},{"id":253908,"adult":false},{"id":192162,"adult":false},{"id":138941,"adult":false},{"id":41327,"adult":false},{"id":46075,"adult":false},{"id":327313,"adult":false},{"id":238724,"adult":false},{"id":327314,"adult":false},{"id":327315,"adult":false},{"id":35164,"adult":false},{"id":13312,"adult":false},{"id":298868,"adult":false},{"id":121210,"adult":false},{"id":139159,"adult":false},{"id":14375,"adult":false},{"id":284547,"adult":false},{"id":37481,"adult":false},{"id":298758,"adult":false},{"id":327316,"adult":false},{"id":62030,"adult":false},{"id":31658,"adult":false},{"id":153997,"adult":false},{"id":9625,"adult":false},{"id":173800,"adult":false},{"id":33912,"adult":false}],"page":96,"total_pages":112,"total_results":11193}