{"results":[{"id":265447,"adult":false},{"id":13929,"adult":false},{"id":44946,"adult":false},{"id":13363,"adult":false},{"id":11683,"adult":false},{"id":9822,"adult":false},{"id":189010,"adult":false},{"id":266084,"adult":false},{"id":127764,"adult":false},{"id":344345,"adult":false},{"id":17899,"adult":false},{"id":17483,"adult":false},{"id":44113,"adult":false},{"id":10187,"adult":false},{"id":180,"adult":false},{"id":197950,"adult":false},{"id":37198,"adult":false},{"id":2997,"adult":false},{"id":9103,"adult":false},{"id":271331,"adult":false},{"id":11052,"adult":false},{"id":71306,"adult":false},{"id":48727,"adult":false},{"id":65990,"adult":false},{"id":2112,"adult":false},{"id":292387,"adult":false},{"id":206487,"adult":false},{"id":9533,"adult":false},{"id":58796,"adult":false},{"id":41558,"adult":false},{"id":9778,"adult":false},{"id":251266,"adult":false},{"id":348181,"adult":false},{"id":2752,"adult":false},{"id":346319,"adult":false},{"id":187602,"adult":false},{"id":278,"adult":false},{"id":20506,"adult":false},{"id":257698,"adult":false},{"id":107,"adult":false},{"id":131479,"adult":false},{"id":252091,"adult":false},{"id":8285,"adult":false},{"id":228392,"adult":false},{"id":122470,"adult":null},{"id":330976,"adult":false},{"id":1535,"adult":false},{"id":72525,"adult":false},{"id":294049,"adult":false},{"id":328637,"adult":false},{"id":102893,"adult":false},{"id":346370,"adult":null},{"id":46838,"adult":false},{"id":9298,"adult":false},{"id":12779,"adult":false},{"id":141126,"adult":null},{"id":33,"adult":false},{"id":317512,"adult":false},{"id":28467,"adult":false},{"id":272174,"adult":false},{"id":120027,"adult":false},{"id":297224,"adult":null},{"id":290382,"adult":false},{"id":242224,"adult":false},{"id":9763,"adult":false},{"id":16808,"adult":false},{"id":12600,"adult":false},{"id":139649,"adult":false},{"id":348182,"adult":true},{"id":260231,"adult":false},{"id":4550,"adult":false},{"id":80591,"adult":false},{"id":72067,"adult":false},{"id":340866,"adult":null},{"id":40211,"adult":false},{"id":300433,"adult":false},{"id":70436,"adult":false},{"id":16139,"adult":false},{"id":10952,"adult":false},{"id":97434,"adult":false},{"id":60828,"adult":false},{"id":51415,"adult":false},{"id":348183,"adult":false},{"id":77527,"adult":false},{"id":1253,"adult":false},{"id":281780,"adult":false},{"id":316027,"adult":false},{"id":308529,"adult":false},{"id":45272,"adult":false},{"id":71743,"adult":false},{"id":24115,"adult":false},{"id":342217,"adult":false},{"id":28211,"adult":false},{"id":239180,"adult":false},{"id":314567,"adult":false},{"id":142743,"adult":false},{"id":6145,"adult":false},{"id":10711,"adult":false},{"id":97589,"adult":false},{"id":250608,"adult":false}],"page":63,"total_pages":86,"total_results":8586}