{"results":[{"id":363600,"adult":false},{"id":4024,"adult":false},{"id":116050,"adult":false},{"id":63577,"adult":false},{"id":297762,"adult":false},{"id":14400,"adult":false},{"id":329819,"adult":false},{"id":2025,"adult":false},{"id":75996,"adult":false},{"id":3423,"adult":false},{"id":212840,"adult":false},{"id":41992,"adult":false},{"id":21878,"adult":false},{"id":42454,"adult":false},{"id":363601,"adult":true},{"id":37645,"adult":false},{"id":48124,"adult":false},{"id":10799,"adult":false},{"id":50186,"adult":false},{"id":52439,"adult":false},{"id":12101,"adult":false},{"id":46362,"adult":false},{"id":363602,"adult":false},{"id":58683,"adult":false},{"id":42544,"adult":false},{"id":30651,"adult":false},{"id":29805,"adult":false},{"id":73898,"adult":false},{"id":5055,"adult":false},{"id":184098,"adult":false},{"id":354534,"adult":false},{"id":505,"adult":false},{"id":13686,"adult":false},{"id":278938,"adult":false},{"id":80555,"adult":false},{"id":56927,"adult":false},{"id":13595,"adult":false},{"id":931,"adult":false},{"id":363603,"adult":true},{"id":308077,"adult":false},{"id":93672,"adult":false},{"id":294016,"adult":false},{"id":341106,"adult":false},{"id":32085,"adult":false},{"id":310593,"adult":false},{"id":363604,"adult":false},{"id":34574,"adult":false},{"id":192911,"adult":false},{"id":1643,"adult":false},{"id":124894,"adult":false},{"id":361028,"adult":false},{"id":43775,"adult":false},{"id":9061,"adult":false},{"id":11293,"adult":false},{"id":363605,"adult":false},{"id":255321,"adult":false},{"id":192441,"adult":false},{"id":200019,"adult":false},{"id":27513,"adult":false},{"id":54022,"adult":false},{"id":56242,"adult":false},{"id":17306,"adult":false},{"id":68339,"adult":false},{"id":12235,"adult":false},{"id":62441,"adult":false},{"id":171477,"adult":false},{"id":192486,"adult":false},{"id":87502,"adult":false},{"id":80634,"adult":false},{"id":258186,"adult":false},{"id":250500,"adult":false},{"id":37103,"adult":false},{"id":36728,"adult":false},{"id":204733,"adult":true},{"id":38381,"adult":false},{"id":976,"adult":false},{"id":244088,"adult":false},{"id":324139,"adult":false},{"id":51166,"adult":false},{"id":216183,"adult":false},{"id":17681,"adult":false},{"id":95060,"adult":false},{"id":11300,"adult":false},{"id":83364,"adult":null},{"id":363606,"adult":false},{"id":852,"adult":false},{"id":272073,"adult":false},{"id":328416,"adult":false},{"id":80470,"adult":false},{"id":18784,"adult":false},{"id":61564,"adult":false},{"id":42661,"adult":false},{"id":101797,"adult":false},{"id":14674,"adult":false},{"id":66967,"adult":false},{"id":1404,"adult":false},{"id":363607,"adult":false},{"id":124623,"adult":false},{"id":112937,"adult":false},{"id":175696,"adult":false}],"page":87,"total_pages":108,"total_results":10774}