{"results":[{"id":374393,"adult":false},{"id":164457,"adult":false},{"id":2486,"adult":false},{"id":127803,"adult":false},{"id":8848,"adult":false},{"id":11973,"adult":false},{"id":18131,"adult":false},{"id":374394,"adult":null},{"id":9348,"adult":false},{"id":374395,"adult":false},{"id":64113,"adult":false},{"id":374396,"adult":false},{"id":81025,"adult":false},{"id":48289,"adult":false},{"id":150117,"adult":false},{"id":60086,"adult":false},{"id":112336,"adult":false},{"id":2020,"adult":false},{"id":14503,"adult":false},{"id":49730,"adult":false},{"id":30147,"adult":false},{"id":253944,"adult":false},{"id":153936,"adult":false},{"id":9425,"adult":false},{"id":19241,"adult":false},{"id":94380,"adult":false},{"id":242515,"adult":false},{"id":374397,"adult":false},{"id":9036,"adult":false},{"id":19959,"adult":false},{"id":7295,"adult":false},{"id":12227,"adult":false},{"id":9541,"adult":false},{"id":46436,"adult":false},{"id":200511,"adult":false},{"id":26505,"adult":false},{"id":280459,"adult":false},{"id":258805,"adult":false},{"id":42949,"adult":false},{"id":9992,"adult":false},{"id":138372,"adult":false},{"id":374398,"adult":false},{"id":13813,"adult":false},{"id":1090,"adult":false},{"id":9729,"adult":false},{"id":23073,"adult":false},{"id":344206,"adult":false},{"id":108405,"adult":false},{"id":374399,"adult":false},{"id":42941,"adult":false},{"id":4964,"adult":false},{"id":13989,"adult":false},{"id":12556,"adult":false},{"id":77866,"adult":false},{"id":175116,"adult":false},{"id":258157,"adult":false},{"id":26390,"adult":false},{"id":4437,"adult":false},{"id":374400,"adult":false},{"id":11968,"adult":false},{"id":8447,"adult":false},{"id":344150,"adult":null},{"id":374401,"adult":false},{"id":163971,"adult":false},{"id":250230,"adult":false},{"id":267360,"adult":false},{"id":16266,"adult":false},{"id":291464,"adult":false},{"id":6278,"adult":false},{"id":2989,"adult":false},{"id":365851,"adult":false},{"id":114638,"adult":false},{"id":13363,"adult":false},{"id":305141,"adult":false},{"id":374402,"adult":false},{"id":8696,"adult":false},{"id":70914,"adult":false},{"id":316873,"adult":false},{"id":40377,"adult":false},{"id":39516,"adult":false},{"id":254194,"adult":false},{"id":70263,"adult":false},{"id":353199,"adult":false},{"id":326016,"adult":false},{"id":374404,"adult":false},{"id":77197,"adult":false},{"id":100542,"adult":false},{"id":268852,"adult":false},{"id":24091,"adult":false},{"id":256917,"adult":false},{"id":258601,"adult":false},{"id":65109,"adult":false},{"id":374405,"adult":false},{"id":140870,"adult":false},{"id":290784,"adult":false},{"id":59297,"adult":false},{"id":111190,"adult":false},{"id":11708,"adult":false},{"id":143446,"adult":false},{"id":5968,"adult":false}],"page":100,"total_pages":108,"total_results":10739}