{"results":[{"id":330396,"adult":false},{"id":11593,"adult":false},{"id":175830,"adult":false},{"id":19101,"adult":false},{"id":330397,"adult":false},{"id":330398,"adult":false},{"id":330399,"adult":false},{"id":330400,"adult":false},{"id":330401,"adult":false},{"id":302205,"adult":false},{"id":107290,"adult":false},{"id":330402,"adult":false},{"id":302291,"adult":false},{"id":79472,"adult":false},{"id":176324,"adult":false},{"id":104905,"adult":false},{"id":189861,"adult":false},{"id":330403,"adult":false},{"id":330404,"adult":false},{"id":330405,"adult":false},{"id":330406,"adult":false},{"id":40940,"adult":false},{"id":330407,"adult":false},{"id":330408,"adult":false},{"id":330409,"adult":false},{"id":193102,"adult":false},{"id":330410,"adult":false},{"id":330411,"adult":false},{"id":330412,"adult":false},{"id":277030,"adult":false},{"id":330413,"adult":false},{"id":330414,"adult":false},{"id":67213,"adult":false},{"id":330415,"adult":false},{"id":330416,"adult":false},{"id":330417,"adult":false},{"id":285948,"adult":false},{"id":330418,"adult":false},{"id":28932,"adult":false},{"id":330419,"adult":false},{"id":32707,"adult":false},{"id":330420,"adult":false},{"id":327874,"adult":false},{"id":330421,"adult":false},{"id":330422,"adult":false},{"id":284396,"adult":false},{"id":129072,"adult":false},{"id":3509,"adult":false},{"id":288149,"adult":false},{"id":330423,"adult":false},{"id":110122,"adult":false},{"id":330424,"adult":false},{"id":330425,"adult":false},{"id":56937,"adult":false},{"id":330426,"adult":false},{"id":41312,"adult":false},{"id":127548,"adult":false},{"id":133454,"adult":false},{"id":330427,"adult":false},{"id":82887,"adult":false},{"id":330428,"adult":false},{"id":284674,"adult":false},{"id":59197,"adult":false},{"id":62142,"adult":false},{"id":273477,"adult":false},{"id":327254,"adult":null},{"id":330429,"adult":false},{"id":713,"adult":false},{"id":330430,"adult":false},{"id":292811,"adult":false},{"id":330431,"adult":false},{"id":49032,"adult":false},{"id":330432,"adult":false},{"id":330433,"adult":false},{"id":100815,"adult":false},{"id":252596,"adult":false},{"id":330434,"adult":false},{"id":316693,"adult":false},{"id":330435,"adult":false},{"id":330436,"adult":false},{"id":330437,"adult":false},{"id":320237,"adult":false},{"id":330438,"adult":false},{"id":32076,"adult":false},{"id":330439,"adult":false},{"id":280084,"adult":false},{"id":44630,"adult":false},{"id":330440,"adult":false},{"id":330441,"adult":false},{"id":280954,"adult":false},{"id":330442,"adult":false},{"id":330443,"adult":false},{"id":330444,"adult":false},{"id":280161,"adult":false},{"id":263471,"adult":false},{"id":330445,"adult":false},{"id":330446,"adult":false},{"id":330447,"adult":false},{"id":330448,"adult":false},{"id":67584,"adult":false}],"page":120,"total_pages":123,"total_results":12300}