{"results":[{"id":148892,"adult":false},{"id":37929,"adult":false},{"id":339434,"adult":false},{"id":58093,"adult":false},{"id":82861,"adult":false},{"id":40729,"adult":false},{"id":339435,"adult":false},{"id":296100,"adult":false},{"id":339436,"adult":false},{"id":194872,"adult":false},{"id":339437,"adult":false},{"id":36922,"adult":false},{"id":264660,"adult":false},{"id":339438,"adult":false},{"id":99940,"adult":false},{"id":244202,"adult":false},{"id":18431,"adult":false},{"id":52424,"adult":false},{"id":122126,"adult":false},{"id":339439,"adult":false},{"id":267467,"adult":false},{"id":282153,"adult":false},{"id":339440,"adult":false},{"id":22642,"adult":false},{"id":326062,"adult":false},{"id":4928,"adult":false},{"id":5598,"adult":false},{"id":199498,"adult":false},{"id":339441,"adult":false},{"id":174621,"adult":false},{"id":283366,"adult":false},{"id":296099,"adult":false},{"id":14698,"adult":false},{"id":318850,"adult":false},{"id":243938,"adult":false},{"id":17466,"adult":false},{"id":339442,"adult":null},{"id":31417,"adult":false},{"id":331313,"adult":false},{"id":297460,"adult":false},{"id":339443,"adult":false},{"id":269,"adult":false},{"id":339444,"adult":false},{"id":339445,"adult":false},{"id":157827,"adult":false},{"id":5165,"adult":false},{"id":1647,"adult":false},{"id":194522,"adult":false},{"id":6795,"adult":false},{"id":285024,"adult":false},{"id":11536,"adult":false},{"id":84167,"adult":false},{"id":339446,"adult":false},{"id":990,"adult":false},{"id":339447,"adult":false},{"id":11602,"adult":false},{"id":339448,"adult":false},{"id":338,"adult":false},{"id":337924,"adult":null},{"id":232646,"adult":false},{"id":323967,"adult":false},{"id":118751,"adult":false},{"id":288572,"adult":false},{"id":231790,"adult":false},{"id":267863,"adult":false},{"id":339449,"adult":false},{"id":133714,"adult":false},{"id":273460,"adult":false},{"id":270303,"adult":false},{"id":339450,"adult":false},{"id":33066,"adult":false},{"id":339451,"adult":false},{"id":16093,"adult":false},{"id":33870,"adult":false},{"id":27371,"adult":false},{"id":982,"adult":false},{"id":262391,"adult":false},{"id":51539,"adult":false},{"id":18445,"adult":false},{"id":339452,"adult":false},{"id":28172,"adult":false},{"id":11506,"adult":false},{"id":339454,"adult":false},{"id":266,"adult":false},{"id":339455,"adult":false},{"id":13686,"adult":false},{"id":339456,"adult":false},{"id":263281,"adult":false},{"id":249756,"adult":false},{"id":339457,"adult":false},{"id":391,"adult":false},{"id":261260,"adult":false},{"id":30374,"adult":false},{"id":339458,"adult":false},{"id":339459,"adult":false},{"id":339460,"adult":false},{"id":315,"adult":false},{"id":159157,"adult":false},{"id":339461,"adult":false},{"id":2192,"adult":false}],"page":75,"total_pages":106,"total_results":10547}