{"results":[{"id":258126,"adult":false},{"id":49064,"adult":false},{"id":204240,"adult":false},{"id":51737,"adult":false},{"id":248842,"adult":false},{"id":57612,"adult":false},{"id":174772,"adult":false},{"id":188468,"adult":false},{"id":25228,"adult":false},{"id":10861,"adult":false},{"id":43779,"adult":false},{"id":198184,"adult":false},{"id":123678,"adult":false},{"id":4169,"adult":false},{"id":334085,"adult":false},{"id":108217,"adult":false},{"id":8922,"adult":false},{"id":229408,"adult":false},{"id":334086,"adult":false},{"id":279975,"adult":false},{"id":290542,"adult":false},{"id":129182,"adult":false},{"id":85505,"adult":false},{"id":49522,"adult":false},{"id":153005,"adult":false},{"id":277582,"adult":false},{"id":24249,"adult":false},{"id":116883,"adult":false},{"id":10397,"adult":false},{"id":1946,"adult":false},{"id":290764,"adult":false},{"id":158530,"adult":false},{"id":32924,"adult":false},{"id":16220,"adult":false},{"id":70190,"adult":false},{"id":252512,"adult":false},{"id":30431,"adult":false},{"id":9794,"adult":false},{"id":121002,"adult":false},{"id":28355,"adult":false},{"id":11787,"adult":false},{"id":50081,"adult":false},{"id":289728,"adult":false},{"id":152570,"adult":false},{"id":63,"adult":false},{"id":71282,"adult":false},{"id":1847,"adult":false},{"id":334087,"adult":false},{"id":9045,"adult":false},{"id":334088,"adult":false},{"id":17700,"adult":false},{"id":334089,"adult":false},{"id":334090,"adult":false},{"id":124157,"adult":false},{"id":245142,"adult":false},{"id":29912,"adult":false},{"id":302331,"adult":false},{"id":55427,"adult":false},{"id":334091,"adult":false},{"id":4476,"adult":false},{"id":80121,"adult":false},{"id":330474,"adult":null},{"id":87359,"adult":false},{"id":94602,"adult":false},{"id":58423,"adult":null},{"id":49890,"adult":false},{"id":66945,"adult":false},{"id":334093,"adult":false},{"id":334094,"adult":false},{"id":10650,"adult":false},{"id":241239,"adult":false},{"id":119,"adult":false},{"id":334095,"adult":false},{"id":129777,"adult":null},{"id":38757,"adult":false},{"id":326671,"adult":false},{"id":41752,"adult":false},{"id":125574,"adult":false},{"id":42805,"adult":false},{"id":2794,"adult":false},{"id":131296,"adult":false},{"id":301810,"adult":false},{"id":8860,"adult":false},{"id":63043,"adult":false},{"id":13444,"adult":false},{"id":81796,"adult":false},{"id":289131,"adult":false},{"id":290288,"adult":false},{"id":64807,"adult":false},{"id":1996,"adult":false},{"id":334096,"adult":false},{"id":1995,"adult":false},{"id":87039,"adult":false},{"id":248688,"adult":false},{"id":14299,"adult":false},{"id":10515,"adult":false},{"id":269098,"adult":false},{"id":2927,"adult":false},{"id":9617,"adult":false},{"id":181533,"adult":false}],"page":25,"total_pages":100,"total_results":9923}