{"results":[{"id":78047,"adult":false},{"id":101773,"adult":false},{"id":95630,"adult":false},{"id":105440,"adult":false},{"id":261889,"adult":false},{"id":23168,"adult":false},{"id":36291,"adult":false},{"id":80624,"adult":false},{"id":8843,"adult":false},{"id":329558,"adult":false},{"id":308835,"adult":false},{"id":147603,"adult":false},{"id":261890,"adult":false},{"id":329559,"adult":false},{"id":147721,"adult":false},{"id":13396,"adult":false},{"id":10950,"adult":false},{"id":10464,"adult":false},{"id":39340,"adult":false},{"id":18759,"adult":false},{"id":35337,"adult":false},{"id":45671,"adult":false},{"id":121893,"adult":false},{"id":261892,"adult":false},{"id":244393,"adult":false},{"id":453,"adult":false},{"id":2770,"adult":false},{"id":280,"adult":false},{"id":147133,"adult":false},{"id":2806,"adult":false},{"id":2105,"adult":false},{"id":54578,"adult":false},{"id":8273,"adult":false},{"id":196924,"adult":false},{"id":285971,"adult":false},{"id":261893,"adult":false},{"id":109425,"adult":false},{"id":71552,"adult":false},{"id":302383,"adult":false},{"id":2277,"adult":false},{"id":309521,"adult":false},{"id":327489,"adult":null},{"id":311253,"adult":false},{"id":311254,"adult":false},{"id":261894,"adult":false},{"id":9894,"adult":false},{"id":9665,"adult":false},{"id":616,"adult":false},{"id":11013,"adult":false},{"id":261895,"adult":false},{"id":329560,"adult":false},{"id":48672,"adult":false},{"id":261896,"adult":false},{"id":316275,"adult":false},{"id":329561,"adult":false},{"id":200845,"adult":false},{"id":293303,"adult":false},{"id":261897,"adult":false},{"id":24822,"adult":false},{"id":329562,"adult":false},{"id":296831,"adult":false},{"id":261898,"adult":false},{"id":329563,"adult":null},{"id":82679,"adult":false},{"id":216440,"adult":false},{"id":327056,"adult":false},{"id":189899,"adult":false},{"id":132122,"adult":false},{"id":225199,"adult":false},{"id":64031,"adult":false},{"id":326185,"adult":false},{"id":261899,"adult":false},{"id":274131,"adult":false},{"id":321919,"adult":false},{"id":241803,"adult":false},{"id":96935,"adult":false},{"id":228436,"adult":false},{"id":497,"adult":false},{"id":261900,"adult":false},{"id":327798,"adult":false},{"id":230722,"adult":false},{"id":22500,"adult":false},{"id":261901,"adult":false},{"id":231088,"adult":false},{"id":329564,"adult":false},{"id":35,"adult":false},{"id":550,"adult":false},{"id":15775,"adult":false},{"id":209937,"adult":false},{"id":24363,"adult":false},{"id":173533,"adult":false},{"id":114077,"adult":false},{"id":72471,"adult":false},{"id":232034,"adult":false},{"id":409,"adult":false},{"id":11322,"adult":false},{"id":1978,"adult":false},{"id":1262,"adult":false},{"id":18635,"adult":false},{"id":35852,"adult":false}],"page":86,"total_pages":123,"total_results":12300}