{"results":[{"id":310367,"adult":false},{"id":198792,"adult":false},{"id":329697,"adult":false},{"id":266467,"adult":false},{"id":262816,"adult":false},{"id":8890,"adult":false},{"id":323999,"adult":false},{"id":255992,"adult":false},{"id":255991,"adult":false},{"id":65481,"adult":false},{"id":130543,"adult":false},{"id":131862,"adult":false},{"id":329698,"adult":false},{"id":324311,"adult":false},{"id":329699,"adult":false},{"id":70077,"adult":false},{"id":215991,"adult":false},{"id":26535,"adult":false},{"id":119776,"adult":false},{"id":50584,"adult":false},{"id":88428,"adult":false},{"id":329700,"adult":false},{"id":160218,"adult":false},{"id":329701,"adult":false},{"id":275321,"adult":false},{"id":13685,"adult":false},{"id":323157,"adult":false},{"id":4611,"adult":false},{"id":118673,"adult":false},{"id":13525,"adult":false},{"id":66073,"adult":false},{"id":324003,"adult":false},{"id":215167,"adult":false},{"id":59903,"adult":false},{"id":223427,"adult":false},{"id":329702,"adult":false},{"id":329703,"adult":false},{"id":294682,"adult":false},{"id":49849,"adult":false},{"id":9671,"adult":false},{"id":329704,"adult":false},{"id":184159,"adult":false},{"id":11453,"adult":false},{"id":246792,"adult":false},{"id":199925,"adult":false},{"id":329705,"adult":false},{"id":190860,"adult":false},{"id":308908,"adult":false},{"id":159723,"adult":false},{"id":329706,"adult":false},{"id":50572,"adult":false},{"id":329707,"adult":false},{"id":56883,"adult":false},{"id":23919,"adult":false},{"id":329708,"adult":false},{"id":47458,"adult":false},{"id":222913,"adult":false},{"id":96551,"adult":false},{"id":329709,"adult":false},{"id":10918,"adult":false},{"id":56885,"adult":false},{"id":19654,"adult":false},{"id":329710,"adult":false},{"id":85126,"adult":false},{"id":1965,"adult":false},{"id":219840,"adult":null},{"id":1933,"adult":false},{"id":83189,"adult":false},{"id":15755,"adult":false},{"id":329711,"adult":false},{"id":283384,"adult":false},{"id":8326,"adult":false},{"id":322449,"adult":false},{"id":56886,"adult":false},{"id":329712,"adult":false},{"id":132726,"adult":false},{"id":13127,"adult":false},{"id":39681,"adult":false},{"id":276537,"adult":false},{"id":329713,"adult":false},{"id":329714,"adult":false},{"id":325560,"adult":false},{"id":288767,"adult":false},{"id":266030,"adult":false},{"id":30331,"adult":false},{"id":329715,"adult":false},{"id":270043,"adult":false},{"id":152387,"adult":false},{"id":270111,"adult":false},{"id":55504,"adult":false},{"id":263120,"adult":false},{"id":16723,"adult":false},{"id":326043,"adult":false},{"id":263116,"adult":false},{"id":99444,"adult":false},{"id":270112,"adult":false},{"id":329716,"adult":false},{"id":53729,"adult":false},{"id":137190,"adult":false},{"id":35176,"adult":false}],"page":94,"total_pages":123,"total_results":12300}