{"results":[{"id":281460,"adult":true},{"id":281477,"adult":true},{"id":369029,"adult":false},{"id":249350,"adult":false},{"id":84838,"adult":true},{"id":369030,"adult":false},{"id":349498,"adult":false},{"id":347754,"adult":false},{"id":341405,"adult":false},{"id":277710,"adult":false},{"id":315715,"adult":false},{"id":279207,"adult":null},{"id":63839,"adult":true},{"id":341051,"adult":false},{"id":86075,"adult":false},{"id":83201,"adult":false},{"id":369031,"adult":false},{"id":326991,"adult":false},{"id":369032,"adult":false},{"id":264660,"adult":false},{"id":30080,"adult":false},{"id":177361,"adult":false},{"id":117999,"adult":false},{"id":353441,"adult":false},{"id":308032,"adult":false},{"id":135877,"adult":false},{"id":42659,"adult":false},{"id":82257,"adult":false},{"id":52227,"adult":false},{"id":44875,"adult":false},{"id":369033,"adult":false},{"id":43452,"adult":false},{"id":287587,"adult":false},{"id":289097,"adult":false},{"id":177677,"adult":false},{"id":369034,"adult":false},{"id":54201,"adult":false},{"id":369035,"adult":false},{"id":105768,"adult":false},{"id":14012,"adult":false},{"id":37932,"adult":false},{"id":366733,"adult":false},{"id":331117,"adult":false},{"id":132210,"adult":false},{"id":369036,"adult":false},{"id":369037,"adult":false},{"id":147913,"adult":false},{"id":79946,"adult":false},{"id":87825,"adult":false},{"id":369038,"adult":false},{"id":39918,"adult":false},{"id":369039,"adult":false},{"id":369040,"adult":false},{"id":65374,"adult":false},{"id":17282,"adult":false},{"id":119533,"adult":false},{"id":369041,"adult":false},{"id":29263,"adult":false},{"id":107,"adult":false},{"id":246896,"adult":false},{"id":285783,"adult":false},{"id":134619,"adult":false},{"id":369042,"adult":false},{"id":8011,"adult":false},{"id":17665,"adult":false},{"id":1818,"adult":false},{"id":284537,"adult":false},{"id":369043,"adult":false},{"id":82703,"adult":false},{"id":94504,"adult":false},{"id":39415,"adult":false},{"id":315649,"adult":null},{"id":50929,"adult":false},{"id":42145,"adult":false},{"id":57539,"adult":false},{"id":369044,"adult":false},{"id":4267,"adult":false},{"id":306650,"adult":false},{"id":1716,"adult":false},{"id":28100,"adult":false},{"id":10109,"adult":false},{"id":198600,"adult":false},{"id":214756,"adult":false},{"id":31417,"adult":false},{"id":12579,"adult":false},{"id":38719,"adult":false},{"id":44826,"adult":false},{"id":28963,"adult":false},{"id":42657,"adult":false},{"id":59586,"adult":false},{"id":200324,"adult":false},{"id":369045,"adult":false},{"id":270509,"adult":false},{"id":86828,"adult":false},{"id":369046,"adult":false},{"id":369047,"adult":false},{"id":3082,"adult":false},{"id":316376,"adult":false},{"id":35645,"adult":false},{"id":369048,"adult":false}],"page":26,"total_pages":101,"total_results":10039}