{"results":[{"id":254576,"adult":false},{"id":326609,"adult":false},{"id":121,"adult":false},{"id":45317,"adult":false},{"id":73,"adult":false},{"id":326610,"adult":false},{"id":68734,"adult":false},{"id":52589,"adult":false},{"id":5494,"adult":false},{"id":326611,"adult":false},{"id":277355,"adult":false},{"id":77595,"adult":false},{"id":297459,"adult":false},{"id":789,"adult":false},{"id":286232,"adult":false},{"id":113105,"adult":false},{"id":82279,"adult":false},{"id":22726,"adult":false},{"id":26172,"adult":false},{"id":43933,"adult":false},{"id":323162,"adult":false},{"id":11067,"adult":false},{"id":321463,"adult":false},{"id":20803,"adult":false},{"id":326614,"adult":false},{"id":9942,"adult":false},{"id":326616,"adult":false},{"id":43871,"adult":false},{"id":70349,"adult":false},{"id":326617,"adult":null},{"id":277309,"adult":false},{"id":336,"adult":false},{"id":255824,"adult":false},{"id":262088,"adult":false},{"id":179045,"adult":false},{"id":262104,"adult":false},{"id":56292,"adult":false},{"id":18763,"adult":false},{"id":28734,"adult":false},{"id":151831,"adult":false},{"id":274371,"adult":false},{"id":182779,"adult":false},{"id":297745,"adult":false},{"id":44591,"adult":false},{"id":22611,"adult":false},{"id":69865,"adult":false},{"id":308915,"adult":false},{"id":36346,"adult":false},{"id":248749,"adult":false},{"id":273467,"adult":false},{"id":80,"adult":false},{"id":139082,"adult":false},{"id":56882,"adult":false},{"id":135790,"adult":false},{"id":291448,"adult":false},{"id":306260,"adult":false},{"id":55782,"adult":false},{"id":326618,"adult":false},{"id":145247,"adult":false},{"id":13499,"adult":false},{"id":15316,"adult":false},{"id":31532,"adult":false},{"id":300467,"adult":false},{"id":52542,"adult":false},{"id":56142,"adult":false},{"id":99430,"adult":false},{"id":56619,"adult":false},{"id":326619,"adult":false},{"id":31261,"adult":false},{"id":41228,"adult":false},{"id":31442,"adult":false},{"id":123359,"adult":false},{"id":258034,"adult":false},{"id":326620,"adult":false},{"id":42488,"adult":false},{"id":322075,"adult":false},{"id":237067,"adult":false},{"id":326621,"adult":false},{"id":72137,"adult":false},{"id":833,"adult":false},{"id":113523,"adult":false},{"id":64719,"adult":false},{"id":83438,"adult":false},{"id":326622,"adult":false},{"id":160312,"adult":false},{"id":76492,"adult":false},{"id":228970,"adult":false},{"id":326623,"adult":false},{"id":696,"adult":false},{"id":326624,"adult":false},{"id":326625,"adult":false},{"id":221723,"adult":false},{"id":9292,"adult":false},{"id":14447,"adult":false},{"id":64721,"adult":false},{"id":9461,"adult":false},{"id":24930,"adult":false},{"id":326626,"adult":false},{"id":286301,"adult":false},{"id":168705,"adult":false}],"page":54,"total_pages":112,"total_results":11193}