{"results":[{"id":24014,"adult":false},{"id":77016,"adult":false},{"id":60304,"adult":false},{"id":328332,"adult":false},{"id":73665,"adult":false},{"id":271761,"adult":false},{"id":127315,"adult":false},{"id":225565,"adult":false},{"id":328333,"adult":false},{"id":154999,"adult":false},{"id":328334,"adult":null},{"id":144336,"adult":false},{"id":49710,"adult":false},{"id":328335,"adult":false},{"id":137106,"adult":false},{"id":328336,"adult":false},{"id":328337,"adult":false},{"id":76544,"adult":false},{"id":171846,"adult":false},{"id":301166,"adult":false},{"id":100910,"adult":false},{"id":65251,"adult":false},{"id":67546,"adult":false},{"id":109417,"adult":false},{"id":328338,"adult":false},{"id":276594,"adult":false},{"id":193613,"adult":false},{"id":51498,"adult":false},{"id":264520,"adult":false},{"id":702,"adult":false},{"id":112558,"adult":false},{"id":197830,"adult":false},{"id":39767,"adult":false},{"id":54270,"adult":false},{"id":249070,"adult":false},{"id":15962,"adult":false},{"id":328339,"adult":false},{"id":87826,"adult":false},{"id":84298,"adult":false},{"id":328340,"adult":false},{"id":318160,"adult":false},{"id":79433,"adult":false},{"id":18567,"adult":false},{"id":49049,"adult":false},{"id":76492,"adult":false},{"id":85670,"adult":false},{"id":328341,"adult":false},{"id":10671,"adult":false},{"id":85504,"adult":false},{"id":317032,"adult":false},{"id":22649,"adult":false},{"id":37724,"adult":false},{"id":82675,"adult":false},{"id":18817,"adult":false},{"id":135483,"adult":false},{"id":260346,"adult":false},{"id":59967,"adult":false},{"id":328342,"adult":false},{"id":283262,"adult":false},{"id":20978,"adult":false},{"id":146548,"adult":false},{"id":78400,"adult":false},{"id":77174,"adult":false},{"id":303,"adult":false},{"id":141461,"adult":false},{"id":26739,"adult":false},{"id":59367,"adult":false},{"id":269861,"adult":false},{"id":328343,"adult":false},{"id":74266,"adult":false},{"id":2034,"adult":false},{"id":328344,"adult":false},{"id":66557,"adult":false},{"id":53566,"adult":false},{"id":82696,"adult":false},{"id":11467,"adult":false},{"id":125577,"adult":false},{"id":81594,"adult":false},{"id":8738,"adult":false},{"id":328345,"adult":false},{"id":136111,"adult":false},{"id":328346,"adult":false},{"id":188370,"adult":false},{"id":59455,"adult":false},{"id":328347,"adult":false},{"id":72145,"adult":false},{"id":137033,"adult":false},{"id":280467,"adult":false},{"id":9322,"adult":false},{"id":33420,"adult":false},{"id":269978,"adult":false},{"id":212503,"adult":false},{"id":328348,"adult":false},{"id":328349,"adult":false},{"id":328350,"adult":false},{"id":3525,"adult":false},{"id":37554,"adult":false},{"id":328351,"adult":false},{"id":328352,"adult":false},{"id":269870,"adult":false}],"page":23,"total_pages":123,"total_results":12300}