{"results":[{"id":231138,"adult":false},{"id":355730,"adult":false},{"id":348631,"adult":false},{"id":338485,"adult":false},{"id":330161,"adult":false},{"id":325071,"adult":false},{"id":352845,"adult":false},{"id":339580,"adult":false},{"id":281090,"adult":false},{"id":43122,"adult":false},{"id":363010,"adult":false},{"id":195197,"adult":false},{"id":363011,"adult":false},{"id":363012,"adult":false},{"id":237375,"adult":false},{"id":40718,"adult":false},{"id":56597,"adult":false},{"id":143765,"adult":false},{"id":363013,"adult":false},{"id":24203,"adult":false},{"id":86114,"adult":false},{"id":98408,"adult":true},{"id":29437,"adult":false},{"id":18684,"adult":false},{"id":41989,"adult":false},{"id":107231,"adult":false},{"id":93939,"adult":false},{"id":222236,"adult":false},{"id":17495,"adult":false},{"id":363014,"adult":false},{"id":363015,"adult":false},{"id":10484,"adult":false},{"id":355278,"adult":null},{"id":363016,"adult":false},{"id":53102,"adult":false},{"id":62432,"adult":false},{"id":355993,"adult":false},{"id":363017,"adult":false},{"id":318483,"adult":false},{"id":12663,"adult":false},{"id":125817,"adult":true},{"id":93934,"adult":false},{"id":2517,"adult":false},{"id":108831,"adult":false},{"id":43539,"adult":false},{"id":136053,"adult":false},{"id":39041,"adult":false},{"id":9631,"adult":false},{"id":363018,"adult":false},{"id":363019,"adult":false},{"id":45429,"adult":false},{"id":72113,"adult":false},{"id":363020,"adult":false},{"id":86276,"adult":false},{"id":42949,"adult":false},{"id":22643,"adult":false},{"id":305470,"adult":false},{"id":15301,"adult":false},{"id":52721,"adult":false},{"id":237207,"adult":false},{"id":26505,"adult":false},{"id":363021,"adult":false},{"id":101897,"adult":false},{"id":295490,"adult":false},{"id":179966,"adult":false},{"id":279264,"adult":false},{"id":363022,"adult":false},{"id":125114,"adult":false},{"id":275318,"adult":false},{"id":167810,"adult":false},{"id":127957,"adult":false},{"id":41312,"adult":false},{"id":207916,"adult":false},{"id":314065,"adult":false},{"id":307335,"adult":false},{"id":152742,"adult":false},{"id":93193,"adult":false},{"id":363023,"adult":false},{"id":45752,"adult":false},{"id":239056,"adult":false},{"id":329440,"adult":false},{"id":155447,"adult":false},{"id":108235,"adult":false},{"id":165401,"adult":false},{"id":325842,"adult":false},{"id":358204,"adult":false},{"id":60392,"adult":false},{"id":363024,"adult":false},{"id":347852,"adult":false},{"id":71756,"adult":false},{"id":260001,"adult":false},{"id":18603,"adult":false},{"id":11484,"adult":false},{"id":16636,"adult":false},{"id":14358,"adult":false},{"id":363025,"adult":false},{"id":35199,"adult":false},{"id":95808,"adult":false},{"id":28105,"adult":false},{"id":13070,"adult":false}],"page":54,"total_pages":108,"total_results":10774}