{"results":[{"id":346667,"adult":false},{"id":117037,"adult":false},{"id":10296,"adult":false},{"id":364272,"adult":false},{"id":364273,"adult":false},{"id":293863,"adult":false},{"id":12105,"adult":false},{"id":10729,"adult":false},{"id":266675,"adult":false},{"id":321258,"adult":false},{"id":314574,"adult":false},{"id":364274,"adult":false},{"id":42021,"adult":false},{"id":170370,"adult":false},{"id":361939,"adult":false},{"id":364275,"adult":false},{"id":286654,"adult":false},{"id":72710,"adult":false},{"id":364276,"adult":false},{"id":61435,"adult":false},{"id":326307,"adult":false},{"id":39005,"adult":false},{"id":356483,"adult":false},{"id":364277,"adult":false},{"id":364278,"adult":null},{"id":200549,"adult":false},{"id":61014,"adult":false},{"id":110585,"adult":false},{"id":68727,"adult":false},{"id":188832,"adult":false},{"id":127981,"adult":false},{"id":342787,"adult":false},{"id":342927,"adult":false},{"id":40029,"adult":false},{"id":351651,"adult":false},{"id":76212,"adult":false},{"id":287111,"adult":false},{"id":364279,"adult":false},{"id":135397,"adult":false},{"id":36968,"adult":false},{"id":39382,"adult":false},{"id":277861,"adult":false},{"id":364280,"adult":false},{"id":89516,"adult":false},{"id":364281,"adult":false},{"id":284689,"adult":false},{"id":364282,"adult":false},{"id":364283,"adult":null},{"id":364284,"adult":true},{"id":364285,"adult":true},{"id":364286,"adult":false},{"id":56132,"adult":false},{"id":40194,"adult":false},{"id":245622,"adult":false},{"id":66077,"adult":false},{"id":108544,"adult":false},{"id":53988,"adult":false},{"id":364287,"adult":true},{"id":10197,"adult":false},{"id":46592,"adult":false},{"id":69157,"adult":false},{"id":60254,"adult":false},{"id":54152,"adult":false},{"id":43817,"adult":false},{"id":53980,"adult":false},{"id":364288,"adult":false},{"id":35856,"adult":false},{"id":364289,"adult":false},{"id":82657,"adult":false},{"id":30018,"adult":false},{"id":364290,"adult":true},{"id":37638,"adult":false},{"id":339533,"adult":false},{"id":364291,"adult":false},{"id":40188,"adult":false},{"id":72271,"adult":false},{"id":60045,"adult":false},{"id":254191,"adult":false},{"id":364292,"adult":false},{"id":57534,"adult":false},{"id":52091,"adult":false},{"id":43611,"adult":false},{"id":348679,"adult":false},{"id":315846,"adult":false},{"id":52624,"adult":false},{"id":118340,"adult":false},{"id":364293,"adult":false},{"id":13576,"adult":false},{"id":52613,"adult":false},{"id":32668,"adult":false},{"id":14930,"adult":false},{"id":58497,"adult":false},{"id":34013,"adult":false},{"id":33404,"adult":false},{"id":14549,"adult":false},{"id":55355,"adult":false},{"id":364294,"adult":false},{"id":33918,"adult":false},{"id":43619,"adult":false},{"id":29379,"adult":false}],"page":16,"total_pages":85,"total_results":8453}