{"results":[{"id":31924,"adult":false},{"id":658,"adult":false},{"id":10764,"adult":false},{"id":348765,"adult":false},{"id":47215,"adult":false},{"id":364365,"adult":false},{"id":645,"adult":false},{"id":31696,"adult":false},{"id":18948,"adult":false},{"id":364366,"adult":false},{"id":206647,"adult":false},{"id":9599,"adult":false},{"id":36557,"adult":false},{"id":364367,"adult":false},{"id":36669,"adult":false},{"id":166655,"adult":false},{"id":36643,"adult":false},{"id":872,"adult":false},{"id":19403,"adult":false},{"id":364368,"adult":false},{"id":714,"adult":false},{"id":364369,"adult":false},{"id":710,"adult":false},{"id":228977,"adult":false},{"id":709,"adult":false},{"id":5035,"adult":false},{"id":708,"adult":false},{"id":96944,"adult":false},{"id":707,"adult":false},{"id":36670,"adult":false},{"id":140894,"adult":false},{"id":700,"adult":false},{"id":699,"adult":false},{"id":698,"adult":false},{"id":11563,"adult":false},{"id":682,"adult":false},{"id":253,"adult":false},{"id":10209,"adult":false},{"id":681,"adult":false},{"id":668,"adult":false},{"id":667,"adult":false},{"id":254302,"adult":false},{"id":9024,"adult":false},{"id":660,"adult":false},{"id":657,"adult":false},{"id":84,"adult":false},{"id":364370,"adult":false},{"id":364371,"adult":false},{"id":217,"adult":false},{"id":186723,"adult":false},{"id":364372,"adult":false},{"id":1613,"adult":false},{"id":364373,"adult":false},{"id":364375,"adult":false},{"id":264,"adult":false},{"id":20529,"adult":false},{"id":14249,"adult":false},{"id":1565,"adult":false},{"id":228028,"adult":false},{"id":364376,"adult":false},{"id":8091,"adult":false},{"id":72766,"adult":false},{"id":283161,"adult":false},{"id":47697,"adult":false},{"id":131295,"adult":false},{"id":364377,"adult":false},{"id":10261,"adult":false},{"id":356296,"adult":false},{"id":13516,"adult":false},{"id":364378,"adult":false},{"id":364379,"adult":false},{"id":364380,"adult":false},{"id":14425,"adult":false},{"id":259138,"adult":false},{"id":56929,"adult":false},{"id":364381,"adult":false},{"id":115762,"adult":false},{"id":364382,"adult":false},{"id":290296,"adult":false},{"id":338294,"adult":false},{"id":54052,"adult":false},{"id":40205,"adult":false},{"id":43806,"adult":false},{"id":235046,"adult":false},{"id":85759,"adult":false},{"id":147508,"adult":false},{"id":364383,"adult":false},{"id":20133,"adult":false},{"id":68721,"adult":false},{"id":60306,"adult":false},{"id":364384,"adult":false},{"id":359684,"adult":false},{"id":336846,"adult":false},{"id":253059,"adult":false},{"id":281775,"adult":false},{"id":253021,"adult":false},{"id":27889,"adult":false},{"id":364385,"adult":true},{"id":248946,"adult":false},{"id":53803,"adult":null}],"page":20,"total_pages":85,"total_results":8453}