{"results":[{"id":186,"adult":false},{"id":10056,"adult":false},{"id":10753,"adult":false},{"id":65614,"adult":false},{"id":314421,"adult":false},{"id":297308,"adult":false},{"id":249,"adult":false},{"id":328081,"adult":true},{"id":268868,"adult":false},{"id":284397,"adult":false},{"id":359436,"adult":false},{"id":38319,"adult":false},{"id":56095,"adult":false},{"id":81989,"adult":false},{"id":37181,"adult":false},{"id":11499,"adult":false},{"id":38655,"adult":false},{"id":286971,"adult":false},{"id":53151,"adult":false},{"id":359437,"adult":true},{"id":48798,"adult":false},{"id":343701,"adult":false},{"id":38904,"adult":false},{"id":343700,"adult":false},{"id":59700,"adult":false},{"id":72766,"adult":false},{"id":30237,"adult":false},{"id":52451,"adult":false},{"id":343697,"adult":false},{"id":40247,"adult":false},{"id":359438,"adult":false},{"id":343693,"adult":false},{"id":343692,"adult":false},{"id":34814,"adult":false},{"id":339333,"adult":false},{"id":359439,"adult":false},{"id":25502,"adult":false},{"id":332831,"adult":false},{"id":44770,"adult":false},{"id":127916,"adult":false},{"id":79,"adult":false},{"id":97222,"adult":false},{"id":157353,"adult":false},{"id":92929,"adult":false},{"id":244539,"adult":false},{"id":55912,"adult":false},{"id":145066,"adult":false},{"id":27826,"adult":false},{"id":29365,"adult":false},{"id":343689,"adult":false},{"id":37944,"adult":false},{"id":103014,"adult":false},{"id":290224,"adult":false},{"id":66169,"adult":false},{"id":359440,"adult":false},{"id":42262,"adult":false},{"id":346307,"adult":false},{"id":9895,"adult":false},{"id":192767,"adult":false},{"id":261103,"adult":false},{"id":86,"adult":false},{"id":359441,"adult":false},{"id":189157,"adult":false},{"id":359442,"adult":false},{"id":65852,"adult":false},{"id":192762,"adult":false},{"id":29412,"adult":false},{"id":192748,"adult":false},{"id":192742,"adult":false},{"id":192740,"adult":false},{"id":192738,"adult":false},{"id":192737,"adult":false},{"id":192734,"adult":false},{"id":359443,"adult":false},{"id":192732,"adult":false},{"id":354776,"adult":false},{"id":192731,"adult":false},{"id":192730,"adult":false},{"id":192723,"adult":false},{"id":192721,"adult":false},{"id":192717,"adult":false},{"id":192715,"adult":false},{"id":359444,"adult":false},{"id":192712,"adult":false},{"id":192708,"adult":false},{"id":192706,"adult":false},{"id":275052,"adult":false},{"id":261810,"adult":false},{"id":359445,"adult":false},{"id":359446,"adult":false},{"id":79212,"adult":false},{"id":359447,"adult":false},{"id":245049,"adult":false},{"id":359448,"adult":false},{"id":359449,"adult":false},{"id":359450,"adult":false},{"id":227372,"adult":false},{"id":63978,"adult":false},{"id":359451,"adult":false},{"id":162314,"adult":false}],"page":99,"total_pages":112,"total_results":11114}