{"results":[{"id":1642,"adult":false},{"id":4806,"adult":false},{"id":10184,"adult":false},{"id":665,"adult":false},{"id":9476,"adult":false},{"id":10395,"adult":false},{"id":75186,"adult":false},{"id":1933,"adult":false},{"id":861,"adult":false},{"id":115867,"adult":false},{"id":12518,"adult":false},{"id":9348,"adult":false},{"id":10774,"adult":false},{"id":11229,"adult":false},{"id":203272,"adult":false},{"id":247788,"adult":false},{"id":302078,"adult":false},{"id":285334,"adult":false},{"id":48988,"adult":false},{"id":59468,"adult":false},{"id":83770,"adult":false},{"id":75612,"adult":false},{"id":5968,"adult":false},{"id":31679,"adult":false},{"id":76025,"adult":false},{"id":75764,"adult":false},{"id":11533,"adult":false},{"id":335848,"adult":false},{"id":181886,"adult":false},{"id":71859,"adult":false},{"id":1051,"adult":false},{"id":322257,"adult":false},{"id":335849,"adult":false},{"id":679,"adult":false},{"id":16305,"adult":false},{"id":2752,"adult":false},{"id":1997,"adult":false},{"id":10743,"adult":false},{"id":345,"adult":false},{"id":5139,"adult":false},{"id":298790,"adult":false},{"id":9602,"adult":false},{"id":1850,"adult":false},{"id":9946,"adult":false},{"id":11416,"adult":false},{"id":422,"adult":false},{"id":335850,"adult":false},{"id":28216,"adult":false},{"id":175411,"adult":false},{"id":22970,"adult":false},{"id":10219,"adult":false},{"id":11547,"adult":false},{"id":40955,"adult":false},{"id":219080,"adult":false},{"id":335851,"adult":false},{"id":201022,"adult":false},{"id":14,"adult":false},{"id":249154,"adult":false},{"id":9481,"adult":false},{"id":335852,"adult":false},{"id":302326,"adult":false},{"id":189270,"adult":false},{"id":30145,"adult":false},{"id":266856,"adult":false},{"id":58197,"adult":false},{"id":171016,"adult":false},{"id":257173,"adult":false},{"id":290906,"adult":true},{"id":302087,"adult":false},{"id":316951,"adult":false},{"id":302496,"adult":false},{"id":302325,"adult":false},{"id":33932,"adult":false},{"id":9513,"adult":false},{"id":86115,"adult":false},{"id":8920,"adult":false},{"id":145316,"adult":false},{"id":704,"adult":false},{"id":26332,"adult":false},{"id":42151,"adult":false},{"id":903,"adult":false},{"id":158727,"adult":false},{"id":1420,"adult":false},{"id":22233,"adult":false},{"id":334280,"adult":false},{"id":754,"adult":false},{"id":22820,"adult":false},{"id":335853,"adult":false},{"id":181283,"adult":false},{"id":1913,"adult":false},{"id":10152,"adult":false},{"id":314303,"adult":false},{"id":14154,"adult":false},{"id":335854,"adult":false},{"id":97187,"adult":false},{"id":11074,"adult":false},{"id":94329,"adult":false},{"id":103159,"adult":false},{"id":315965,"adult":false},{"id":13531,"adult":false}],"page":4,"total_pages":102,"total_results":10168}