{"results":[{"id":84005,"adult":false},{"id":10406,"adult":false},{"id":353638,"adult":true},{"id":54383,"adult":false},{"id":201568,"adult":false},{"id":353639,"adult":true},{"id":353640,"adult":true},{"id":27456,"adult":false},{"id":10122,"adult":false},{"id":182865,"adult":false},{"id":10631,"adult":false},{"id":29979,"adult":false},{"id":147065,"adult":false},{"id":353641,"adult":false},{"id":72257,"adult":false},{"id":353642,"adult":false},{"id":58036,"adult":false},{"id":353643,"adult":false},{"id":54797,"adult":false},{"id":8392,"adult":false},{"id":307010,"adult":false},{"id":253270,"adult":false},{"id":275064,"adult":false},{"id":10677,"adult":false},{"id":353644,"adult":false},{"id":280321,"adult":false},{"id":233470,"adult":false},{"id":393,"adult":false},{"id":9291,"adult":false},{"id":264749,"adult":false},{"id":19792,"adult":false},{"id":353645,"adult":false},{"id":274389,"adult":false},{"id":292430,"adult":false},{"id":353646,"adult":false},{"id":285064,"adult":false},{"id":243688,"adult":false},{"id":353647,"adult":false},{"id":353648,"adult":false},{"id":258967,"adult":false},{"id":32285,"adult":false},{"id":129456,"adult":false},{"id":206612,"adult":false},{"id":26672,"adult":false},{"id":312221,"adult":false},{"id":11000,"adult":false},{"id":11881,"adult":false},{"id":60420,"adult":false},{"id":37559,"adult":false},{"id":10771,"adult":false},{"id":95448,"adult":false},{"id":79000,"adult":false},{"id":281661,"adult":false},{"id":525,"adult":false},{"id":24,"adult":false},{"id":132298,"adult":false},{"id":31591,"adult":false},{"id":18727,"adult":false},{"id":348960,"adult":false},{"id":27686,"adult":false},{"id":755,"adult":false},{"id":43327,"adult":false},{"id":72613,"adult":false},{"id":9399,"adult":false},{"id":16395,"adult":false},{"id":34376,"adult":false},{"id":64828,"adult":false},{"id":17774,"adult":false},{"id":53939,"adult":false},{"id":33115,"adult":false},{"id":72473,"adult":false},{"id":242466,"adult":false},{"id":44412,"adult":false},{"id":16081,"adult":false},{"id":31220,"adult":false},{"id":229702,"adult":false},{"id":353649,"adult":false},{"id":102629,"adult":false},{"id":39195,"adult":false},{"id":353650,"adult":false},{"id":328441,"adult":false},{"id":239573,"adult":false},{"id":336633,"adult":false},{"id":141317,"adult":false},{"id":49009,"adult":false},{"id":245859,"adult":false},{"id":41171,"adult":false},{"id":4723,"adult":false},{"id":912,"adult":false},{"id":44835,"adult":false},{"id":102737,"adult":false},{"id":353651,"adult":false},{"id":353652,"adult":false},{"id":1444,"adult":false},{"id":16290,"adult":false},{"id":94548,"adult":false},{"id":2086,"adult":false},{"id":60747,"adult":false},{"id":30489,"adult":false},{"id":11849,"adult":false}],"page":55,"total_pages":89,"total_results":8876}