{"results":[{"id":121789,"adult":false},{"id":290386,"adult":false},{"id":94589,"adult":false},{"id":312913,"adult":false},{"id":680,"adult":false},{"id":306905,"adult":false},{"id":298660,"adult":false},{"id":4235,"adult":false},{"id":12519,"adult":false},{"id":27596,"adult":true},{"id":10711,"adult":false},{"id":50435,"adult":false},{"id":44913,"adult":false},{"id":1051,"adult":false},{"id":57089,"adult":false},{"id":170416,"adult":false},{"id":87255,"adult":false},{"id":5481,"adult":false},{"id":264434,"adult":false},{"id":321103,"adult":false},{"id":23128,"adult":false},{"id":321104,"adult":false},{"id":200089,"adult":false},{"id":214756,"adult":false},{"id":321105,"adult":false},{"id":261504,"adult":false},{"id":236409,"adult":false},{"id":118775,"adult":false},{"id":38055,"adult":false},{"id":65113,"adult":true},{"id":78991,"adult":false},{"id":6957,"adult":false},{"id":321106,"adult":false},{"id":92674,"adult":false},{"id":321107,"adult":false},{"id":29295,"adult":true},{"id":321108,"adult":null},{"id":321109,"adult":false},{"id":255920,"adult":false},{"id":74344,"adult":false},{"id":10428,"adult":false},{"id":301354,"adult":false},{"id":155096,"adult":false},{"id":321110,"adult":false},{"id":105827,"adult":false},{"id":321111,"adult":false},{"id":180894,"adult":false},{"id":321112,"adult":false},{"id":189150,"adult":false},{"id":28152,"adult":false},{"id":67000,"adult":false},{"id":321113,"adult":false},{"id":63497,"adult":false},{"id":317380,"adult":false},{"id":187299,"adult":false},{"id":111480,"adult":false},{"id":49788,"adult":false},{"id":54507,"adult":false},{"id":111170,"adult":false},{"id":304483,"adult":false},{"id":11523,"adult":false},{"id":28297,"adult":false},{"id":321114,"adult":false},{"id":283701,"adult":false},{"id":321115,"adult":false},{"id":321116,"adult":false},{"id":27523,"adult":false},{"id":299760,"adult":null},{"id":314781,"adult":false},{"id":266040,"adult":false},{"id":274395,"adult":false},{"id":321117,"adult":false},{"id":321118,"adult":false},{"id":8581,"adult":false},{"id":321119,"adult":false},{"id":268098,"adult":false},{"id":321120,"adult":false},{"id":263281,"adult":false},{"id":309245,"adult":false},{"id":321121,"adult":false},{"id":321122,"adult":false},{"id":321123,"adult":false},{"id":278608,"adult":false},{"id":321124,"adult":false},{"id":11305,"adult":false},{"id":321125,"adult":false},{"id":314027,"adult":false},{"id":270643,"adult":false},{"id":21267,"adult":false},{"id":321126,"adult":false},{"id":197082,"adult":false},{"id":279550,"adult":false},{"id":157823,"adult":false},{"id":2757,"adult":false},{"id":237584,"adult":false},{"id":321127,"adult":false},{"id":101045,"adult":false},{"id":14596,"adult":false},{"id":155139,"adult":false},{"id":280396,"adult":false}],"page":102,"total_pages":120,"total_results":11995}