{"results":[{"id":282069,"adult":false},{"id":315697,"adult":false},{"id":42832,"adult":false},{"id":31064,"adult":false},{"id":51953,"adult":false},{"id":2009,"adult":false},{"id":263777,"adult":false},{"id":315698,"adult":false},{"id":157229,"adult":false},{"id":315699,"adult":false},{"id":266796,"adult":false},{"id":315701,"adult":false},{"id":315702,"adult":false},{"id":116977,"adult":false},{"id":315703,"adult":false},{"id":273271,"adult":false},{"id":158914,"adult":false},{"id":304025,"adult":false},{"id":315704,"adult":false},{"id":109560,"adult":false},{"id":80,"adult":false},{"id":315706,"adult":false},{"id":315707,"adult":false},{"id":315708,"adult":false},{"id":76,"adult":false},{"id":315709,"adult":false},{"id":315710,"adult":false},{"id":251258,"adult":false},{"id":246053,"adult":false},{"id":315711,"adult":false},{"id":315712,"adult":false},{"id":315713,"adult":false},{"id":115825,"adult":false},{"id":315714,"adult":false},{"id":292287,"adult":null},{"id":283636,"adult":null},{"id":1582,"adult":false},{"id":248920,"adult":null},{"id":315715,"adult":false},{"id":292390,"adult":false},{"id":315716,"adult":false},{"id":67411,"adult":false},{"id":315717,"adult":false},{"id":309849,"adult":false},{"id":264666,"adult":false},{"id":31432,"adult":false},{"id":42520,"adult":true},{"id":221991,"adult":false},{"id":44892,"adult":false},{"id":315718,"adult":false},{"id":47038,"adult":false},{"id":170805,"adult":false},{"id":64925,"adult":false},{"id":303659,"adult":false},{"id":249381,"adult":false},{"id":18377,"adult":false},{"id":315719,"adult":false},{"id":128396,"adult":false},{"id":278484,"adult":false},{"id":315720,"adult":false},{"id":315721,"adult":false},{"id":10068,"adult":false},{"id":105551,"adult":false},{"id":315722,"adult":null},{"id":121195,"adult":false},{"id":315723,"adult":false},{"id":315724,"adult":null},{"id":260310,"adult":false},{"id":631,"adult":false},{"id":246341,"adult":false},{"id":315725,"adult":false},{"id":59589,"adult":false},{"id":86360,"adult":false},{"id":17821,"adult":false},{"id":227156,"adult":false},{"id":51303,"adult":false},{"id":9688,"adult":false},{"id":315726,"adult":false},{"id":18705,"adult":false},{"id":190045,"adult":false},{"id":201721,"adult":false},{"id":284312,"adult":false},{"id":315727,"adult":false},{"id":274804,"adult":false},{"id":315728,"adult":false},{"id":31509,"adult":false},{"id":42509,"adult":false},{"id":238636,"adult":false},{"id":111602,"adult":false},{"id":80171,"adult":false},{"id":249941,"adult":false},{"id":80771,"adult":false},{"id":61933,"adult":false},{"id":2637,"adult":false},{"id":266036,"adult":false},{"id":27986,"adult":false},{"id":145037,"adult":false},{"id":111781,"adult":false},{"id":79361,"adult":false},{"id":85504,"adult":false}],"page":37,"total_pages":115,"total_results":11442}