{"results":[{"id":508,"adult":false},{"id":371431,"adult":null},{"id":371432,"adult":null},{"id":104098,"adult":false},{"id":371433,"adult":false},{"id":162787,"adult":false},{"id":67913,"adult":false},{"id":43885,"adult":false},{"id":238124,"adult":false},{"id":371434,"adult":false},{"id":215113,"adult":false},{"id":371435,"adult":false},{"id":33066,"adult":false},{"id":55796,"adult":false},{"id":282502,"adult":false},{"id":204442,"adult":false},{"id":332291,"adult":false},{"id":42355,"adult":false},{"id":14577,"adult":false},{"id":264199,"adult":false},{"id":11596,"adult":false},{"id":35165,"adult":false},{"id":200445,"adult":false},{"id":19406,"adult":false},{"id":371436,"adult":false},{"id":362739,"adult":false},{"id":371437,"adult":false},{"id":183805,"adult":false},{"id":44684,"adult":false},{"id":42684,"adult":false},{"id":238201,"adult":false},{"id":371438,"adult":null},{"id":57296,"adult":false},{"id":25447,"adult":false},{"id":105246,"adult":false},{"id":14181,"adult":false},{"id":371439,"adult":false},{"id":267503,"adult":false},{"id":2048,"adult":false},{"id":47964,"adult":false},{"id":91902,"adult":false},{"id":1570,"adult":false},{"id":1051,"adult":false},{"id":45007,"adult":false},{"id":371440,"adult":false},{"id":5255,"adult":false},{"id":249741,"adult":false},{"id":9384,"adult":false},{"id":123229,"adult":false},{"id":371442,"adult":false},{"id":79735,"adult":false},{"id":29258,"adult":false},{"id":370365,"adult":false},{"id":21242,"adult":false},{"id":61242,"adult":false},{"id":557,"adult":false},{"id":73984,"adult":false},{"id":13193,"adult":false},{"id":274379,"adult":false},{"id":12481,"adult":false},{"id":371443,"adult":false},{"id":26119,"adult":false},{"id":10669,"adult":false},{"id":306297,"adult":true},{"id":116975,"adult":false},{"id":14881,"adult":false},{"id":19971,"adult":false},{"id":109995,"adult":false},{"id":201749,"adult":false},{"id":5927,"adult":false},{"id":42490,"adult":false},{"id":170240,"adult":null},{"id":40374,"adult":false},{"id":123370,"adult":false},{"id":25680,"adult":false},{"id":32627,"adult":false},{"id":93236,"adult":false},{"id":8425,"adult":false},{"id":60430,"adult":false},{"id":4790,"adult":false},{"id":271919,"adult":false},{"id":40180,"adult":false},{"id":9645,"adult":false},{"id":42658,"adult":false},{"id":110420,"adult":false},{"id":230779,"adult":false},{"id":254638,"adult":false},{"id":119417,"adult":false},{"id":371444,"adult":false},{"id":368692,"adult":false},{"id":371445,"adult":false},{"id":357681,"adult":false},{"id":371446,"adult":false},{"id":22660,"adult":false},{"id":277806,"adult":false},{"id":369948,"adult":false},{"id":371447,"adult":false},{"id":365370,"adult":false},{"id":371448,"adult":true},{"id":371449,"adult":false}],"page":45,"total_pages":97,"total_results":9613}