{"results":[{"id":124625,"adult":false},{"id":68724,"adult":false},{"id":4461,"adult":false},{"id":373761,"adult":false},{"id":348677,"adult":false},{"id":48888,"adult":false},{"id":373762,"adult":false},{"id":50911,"adult":false},{"id":373763,"adult":false},{"id":77016,"adult":false},{"id":50922,"adult":false},{"id":373764,"adult":null},{"id":341832,"adult":true},{"id":9781,"adult":false},{"id":92855,"adult":null},{"id":159313,"adult":false},{"id":266082,"adult":false},{"id":50921,"adult":false},{"id":159432,"adult":false},{"id":373765,"adult":false},{"id":837,"adult":false},{"id":60612,"adult":false},{"id":147441,"adult":false},{"id":50920,"adult":false},{"id":50919,"adult":false},{"id":15948,"adult":false},{"id":359279,"adult":false},{"id":50917,"adult":false},{"id":50916,"adult":false},{"id":44782,"adult":false},{"id":50914,"adult":false},{"id":50912,"adult":false},{"id":162927,"adult":false},{"id":309000,"adult":false},{"id":39148,"adult":false},{"id":50907,"adult":false},{"id":50910,"adult":false},{"id":50909,"adult":false},{"id":50908,"adult":false},{"id":49543,"adult":false},{"id":50903,"adult":false},{"id":292982,"adult":false},{"id":44892,"adult":false},{"id":530,"adult":false},{"id":373766,"adult":false},{"id":373767,"adult":false},{"id":136087,"adult":false},{"id":25666,"adult":false},{"id":373768,"adult":false},{"id":46731,"adult":false},{"id":48827,"adult":false},{"id":373769,"adult":null},{"id":50899,"adult":false},{"id":373770,"adult":false},{"id":327528,"adult":false},{"id":48817,"adult":false},{"id":15854,"adult":false},{"id":54569,"adult":false},{"id":27458,"adult":false},{"id":108319,"adult":false},{"id":39323,"adult":false},{"id":54635,"adult":false},{"id":39324,"adult":false},{"id":3112,"adult":false},{"id":18095,"adult":false},{"id":49852,"adult":false},{"id":354859,"adult":false},{"id":23047,"adult":false},{"id":174311,"adult":false},{"id":89636,"adult":false},{"id":48816,"adult":false},{"id":38594,"adult":false},{"id":48670,"adult":false},{"id":50859,"adult":false},{"id":373771,"adult":false},{"id":50906,"adult":false},{"id":48906,"adult":false},{"id":300221,"adult":false},{"id":40075,"adult":false},{"id":373772,"adult":false},{"id":280968,"adult":false},{"id":15159,"adult":false},{"id":92710,"adult":false},{"id":50904,"adult":false},{"id":304814,"adult":false},{"id":48738,"adult":false},{"id":1818,"adult":false},{"id":78776,"adult":false},{"id":72551,"adult":false},{"id":21877,"adult":false},{"id":373773,"adult":null},{"id":290098,"adult":false},{"id":365556,"adult":false},{"id":365728,"adult":false},{"id":283827,"adult":false},{"id":363263,"adult":false},{"id":363494,"adult":false},{"id":353463,"adult":false},{"id":366808,"adult":false},{"id":116368,"adult":false}],"page":62,"total_pages":108,"total_results":10739}