{"results":[{"id":45003,"adult":false},{"id":300600,"adult":false},{"id":103432,"adult":false},{"id":137113,"adult":false},{"id":276843,"adult":false},{"id":323418,"adult":false},{"id":323421,"adult":false},{"id":323423,"adult":false},{"id":243312,"adult":false},{"id":253279,"adult":false},{"id":12444,"adult":false},{"id":12445,"adult":false},{"id":114354,"adult":false},{"id":13390,"adult":false},{"id":265368,"adult":false},{"id":323424,"adult":false},{"id":37958,"adult":false},{"id":7450,"adult":false},{"id":323425,"adult":false},{"id":130182,"adult":false},{"id":277778,"adult":false},{"id":57279,"adult":false},{"id":239525,"adult":false},{"id":320430,"adult":false},{"id":329,"adult":false},{"id":51386,"adult":false},{"id":323426,"adult":false},{"id":41216,"adult":false},{"id":323427,"adult":false},{"id":239526,"adult":false},{"id":212640,"adult":false},{"id":323428,"adult":false},{"id":79064,"adult":false},{"id":9297,"adult":false},{"id":63971,"adult":false},{"id":316713,"adult":false},{"id":15512,"adult":false},{"id":7484,"adult":false},{"id":278,"adult":false},{"id":203819,"adult":false},{"id":323429,"adult":false},{"id":313733,"adult":false},{"id":323430,"adult":false},{"id":190183,"adult":false},{"id":41962,"adult":false},{"id":2164,"adult":false},{"id":5494,"adult":false},{"id":254128,"adult":false},{"id":115969,"adult":false},{"id":185987,"adult":false},{"id":41020,"adult":false},{"id":311770,"adult":false},{"id":102899,"adult":false},{"id":323431,"adult":false},{"id":8325,"adult":false},{"id":73861,"adult":false},{"id":238,"adult":false},{"id":312911,"adult":false},{"id":315937,"adult":null},{"id":315935,"adult":null},{"id":315932,"adult":null},{"id":196867,"adult":false},{"id":71910,"adult":false},{"id":203834,"adult":false},{"id":28797,"adult":false},{"id":133965,"adult":false},{"id":239,"adult":false},{"id":9449,"adult":false},{"id":323432,"adult":false},{"id":28580,"adult":false},{"id":1946,"adult":false},{"id":83899,"adult":false},{"id":22821,"adult":false},{"id":14799,"adult":false},{"id":323433,"adult":false},{"id":245501,"adult":false},{"id":323434,"adult":false},{"id":323435,"adult":false},{"id":28067,"adult":false},{"id":113252,"adult":false},{"id":85983,"adult":false},{"id":27401,"adult":false},{"id":27411,"adult":false},{"id":74381,"adult":false},{"id":27392,"adult":false},{"id":29407,"adult":false},{"id":77257,"adult":false},{"id":127832,"adult":false},{"id":323436,"adult":false},{"id":323437,"adult":false},{"id":54112,"adult":false},{"id":80123,"adult":false},{"id":323438,"adult":false},{"id":10004,"adult":false},{"id":83900,"adult":false},{"id":323439,"adult":false},{"id":9022,"adult":false},{"id":36234,"adult":false},{"id":323440,"adult":false},{"id":3539,"adult":false}],"page":39,"total_pages":117,"total_results":11629}