{"results":[{"id":264670,"adult":false},{"id":274167,"adult":false},{"id":366993,"adult":false},{"id":70580,"adult":false},{"id":299687,"adult":false},{"id":214529,"adult":false},{"id":366994,"adult":false},{"id":112869,"adult":false},{"id":331789,"adult":false},{"id":126963,"adult":false},{"id":271133,"adult":false},{"id":366995,"adult":false},{"id":300673,"adult":false},{"id":167305,"adult":false},{"id":46776,"adult":false},{"id":366996,"adult":false},{"id":213681,"adult":false},{"id":73676,"adult":false},{"id":366997,"adult":true},{"id":366998,"adult":false},{"id":366999,"adult":null},{"id":200719,"adult":false},{"id":83767,"adult":false},{"id":280092,"adult":false},{"id":367000,"adult":false},{"id":348089,"adult":false},{"id":341741,"adult":false},{"id":4613,"adult":false},{"id":367001,"adult":false},{"id":52883,"adult":false},{"id":37144,"adult":false},{"id":347755,"adult":false},{"id":114266,"adult":false},{"id":230326,"adult":false},{"id":9453,"adult":false},{"id":362591,"adult":false},{"id":15374,"adult":false},{"id":259072,"adult":false},{"id":64293,"adult":false},{"id":44480,"adult":false},{"id":51333,"adult":false},{"id":62934,"adult":false},{"id":367002,"adult":false},{"id":171282,"adult":false},{"id":146365,"adult":false},{"id":15667,"adult":false},{"id":4104,"adult":false},{"id":10163,"adult":false},{"id":3989,"adult":false},{"id":367003,"adult":false},{"id":82178,"adult":false},{"id":27990,"adult":false},{"id":367004,"adult":false},{"id":61392,"adult":false},{"id":105348,"adult":false},{"id":164828,"adult":false},{"id":215918,"adult":false},{"id":50070,"adult":false},{"id":367005,"adult":false},{"id":293816,"adult":false},{"id":158964,"adult":false},{"id":10768,"adult":false},{"id":10766,"adult":false},{"id":159798,"adult":false},{"id":367006,"adult":false},{"id":330115,"adult":false},{"id":367007,"adult":false},{"id":47921,"adult":false},{"id":25512,"adult":false},{"id":54773,"adult":false},{"id":362435,"adult":true},{"id":367008,"adult":false},{"id":359787,"adult":false},{"id":367009,"adult":true},{"id":256543,"adult":false},{"id":45650,"adult":false},{"id":340322,"adult":false},{"id":337403,"adult":false},{"id":297472,"adult":false},{"id":367010,"adult":false},{"id":9080,"adult":false},{"id":176287,"adult":false},{"id":365065,"adult":false},{"id":287925,"adult":false},{"id":104522,"adult":false},{"id":85441,"adult":false},{"id":284256,"adult":false},{"id":24230,"adult":false},{"id":316334,"adult":false},{"id":91166,"adult":false},{"id":367011,"adult":false},{"id":304025,"adult":false},{"id":350786,"adult":false},{"id":263949,"adult":false},{"id":338031,"adult":false},{"id":243864,"adult":false},{"id":54186,"adult":false},{"id":367012,"adult":false},{"id":306767,"adult":false},{"id":367013,"adult":false}],"page":49,"total_pages":108,"total_results":10787}