{"results":[{"id":320046,"adult":false},{"id":311186,"adult":false},{"id":37810,"adult":false},{"id":152611,"adult":false},{"id":42103,"adult":false},{"id":70812,"adult":false},{"id":23047,"adult":false},{"id":139499,"adult":false},{"id":13022,"adult":false},{"id":280091,"adult":false},{"id":10061,"adult":false},{"id":308651,"adult":false},{"id":11703,"adult":false},{"id":9506,"adult":false},{"id":128154,"adult":false},{"id":9813,"adult":false},{"id":193888,"adult":false},{"id":59352,"adult":false},{"id":261123,"adult":false},{"id":139497,"adult":false},{"id":52414,"adult":false},{"id":2567,"adult":false},{"id":17136,"adult":false},{"id":301996,"adult":false},{"id":2179,"adult":false},{"id":320047,"adult":false},{"id":314095,"adult":false},{"id":11857,"adult":false},{"id":2112,"adult":false},{"id":320048,"adult":false},{"id":28059,"adult":false},{"id":1776,"adult":false},{"id":40715,"adult":false},{"id":128215,"adult":false},{"id":320049,"adult":false},{"id":314389,"adult":false},{"id":78,"adult":false},{"id":33436,"adult":false},{"id":9314,"adult":false},{"id":68,"adult":false},{"id":270696,"adult":false},{"id":63,"adult":false},{"id":157482,"adult":false},{"id":36800,"adult":false},{"id":65127,"adult":false},{"id":13317,"adult":false},{"id":131655,"adult":false},{"id":48630,"adult":false},{"id":283087,"adult":false},{"id":281575,"adult":false},{"id":26508,"adult":false},{"id":320050,"adult":false},{"id":13636,"adult":false},{"id":191823,"adult":false},{"id":282759,"adult":false},{"id":253307,"adult":false},{"id":10881,"adult":false},{"id":88726,"adult":false},{"id":1103,"adult":false},{"id":236179,"adult":false},{"id":320051,"adult":false},{"id":142115,"adult":false},{"id":19384,"adult":false},{"id":301505,"adult":false},{"id":73262,"adult":false},{"id":50821,"adult":false},{"id":63295,"adult":false},{"id":52870,"adult":false},{"id":320052,"adult":false},{"id":320053,"adult":false},{"id":63462,"adult":false},{"id":251705,"adult":false},{"id":123670,"adult":false},{"id":320054,"adult":false},{"id":2157,"adult":false},{"id":315855,"adult":false},{"id":98252,"adult":false},{"id":8737,"adult":false},{"id":42720,"adult":false},{"id":320055,"adult":false},{"id":266731,"adult":false},{"id":320056,"adult":false},{"id":256663,"adult":false},{"id":320057,"adult":false},{"id":125358,"adult":false},{"id":40140,"adult":false},{"id":126774,"adult":false},{"id":1942,"adult":false},{"id":320058,"adult":false},{"id":11321,"adult":false},{"id":115695,"adult":false},{"id":115693,"adult":false},{"id":320059,"adult":false},{"id":320060,"adult":false},{"id":320061,"adult":false},{"id":38365,"adult":false},{"id":320062,"adult":false},{"id":320063,"adult":false},{"id":320064,"adult":false},{"id":19497,"adult":false}],"page":60,"total_pages":120,"total_results":11995}