{"results":[{"id":64246,"adult":false},{"id":176570,"adult":false},{"id":314602,"adult":false},{"id":329030,"adult":false},{"id":269374,"adult":false},{"id":321121,"adult":false},{"id":236979,"adult":false},{"id":329031,"adult":false},{"id":24702,"adult":false},{"id":247453,"adult":false},{"id":321118,"adult":false},{"id":98478,"adult":false},{"id":321129,"adult":false},{"id":86114,"adult":false},{"id":329032,"adult":false},{"id":101378,"adult":false},{"id":100599,"adult":false},{"id":56203,"adult":false},{"id":174790,"adult":false},{"id":329033,"adult":false},{"id":67730,"adult":false},{"id":296214,"adult":false},{"id":329034,"adult":false},{"id":329035,"adult":false},{"id":329036,"adult":false},{"id":329037,"adult":false},{"id":191765,"adult":false},{"id":329038,"adult":false},{"id":95943,"adult":false},{"id":178821,"adult":false},{"id":165292,"adult":false},{"id":184862,"adult":false},{"id":329039,"adult":false},{"id":329040,"adult":false},{"id":80560,"adult":false},{"id":329041,"adult":false},{"id":284653,"adult":false},{"id":47947,"adult":false},{"id":296076,"adult":false},{"id":4951,"adult":false},{"id":286302,"adult":false},{"id":329042,"adult":false},{"id":285824,"adult":false},{"id":4800,"adult":false},{"id":251350,"adult":false},{"id":67496,"adult":false},{"id":36832,"adult":false},{"id":96349,"adult":false},{"id":258107,"adult":false},{"id":271726,"adult":false},{"id":204445,"adult":false},{"id":257089,"adult":false},{"id":256216,"adult":false},{"id":157233,"adult":false},{"id":256666,"adult":false},{"id":256662,"adult":false},{"id":256663,"adult":false},{"id":270055,"adult":false},{"id":308434,"adult":false},{"id":301838,"adult":false},{"id":88167,"adult":false},{"id":88169,"adult":false},{"id":88185,"adult":false},{"id":88471,"adult":false},{"id":88164,"adult":false},{"id":88188,"adult":false},{"id":88199,"adult":false},{"id":88182,"adult":false},{"id":88205,"adult":false},{"id":88172,"adult":false},{"id":88161,"adult":false},{"id":88467,"adult":false},{"id":14854,"adult":false},{"id":88170,"adult":false},{"id":88206,"adult":false},{"id":207335,"adult":false},{"id":88300,"adult":false},{"id":252141,"adult":false},{"id":315650,"adult":false},{"id":259614,"adult":false},{"id":88186,"adult":false},{"id":272644,"adult":false},{"id":297376,"adult":false},{"id":283246,"adult":false},{"id":1694,"adult":false},{"id":329043,"adult":false},{"id":19354,"adult":false},{"id":175601,"adult":false},{"id":88158,"adult":false},{"id":88463,"adult":false},{"id":145803,"adult":false},{"id":2333,"adult":false},{"id":329044,"adult":false},{"id":313564,"adult":false},{"id":329045,"adult":false},{"id":329046,"adult":false},{"id":329047,"adult":false},{"id":329048,"adult":false},{"id":52475,"adult":false},{"id":329049,"adult":false}],"page":59,"total_pages":123,"total_results":12300}