{"results":[{"id":241702,"adult":false},{"id":30899,"adult":false},{"id":63522,"adult":false},{"id":287080,"adult":false},{"id":247773,"adult":false},{"id":9686,"adult":false},{"id":278733,"adult":false},{"id":13912,"adult":false},{"id":295752,"adult":false},{"id":116745,"adult":false},{"id":156347,"adult":false},{"id":311551,"adult":false},{"id":315201,"adult":false},{"id":315202,"adult":false},{"id":279715,"adult":false},{"id":312735,"adult":false},{"id":293205,"adult":false},{"id":249164,"adult":false},{"id":2310,"adult":false},{"id":41215,"adult":false},{"id":496,"adult":false},{"id":315203,"adult":false},{"id":257648,"adult":false},{"id":314916,"adult":null},{"id":73885,"adult":false},{"id":285947,"adult":null},{"id":166588,"adult":false},{"id":115695,"adult":false},{"id":287607,"adult":null},{"id":310140,"adult":null},{"id":129509,"adult":false},{"id":280170,"adult":false},{"id":272984,"adult":null},{"id":314889,"adult":false},{"id":259171,"adult":false},{"id":167733,"adult":false},{"id":223702,"adult":false},{"id":308470,"adult":false},{"id":294424,"adult":null},{"id":272671,"adult":false},{"id":1538,"adult":false},{"id":280145,"adult":false},{"id":315204,"adult":false},{"id":14564,"adult":false},{"id":315205,"adult":false},{"id":315206,"adult":false},{"id":298034,"adult":false},{"id":297222,"adult":false},{"id":306687,"adult":false},{"id":315207,"adult":false},{"id":311217,"adult":false},{"id":309981,"adult":false},{"id":314071,"adult":false},{"id":203835,"adult":false},{"id":49530,"adult":false},{"id":315208,"adult":false},{"id":270724,"adult":false},{"id":315209,"adult":false},{"id":315210,"adult":false},{"id":315211,"adult":false},{"id":282984,"adult":false},{"id":68730,"adult":false},{"id":3543,"adult":false},{"id":241224,"adult":false},{"id":234121,"adult":false},{"id":315212,"adult":false},{"id":285826,"adult":false},{"id":276472,"adult":null},{"id":65649,"adult":false},{"id":193461,"adult":false},{"id":89455,"adult":false},{"id":147441,"adult":false},{"id":73943,"adult":false},{"id":155941,"adult":false},{"id":315213,"adult":false},{"id":68044,"adult":false},{"id":21370,"adult":false},{"id":18231,"adult":false},{"id":149630,"adult":false},{"id":11646,"adult":false},{"id":16327,"adult":false},{"id":199578,"adult":false},{"id":28685,"adult":false},{"id":77745,"adult":false},{"id":227591,"adult":false},{"id":315214,"adult":false},{"id":158503,"adult":false},{"id":315215,"adult":false},{"id":75612,"adult":false},{"id":296149,"adult":false},{"id":311630,"adult":false},{"id":46138,"adult":false},{"id":253714,"adult":false},{"id":263504,"adult":null},{"id":7863,"adult":false},{"id":170804,"adult":false},{"id":12542,"adult":false},{"id":315216,"adult":true},{"id":202678,"adult":false},{"id":5559,"adult":false}],"page":11,"total_pages":115,"total_results":11442}