{"results":[{"id":48787,"adult":false},{"id":16699,"adult":false},{"id":19899,"adult":false},{"id":109439,"adult":false},{"id":44912,"adult":false},{"id":11403,"adult":false},{"id":41894,"adult":false},{"id":46198,"adult":false},{"id":9987,"adult":false},{"id":50854,"adult":false},{"id":364761,"adult":false},{"id":44982,"adult":false},{"id":48739,"adult":false},{"id":144870,"adult":false},{"id":309919,"adult":false},{"id":50855,"adult":false},{"id":174821,"adult":false},{"id":55081,"adult":false},{"id":34825,"adult":false},{"id":364762,"adult":false},{"id":110160,"adult":false},{"id":364763,"adult":false},{"id":215144,"adult":false},{"id":10990,"adult":false},{"id":10855,"adult":false},{"id":14087,"adult":false},{"id":133698,"adult":false},{"id":364764,"adult":false},{"id":49842,"adult":false},{"id":14637,"adult":false},{"id":204082,"adult":false},{"id":53218,"adult":false},{"id":160702,"adult":false},{"id":364765,"adult":false},{"id":293660,"adult":false},{"id":52631,"adult":false},{"id":253131,"adult":null},{"id":333182,"adult":false},{"id":364766,"adult":false},{"id":364767,"adult":false},{"id":364768,"adult":false},{"id":364769,"adult":false},{"id":104161,"adult":false},{"id":364770,"adult":false},{"id":364771,"adult":false},{"id":133174,"adult":false},{"id":37531,"adult":false},{"id":25482,"adult":false},{"id":309739,"adult":false},{"id":163838,"adult":false},{"id":175362,"adult":false},{"id":286070,"adult":false},{"id":255682,"adult":false},{"id":364772,"adult":false},{"id":11113,"adult":false},{"id":224250,"adult":false},{"id":364773,"adult":false},{"id":27402,"adult":false},{"id":364774,"adult":false},{"id":54435,"adult":false},{"id":168463,"adult":false},{"id":66774,"adult":false},{"id":9280,"adult":false},{"id":46250,"adult":false},{"id":7278,"adult":false},{"id":364775,"adult":false},{"id":312097,"adult":false},{"id":363369,"adult":false},{"id":2251,"adult":false},{"id":364776,"adult":false},{"id":364777,"adult":false},{"id":304378,"adult":false},{"id":54434,"adult":false},{"id":14433,"adult":false},{"id":144013,"adult":false},{"id":13098,"adult":false},{"id":289019,"adult":false},{"id":364778,"adult":false},{"id":361537,"adult":false},{"id":364779,"adult":false},{"id":137563,"adult":false},{"id":361538,"adult":false},{"id":27104,"adult":false},{"id":36550,"adult":false},{"id":364780,"adult":false},{"id":364781,"adult":false},{"id":137106,"adult":false},{"id":317464,"adult":false},{"id":174168,"adult":false},{"id":199341,"adult":false},{"id":169609,"adult":false},{"id":8073,"adult":false},{"id":279139,"adult":false},{"id":352124,"adult":false},{"id":43584,"adult":false},{"id":364782,"adult":false},{"id":330302,"adult":false},{"id":10604,"adult":false},{"id":364783,"adult":false},{"id":23550,"adult":false}],"page":40,"total_pages":85,"total_results":8453}