{"results":[{"id":1934,"adult":false},{"id":5851,"adult":false},{"id":337384,"adult":false},{"id":13160,"adult":false},{"id":32823,"adult":false},{"id":19899,"adult":false},{"id":6877,"adult":false},{"id":957,"adult":false},{"id":14655,"adult":false},{"id":337385,"adult":false},{"id":8427,"adult":false},{"id":9384,"adult":false},{"id":16699,"adult":false},{"id":7303,"adult":false},{"id":2148,"adult":false},{"id":337386,"adult":false},{"id":308266,"adult":false},{"id":30114,"adult":false},{"id":337387,"adult":false},{"id":40498,"adult":false},{"id":14181,"adult":false},{"id":184098,"adult":false},{"id":337388,"adult":false},{"id":1920,"adult":false},{"id":332979,"adult":false},{"id":337389,"adult":false},{"id":211488,"adult":false},{"id":248457,"adult":false},{"id":297135,"adult":false},{"id":121132,"adult":false},{"id":56653,"adult":false},{"id":337390,"adult":false},{"id":337391,"adult":null},{"id":184341,"adult":false},{"id":317442,"adult":false},{"id":10923,"adult":false},{"id":17047,"adult":false},{"id":6589,"adult":false},{"id":11918,"adult":false},{"id":274167,"adult":false},{"id":38961,"adult":false},{"id":319119,"adult":false},{"id":39995,"adult":false},{"id":253509,"adult":false},{"id":401,"adult":false},{"id":9293,"adult":false},{"id":9621,"adult":false},{"id":86763,"adult":false},{"id":47939,"adult":false},{"id":1819,"adult":false},{"id":42641,"adult":false},{"id":72430,"adult":false},{"id":18402,"adult":false},{"id":262100,"adult":false},{"id":294136,"adult":false},{"id":1588,"adult":false},{"id":12540,"adult":false},{"id":173853,"adult":false},{"id":11211,"adult":false},{"id":15261,"adult":false},{"id":21474,"adult":false},{"id":20009,"adult":false},{"id":132734,"adult":false},{"id":12797,"adult":false},{"id":8491,"adult":false},{"id":60451,"adult":false},{"id":10067,"adult":false},{"id":15555,"adult":false},{"id":21765,"adult":false},{"id":59725,"adult":false},{"id":6283,"adult":false},{"id":12573,"adult":false},{"id":188640,"adult":false},{"id":110143,"adult":false},{"id":51979,"adult":false},{"id":54610,"adult":false},{"id":22784,"adult":false},{"id":315836,"adult":false},{"id":48240,"adult":false},{"id":34320,"adult":false},{"id":20181,"adult":false},{"id":34943,"adult":false},{"id":7553,"adult":false},{"id":11247,"adult":false},{"id":218736,"adult":false},{"id":337392,"adult":null},{"id":14197,"adult":false},{"id":337393,"adult":false},{"id":14547,"adult":false},{"id":70590,"adult":false},{"id":40264,"adult":false},{"id":13596,"adult":false},{"id":20618,"adult":false},{"id":103747,"adult":false},{"id":6878,"adult":false},{"id":25059,"adult":false},{"id":26337,"adult":false},{"id":55725,"adult":false},{"id":24438,"adult":false},{"id":321534,"adult":false}],"page":81,"total_pages":102,"total_results":10168}