{"results":[{"id":25599,"adult":false},{"id":319924,"adult":false},{"id":47931,"adult":false},{"id":30197,"adult":false},{"id":162932,"adult":false},{"id":11202,"adult":false},{"id":29005,"adult":false},{"id":67175,"adult":false},{"id":68408,"adult":false},{"id":16591,"adult":false},{"id":5924,"adult":false},{"id":56009,"adult":false},{"id":326044,"adult":false},{"id":156280,"adult":false},{"id":76822,"adult":false},{"id":756,"adult":false},{"id":96292,"adult":false},{"id":78146,"adult":false},{"id":15947,"adult":false},{"id":14906,"adult":false},{"id":282387,"adult":false},{"id":326045,"adult":false},{"id":56015,"adult":false},{"id":107524,"adult":false},{"id":67790,"adult":false},{"id":316707,"adult":false},{"id":12201,"adult":false},{"id":12519,"adult":false},{"id":612,"adult":false},{"id":326046,"adult":false},{"id":296796,"adult":false},{"id":43636,"adult":false},{"id":21220,"adult":false},{"id":326047,"adult":false},{"id":114678,"adult":false},{"id":267804,"adult":false},{"id":2652,"adult":false},{"id":43411,"adult":false},{"id":326048,"adult":false},{"id":326049,"adult":false},{"id":61353,"adult":null},{"id":49554,"adult":false},{"id":3125,"adult":false},{"id":5951,"adult":false},{"id":249206,"adult":null},{"id":304819,"adult":false},{"id":206637,"adult":false},{"id":326050,"adult":false},{"id":42477,"adult":false},{"id":326051,"adult":false},{"id":660,"adult":false},{"id":29416,"adult":false},{"id":2755,"adult":false},{"id":110390,"adult":false},{"id":326052,"adult":false},{"id":82700,"adult":false},{"id":253310,"adult":false},{"id":12159,"adult":false},{"id":326053,"adult":false},{"id":30689,"adult":false},{"id":101669,"adult":false},{"id":228194,"adult":false},{"id":29417,"adult":false},{"id":326054,"adult":false},{"id":61702,"adult":false},{"id":326055,"adult":false},{"id":82667,"adult":false},{"id":6962,"adult":false},{"id":268909,"adult":false},{"id":326056,"adult":false},{"id":326057,"adult":false},{"id":286656,"adult":false},{"id":153054,"adult":false},{"id":326058,"adult":false},{"id":252854,"adult":false},{"id":119378,"adult":false},{"id":161690,"adult":null},{"id":326059,"adult":false},{"id":321207,"adult":false},{"id":5690,"adult":false},{"id":326060,"adult":false},{"id":254872,"adult":false},{"id":37042,"adult":false},{"id":2985,"adult":false},{"id":282801,"adult":false},{"id":93540,"adult":false},{"id":326061,"adult":false},{"id":325002,"adult":false},{"id":37604,"adult":false},{"id":70841,"adult":false},{"id":245916,"adult":false},{"id":326062,"adult":false},{"id":179150,"adult":false},{"id":312795,"adult":false},{"id":40394,"adult":false},{"id":2750,"adult":false},{"id":326063,"adult":false},{"id":43136,"adult":false},{"id":64789,"adult":false},{"id":326064,"adult":false}],"page":31,"total_pages":112,"total_results":11193}