{"results":[{"id":20650,"adult":false},{"id":333733,"adult":false},{"id":342217,"adult":false},{"id":337331,"adult":false},{"id":345973,"adult":false},{"id":338864,"adult":false},{"id":271127,"adult":false},{"id":318912,"adult":false},{"id":363738,"adult":false},{"id":80650,"adult":false},{"id":72784,"adult":false},{"id":114444,"adult":false},{"id":362093,"adult":false},{"id":290769,"adult":false},{"id":110115,"adult":false},{"id":110090,"adult":false},{"id":200505,"adult":false},{"id":356888,"adult":false},{"id":63020,"adult":false},{"id":551,"adult":false},{"id":363739,"adult":false},{"id":284,"adult":false},{"id":363740,"adult":false},{"id":327316,"adult":false},{"id":37606,"adult":false},{"id":17352,"adult":false},{"id":60181,"adult":false},{"id":340899,"adult":false},{"id":37616,"adult":false},{"id":340755,"adult":false},{"id":9462,"adult":false},{"id":1979,"adult":false},{"id":9090,"adult":false},{"id":881,"adult":false},{"id":359755,"adult":false},{"id":38580,"adult":false},{"id":363741,"adult":false},{"id":71135,"adult":null},{"id":395,"adult":false},{"id":272,"adult":false},{"id":254143,"adult":false},{"id":58372,"adult":false},{"id":2310,"adult":false},{"id":4639,"adult":false},{"id":147965,"adult":false},{"id":363742,"adult":false},{"id":2277,"adult":false},{"id":36647,"adult":false},{"id":61548,"adult":false},{"id":36586,"adult":false},{"id":197,"adult":false},{"id":40168,"adult":false},{"id":8963,"adult":false},{"id":363743,"adult":false},{"id":285295,"adult":null},{"id":106946,"adult":false},{"id":10027,"adult":false},{"id":363744,"adult":false},{"id":49049,"adult":false},{"id":11713,"adult":false},{"id":317744,"adult":false},{"id":283686,"adult":false},{"id":807,"adult":false},{"id":193756,"adult":false},{"id":363745,"adult":false},{"id":363746,"adult":false},{"id":15573,"adult":false},{"id":20386,"adult":false},{"id":95371,"adult":false},{"id":363747,"adult":false},{"id":3578,"adult":false},{"id":1710,"adult":false},{"id":141043,"adult":false},{"id":9738,"adult":false},{"id":32254,"adult":false},{"id":72831,"adult":false},{"id":337316,"adult":false},{"id":333399,"adult":false},{"id":782,"adult":false},{"id":363748,"adult":false},{"id":132395,"adult":false},{"id":26379,"adult":false},{"id":33570,"adult":false},{"id":26890,"adult":false},{"id":137209,"adult":false},{"id":317018,"adult":false},{"id":345144,"adult":null},{"id":75294,"adult":false},{"id":345237,"adult":false},{"id":363749,"adult":false},{"id":345270,"adult":false},{"id":363750,"adult":false},{"id":18189,"adult":false},{"id":363751,"adult":false},{"id":348989,"adult":false},{"id":44179,"adult":false},{"id":339088,"adult":false},{"id":21791,"adult":false},{"id":244233,"adult":false},{"id":363752,"adult":false}],"page":94,"total_pages":108,"total_results":10774}