{"results":[{"id":358601,"adult":false},{"id":320964,"adult":false},{"id":297702,"adult":false},{"id":35379,"adult":false},{"id":243856,"adult":false},{"id":352161,"adult":false},{"id":10427,"adult":false},{"id":358602,"adult":false},{"id":34766,"adult":false},{"id":73610,"adult":false},{"id":358603,"adult":false},{"id":296178,"adult":false},{"id":287507,"adult":false},{"id":358604,"adult":false},{"id":601,"adult":false},{"id":358605,"adult":false},{"id":126710,"adult":false},{"id":1675,"adult":false},{"id":358606,"adult":false},{"id":347897,"adult":false},{"id":139848,"adult":false},{"id":269776,"adult":false},{"id":358607,"adult":false},{"id":228736,"adult":false},{"id":358608,"adult":false},{"id":9356,"adult":false},{"id":10996,"adult":false},{"id":27598,"adult":false},{"id":310120,"adult":false},{"id":4658,"adult":false},{"id":5461,"adult":false},{"id":288522,"adult":false},{"id":288527,"adult":false},{"id":358609,"adult":false},{"id":358610,"adult":false},{"id":330081,"adult":false},{"id":348346,"adult":false},{"id":358611,"adult":false},{"id":314252,"adult":null},{"id":286571,"adult":false},{"id":292739,"adult":null},{"id":153717,"adult":false},{"id":29982,"adult":false},{"id":258763,"adult":false},{"id":346752,"adult":false},{"id":260487,"adult":false},{"id":7460,"adult":false},{"id":11108,"adult":false},{"id":340382,"adult":false},{"id":1658,"adult":false},{"id":7272,"adult":false},{"id":6400,"adult":false},{"id":8465,"adult":false},{"id":1814,"adult":false},{"id":8400,"adult":false},{"id":358612,"adult":false},{"id":270,"adult":false},{"id":358613,"adult":false},{"id":8062,"adult":false},{"id":8739,"adult":false},{"id":346352,"adult":false},{"id":358614,"adult":false},{"id":351811,"adult":null},{"id":194738,"adult":false},{"id":340875,"adult":false},{"id":340973,"adult":false},{"id":355872,"adult":false},{"id":358615,"adult":false},{"id":97226,"adult":false},{"id":152423,"adult":false},{"id":125096,"adult":false},{"id":358616,"adult":false},{"id":198983,"adult":false},{"id":317381,"adult":false},{"id":296302,"adult":false},{"id":78317,"adult":false},{"id":218778,"adult":false},{"id":358617,"adult":false},{"id":358618,"adult":false},{"id":8945,"adult":false},{"id":358619,"adult":false},{"id":221355,"adult":false},{"id":358620,"adult":false},{"id":348890,"adult":false},{"id":177159,"adult":false},{"id":84772,"adult":false},{"id":357066,"adult":false},{"id":51699,"adult":false},{"id":10865,"adult":false},{"id":158821,"adult":false},{"id":358621,"adult":false},{"id":257081,"adult":false},{"id":297680,"adult":false},{"id":74675,"adult":false},{"id":358622,"adult":false},{"id":195869,"adult":false},{"id":347751,"adult":false},{"id":358623,"adult":false},{"id":339751,"adult":false},{"id":358624,"adult":null}],"page":63,"total_pages":112,"total_results":11114}