{"results":[{"id":323426,"adult":false},{"id":273866,"adult":false},{"id":50370,"adult":false},{"id":265281,"adult":false},{"id":350779,"adult":false},{"id":278366,"adult":null},{"id":314109,"adult":false},{"id":353971,"adult":false},{"id":323694,"adult":false},{"id":9710,"adult":false},{"id":305452,"adult":false},{"id":323665,"adult":false},{"id":154032,"adult":false},{"id":157803,"adult":false},{"id":353972,"adult":false},{"id":353973,"adult":false},{"id":54121,"adult":false},{"id":353974,"adult":false},{"id":353975,"adult":false},{"id":353976,"adult":false},{"id":764,"adult":false},{"id":353977,"adult":false},{"id":353978,"adult":null},{"id":207909,"adult":false},{"id":353979,"adult":false},{"id":353980,"adult":false},{"id":310123,"adult":false},{"id":9947,"adult":false},{"id":177,"adult":false},{"id":269033,"adult":null},{"id":44742,"adult":false},{"id":53637,"adult":false},{"id":353981,"adult":false},{"id":4929,"adult":false},{"id":125133,"adult":false},{"id":148183,"adult":false},{"id":336139,"adult":true},{"id":353982,"adult":false},{"id":353983,"adult":false},{"id":82507,"adult":false},{"id":86480,"adult":false},{"id":353984,"adult":false},{"id":353985,"adult":false},{"id":351460,"adult":false},{"id":353986,"adult":false},{"id":807,"adult":false},{"id":146823,"adult":false},{"id":255959,"adult":false},{"id":353987,"adult":false},{"id":109907,"adult":false},{"id":255958,"adult":false},{"id":75667,"adult":false},{"id":19107,"adult":false},{"id":353988,"adult":false},{"id":326425,"adult":false},{"id":118013,"adult":false},{"id":256287,"adult":false},{"id":317136,"adult":false},{"id":171424,"adult":false},{"id":319297,"adult":false},{"id":10409,"adult":false},{"id":353989,"adult":false},{"id":288572,"adult":false},{"id":57002,"adult":false},{"id":278543,"adult":false},{"id":332179,"adult":false},{"id":284305,"adult":false},{"id":287689,"adult":false},{"id":353990,"adult":false},{"id":16820,"adult":false},{"id":353991,"adult":false},{"id":336716,"adult":false},{"id":353992,"adult":false},{"id":353993,"adult":false},{"id":353994,"adult":false},{"id":353995,"adult":false},{"id":190469,"adult":false},{"id":202001,"adult":false},{"id":353996,"adult":false},{"id":86331,"adult":false},{"id":74306,"adult":false},{"id":11798,"adult":false},{"id":229842,"adult":false},{"id":65040,"adult":false},{"id":9403,"adult":false},{"id":25557,"adult":false},{"id":91005,"adult":false},{"id":319,"adult":false},{"id":114214,"adult":false},{"id":5971,"adult":false},{"id":5896,"adult":false},{"id":349070,"adult":false},{"id":9570,"adult":false},{"id":30636,"adult":false},{"id":987,"adult":false},{"id":113597,"adult":false},{"id":47955,"adult":false},{"id":15462,"adult":false},{"id":15018,"adult":false},{"id":47397,"adult":false}],"page":69,"total_pages":89,"total_results":8876}