{"results":[{"id":292748,"adult":false},{"id":356679,"adult":null},{"id":373792,"adult":false},{"id":373795,"adult":false},{"id":158113,"adult":false},{"id":312586,"adult":false},{"id":171398,"adult":false},{"id":373796,"adult":false},{"id":373797,"adult":false},{"id":279874,"adult":false},{"id":15766,"adult":false},{"id":373798,"adult":false},{"id":101558,"adult":false},{"id":34014,"adult":false},{"id":227707,"adult":false},{"id":287524,"adult":false},{"id":367858,"adult":false},{"id":75566,"adult":false},{"id":39465,"adult":false},{"id":24471,"adult":null},{"id":317855,"adult":false},{"id":19545,"adult":false},{"id":373799,"adult":false},{"id":248275,"adult":null},{"id":373800,"adult":false},{"id":248277,"adult":null},{"id":248278,"adult":null},{"id":248279,"adult":null},{"id":370685,"adult":false},{"id":347688,"adult":false},{"id":42627,"adult":false},{"id":171406,"adult":false},{"id":295277,"adult":false},{"id":373801,"adult":false},{"id":238475,"adult":false},{"id":8869,"adult":false},{"id":36683,"adult":false},{"id":39123,"adult":false},{"id":25114,"adult":false},{"id":346469,"adult":false},{"id":373802,"adult":false},{"id":373804,"adult":false},{"id":373805,"adult":false},{"id":184554,"adult":false},{"id":373806,"adult":null},{"id":268269,"adult":false},{"id":344434,"adult":false},{"id":373807,"adult":false},{"id":339751,"adult":false},{"id":373808,"adult":false},{"id":373809,"adult":true},{"id":283718,"adult":false},{"id":56171,"adult":false},{"id":373810,"adult":true},{"id":10386,"adult":false},{"id":11874,"adult":false},{"id":338618,"adult":null},{"id":49743,"adult":false},{"id":249567,"adult":false},{"id":141897,"adult":false},{"id":373811,"adult":true},{"id":70927,"adult":false},{"id":10915,"adult":false},{"id":16405,"adult":false},{"id":19888,"adult":false},{"id":264824,"adult":false},{"id":12912,"adult":false},{"id":49354,"adult":false},{"id":133792,"adult":false},{"id":9016,"adult":false},{"id":87093,"adult":false},{"id":373812,"adult":false},{"id":18512,"adult":false},{"id":373813,"adult":null},{"id":85371,"adult":false},{"id":373814,"adult":false},{"id":508,"adult":false},{"id":19506,"adult":false},{"id":322132,"adult":null},{"id":362507,"adult":false},{"id":339516,"adult":false},{"id":238570,"adult":false},{"id":42092,"adult":false},{"id":8927,"adult":false},{"id":255432,"adult":false},{"id":134380,"adult":false},{"id":73655,"adult":false},{"id":39076,"adult":false},{"id":54435,"adult":false},{"id":263467,"adult":false},{"id":364322,"adult":false},{"id":359993,"adult":false},{"id":274545,"adult":false},{"id":111412,"adult":false},{"id":330894,"adult":false},{"id":366363,"adult":false},{"id":9543,"adult":false},{"id":276928,"adult":false},{"id":373815,"adult":false},{"id":21410,"adult":false}],"page":64,"total_pages":108,"total_results":10739}