{"results":[{"id":8078,"adult":false},{"id":360235,"adult":false},{"id":360236,"adult":false},{"id":13207,"adult":false},{"id":71211,"adult":false},{"id":353686,"adult":false},{"id":289285,"adult":false},{"id":293223,"adult":false},{"id":86302,"adult":false},{"id":191293,"adult":false},{"id":10320,"adult":false},{"id":257445,"adult":false},{"id":4494,"adult":false},{"id":159344,"adult":false},{"id":65783,"adult":false},{"id":36593,"adult":false},{"id":105059,"adult":false},{"id":266639,"adult":false},{"id":315757,"adult":false},{"id":146301,"adult":false},{"id":179798,"adult":false},{"id":245168,"adult":false},{"id":360237,"adult":false},{"id":352199,"adult":false},{"id":37137,"adult":false},{"id":360238,"adult":false},{"id":184143,"adult":false},{"id":265226,"adult":false},{"id":33570,"adult":false},{"id":347797,"adult":false},{"id":324157,"adult":false},{"id":308956,"adult":false},{"id":345617,"adult":false},{"id":243333,"adult":false},{"id":6399,"adult":false},{"id":330348,"adult":false},{"id":30671,"adult":false},{"id":274040,"adult":false},{"id":352157,"adult":false},{"id":245473,"adult":false},{"id":75553,"adult":false},{"id":278464,"adult":false},{"id":2625,"adult":false},{"id":360239,"adult":false},{"id":205715,"adult":false},{"id":301351,"adult":false},{"id":271718,"adult":false},{"id":297569,"adult":false},{"id":360240,"adult":false},{"id":346322,"adult":false},{"id":105864,"adult":false},{"id":262652,"adult":false},{"id":262653,"adult":false},{"id":360241,"adult":false},{"id":286351,"adult":false},{"id":262654,"adult":false},{"id":360242,"adult":false},{"id":230019,"adult":false},{"id":248639,"adult":false},{"id":262655,"adult":false},{"id":360243,"adult":false},{"id":10538,"adult":false},{"id":20106,"adult":false},{"id":2095,"adult":false},{"id":360244,"adult":false},{"id":10900,"adult":false},{"id":6720,"adult":false},{"id":56125,"adult":false},{"id":5256,"adult":false},{"id":346079,"adult":false},{"id":179,"adult":false},{"id":10295,"adult":false},{"id":318,"adult":false},{"id":4349,"adult":false},{"id":3595,"adult":false},{"id":325559,"adult":false},{"id":2089,"adult":false},{"id":754,"adult":false},{"id":42307,"adult":false},{"id":10040,"adult":false},{"id":10431,"adult":false},{"id":291181,"adult":false},{"id":8836,"adult":false},{"id":9600,"adult":false},{"id":8387,"adult":false},{"id":5552,"adult":false},{"id":7268,"adult":false},{"id":304613,"adult":false},{"id":5819,"adult":null},{"id":360245,"adult":false},{"id":16261,"adult":false},{"id":12793,"adult":false},{"id":359784,"adult":false},{"id":2906,"adult":false},{"id":360246,"adult":false},{"id":334106,"adult":false},{"id":291356,"adult":false},{"id":360247,"adult":false},{"id":305128,"adult":false},{"id":208134,"adult":false}],"page":17,"total_pages":98,"total_results":9775}