{"results":[{"id":342754,"adult":false},{"id":2260,"adult":false},{"id":344025,"adult":false},{"id":41211,"adult":false},{"id":40693,"adult":false},{"id":342294,"adult":null},{"id":25350,"adult":false},{"id":27765,"adult":false},{"id":164990,"adult":false},{"id":374500,"adult":false},{"id":71688,"adult":false},{"id":48231,"adult":false},{"id":29380,"adult":false},{"id":264337,"adult":false},{"id":10315,"adult":false},{"id":3111,"adult":false},{"id":374501,"adult":false},{"id":8357,"adult":false},{"id":357940,"adult":false},{"id":159967,"adult":false},{"id":15449,"adult":false},{"id":374502,"adult":false},{"id":1999,"adult":false},{"id":374503,"adult":false},{"id":374504,"adult":false},{"id":370725,"adult":false},{"id":371815,"adult":false},{"id":10313,"adult":false},{"id":374505,"adult":false},{"id":374506,"adult":null},{"id":31657,"adult":false},{"id":6519,"adult":false},{"id":16642,"adult":false},{"id":10158,"adult":false},{"id":374507,"adult":false},{"id":24276,"adult":false},{"id":49953,"adult":false},{"id":429,"adult":false},{"id":42232,"adult":false},{"id":155972,"adult":false},{"id":42612,"adult":false},{"id":364067,"adult":false},{"id":54919,"adult":false},{"id":37315,"adult":false},{"id":47249,"adult":false},{"id":2758,"adult":false},{"id":14334,"adult":false},{"id":62676,"adult":false},{"id":6538,"adult":false},{"id":374508,"adult":false},{"id":20536,"adult":false},{"id":325470,"adult":false},{"id":18360,"adult":false},{"id":121856,"adult":false},{"id":18711,"adult":false},{"id":36785,"adult":false},{"id":369886,"adult":false},{"id":11364,"adult":false},{"id":285569,"adult":false},{"id":1775,"adult":false},{"id":374509,"adult":false},{"id":12618,"adult":false},{"id":31608,"adult":false},{"id":26978,"adult":false},{"id":11974,"adult":false},{"id":47878,"adult":false},{"id":61369,"adult":false},{"id":183182,"adult":false},{"id":1691,"adult":false},{"id":308494,"adult":false},{"id":592,"adult":false},{"id":56724,"adult":false},{"id":374510,"adult":false},{"id":10590,"adult":false},{"id":374511,"adult":false},{"id":84038,"adult":false},{"id":293241,"adult":false},{"id":110299,"adult":false},{"id":72495,"adult":false},{"id":93892,"adult":false},{"id":374512,"adult":false},{"id":49966,"adult":false},{"id":11283,"adult":false},{"id":15856,"adult":false},{"id":297578,"adult":false},{"id":49040,"adult":false},{"id":374513,"adult":false},{"id":238612,"adult":false},{"id":1979,"adult":false},{"id":374514,"adult":false},{"id":326895,"adult":false},{"id":285200,"adult":false},{"id":40104,"adult":false},{"id":9909,"adult":false},{"id":374515,"adult":false},{"id":7214,"adult":false},{"id":11978,"adult":false},{"id":258230,"adult":false},{"id":300669,"adult":false},{"id":278924,"adult":false}],"page":106,"total_pages":108,"total_results":10739}