{"results":[{"id":330102,"adult":false},{"id":330103,"adult":false},{"id":330104,"adult":false},{"id":162396,"adult":false},{"id":186098,"adult":false},{"id":80121,"adult":false},{"id":330105,"adult":false},{"id":290829,"adult":false},{"id":330106,"adult":false},{"id":85624,"adult":false},{"id":85618,"adult":false},{"id":167306,"adult":false},{"id":154937,"adult":false},{"id":236007,"adult":false},{"id":57612,"adult":false},{"id":330107,"adult":false},{"id":76099,"adult":false},{"id":194555,"adult":false},{"id":330110,"adult":false},{"id":159265,"adult":false},{"id":40243,"adult":false},{"id":330111,"adult":false},{"id":85810,"adult":false},{"id":83474,"adult":false},{"id":80642,"adult":false},{"id":298325,"adult":false},{"id":312987,"adult":null},{"id":294665,"adult":null},{"id":330112,"adult":false},{"id":330113,"adult":false},{"id":330114,"adult":false},{"id":162928,"adult":false},{"id":316067,"adult":false},{"id":288148,"adult":false},{"id":14962,"adult":false},{"id":248934,"adult":false},{"id":16190,"adult":false},{"id":265024,"adult":false},{"id":253838,"adult":false},{"id":266443,"adult":false},{"id":285054,"adult":false},{"id":330115,"adult":false},{"id":330116,"adult":false},{"id":240745,"adult":false},{"id":175806,"adult":false},{"id":938,"adult":false},{"id":79931,"adult":false},{"id":108733,"adult":false},{"id":106984,"adult":false},{"id":264264,"adult":false},{"id":323967,"adult":false},{"id":330117,"adult":false},{"id":316813,"adult":false},{"id":300922,"adult":false},{"id":166053,"adult":false},{"id":300924,"adult":false},{"id":289239,"adult":false},{"id":9026,"adult":false},{"id":300925,"adult":false},{"id":63876,"adult":false},{"id":330119,"adult":false},{"id":330120,"adult":false},{"id":330121,"adult":false},{"id":52975,"adult":false},{"id":256435,"adult":false},{"id":326060,"adult":false},{"id":330122,"adult":null},{"id":231501,"adult":false},{"id":323107,"adult":false},{"id":3782,"adult":false},{"id":215746,"adult":true},{"id":168761,"adult":false},{"id":303903,"adult":false},{"id":323109,"adult":false},{"id":330124,"adult":false},{"id":330125,"adult":false},{"id":330126,"adult":false},{"id":71401,"adult":false},{"id":330127,"adult":false},{"id":330128,"adult":false},{"id":232036,"adult":false},{"id":318017,"adult":false},{"id":109539,"adult":false},{"id":330129,"adult":false},{"id":226979,"adult":false},{"id":5336,"adult":false},{"id":187615,"adult":false},{"id":127958,"adult":null},{"id":318393,"adult":false},{"id":144686,"adult":false},{"id":330130,"adult":false},{"id":284335,"adult":null},{"id":104314,"adult":false},{"id":282279,"adult":false},{"id":284333,"adult":false},{"id":284334,"adult":false},{"id":330131,"adult":false},{"id":284339,"adult":false},{"id":284340,"adult":false},{"id":70828,"adult":false}],"page":110,"total_pages":123,"total_results":12300}