{"results":[{"id":128174,"adult":false},{"id":16180,"adult":false},{"id":46528,"adult":false},{"id":322711,"adult":false},{"id":66285,"adult":false},{"id":764,"adult":false},{"id":18,"adult":false},{"id":40429,"adult":false},{"id":6470,"adult":false},{"id":322712,"adult":false},{"id":296640,"adult":false},{"id":12211,"adult":false},{"id":6171,"adult":false},{"id":33903,"adult":false},{"id":29657,"adult":false},{"id":31122,"adult":false},{"id":4542,"adult":false},{"id":47867,"adult":false},{"id":11034,"adult":false},{"id":213121,"adult":false},{"id":111023,"adult":false},{"id":902,"adult":false},{"id":170,"adult":false},{"id":278661,"adult":false},{"id":28134,"adult":false},{"id":36123,"adult":false},{"id":12120,"adult":false},{"id":94380,"adult":false},{"id":11948,"adult":false},{"id":169934,"adult":false},{"id":66334,"adult":false},{"id":261775,"adult":false},{"id":190859,"adult":false},{"id":157336,"adult":false},{"id":147441,"adult":false},{"id":289479,"adult":false},{"id":99190,"adult":false},{"id":260346,"adult":false},{"id":268621,"adult":false},{"id":210860,"adult":false},{"id":322713,"adult":false},{"id":156022,"adult":false},{"id":245891,"adult":false},{"id":194662,"adult":false},{"id":216015,"adult":false},{"id":269449,"adult":false},{"id":76341,"adult":false},{"id":99861,"adult":false},{"id":57086,"adult":false},{"id":135397,"adult":false},{"id":26559,"adult":false},{"id":265180,"adult":false},{"id":125327,"adult":false},{"id":224141,"adult":false},{"id":227306,"adult":false},{"id":256591,"adult":false},{"id":173931,"adult":false},{"id":205596,"adult":false},{"id":9003,"adult":false},{"id":76757,"adult":false},{"id":228161,"adult":false},{"id":228970,"adult":false},{"id":266856,"adult":false},{"id":9538,"adult":false},{"id":207703,"adult":false},{"id":302209,"adult":false},{"id":395,"adult":false},{"id":131631,"adult":false},{"id":64620,"adult":false},{"id":322714,"adult":false},{"id":322715,"adult":false},{"id":39232,"adult":false},{"id":28056,"adult":false},{"id":50683,"adult":false},{"id":322716,"adult":false},{"id":322717,"adult":false},{"id":51412,"adult":false},{"id":254023,"adult":false},{"id":51411,"adult":false},{"id":52286,"adult":false},{"id":19901,"adult":false},{"id":117051,"adult":false},{"id":117420,"adult":false},{"id":126301,"adult":false},{"id":37348,"adult":false},{"id":13671,"adult":false},{"id":63213,"adult":false},{"id":74242,"adult":false},{"id":74080,"adult":false},{"id":18649,"adult":false},{"id":149879,"adult":false},{"id":131389,"adult":false},{"id":64386,"adult":false},{"id":322718,"adult":false},{"id":11797,"adult":false},{"id":185424,"adult":false},{"id":203696,"adult":false},{"id":322719,"adult":false},{"id":39401,"adult":false},{"id":322720,"adult":false}],"page":2,"total_pages":117,"total_results":11629}