{"results":[{"id":119283,"adult":false},{"id":367249,"adult":false},{"id":47599,"adult":false},{"id":336804,"adult":false},{"id":17009,"adult":false},{"id":367250,"adult":false},{"id":367251,"adult":false},{"id":367252,"adult":false},{"id":2756,"adult":false},{"id":367253,"adult":false},{"id":9799,"adult":false},{"id":581,"adult":false},{"id":9835,"adult":false},{"id":2789,"adult":false},{"id":367254,"adult":false},{"id":367255,"adult":false},{"id":50450,"adult":false},{"id":58839,"adult":false},{"id":310133,"adult":false},{"id":284289,"adult":false},{"id":367256,"adult":false},{"id":367257,"adult":false},{"id":9027,"adult":false},{"id":11217,"adult":false},{"id":367258,"adult":false},{"id":367259,"adult":false},{"id":367260,"adult":false},{"id":367261,"adult":false},{"id":367262,"adult":false},{"id":367263,"adult":false},{"id":367264,"adult":false},{"id":68737,"adult":false},{"id":32638,"adult":false},{"id":367265,"adult":false},{"id":367266,"adult":false},{"id":367267,"adult":false},{"id":110395,"adult":false},{"id":367268,"adult":false},{"id":367269,"adult":false},{"id":290637,"adult":false},{"id":326215,"adult":false},{"id":38975,"adult":false},{"id":341013,"adult":false},{"id":367270,"adult":false},{"id":367271,"adult":false},{"id":266856,"adult":false},{"id":367272,"adult":false},{"id":594,"adult":false},{"id":307663,"adult":false},{"id":367273,"adult":false},{"id":131631,"adult":false},{"id":35614,"adult":false},{"id":367274,"adult":false},{"id":348740,"adult":false},{"id":70667,"adult":false},{"id":43650,"adult":false},{"id":13465,"adult":false},{"id":137548,"adult":false},{"id":470,"adult":false},{"id":8688,"adult":false},{"id":359108,"adult":false},{"id":353619,"adult":false},{"id":361052,"adult":false},{"id":301228,"adult":false},{"id":277355,"adult":false},{"id":290764,"adult":false},{"id":152742,"adult":false},{"id":367275,"adult":false},{"id":366141,"adult":false},{"id":367276,"adult":false},{"id":10061,"adult":false},{"id":367277,"adult":null},{"id":1213,"adult":false},{"id":268049,"adult":false},{"id":333846,"adult":false},{"id":227156,"adult":false},{"id":112162,"adult":false},{"id":298510,"adult":false},{"id":3309,"adult":false},{"id":289848,"adult":false},{"id":96671,"adult":false},{"id":367278,"adult":false},{"id":361014,"adult":false},{"id":367279,"adult":false},{"id":147655,"adult":false},{"id":82450,"adult":false},{"id":2575,"adult":false},{"id":367280,"adult":false},{"id":18856,"adult":false},{"id":11253,"adult":false},{"id":87842,"adult":false},{"id":362071,"adult":false},{"id":355428,"adult":null},{"id":191502,"adult":false},{"id":1487,"adult":false},{"id":367281,"adult":false},{"id":28466,"adult":false},{"id":367282,"adult":false},{"id":139004,"adult":false},{"id":367283,"adult":false}],"page":64,"total_pages":108,"total_results":10787}