{"results":[{"id":329020,"adult":false},{"id":75012,"adult":false},{"id":344854,"adult":false},{"id":12400,"adult":false},{"id":323665,"adult":false},{"id":324440,"adult":false},{"id":244077,"adult":true},{"id":318922,"adult":false},{"id":336055,"adult":false},{"id":323435,"adult":false},{"id":344120,"adult":false},{"id":347847,"adult":false},{"id":271,"adult":false},{"id":76172,"adult":false},{"id":26675,"adult":false},{"id":346256,"adult":false},{"id":344434,"adult":false},{"id":343097,"adult":false},{"id":342927,"adult":false},{"id":347848,"adult":false},{"id":346044,"adult":null},{"id":347849,"adult":false},{"id":347850,"adult":false},{"id":70530,"adult":false},{"id":125132,"adult":false},{"id":289396,"adult":false},{"id":96455,"adult":false},{"id":56033,"adult":false},{"id":24796,"adult":false},{"id":347851,"adult":false},{"id":294562,"adult":false},{"id":122259,"adult":false},{"id":35833,"adult":null},{"id":215869,"adult":false},{"id":347852,"adult":false},{"id":347853,"adult":false},{"id":209521,"adult":false},{"id":347854,"adult":false},{"id":54004,"adult":false},{"id":316330,"adult":false},{"id":347855,"adult":false},{"id":69892,"adult":false},{"id":54864,"adult":false},{"id":25432,"adult":false},{"id":36269,"adult":false},{"id":111234,"adult":false},{"id":254166,"adult":false},{"id":15644,"adult":false},{"id":881,"adult":false},{"id":27394,"adult":false},{"id":44899,"adult":false},{"id":339547,"adult":false},{"id":311539,"adult":false},{"id":347856,"adult":false},{"id":176160,"adult":false},{"id":282113,"adult":false},{"id":343284,"adult":false},{"id":346039,"adult":false},{"id":347857,"adult":false},{"id":345468,"adult":false},{"id":13975,"adult":false},{"id":213616,"adult":false},{"id":34066,"adult":false},{"id":207972,"adult":false},{"id":109335,"adult":false},{"id":53087,"adult":false},{"id":157012,"adult":false},{"id":347858,"adult":false},{"id":328055,"adult":false},{"id":93103,"adult":false},{"id":347859,"adult":false},{"id":347860,"adult":false},{"id":347861,"adult":false},{"id":347862,"adult":false},{"id":347863,"adult":false},{"id":20311,"adult":false},{"id":347864,"adult":false},{"id":89691,"adult":false},{"id":123678,"adult":false},{"id":5051,"adult":false},{"id":258750,"adult":false},{"id":73127,"adult":false},{"id":94183,"adult":false},{"id":267480,"adult":false},{"id":50275,"adult":false},{"id":161043,"adult":false},{"id":296503,"adult":false},{"id":69212,"adult":false},{"id":99502,"adult":false},{"id":326284,"adult":false},{"id":100061,"adult":false},{"id":22881,"adult":false},{"id":324562,"adult":false},{"id":299687,"adult":false},{"id":262840,"adult":false},{"id":47933,"adult":false},{"id":347865,"adult":false},{"id":347866,"adult":false},{"id":10774,"adult":false},{"id":347867,"adult":false}],"page":46,"total_pages":86,"total_results":8586}