{"results":[{"id":79395,"adult":false},{"id":337140,"adult":false},{"id":39656,"adult":true},{"id":106485,"adult":false},{"id":207909,"adult":false},{"id":157841,"adult":false},{"id":362555,"adult":false},{"id":278677,"adult":false},{"id":115762,"adult":false},{"id":36410,"adult":false},{"id":362556,"adult":false},{"id":355595,"adult":false},{"id":257512,"adult":false},{"id":1542,"adult":false},{"id":129517,"adult":false},{"id":277217,"adult":false},{"id":47796,"adult":false},{"id":96005,"adult":false},{"id":360787,"adult":null},{"id":60213,"adult":false},{"id":219413,"adult":true},{"id":191931,"adult":null},{"id":362557,"adult":false},{"id":349782,"adult":false},{"id":39936,"adult":false},{"id":78280,"adult":false},{"id":36416,"adult":false},{"id":10985,"adult":false},{"id":71262,"adult":false},{"id":304300,"adult":false},{"id":36415,"adult":false},{"id":195389,"adult":false},{"id":362558,"adult":false},{"id":362559,"adult":false},{"id":534,"adult":false},{"id":62881,"adult":false},{"id":54256,"adult":false},{"id":33145,"adult":false},{"id":11690,"adult":false},{"id":36694,"adult":false},{"id":121875,"adult":false},{"id":44706,"adult":false},{"id":333778,"adult":false},{"id":62201,"adult":false},{"id":314405,"adult":false},{"id":26295,"adult":true},{"id":360265,"adult":false},{"id":209385,"adult":false},{"id":50885,"adult":true},{"id":50751,"adult":true},{"id":294384,"adult":false},{"id":49588,"adult":false},{"id":50860,"adult":true},{"id":7984,"adult":false},{"id":129553,"adult":false},{"id":294383,"adult":false},{"id":50857,"adult":true},{"id":93519,"adult":false},{"id":50890,"adult":true},{"id":50757,"adult":true},{"id":304799,"adult":false},{"id":157986,"adult":true},{"id":110112,"adult":false},{"id":362560,"adult":false},{"id":226702,"adult":false},{"id":361273,"adult":true},{"id":671,"adult":false},{"id":345068,"adult":false},{"id":361274,"adult":true},{"id":107518,"adult":true},{"id":361267,"adult":true},{"id":302789,"adult":false},{"id":361269,"adult":true},{"id":103740,"adult":false},{"id":126781,"adult":false},{"id":295931,"adult":false},{"id":50874,"adult":true},{"id":165058,"adult":false},{"id":362562,"adult":false},{"id":102740,"adult":false},{"id":56150,"adult":false},{"id":138491,"adult":false},{"id":58765,"adult":false},{"id":15652,"adult":false},{"id":253303,"adult":false},{"id":582,"adult":false},{"id":21462,"adult":false},{"id":362563,"adult":false},{"id":65550,"adult":false},{"id":362564,"adult":false},{"id":39940,"adult":false},{"id":362565,"adult":false},{"id":9536,"adult":false},{"id":10824,"adult":false},{"id":244761,"adult":false},{"id":362566,"adult":false},{"id":9759,"adult":false},{"id":323705,"adult":false},{"id":14832,"adult":false},{"id":76346,"adult":false}],"page":30,"total_pages":108,"total_results":10774}