{"results":[{"id":80585,"adult":false},{"id":119685,"adult":false},{"id":9326,"adult":false},{"id":9428,"adult":false},{"id":14534,"adult":false},{"id":29572,"adult":false},{"id":86597,"adult":false},{"id":103620,"adult":false},{"id":306817,"adult":null},{"id":91048,"adult":false},{"id":159389,"adult":false},{"id":24799,"adult":false},{"id":158,"adult":false},{"id":15766,"adult":false},{"id":14538,"adult":false},{"id":424,"adult":false},{"id":11537,"adult":false},{"id":69798,"adult":false},{"id":13156,"adult":false},{"id":74998,"adult":false},{"id":94329,"adult":false},{"id":325185,"adult":null},{"id":6038,"adult":false},{"id":8584,"adult":false},{"id":2134,"adult":false},{"id":11841,"adult":false},{"id":7485,"adult":false},{"id":2605,"adult":false},{"id":1852,"adult":false},{"id":810,"adult":false},{"id":10192,"adult":false},{"id":2675,"adult":false},{"id":872,"adult":false},{"id":303098,"adult":false},{"id":42684,"adult":false},{"id":143759,"adult":false},{"id":867,"adult":false},{"id":34862,"adult":false},{"id":2103,"adult":false},{"id":16633,"adult":false},{"id":644,"adult":false},{"id":10214,"adult":false},{"id":5551,"adult":false},{"id":2300,"adult":false},{"id":5915,"adult":false},{"id":9023,"adult":false},{"id":12279,"adult":false},{"id":56288,"adult":false},{"id":54138,"adult":false},{"id":86412,"adult":false},{"id":154,"adult":false},{"id":157,"adult":false},{"id":168,"adult":false},{"id":282759,"adult":false},{"id":152,"adult":false},{"id":72408,"adult":false},{"id":172,"adult":false},{"id":19959,"adult":false},{"id":325186,"adult":false},{"id":76522,"adult":false},{"id":201706,"adult":false},{"id":92563,"adult":false},{"id":325187,"adult":false},{"id":51868,"adult":false},{"id":1262,"adult":false},{"id":2770,"adult":false},{"id":201022,"adult":false},{"id":174,"adult":false},{"id":37848,"adult":false},{"id":15254,"adult":false},{"id":213015,"adult":false},{"id":280624,"adult":false},{"id":161841,"adult":false},{"id":671,"adult":false},{"id":206260,"adult":false},{"id":119471,"adult":false},{"id":2270,"adult":false},{"id":10304,"adult":false},{"id":11127,"adult":false},{"id":114478,"adult":false},{"id":10048,"adult":false},{"id":34734,"adult":false},{"id":196830,"adult":false},{"id":16411,"adult":false},{"id":10996,"adult":false},{"id":672,"adult":false},{"id":30178,"adult":false},{"id":37686,"adult":false},{"id":219048,"adult":false},{"id":27445,"adult":false},{"id":164439,"adult":false},{"id":45797,"adult":false},{"id":319945,"adult":false},{"id":12481,"adult":false},{"id":36698,"adult":false},{"id":78286,"adult":false},{"id":15657,"adult":false},{"id":24958,"adult":false},{"id":325188,"adult":false},{"id":2330,"adult":false}],"page":109,"total_pages":117,"total_results":11629}