{"results":[{"id":286217,"adult":false},{"id":242828,"adult":false},{"id":129597,"adult":false},{"id":66016,"adult":false},{"id":66210,"adult":false},{"id":201543,"adult":false},{"id":107827,"adult":false},{"id":8069,"adult":false},{"id":355472,"adult":null},{"id":95506,"adult":false},{"id":354421,"adult":false},{"id":355473,"adult":false},{"id":169298,"adult":false},{"id":355474,"adult":false},{"id":62948,"adult":false},{"id":69310,"adult":false},{"id":86467,"adult":false},{"id":319569,"adult":false},{"id":355475,"adult":false},{"id":354357,"adult":false},{"id":44297,"adult":false},{"id":355476,"adult":null},{"id":9902,"adult":false},{"id":309887,"adult":false},{"id":75090,"adult":false},{"id":332839,"adult":false},{"id":156277,"adult":false},{"id":355477,"adult":null},{"id":14422,"adult":false},{"id":18214,"adult":false},{"id":49001,"adult":false},{"id":313795,"adult":false},{"id":10547,"adult":false},{"id":109425,"adult":false},{"id":298257,"adult":false},{"id":88940,"adult":false},{"id":225285,"adult":false},{"id":28691,"adult":false},{"id":355478,"adult":false},{"id":18762,"adult":false},{"id":355479,"adult":false},{"id":330440,"adult":false},{"id":355480,"adult":false},{"id":75708,"adult":false},{"id":42230,"adult":false},{"id":30596,"adult":false},{"id":73749,"adult":false},{"id":355481,"adult":false},{"id":20712,"adult":false},{"id":355482,"adult":false},{"id":155599,"adult":false},{"id":66013,"adult":false},{"id":48318,"adult":false},{"id":114007,"adult":false},{"id":336419,"adult":false},{"id":250320,"adult":false},{"id":12677,"adult":false},{"id":261475,"adult":false},{"id":341257,"adult":false},{"id":355483,"adult":false},{"id":195838,"adult":false},{"id":342000,"adult":false},{"id":37265,"adult":false},{"id":355484,"adult":false},{"id":112090,"adult":false},{"id":300666,"adult":false},{"id":355485,"adult":false},{"id":355486,"adult":false},{"id":64993,"adult":false},{"id":19850,"adult":false},{"id":355487,"adult":false},{"id":330605,"adult":false},{"id":50124,"adult":false},{"id":1598,"adult":false},{"id":261474,"adult":false},{"id":50270,"adult":false},{"id":30287,"adult":true},{"id":355488,"adult":false},{"id":55580,"adult":false},{"id":250605,"adult":false},{"id":261477,"adult":false},{"id":257657,"adult":true},{"id":50269,"adult":false},{"id":13072,"adult":false},{"id":230904,"adult":false},{"id":261478,"adult":false},{"id":63064,"adult":false},{"id":11321,"adult":false},{"id":206443,"adult":false},{"id":54182,"adult":false},{"id":104272,"adult":false},{"id":108510,"adult":false},{"id":58954,"adult":false},{"id":198989,"adult":true},{"id":355489,"adult":false},{"id":265272,"adult":true},{"id":241043,"adult":false},{"id":18882,"adult":false},{"id":88922,"adult":false},{"id":299756,"adult":false}],"page":51,"total_pages":100,"total_results":9908}