{"results":[{"id":14736,"adult":false},{"id":284762,"adult":false},{"id":57071,"adult":false},{"id":281865,"adult":false},{"id":70349,"adult":false},{"id":324568,"adult":false},{"id":324569,"adult":false},{"id":53174,"adult":false},{"id":324571,"adult":false},{"id":69234,"adult":false},{"id":46330,"adult":false},{"id":15855,"adult":false},{"id":289967,"adult":false},{"id":309807,"adult":false},{"id":324572,"adult":false},{"id":289278,"adult":false},{"id":250149,"adult":false},{"id":250150,"adult":false},{"id":80087,"adult":false},{"id":10349,"adult":false},{"id":279139,"adult":false},{"id":45736,"adult":false},{"id":258518,"adult":false},{"id":148033,"adult":false},{"id":296916,"adult":false},{"id":33821,"adult":false},{"id":26198,"adult":false},{"id":324573,"adult":false},{"id":324574,"adult":false},{"id":13382,"adult":false},{"id":324575,"adult":false},{"id":11227,"adult":false},{"id":1701,"adult":false},{"id":77555,"adult":false},{"id":29082,"adult":false},{"id":324576,"adult":false},{"id":157847,"adult":false},{"id":324577,"adult":false},{"id":153102,"adult":false},{"id":6963,"adult":false},{"id":255394,"adult":false},{"id":220286,"adult":false},{"id":324578,"adult":false},{"id":324579,"adult":false},{"id":156490,"adult":false},{"id":324580,"adult":false},{"id":324581,"adult":false},{"id":253622,"adult":false},{"id":4961,"adult":false},{"id":128147,"adult":false},{"id":324582,"adult":false},{"id":324583,"adult":false},{"id":14807,"adult":false},{"id":324584,"adult":false},{"id":324585,"adult":false},{"id":74066,"adult":false},{"id":324586,"adult":false},{"id":57869,"adult":false},{"id":71291,"adult":false},{"id":5511,"adult":false},{"id":11851,"adult":false},{"id":79610,"adult":false},{"id":57403,"adult":false},{"id":324587,"adult":false},{"id":324588,"adult":false},{"id":324589,"adult":false},{"id":324590,"adult":false},{"id":324591,"adult":false},{"id":324592,"adult":false},{"id":202052,"adult":false},{"id":185462,"adult":false},{"id":322,"adult":false},{"id":127372,"adult":false},{"id":324593,"adult":null},{"id":165180,"adult":false},{"id":8886,"adult":false},{"id":324594,"adult":false},{"id":10260,"adult":false},{"id":22240,"adult":false},{"id":324595,"adult":false},{"id":324596,"adult":false},{"id":303587,"adult":false},{"id":18074,"adult":false},{"id":324597,"adult":false},{"id":17382,"adult":false},{"id":324598,"adult":false},{"id":324599,"adult":false},{"id":324600,"adult":false},{"id":85317,"adult":false},{"id":324601,"adult":false},{"id":324602,"adult":false},{"id":324603,"adult":false},{"id":37311,"adult":false},{"id":324604,"adult":false},{"id":107465,"adult":false},{"id":2332,"adult":false},{"id":300476,"adult":null},{"id":324605,"adult":null},{"id":308447,"adult":false},{"id":255898,"adult":false}],"page":84,"total_pages":117,"total_results":11629}