{"results":[{"id":15539,"adult":false},{"id":208134,"adult":false},{"id":11392,"adult":false},{"id":12711,"adult":false},{"id":15498,"adult":false},{"id":15499,"adult":false},{"id":162794,"adult":false},{"id":12712,"adult":false},{"id":46997,"adult":false},{"id":12231,"adult":false},{"id":12592,"adult":false},{"id":345960,"adult":false},{"id":11390,"adult":false},{"id":261768,"adult":false},{"id":15537,"adult":false},{"id":11391,"adult":false},{"id":68737,"adult":false},{"id":12549,"adult":false},{"id":162792,"adult":false},{"id":50028,"adult":false},{"id":80987,"adult":false},{"id":12269,"adult":false},{"id":68516,"adult":false},{"id":345961,"adult":false},{"id":264647,"adult":false},{"id":300466,"adult":false},{"id":345962,"adult":false},{"id":345963,"adult":false},{"id":128217,"adult":false},{"id":345964,"adult":false},{"id":13813,"adult":false},{"id":345965,"adult":false},{"id":15402,"adult":false},{"id":118390,"adult":false},{"id":345966,"adult":false},{"id":1402,"adult":false},{"id":72838,"adult":false},{"id":345967,"adult":false},{"id":37694,"adult":false},{"id":82700,"adult":false},{"id":198864,"adult":false},{"id":21060,"adult":false},{"id":9599,"adult":false},{"id":43685,"adult":false},{"id":342878,"adult":false},{"id":345968,"adult":false},{"id":279988,"adult":false},{"id":82867,"adult":false},{"id":244801,"adult":false},{"id":345969,"adult":false},{"id":306945,"adult":true},{"id":64560,"adult":false},{"id":74695,"adult":false},{"id":345971,"adult":null},{"id":173158,"adult":false},{"id":86451,"adult":false},{"id":74945,"adult":false},{"id":32087,"adult":false},{"id":19100,"adult":false},{"id":282376,"adult":false},{"id":26295,"adult":true},{"id":29376,"adult":false},{"id":345972,"adult":false},{"id":54507,"adult":false},{"id":41763,"adult":false},{"id":914,"adult":false},{"id":326186,"adult":false},{"id":41296,"adult":false},{"id":5590,"adult":false},{"id":249070,"adult":false},{"id":345973,"adult":false},{"id":80035,"adult":false},{"id":10513,"adult":false},{"id":120896,"adult":false},{"id":335619,"adult":false},{"id":117180,"adult":false},{"id":290689,"adult":false},{"id":345974,"adult":false},{"id":85054,"adult":false},{"id":75455,"adult":false},{"id":337357,"adult":false},{"id":2893,"adult":false},{"id":202807,"adult":false},{"id":275911,"adult":false},{"id":321130,"adult":false},{"id":56416,"adult":false},{"id":10433,"adult":false},{"id":78790,"adult":false},{"id":126523,"adult":false},{"id":75118,"adult":false},{"id":65080,"adult":false},{"id":67384,"adult":false},{"id":79131,"adult":false},{"id":104234,"adult":false},{"id":14047,"adult":false},{"id":62415,"adult":false},{"id":41300,"adult":false},{"id":60130,"adult":false},{"id":16554,"adult":false},{"id":20949,"adult":false}],"page":76,"total_pages":111,"total_results":11023}