{"results":[{"id":97256,"adult":null},{"id":299939,"adult":false},{"id":49849,"adult":false},{"id":181330,"adult":false},{"id":322770,"adult":false},{"id":322771,"adult":false},{"id":12613,"adult":false},{"id":284053,"adult":false},{"id":24717,"adult":false},{"id":8914,"adult":false},{"id":322772,"adult":false},{"id":322548,"adult":false},{"id":157642,"adult":false},{"id":322670,"adult":null},{"id":14849,"adult":false},{"id":321821,"adult":false},{"id":344,"adult":false},{"id":14248,"adult":false},{"id":169917,"adult":false},{"id":52338,"adult":false},{"id":11352,"adult":false},{"id":55881,"adult":false},{"id":248633,"adult":false},{"id":300433,"adult":false},{"id":291608,"adult":false},{"id":297222,"adult":false},{"id":267863,"adult":false},{"id":188142,"adult":false},{"id":278358,"adult":false},{"id":13168,"adult":false},{"id":20681,"adult":false},{"id":92724,"adult":false},{"id":255268,"adult":false},{"id":302828,"adult":false},{"id":66390,"adult":false},{"id":322773,"adult":false},{"id":11853,"adult":false},{"id":49478,"adult":false},{"id":345,"adult":false},{"id":291167,"adult":false},{"id":243714,"adult":false},{"id":317116,"adult":false},{"id":768,"adult":false},{"id":258251,"adult":false},{"id":134411,"adult":false},{"id":322774,"adult":false},{"id":317110,"adult":false},{"id":68,"adult":false},{"id":122796,"adult":false},{"id":311181,"adult":false},{"id":41215,"adult":false},{"id":12143,"adult":false},{"id":8193,"adult":false},{"id":3133,"adult":false},{"id":85887,"adult":false},{"id":187017,"adult":false},{"id":3543,"adult":false},{"id":15022,"adult":false},{"id":30807,"adult":false},{"id":176241,"adult":false},{"id":11212,"adult":false},{"id":152586,"adult":false},{"id":128816,"adult":false},{"id":261067,"adult":null},{"id":80787,"adult":false},{"id":321303,"adult":false},{"id":37048,"adult":false},{"id":49942,"adult":false},{"id":22907,"adult":false},{"id":41857,"adult":false},{"id":298167,"adult":false},{"id":111244,"adult":false},{"id":8069,"adult":false},{"id":322775,"adult":false},{"id":292673,"adult":false},{"id":66258,"adult":false},{"id":33809,"adult":false},{"id":9457,"adult":false},{"id":45559,"adult":false},{"id":298164,"adult":false},{"id":246449,"adult":false},{"id":10937,"adult":false},{"id":46829,"adult":false},{"id":322776,"adult":false},{"id":264454,"adult":false},{"id":44594,"adult":false},{"id":322777,"adult":false},{"id":191,"adult":false},{"id":290,"adult":false},{"id":13177,"adult":false},{"id":187,"adult":false},{"id":322778,"adult":false},{"id":305790,"adult":false},{"id":199556,"adult":false},{"id":18387,"adult":false},{"id":11898,"adult":false},{"id":11463,"adult":false},{"id":322779,"adult":false},{"id":185471,"adult":false},{"id":3112,"adult":false}],"page":5,"total_pages":117,"total_results":11629}