{"results":[{"id":23949,"adult":false},{"id":44513,"adult":false},{"id":194050,"adult":false},{"id":329862,"adult":false},{"id":96406,"adult":false},{"id":238319,"adult":false},{"id":215606,"adult":false},{"id":2336,"adult":false},{"id":227673,"adult":false},{"id":329863,"adult":false},{"id":329864,"adult":false},{"id":9706,"adult":false},{"id":9907,"adult":false},{"id":329865,"adult":false},{"id":329866,"adult":false},{"id":329867,"adult":true},{"id":41646,"adult":false},{"id":329868,"adult":false},{"id":90286,"adult":false},{"id":1714,"adult":false},{"id":314981,"adult":false},{"id":6079,"adult":false},{"id":4683,"adult":false},{"id":283607,"adult":false},{"id":329869,"adult":false},{"id":253675,"adult":false},{"id":13972,"adult":false},{"id":316994,"adult":false},{"id":329870,"adult":false},{"id":329871,"adult":false},{"id":171877,"adult":false},{"id":30944,"adult":false},{"id":322811,"adult":false},{"id":245906,"adult":false},{"id":198101,"adult":false},{"id":329872,"adult":false},{"id":198100,"adult":false},{"id":193603,"adult":false},{"id":329873,"adult":false},{"id":164431,"adult":false},{"id":329874,"adult":false},{"id":329875,"adult":true},{"id":329876,"adult":false},{"id":315364,"adult":false},{"id":279715,"adult":false},{"id":315367,"adult":false},{"id":329877,"adult":false},{"id":275631,"adult":false},{"id":85743,"adult":false},{"id":13186,"adult":false},{"id":24985,"adult":false},{"id":329878,"adult":false},{"id":824,"adult":false},{"id":227688,"adult":false},{"id":14458,"adult":false},{"id":193212,"adult":false},{"id":105002,"adult":false},{"id":19908,"adult":false},{"id":13891,"adult":false},{"id":13942,"adult":false},{"id":227481,"adult":false},{"id":11892,"adult":false},{"id":13510,"adult":false},{"id":329879,"adult":false},{"id":41115,"adult":false},{"id":72586,"adult":false},{"id":140,"adult":false},{"id":55309,"adult":false},{"id":963,"adult":false},{"id":227348,"adult":false},{"id":329880,"adult":false},{"id":44040,"adult":false},{"id":300492,"adult":false},{"id":104294,"adult":false},{"id":315188,"adult":false},{"id":199591,"adult":false},{"id":320005,"adult":false},{"id":211746,"adult":false},{"id":329881,"adult":false},{"id":14254,"adult":false},{"id":52654,"adult":false},{"id":32171,"adult":false},{"id":10690,"adult":false},{"id":22970,"adult":false},{"id":63207,"adult":false},{"id":74496,"adult":false},{"id":48870,"adult":false},{"id":232620,"adult":false},{"id":314528,"adult":null},{"id":329882,"adult":false},{"id":105106,"adult":false},{"id":278646,"adult":false},{"id":276922,"adult":false},{"id":67,"adult":false},{"id":287757,"adult":false},{"id":23174,"adult":false},{"id":46441,"adult":false},{"id":3176,"adult":false},{"id":319188,"adult":false},{"id":239568,"adult":false}],"page":101,"total_pages":123,"total_results":12300}