{"results":[{"id":147979,"adult":false},{"id":320461,"adult":false},{"id":104791,"adult":false},{"id":23378,"adult":false},{"id":305739,"adult":false},{"id":241686,"adult":false},{"id":325905,"adult":false},{"id":197916,"adult":false},{"id":106420,"adult":false},{"id":21551,"adult":false},{"id":305735,"adult":false},{"id":76617,"adult":false},{"id":320676,"adult":false},{"id":305737,"adult":false},{"id":305736,"adult":false},{"id":286744,"adult":false},{"id":129696,"adult":false},{"id":321103,"adult":false},{"id":229113,"adult":false},{"id":114801,"adult":false},{"id":325906,"adult":false},{"id":11948,"adult":false},{"id":139717,"adult":false},{"id":63455,"adult":false},{"id":12712,"adult":false},{"id":36187,"adult":false},{"id":325907,"adult":false},{"id":104797,"adult":false},{"id":45312,"adult":false},{"id":76436,"adult":false},{"id":63500,"adult":false},{"id":162006,"adult":false},{"id":325908,"adult":false},{"id":277090,"adult":false},{"id":34384,"adult":false},{"id":302104,"adult":false},{"id":45441,"adult":false},{"id":123873,"adult":false},{"id":325909,"adult":false},{"id":16766,"adult":false},{"id":43963,"adult":false},{"id":68913,"adult":false},{"id":193402,"adult":false},{"id":325910,"adult":false},{"id":28830,"adult":false},{"id":259680,"adult":false},{"id":85575,"adult":false},{"id":88043,"adult":false},{"id":27910,"adult":false},{"id":28832,"adult":false},{"id":130023,"adult":false},{"id":63484,"adult":false},{"id":124075,"adult":false},{"id":325911,"adult":false},{"id":325912,"adult":false},{"id":45797,"adult":false},{"id":325913,"adult":false},{"id":85032,"adult":false},{"id":95853,"adult":false},{"id":122336,"adult":false},{"id":46911,"adult":false},{"id":58281,"adult":false},{"id":40079,"adult":false},{"id":325914,"adult":false},{"id":94054,"adult":false},{"id":121239,"adult":false},{"id":41177,"adult":false},{"id":325915,"adult":false},{"id":13430,"adult":false},{"id":325916,"adult":false},{"id":29657,"adult":false},{"id":35752,"adult":false},{"id":325917,"adult":false},{"id":18178,"adult":false},{"id":325918,"adult":false},{"id":325919,"adult":false},{"id":325920,"adult":false},{"id":66118,"adult":false},{"id":325921,"adult":false},{"id":325922,"adult":false},{"id":15439,"adult":false},{"id":325923,"adult":false},{"id":325924,"adult":false},{"id":325925,"adult":false},{"id":325926,"adult":false},{"id":769,"adult":false},{"id":315560,"adult":false},{"id":325927,"adult":false},{"id":325928,"adult":false},{"id":325929,"adult":false},{"id":325230,"adult":true},{"id":65086,"adult":false},{"id":3082,"adult":false},{"id":325930,"adult":false},{"id":36184,"adult":false},{"id":325931,"adult":false},{"id":325932,"adult":false},{"id":16182,"adult":false},{"id":53866,"adult":false},{"id":288158,"adult":false}],"page":24,"total_pages":112,"total_results":11193}