{"results":[{"id":87514,"adult":false},{"id":256180,"adult":false},{"id":190586,"adult":false},{"id":236457,"adult":false},{"id":189578,"adult":false},{"id":595,"adult":false},{"id":99968,"adult":false},{"id":250483,"adult":false},{"id":262173,"adult":false},{"id":268626,"adult":false},{"id":55362,"adult":false},{"id":34106,"adult":false},{"id":42008,"adult":false},{"id":236427,"adult":false},{"id":29944,"adult":false},{"id":190584,"adult":false},{"id":236445,"adult":false},{"id":10973,"adult":false},{"id":197044,"adult":false},{"id":326864,"adult":false},{"id":249971,"adult":false},{"id":287392,"adult":false},{"id":195296,"adult":false},{"id":138037,"adult":false},{"id":34846,"adult":false},{"id":221914,"adult":false},{"id":218987,"adult":false},{"id":215694,"adult":false},{"id":335899,"adult":false},{"id":65525,"adult":false},{"id":215472,"adult":false},{"id":210512,"adult":false},{"id":213705,"adult":false},{"id":327593,"adult":false},{"id":257747,"adult":false},{"id":59482,"adult":false},{"id":180943,"adult":false},{"id":94967,"adult":false},{"id":209857,"adult":false},{"id":215477,"adult":false},{"id":154719,"adult":false},{"id":215449,"adult":false},{"id":215714,"adult":false},{"id":341849,"adult":true},{"id":201136,"adult":false},{"id":341850,"adult":false},{"id":46600,"adult":null},{"id":11782,"adult":false},{"id":46596,"adult":null},{"id":298360,"adult":false},{"id":130926,"adult":false},{"id":339888,"adult":false},{"id":269226,"adult":false},{"id":222344,"adult":false},{"id":44899,"adult":false},{"id":8845,"adult":false},{"id":236630,"adult":false},{"id":341851,"adult":false},{"id":40065,"adult":false},{"id":331780,"adult":false},{"id":135048,"adult":false},{"id":315614,"adult":false},{"id":234147,"adult":false},{"id":314422,"adult":false},{"id":341852,"adult":false},{"id":41392,"adult":false},{"id":11119,"adult":false},{"id":15654,"adult":false},{"id":341853,"adult":false},{"id":16766,"adult":false},{"id":20850,"adult":false},{"id":333089,"adult":false},{"id":174845,"adult":false},{"id":285387,"adult":false},{"id":341854,"adult":false},{"id":197950,"adult":false},{"id":11626,"adult":false},{"id":341855,"adult":false},{"id":10110,"adult":false},{"id":158426,"adult":false},{"id":2670,"adult":false},{"id":341856,"adult":false},{"id":10424,"adult":false},{"id":10909,"adult":false},{"id":241885,"adult":false},{"id":11713,"adult":false},{"id":10222,"adult":false},{"id":341857,"adult":false},{"id":44633,"adult":false},{"id":29293,"adult":false},{"id":14432,"adult":false},{"id":117438,"adult":false},{"id":341858,"adult":false},{"id":170759,"adult":false},{"id":341859,"adult":false},{"id":239255,"adult":false},{"id":98222,"adult":false},{"id":341860,"adult":false},{"id":23984,"adult":false},{"id":11690,"adult":false}],"page":89,"total_pages":103,"total_results":10276}