{"results":[{"id":2009,"adult":false},{"id":372143,"adult":false},{"id":265358,"adult":false},{"id":13406,"adult":false},{"id":372144,"adult":false},{"id":372145,"adult":false},{"id":372146,"adult":false},{"id":372147,"adult":false},{"id":77665,"adult":false},{"id":13106,"adult":false},{"id":270189,"adult":false},{"id":372148,"adult":false},{"id":6658,"adult":false},{"id":13804,"adult":false},{"id":13042,"adult":false},{"id":372149,"adult":false},{"id":9522,"adult":false},{"id":13926,"adult":false},{"id":7840,"adult":false},{"id":372150,"adult":false},{"id":353014,"adult":false},{"id":193449,"adult":false},{"id":372151,"adult":false},{"id":99291,"adult":false},{"id":165078,"adult":false},{"id":13924,"adult":false},{"id":228619,"adult":false},{"id":271838,"adult":false},{"id":158073,"adult":false},{"id":101597,"adult":false},{"id":82654,"adult":false},{"id":226581,"adult":false},{"id":355664,"adult":false},{"id":6312,"adult":false},{"id":153187,"adult":false},{"id":18296,"adult":false},{"id":21876,"adult":false},{"id":13927,"adult":false},{"id":33162,"adult":false},{"id":9383,"adult":false},{"id":359210,"adult":false},{"id":1729,"adult":false},{"id":2787,"adult":false},{"id":1103,"adult":false},{"id":372152,"adult":false},{"id":68948,"adult":false},{"id":73898,"adult":false},{"id":10061,"adult":false},{"id":29032,"adult":false},{"id":1701,"adult":false},{"id":324156,"adult":false},{"id":9997,"adult":false},{"id":1832,"adult":false},{"id":20766,"adult":false},{"id":3110,"adult":false},{"id":68737,"adult":false},{"id":208704,"adult":false},{"id":243688,"adult":false},{"id":121230,"adult":false},{"id":372153,"adult":false},{"id":306,"adult":false},{"id":49526,"adult":false},{"id":10911,"adult":false},{"id":10339,"adult":false},{"id":42861,"adult":false},{"id":227244,"adult":false},{"id":46623,"adult":false},{"id":22894,"adult":false},{"id":81435,"adult":false},{"id":9654,"adult":false},{"id":82250,"adult":false},{"id":372154,"adult":false},{"id":8592,"adult":false},{"id":278595,"adult":false},{"id":624,"adult":false},{"id":367856,"adult":false},{"id":71722,"adult":false},{"id":353491,"adult":false},{"id":123459,"adult":false},{"id":372155,"adult":false},{"id":106138,"adult":false},{"id":74263,"adult":false},{"id":47184,"adult":false},{"id":372156,"adult":false},{"id":299423,"adult":false},{"id":370009,"adult":false},{"id":367564,"adult":false},{"id":321761,"adult":false},{"id":299427,"adult":false},{"id":370023,"adult":false},{"id":34851,"adult":false},{"id":364887,"adult":false},{"id":357393,"adult":false},{"id":13811,"adult":false},{"id":160200,"adult":false},{"id":346672,"adult":false},{"id":364896,"adult":false},{"id":372157,"adult":false},{"id":8090,"adult":false},{"id":354287,"adult":false}],"page":81,"total_pages":97,"total_results":9613}