{"results":[{"id":84765,"adult":false},{"id":194010,"adult":false},{"id":43335,"adult":false},{"id":193985,"adult":false},{"id":194076,"adult":false},{"id":196567,"adult":false},{"id":196641,"adult":false},{"id":196642,"adult":false},{"id":44336,"adult":false},{"id":196631,"adult":false},{"id":221272,"adult":null},{"id":196541,"adult":false},{"id":196546,"adult":false},{"id":196509,"adult":false},{"id":196512,"adult":false},{"id":196504,"adult":false},{"id":317925,"adult":false},{"id":196515,"adult":false},{"id":21194,"adult":false},{"id":121088,"adult":false},{"id":268858,"adult":false},{"id":20223,"adult":false},{"id":270643,"adult":false},{"id":100364,"adult":false},{"id":323383,"adult":false},{"id":70908,"adult":false},{"id":10860,"adult":false},{"id":44982,"adult":false},{"id":323384,"adult":false},{"id":259135,"adult":false},{"id":80920,"adult":false},{"id":323385,"adult":null},{"id":138982,"adult":false},{"id":303267,"adult":false},{"id":282761,"adult":false},{"id":323386,"adult":false},{"id":11588,"adult":false},{"id":20558,"adult":false},{"id":323387,"adult":false},{"id":307907,"adult":false},{"id":252102,"adult":false},{"id":226031,"adult":false},{"id":1422,"adult":false},{"id":94585,"adult":false},{"id":323388,"adult":false},{"id":50646,"adult":false},{"id":102452,"adult":false},{"id":31372,"adult":false},{"id":10017,"adult":false},{"id":15375,"adult":false},{"id":323389,"adult":false},{"id":224746,"adult":false},{"id":261037,"adult":false},{"id":33035,"adult":false},{"id":200044,"adult":false},{"id":232679,"adult":false},{"id":8872,"adult":false},{"id":9392,"adult":false},{"id":77930,"adult":false},{"id":10946,"adult":false},{"id":240745,"adult":false},{"id":270303,"adult":false},{"id":244563,"adult":false},{"id":238215,"adult":false},{"id":13680,"adult":false},{"id":90118,"adult":false},{"id":48198,"adult":false},{"id":31374,"adult":false},{"id":31378,"adult":false},{"id":70027,"adult":false},{"id":36092,"adult":false},{"id":19884,"adult":false},{"id":16184,"adult":false},{"id":23437,"adult":false},{"id":50387,"adult":false},{"id":154282,"adult":false},{"id":300958,"adult":null},{"id":10487,"adult":false},{"id":253282,"adult":false},{"id":10781,"adult":false},{"id":315014,"adult":false},{"id":32636,"adult":false},{"id":9306,"adult":false},{"id":317155,"adult":false},{"id":77561,"adult":false},{"id":245379,"adult":false},{"id":543,"adult":false},{"id":316666,"adult":false},{"id":58275,"adult":false},{"id":138730,"adult":false},{"id":34480,"adult":false},{"id":905,"adult":false},{"id":323390,"adult":false},{"id":323391,"adult":false},{"id":11174,"adult":false},{"id":264365,"adult":false},{"id":115045,"adult":false},{"id":117847,"adult":false},{"id":228872,"adult":false},{"id":262561,"adult":false}],"page":37,"total_pages":117,"total_results":11629}