{"results":[{"id":355020,"adult":false},{"id":355021,"adult":false},{"id":340422,"adult":null},{"id":15028,"adult":false},{"id":69403,"adult":false},{"id":256103,"adult":false},{"id":355022,"adult":false},{"id":317945,"adult":false},{"id":339953,"adult":false},{"id":1116,"adult":false},{"id":346225,"adult":false},{"id":104460,"adult":false},{"id":355023,"adult":false},{"id":271853,"adult":false},{"id":271854,"adult":false},{"id":320914,"adult":false},{"id":355024,"adult":false},{"id":233316,"adult":false},{"id":107010,"adult":false},{"id":251856,"adult":false},{"id":134782,"adult":false},{"id":28300,"adult":false},{"id":355025,"adult":false},{"id":39886,"adult":false},{"id":355026,"adult":false},{"id":123065,"adult":false},{"id":355027,"adult":false},{"id":355028,"adult":false},{"id":10881,"adult":false},{"id":355029,"adult":false},{"id":272936,"adult":false},{"id":10829,"adult":false},{"id":336790,"adult":false},{"id":73901,"adult":false},{"id":355030,"adult":false},{"id":355031,"adult":false},{"id":13804,"adult":false},{"id":347201,"adult":false},{"id":2122,"adult":false},{"id":296313,"adult":false},{"id":350052,"adult":false},{"id":15849,"adult":false},{"id":326261,"adult":false},{"id":97618,"adult":false},{"id":9327,"adult":false},{"id":26940,"adult":false},{"id":105,"adult":false},{"id":327909,"adult":false},{"id":2661,"adult":false},{"id":1687,"adult":false},{"id":343701,"adult":false},{"id":87729,"adult":false},{"id":100084,"adult":false},{"id":118111,"adult":false},{"id":355032,"adult":false},{"id":19762,"adult":false},{"id":14584,"adult":false},{"id":42094,"adult":false},{"id":5723,"adult":false},{"id":192673,"adult":false},{"id":241557,"adult":false},{"id":39780,"adult":false},{"id":355034,"adult":false},{"id":106646,"adult":false},{"id":20662,"adult":false},{"id":435,"adult":false},{"id":355035,"adult":false},{"id":1422,"adult":false},{"id":1402,"adult":false},{"id":355036,"adult":false},{"id":273153,"adult":false},{"id":355037,"adult":false},{"id":257489,"adult":false},{"id":198184,"adult":false},{"id":286565,"adult":false},{"id":98,"adult":false},{"id":355038,"adult":false},{"id":355039,"adult":false},{"id":355040,"adult":false},{"id":355041,"adult":false},{"id":313788,"adult":false},{"id":355042,"adult":false},{"id":355043,"adult":false},{"id":355044,"adult":false},{"id":20385,"adult":false},{"id":355045,"adult":false},{"id":348190,"adult":false},{"id":112062,"adult":false},{"id":23966,"adult":false},{"id":824,"adult":false},{"id":81428,"adult":false},{"id":11812,"adult":false},{"id":314388,"adult":false},{"id":334924,"adult":false},{"id":335844,"adult":false},{"id":336216,"adult":false},{"id":355048,"adult":false},{"id":98948,"adult":false},{"id":351043,"adult":false},{"id":355050,"adult":false}],"page":25,"total_pages":100,"total_results":9908}