{"results":[{"id":22490,"adult":false},{"id":296524,"adult":false},{"id":22460,"adult":false},{"id":340784,"adult":false},{"id":68735,"adult":false},{"id":340785,"adult":false},{"id":311226,"adult":false},{"id":245706,"adult":false},{"id":80211,"adult":false},{"id":340786,"adult":false},{"id":133738,"adult":false},{"id":340787,"adult":false},{"id":171363,"adult":false},{"id":256014,"adult":false},{"id":340788,"adult":false},{"id":630,"adult":false},{"id":85509,"adult":false},{"id":32640,"adult":false},{"id":326806,"adult":false},{"id":340789,"adult":false},{"id":294652,"adult":false},{"id":340790,"adult":false},{"id":311181,"adult":false},{"id":229424,"adult":false},{"id":171272,"adult":false},{"id":340791,"adult":null},{"id":340792,"adult":false},{"id":9289,"adult":false},{"id":339577,"adult":false},{"id":253626,"adult":false},{"id":340793,"adult":false},{"id":42518,"adult":false},{"id":340794,"adult":false},{"id":24702,"adult":false},{"id":32227,"adult":false},{"id":340795,"adult":false},{"id":340796,"adult":false},{"id":228676,"adult":false},{"id":340797,"adult":false},{"id":196,"adult":false},{"id":258255,"adult":false},{"id":165,"adult":false},{"id":265195,"adult":false},{"id":340798,"adult":false},{"id":27310,"adult":false},{"id":340799,"adult":false},{"id":112454,"adult":false},{"id":312815,"adult":false},{"id":171581,"adult":false},{"id":5899,"adult":false},{"id":146229,"adult":false},{"id":340800,"adult":false},{"id":256917,"adult":false},{"id":3093,"adult":false},{"id":71209,"adult":false},{"id":214083,"adult":false},{"id":332271,"adult":false},{"id":169069,"adult":false},{"id":340801,"adult":false},{"id":340802,"adult":false},{"id":236827,"adult":false},{"id":340803,"adult":false},{"id":11884,"adult":false},{"id":47866,"adult":false},{"id":335147,"adult":false},{"id":18533,"adult":false},{"id":119426,"adult":false},{"id":770,"adult":false},{"id":141676,"adult":false},{"id":13417,"adult":false},{"id":30178,"adult":false},{"id":1632,"adult":false},{"id":340804,"adult":false},{"id":340805,"adult":null},{"id":315635,"adult":false},{"id":244995,"adult":false},{"id":15717,"adult":false},{"id":38416,"adult":false},{"id":253300,"adult":false},{"id":123873,"adult":false},{"id":285946,"adult":false},{"id":91465,"adult":false},{"id":292856,"adult":false},{"id":292686,"adult":false},{"id":283964,"adult":false},{"id":322830,"adult":false},{"id":292629,"adult":false},{"id":326299,"adult":false},{"id":105073,"adult":false},{"id":292706,"adult":false},{"id":291930,"adult":false},{"id":301567,"adult":null},{"id":5723,"adult":false},{"id":239858,"adult":false},{"id":38347,"adult":false},{"id":255295,"adult":false},{"id":292789,"adult":false},{"id":292164,"adult":false},{"id":549,"adult":false},{"id":292014,"adult":false}],"page":34,"total_pages":103,"total_results":10276}