{"results":[{"id":143109,"adult":false},{"id":287819,"adult":false},{"id":323383,"adult":false},{"id":87083,"adult":false},{"id":49017,"adult":false},{"id":112917,"adult":false},{"id":285638,"adult":false},{"id":97870,"adult":false},{"id":362901,"adult":false},{"id":195412,"adult":false},{"id":207706,"adult":false},{"id":159723,"adult":false},{"id":66893,"adult":false},{"id":151381,"adult":false},{"id":198821,"adult":false},{"id":117428,"adult":false},{"id":117424,"adult":false},{"id":112451,"adult":false},{"id":152088,"adult":false},{"id":43236,"adult":false},{"id":114033,"adult":false},{"id":127495,"adult":false},{"id":196655,"adult":false},{"id":86752,"adult":false},{"id":296130,"adult":false},{"id":250110,"adult":false},{"id":362902,"adult":false},{"id":11298,"adult":false},{"id":362903,"adult":false},{"id":362904,"adult":null},{"id":362905,"adult":false},{"id":240906,"adult":false},{"id":79716,"adult":false},{"id":119001,"adult":false},{"id":267863,"adult":false},{"id":362906,"adult":false},{"id":130358,"adult":false},{"id":8840,"adult":false},{"id":174808,"adult":false},{"id":362907,"adult":false},{"id":13161,"adult":false},{"id":362908,"adult":false},{"id":265177,"adult":false},{"id":13590,"adult":false},{"id":72854,"adult":false},{"id":362909,"adult":false},{"id":362910,"adult":false},{"id":362911,"adult":false},{"id":47050,"adult":false},{"id":35282,"adult":false},{"id":24624,"adult":false},{"id":29109,"adult":false},{"id":71138,"adult":false},{"id":362912,"adult":false},{"id":55379,"adult":false},{"id":362913,"adult":false},{"id":362914,"adult":false},{"id":143573,"adult":false},{"id":362915,"adult":false},{"id":362916,"adult":false},{"id":362917,"adult":false},{"id":39872,"adult":false},{"id":343097,"adult":false},{"id":362918,"adult":false},{"id":362919,"adult":false},{"id":362920,"adult":false},{"id":362921,"adult":false},{"id":362922,"adult":false},{"id":362923,"adult":false},{"id":362924,"adult":false},{"id":362925,"adult":false},{"id":362926,"adult":false},{"id":362927,"adult":false},{"id":362928,"adult":false},{"id":362929,"adult":false},{"id":362931,"adult":false},{"id":362932,"adult":false},{"id":362933,"adult":false},{"id":362934,"adult":false},{"id":362935,"adult":false},{"id":322958,"adult":false},{"id":362936,"adult":false},{"id":362937,"adult":false},{"id":11699,"adult":false},{"id":362938,"adult":false},{"id":64626,"adult":false},{"id":362939,"adult":false},{"id":362940,"adult":false},{"id":362941,"adult":false},{"id":362942,"adult":false},{"id":362943,"adult":false},{"id":362944,"adult":false},{"id":362945,"adult":false},{"id":362946,"adult":false},{"id":119029,"adult":false},{"id":362947,"adult":false},{"id":362948,"adult":false},{"id":14620,"adult":false},{"id":76348,"adult":false},{"id":31514,"adult":false}],"page":49,"total_pages":108,"total_results":10774}