{"results":[{"id":200145,"adult":false},{"id":309413,"adult":false},{"id":503,"adult":false},{"id":314608,"adult":false},{"id":315112,"adult":false},{"id":315113,"adult":true},{"id":268538,"adult":false},{"id":315114,"adult":false},{"id":102961,"adult":false},{"id":153789,"adult":false},{"id":315115,"adult":false},{"id":315116,"adult":false},{"id":285709,"adult":false},{"id":23026,"adult":false},{"id":315117,"adult":false},{"id":315118,"adult":false},{"id":17282,"adult":false},{"id":34988,"adult":false},{"id":315119,"adult":false},{"id":286354,"adult":false},{"id":225886,"adult":false},{"id":315120,"adult":false},{"id":315121,"adult":false},{"id":315122,"adult":false},{"id":13461,"adult":false},{"id":278558,"adult":false},{"id":252511,"adult":false},{"id":23839,"adult":false},{"id":27233,"adult":false},{"id":147011,"adult":false},{"id":44985,"adult":false},{"id":10434,"adult":false},{"id":223829,"adult":false},{"id":197696,"adult":false},{"id":9600,"adult":false},{"id":315123,"adult":false},{"id":12664,"adult":false},{"id":3525,"adult":false},{"id":208277,"adult":false},{"id":37839,"adult":false},{"id":315124,"adult":false},{"id":44981,"adult":false},{"id":57876,"adult":false},{"id":51991,"adult":false},{"id":167960,"adult":false},{"id":308201,"adult":false},{"id":202214,"adult":false},{"id":315125,"adult":false},{"id":46825,"adult":false},{"id":315126,"adult":false},{"id":315127,"adult":false},{"id":67162,"adult":false},{"id":192813,"adult":false},{"id":46724,"adult":false},{"id":25195,"adult":false},{"id":61341,"adult":false},{"id":9778,"adult":false},{"id":160697,"adult":false},{"id":315128,"adult":false},{"id":44983,"adult":false},{"id":73211,"adult":false},{"id":244755,"adult":false},{"id":315129,"adult":false},{"id":123842,"adult":false},{"id":59973,"adult":false},{"id":57591,"adult":false},{"id":315130,"adult":null},{"id":178682,"adult":false},{"id":121139,"adult":false},{"id":222611,"adult":false},{"id":68685,"adult":false},{"id":315131,"adult":false},{"id":122326,"adult":false},{"id":97241,"adult":false},{"id":265299,"adult":false},{"id":315132,"adult":false},{"id":204754,"adult":false},{"id":314291,"adult":false},{"id":314407,"adult":false},{"id":315133,"adult":false},{"id":107524,"adult":false},{"id":315134,"adult":false},{"id":19205,"adult":false},{"id":28725,"adult":false},{"id":292762,"adult":null},{"id":20981,"adult":false},{"id":315135,"adult":false},{"id":308715,"adult":false},{"id":101069,"adult":null},{"id":18969,"adult":false},{"id":315136,"adult":false},{"id":168885,"adult":false},{"id":38364,"adult":false},{"id":119001,"adult":false},{"id":315137,"adult":false},{"id":240820,"adult":false},{"id":315138,"adult":false},{"id":65048,"adult":false},{"id":164443,"adult":false},{"id":315139,"adult":false}],"page":7,"total_pages":115,"total_results":11442}