{"results":[{"id":339578,"adult":false},{"id":339579,"adult":false},{"id":339580,"adult":false},{"id":315575,"adult":false},{"id":67567,"adult":false},{"id":325302,"adult":false},{"id":145676,"adult":false},{"id":339581,"adult":false},{"id":67568,"adult":false},{"id":67569,"adult":false},{"id":14355,"adult":false},{"id":2546,"adult":false},{"id":27425,"adult":false},{"id":254023,"adult":false},{"id":252822,"adult":false},{"id":285844,"adult":false},{"id":10440,"adult":false},{"id":13993,"adult":false},{"id":339583,"adult":false},{"id":235175,"adult":false},{"id":339585,"adult":false},{"id":291343,"adult":false},{"id":339586,"adult":false},{"id":20910,"adult":false},{"id":290702,"adult":false},{"id":317760,"adult":false},{"id":308532,"adult":false},{"id":339587,"adult":false},{"id":331590,"adult":false},{"id":310578,"adult":false},{"id":279613,"adult":false},{"id":124492,"adult":false},{"id":25935,"adult":false},{"id":339588,"adult":false},{"id":10610,"adult":false},{"id":155854,"adult":false},{"id":314126,"adult":false},{"id":13291,"adult":false},{"id":47852,"adult":false},{"id":57983,"adult":false},{"id":306260,"adult":false},{"id":10544,"adult":false},{"id":254375,"adult":false},{"id":179929,"adult":false},{"id":190580,"adult":false},{"id":34672,"adult":false},{"id":53130,"adult":false},{"id":301819,"adult":false},{"id":5517,"adult":false},{"id":16941,"adult":false},{"id":197990,"adult":null},{"id":9567,"adult":false},{"id":314867,"adult":null},{"id":19837,"adult":false},{"id":102181,"adult":false},{"id":298833,"adult":false},{"id":20357,"adult":false},{"id":96195,"adult":false},{"id":283557,"adult":false},{"id":47933,"adult":false},{"id":2165,"adult":false},{"id":323742,"adult":false},{"id":166526,"adult":false},{"id":9347,"adult":false},{"id":96250,"adult":false},{"id":339590,"adult":false},{"id":304411,"adult":false},{"id":339591,"adult":false},{"id":329992,"adult":null},{"id":96257,"adult":false},{"id":177078,"adult":false},{"id":339592,"adult":true},{"id":266537,"adult":false},{"id":55256,"adult":false},{"id":31063,"adult":false},{"id":378,"adult":false},{"id":45218,"adult":false},{"id":155850,"adult":null},{"id":292353,"adult":false},{"id":5910,"adult":false},{"id":131435,"adult":false},{"id":87542,"adult":false},{"id":283698,"adult":false},{"id":55134,"adult":false},{"id":131443,"adult":false},{"id":321507,"adult":false},{"id":131444,"adult":false},{"id":291284,"adult":false},{"id":27438,"adult":false},{"id":258216,"adult":false},{"id":43349,"adult":false},{"id":128708,"adult":false},{"id":264591,"adult":false},{"id":304024,"adult":false},{"id":320947,"adult":false},{"id":128715,"adult":false},{"id":55197,"adult":false},{"id":143551,"adult":false},{"id":68817,"adult":false},{"id":139555,"adult":false}],"page":83,"total_pages":106,"total_results":10547}