{"results":[{"id":50237,"adult":false},{"id":1934,"adult":false},{"id":339380,"adult":false},{"id":17198,"adult":false},{"id":39285,"adult":false},{"id":13249,"adult":false},{"id":143307,"adult":false},{"id":150696,"adult":false},{"id":11247,"adult":false},{"id":227077,"adult":false},{"id":28540,"adult":false},{"id":50132,"adult":true},{"id":245132,"adult":false},{"id":15671,"adult":false},{"id":50725,"adult":false},{"id":254918,"adult":false},{"id":339381,"adult":false},{"id":5879,"adult":false},{"id":12720,"adult":false},{"id":84705,"adult":false},{"id":314385,"adult":false},{"id":69013,"adult":false},{"id":314994,"adult":false},{"id":13891,"adult":false},{"id":329685,"adult":false},{"id":98226,"adult":false},{"id":46198,"adult":false},{"id":106973,"adult":false},{"id":10733,"adult":false},{"id":339382,"adult":false},{"id":146079,"adult":false},{"id":282376,"adult":false},{"id":61475,"adult":false},{"id":142252,"adult":false},{"id":25925,"adult":false},{"id":322766,"adult":false},{"id":339383,"adult":null},{"id":75170,"adult":false},{"id":4680,"adult":false},{"id":137620,"adult":false},{"id":2501,"adult":false},{"id":144752,"adult":false},{"id":328263,"adult":false},{"id":229546,"adult":false},{"id":7220,"adult":false},{"id":288081,"adult":null},{"id":87589,"adult":false},{"id":313693,"adult":false},{"id":78016,"adult":false},{"id":313577,"adult":false},{"id":266427,"adult":false},{"id":133548,"adult":false},{"id":192133,"adult":false},{"id":435,"adult":false},{"id":263273,"adult":false},{"id":77245,"adult":false},{"id":227719,"adult":false},{"id":312006,"adult":null},{"id":20329,"adult":false},{"id":1954,"adult":false},{"id":31527,"adult":false},{"id":339384,"adult":null},{"id":9509,"adult":false},{"id":100420,"adult":false},{"id":120674,"adult":false},{"id":118328,"adult":false},{"id":43838,"adult":false},{"id":273306,"adult":false},{"id":321600,"adult":null},{"id":77250,"adult":false},{"id":36610,"adult":false},{"id":339385,"adult":false},{"id":337186,"adult":false},{"id":2502,"adult":false},{"id":339386,"adult":false},{"id":339387,"adult":false},{"id":296882,"adult":false},{"id":11370,"adult":false},{"id":138045,"adult":false},{"id":339388,"adult":false},{"id":339389,"adult":false},{"id":339390,"adult":null},{"id":339391,"adult":false},{"id":339392,"adult":false},{"id":408,"adult":false},{"id":995,"adult":false},{"id":339393,"adult":false},{"id":25251,"adult":false},{"id":339394,"adult":false},{"id":339395,"adult":false},{"id":89386,"adult":false},{"id":339396,"adult":false},{"id":10895,"adult":false},{"id":18450,"adult":false},{"id":339397,"adult":false},{"id":8652,"adult":false},{"id":11842,"adult":false},{"id":339401,"adult":false},{"id":13253,"adult":false},{"id":170033,"adult":false}],"page":73,"total_pages":106,"total_results":10547}