{"results":[{"id":107743,"adult":false},{"id":270106,"adult":false},{"id":270199,"adult":false},{"id":270117,"adult":false},{"id":56888,"adult":false},{"id":270113,"adult":false},{"id":265980,"adult":false},{"id":265981,"adult":false},{"id":270114,"adult":false},{"id":270116,"adult":false},{"id":329717,"adult":false},{"id":18155,"adult":false},{"id":237277,"adult":false},{"id":2926,"adult":false},{"id":159290,"adult":false},{"id":324170,"adult":false},{"id":9390,"adult":false},{"id":329718,"adult":false},{"id":167424,"adult":false},{"id":329719,"adult":null},{"id":160415,"adult":false},{"id":1591,"adult":false},{"id":129867,"adult":false},{"id":45028,"adult":false},{"id":33704,"adult":false},{"id":30232,"adult":false},{"id":188773,"adult":false},{"id":329721,"adult":false},{"id":3934,"adult":false},{"id":95492,"adult":false},{"id":329722,"adult":false},{"id":41316,"adult":false},{"id":329723,"adult":false},{"id":329724,"adult":false},{"id":329725,"adult":false},{"id":329726,"adult":false},{"id":329727,"adult":false},{"id":41391,"adult":false},{"id":62390,"adult":false},{"id":279186,"adult":false},{"id":329728,"adult":false},{"id":167810,"adult":false},{"id":218150,"adult":false},{"id":148661,"adult":false},{"id":329729,"adult":false},{"id":324266,"adult":false},{"id":62677,"adult":false},{"id":290283,"adult":false},{"id":36861,"adult":false},{"id":262494,"adult":null},{"id":322903,"adult":false},{"id":329730,"adult":false},{"id":231401,"adult":false},{"id":329731,"adult":false},{"id":58494,"adult":false},{"id":323429,"adult":false},{"id":57469,"adult":false},{"id":26250,"adult":false},{"id":252287,"adult":false},{"id":325384,"adult":false},{"id":323431,"adult":false},{"id":31775,"adult":false},{"id":34536,"adult":false},{"id":70883,"adult":false},{"id":46873,"adult":false},{"id":198331,"adult":false},{"id":329732,"adult":false},{"id":289401,"adult":false},{"id":37277,"adult":false},{"id":21587,"adult":false},{"id":329733,"adult":false},{"id":271718,"adult":false},{"id":9997,"adult":false},{"id":20478,"adult":false},{"id":299461,"adult":false},{"id":329734,"adult":false},{"id":220001,"adult":false},{"id":329735,"adult":false},{"id":59408,"adult":false},{"id":329736,"adult":false},{"id":14900,"adult":false},{"id":304414,"adult":false},{"id":329738,"adult":false},{"id":181356,"adult":false},{"id":56218,"adult":false},{"id":218957,"adult":false},{"id":27903,"adult":false},{"id":263472,"adult":false},{"id":57946,"adult":false},{"id":329739,"adult":false},{"id":248392,"adult":false},{"id":147923,"adult":false},{"id":108994,"adult":false},{"id":327734,"adult":false},{"id":329740,"adult":false},{"id":49538,"adult":false},{"id":178516,"adult":false},{"id":329741,"adult":false},{"id":76170,"adult":false},{"id":11858,"adult":false}],"page":95,"total_pages":123,"total_results":12300}