{"results":[{"id":351435,"adult":true},{"id":4912,"adult":false},{"id":33457,"adult":false},{"id":19101,"adult":false},{"id":115451,"adult":false},{"id":107117,"adult":false},{"id":351436,"adult":false},{"id":351438,"adult":false},{"id":351439,"adult":false},{"id":351440,"adult":false},{"id":12112,"adult":false},{"id":351441,"adult":false},{"id":421,"adult":false},{"id":193610,"adult":false},{"id":111969,"adult":false},{"id":158752,"adult":false},{"id":10679,"adult":false},{"id":80530,"adult":false},{"id":351442,"adult":false},{"id":326262,"adult":false},{"id":54285,"adult":false},{"id":214910,"adult":false},{"id":351443,"adult":false},{"id":179234,"adult":false},{"id":336118,"adult":false},{"id":324070,"adult":null},{"id":324069,"adult":null},{"id":324068,"adult":null},{"id":324066,"adult":null},{"id":324065,"adult":null},{"id":324063,"adult":null},{"id":324058,"adult":null},{"id":351444,"adult":false},{"id":351445,"adult":false},{"id":351446,"adult":false},{"id":340705,"adult":null},{"id":319993,"adult":false},{"id":351447,"adult":false},{"id":351448,"adult":false},{"id":57564,"adult":false},{"id":62569,"adult":false},{"id":65996,"adult":false},{"id":43191,"adult":false},{"id":33569,"adult":false},{"id":351451,"adult":false},{"id":127848,"adult":false},{"id":248817,"adult":false},{"id":86272,"adult":false},{"id":49284,"adult":false},{"id":351452,"adult":false},{"id":242948,"adult":false},{"id":346763,"adult":false},{"id":351453,"adult":false},{"id":10353,"adult":false},{"id":345867,"adult":false},{"id":47467,"adult":false},{"id":338538,"adult":false},{"id":270403,"adult":false},{"id":351454,"adult":false},{"id":33712,"adult":false},{"id":351455,"adult":true},{"id":351456,"adult":false},{"id":162,"adult":false},{"id":295417,"adult":false},{"id":351457,"adult":false},{"id":351458,"adult":false},{"id":351459,"adult":false},{"id":351460,"adult":false},{"id":289405,"adult":false},{"id":81254,"adult":true},{"id":268358,"adult":false},{"id":351461,"adult":false},{"id":351462,"adult":false},{"id":351463,"adult":false},{"id":351464,"adult":false},{"id":211831,"adult":false},{"id":351465,"adult":false},{"id":95892,"adult":false},{"id":351466,"adult":false},{"id":167426,"adult":false},{"id":296978,"adult":false},{"id":302376,"adult":false},{"id":351467,"adult":false},{"id":301856,"adult":false},{"id":351468,"adult":false},{"id":17346,"adult":false},{"id":287462,"adult":false},{"id":351469,"adult":false},{"id":38267,"adult":false},{"id":12539,"adult":false},{"id":351470,"adult":false},{"id":315635,"adult":false},{"id":60430,"adult":false},{"id":124173,"adult":false},{"id":25245,"adult":false},{"id":41952,"adult":false},{"id":29742,"adult":false},{"id":351471,"adult":false},{"id":76739,"adult":false},{"id":316603,"adult":false}],"page":84,"total_pages":103,"total_results":10231}