{"results":[{"id":25706,"adult":false},{"id":321228,"adult":false},{"id":324042,"adult":false},{"id":124210,"adult":false},{"id":198563,"adult":false},{"id":134355,"adult":false},{"id":324043,"adult":false},{"id":256731,"adult":false},{"id":13652,"adult":false},{"id":95342,"adult":false},{"id":29136,"adult":false},{"id":265585,"adult":false},{"id":324044,"adult":false},{"id":137269,"adult":false},{"id":299777,"adult":null},{"id":37404,"adult":false},{"id":312765,"adult":false},{"id":75822,"adult":false},{"id":24236,"adult":false},{"id":324045,"adult":false},{"id":19287,"adult":false},{"id":86575,"adult":false},{"id":320588,"adult":false},{"id":324046,"adult":false},{"id":68721,"adult":false},{"id":42995,"adult":false},{"id":324047,"adult":false},{"id":324048,"adult":false},{"id":324051,"adult":false},{"id":324052,"adult":false},{"id":8333,"adult":false},{"id":324053,"adult":false},{"id":87827,"adult":false},{"id":324054,"adult":false},{"id":314370,"adult":false},{"id":121071,"adult":false},{"id":299245,"adult":false},{"id":324055,"adult":false},{"id":205775,"adult":false},{"id":301975,"adult":false},{"id":68472,"adult":false},{"id":202105,"adult":false},{"id":262500,"adult":false},{"id":324056,"adult":false},{"id":55848,"adult":false},{"id":50647,"adult":false},{"id":9530,"adult":false},{"id":9311,"adult":false},{"id":324057,"adult":false},{"id":3877,"adult":false},{"id":6057,"adult":false},{"id":13641,"adult":false},{"id":6068,"adult":false},{"id":4379,"adult":false},{"id":48037,"adult":false},{"id":40771,"adult":false},{"id":88730,"adult":false},{"id":18487,"adult":false},{"id":10973,"adult":false},{"id":1573,"adult":false},{"id":21751,"adult":false},{"id":13258,"adult":false},{"id":324058,"adult":null},{"id":324059,"adult":false},{"id":1712,"adult":false},{"id":324060,"adult":false},{"id":280135,"adult":false},{"id":769,"adult":false},{"id":103417,"adult":false},{"id":10336,"adult":false},{"id":2086,"adult":false},{"id":57118,"adult":false},{"id":256913,"adult":false},{"id":69794,"adult":false},{"id":324061,"adult":false},{"id":324062,"adult":false},{"id":16804,"adult":false},{"id":13285,"adult":false},{"id":280002,"adult":false},{"id":13090,"adult":false},{"id":146223,"adult":false},{"id":6615,"adult":false},{"id":10546,"adult":false},{"id":10924,"adult":false},{"id":21379,"adult":false},{"id":8945,"adult":false},{"id":18224,"adult":false},{"id":24787,"adult":false},{"id":321666,"adult":false},{"id":88,"adult":false},{"id":324063,"adult":null},{"id":324064,"adult":false},{"id":35177,"adult":false},{"id":15951,"adult":false},{"id":324065,"adult":null},{"id":30421,"adult":false},{"id":8009,"adult":false},{"id":9050,"adult":false},{"id":324066,"adult":null},{"id":10539,"adult":false}],"page":60,"total_pages":117,"total_results":11629}