{"results":[{"id":178994,"adult":false},{"id":161841,"adult":false},{"id":107439,"adult":false},{"id":33831,"adult":false},{"id":161865,"adult":false},{"id":31221,"adult":false},{"id":1838,"adult":false},{"id":190690,"adult":false},{"id":329824,"adult":false},{"id":161833,"adult":false},{"id":342880,"adult":false},{"id":81340,"adult":false},{"id":99875,"adult":false},{"id":334050,"adult":false},{"id":30390,"adult":false},{"id":205250,"adult":false},{"id":161846,"adult":false},{"id":196401,"adult":false},{"id":252189,"adult":false},{"id":205008,"adult":false},{"id":50567,"adult":false},{"id":301556,"adult":false},{"id":342881,"adult":false},{"id":23816,"adult":false},{"id":3486,"adult":false},{"id":11413,"adult":false},{"id":66137,"adult":false},{"id":9799,"adult":false},{"id":80368,"adult":false},{"id":135397,"adult":false},{"id":143547,"adult":false},{"id":342882,"adult":null},{"id":2503,"adult":false},{"id":10163,"adult":false},{"id":2454,"adult":false},{"id":2501,"adult":false},{"id":315986,"adult":false},{"id":307105,"adult":false},{"id":254367,"adult":true},{"id":14098,"adult":false},{"id":2320,"adult":false},{"id":21610,"adult":false},{"id":66117,"adult":false},{"id":16941,"adult":false},{"id":80649,"adult":false},{"id":342883,"adult":null},{"id":38006,"adult":false},{"id":57165,"adult":false},{"id":259903,"adult":false},{"id":156314,"adult":false},{"id":52348,"adult":false},{"id":55711,"adult":false},{"id":48916,"adult":false},{"id":234701,"adult":false},{"id":52639,"adult":false},{"id":104355,"adult":false},{"id":44249,"adult":false},{"id":48419,"adult":false},{"id":20244,"adult":false},{"id":8277,"adult":false},{"id":217751,"adult":false},{"id":35760,"adult":false},{"id":79860,"adult":false},{"id":9870,"adult":false},{"id":342884,"adult":false},{"id":319592,"adult":false},{"id":11822,"adult":false},{"id":298311,"adult":true},{"id":254628,"adult":true},{"id":23742,"adult":false},{"id":247940,"adult":true},{"id":307040,"adult":true},{"id":307648,"adult":true},{"id":267893,"adult":null},{"id":308242,"adult":true},{"id":312753,"adult":true},{"id":342885,"adult":false},{"id":307480,"adult":true},{"id":43923,"adult":false},{"id":160720,"adult":false},{"id":2440,"adult":false},{"id":5237,"adult":false},{"id":86871,"adult":true},{"id":86870,"adult":true},{"id":311619,"adult":true},{"id":4901,"adult":false},{"id":299623,"adult":true},{"id":254233,"adult":true},{"id":342886,"adult":false},{"id":17898,"adult":false},{"id":342887,"adult":false},{"id":18966,"adult":false},{"id":11313,"adult":false},{"id":342888,"adult":false},{"id":342889,"adult":false},{"id":45581,"adult":false},{"id":215846,"adult":false},{"id":341048,"adult":false},{"id":9980,"adult":false},{"id":191186,"adult":false}],"page":13,"total_pages":95,"total_results":9488}