{"results":[{"id":18710,"adult":false},{"id":25103,"adult":false},{"id":431,"adult":false},{"id":52602,"adult":false},{"id":326724,"adult":false},{"id":47002,"adult":false},{"id":6001,"adult":false},{"id":78383,"adult":false},{"id":9645,"adult":false},{"id":10656,"adult":false},{"id":106141,"adult":false},{"id":24620,"adult":false},{"id":326725,"adult":false},{"id":380,"adult":false},{"id":9422,"adult":false},{"id":579,"adult":false},{"id":105,"adult":false},{"id":10763,"adult":false},{"id":165,"adult":false},{"id":57909,"adult":false},{"id":11788,"adult":false},{"id":307508,"adult":false},{"id":222216,"adult":false},{"id":263680,"adult":false},{"id":277305,"adult":false},{"id":72139,"adult":false},{"id":322718,"adult":false},{"id":323682,"adult":false},{"id":323678,"adult":false},{"id":27348,"adult":false},{"id":102129,"adult":false},{"id":158653,"adult":false},{"id":14903,"adult":false},{"id":66304,"adult":false},{"id":82393,"adult":false},{"id":42632,"adult":false},{"id":112200,"adult":false},{"id":20825,"adult":false},{"id":99190,"adult":false},{"id":326726,"adult":false},{"id":41676,"adult":false},{"id":278661,"adult":false},{"id":324798,"adult":false},{"id":323672,"adult":false},{"id":52609,"adult":false},{"id":326727,"adult":false},{"id":196462,"adult":false},{"id":109729,"adult":false},{"id":160420,"adult":false},{"id":16804,"adult":false},{"id":326728,"adult":false},{"id":4517,"adult":false},{"id":16394,"adult":false},{"id":84102,"adult":false},{"id":4442,"adult":false},{"id":326729,"adult":false},{"id":99272,"adult":false},{"id":173917,"adult":false},{"id":326730,"adult":false},{"id":1892,"adult":false},{"id":38685,"adult":false},{"id":9812,"adult":false},{"id":326731,"adult":false},{"id":148866,"adult":false},{"id":161925,"adult":false},{"id":326732,"adult":false},{"id":2625,"adult":false},{"id":326733,"adult":false},{"id":23030,"adult":false},{"id":326734,"adult":false},{"id":265200,"adult":false},{"id":266034,"adult":false},{"id":326735,"adult":false},{"id":585,"adult":false},{"id":788,"adult":false},{"id":253509,"adult":false},{"id":12143,"adult":false},{"id":11132,"adult":false},{"id":145220,"adult":false},{"id":326736,"adult":false},{"id":160810,"adult":false},{"id":79777,"adult":false},{"id":269651,"adult":false},{"id":97975,"adult":false},{"id":72430,"adult":false},{"id":17335,"adult":false},{"id":326737,"adult":false},{"id":259564,"adult":false},{"id":10867,"adult":false},{"id":228993,"adult":false},{"id":326738,"adult":false},{"id":10027,"adult":false},{"id":8688,"adult":false},{"id":62826,"adult":false},{"id":62228,"adult":false},{"id":136835,"adult":false},{"id":201207,"adult":false},{"id":53017,"adult":false},{"id":62835,"adult":false},{"id":326739,"adult":false}],"page":59,"total_pages":112,"total_results":11193}