{"results":[{"id":326299,"adult":false},{"id":111417,"adult":false},{"id":79066,"adult":false},{"id":336812,"adult":null},{"id":139187,"adult":false},{"id":11482,"adult":false},{"id":8884,"adult":false},{"id":297802,"adult":false},{"id":37853,"adult":false},{"id":29244,"adult":false},{"id":255157,"adult":false},{"id":16,"adult":false},{"id":273116,"adult":false},{"id":13065,"adult":false},{"id":38322,"adult":false},{"id":260234,"adult":false},{"id":25938,"adult":false},{"id":336813,"adult":false},{"id":661,"adult":false},{"id":146714,"adult":false},{"id":25087,"adult":false},{"id":336814,"adult":true},{"id":51212,"adult":false},{"id":82969,"adult":false},{"id":42700,"adult":false},{"id":69729,"adult":false},{"id":336815,"adult":false},{"id":84217,"adult":false},{"id":26890,"adult":false},{"id":36692,"adult":false},{"id":36693,"adult":false},{"id":65709,"adult":false},{"id":79921,"adult":false},{"id":245200,"adult":false},{"id":10269,"adult":false},{"id":121960,"adult":false},{"id":14771,"adult":false},{"id":172792,"adult":false},{"id":294811,"adult":false},{"id":634,"adult":false},{"id":114982,"adult":false},{"id":13166,"adult":false},{"id":127717,"adult":false},{"id":62298,"adult":false},{"id":17144,"adult":false},{"id":7341,"adult":false},{"id":34043,"adult":false},{"id":10213,"adult":false},{"id":304357,"adult":false},{"id":336816,"adult":true},{"id":336817,"adult":false},{"id":336818,"adult":null},{"id":49013,"adult":false},{"id":24421,"adult":false},{"id":19415,"adult":false},{"id":261855,"adult":false},{"id":335393,"adult":false},{"id":86066,"adult":false},{"id":332751,"adult":false},{"id":336819,"adult":false},{"id":336820,"adult":true},{"id":331737,"adult":false},{"id":309309,"adult":false},{"id":14128,"adult":false},{"id":335310,"adult":false},{"id":244509,"adult":false},{"id":331378,"adult":false},{"id":201223,"adult":false},{"id":314389,"adult":false},{"id":273048,"adult":false},{"id":213711,"adult":false},{"id":299751,"adult":false},{"id":62067,"adult":false},{"id":284296,"adult":false},{"id":336821,"adult":false},{"id":155992,"adult":false},{"id":77411,"adult":false},{"id":45655,"adult":false},{"id":268046,"adult":false},{"id":334520,"adult":false},{"id":102630,"adult":false},{"id":336822,"adult":false},{"id":11709,"adult":false},{"id":333823,"adult":false},{"id":336823,"adult":null},{"id":100082,"adult":false},{"id":41777,"adult":false},{"id":106100,"adult":false},{"id":336824,"adult":false},{"id":336825,"adult":false},{"id":336826,"adult":false},{"id":24655,"adult":false},{"id":33604,"adult":false},{"id":18496,"adult":false},{"id":106097,"adult":false},{"id":336827,"adult":false},{"id":252461,"adult":false},{"id":336828,"adult":false},{"id":186721,"adult":false},{"id":266079,"adult":false}],"page":49,"total_pages":102,"total_results":10168}