{"results":[{"id":340357,"adult":false},{"id":365289,"adult":false},{"id":9890,"adult":false},{"id":362866,"adult":false},{"id":367284,"adult":false},{"id":35901,"adult":false},{"id":362710,"adult":false},{"id":347551,"adult":false},{"id":347547,"adult":false},{"id":137690,"adult":false},{"id":347550,"adult":false},{"id":367285,"adult":false},{"id":365288,"adult":false},{"id":154443,"adult":false},{"id":347545,"adult":false},{"id":42337,"adult":false},{"id":367286,"adult":false},{"id":367287,"adult":false},{"id":144725,"adult":false},{"id":367288,"adult":false},{"id":367289,"adult":false},{"id":322850,"adult":false},{"id":10241,"adult":false},{"id":27995,"adult":false},{"id":198277,"adult":false},{"id":21489,"adult":false},{"id":108808,"adult":false},{"id":10125,"adult":false},{"id":291627,"adult":false},{"id":367290,"adult":false},{"id":8009,"adult":false},{"id":367291,"adult":false},{"id":56535,"adult":false},{"id":367292,"adult":false},{"id":112016,"adult":false},{"id":8010,"adult":false},{"id":300686,"adult":false},{"id":8011,"adult":false},{"id":35201,"adult":false},{"id":367294,"adult":false},{"id":13196,"adult":false},{"id":45534,"adult":false},{"id":367295,"adult":false},{"id":319669,"adult":false},{"id":367297,"adult":false},{"id":14475,"adult":false},{"id":4858,"adult":false},{"id":367298,"adult":false},{"id":1635,"adult":false},{"id":75780,"adult":false},{"id":367299,"adult":false},{"id":13534,"adult":false},{"id":367300,"adult":false},{"id":239650,"adult":false},{"id":302502,"adult":false},{"id":4416,"adult":false},{"id":84170,"adult":false},{"id":309023,"adult":false},{"id":226354,"adult":false},{"id":11304,"adult":false},{"id":367301,"adult":false},{"id":314565,"adult":false},{"id":193380,"adult":false},{"id":524,"adult":false},{"id":367302,"adult":false},{"id":8677,"adult":false},{"id":367303,"adult":false},{"id":151401,"adult":false},{"id":367304,"adult":false},{"id":84907,"adult":false},{"id":10999,"adult":false},{"id":367305,"adult":false},{"id":865,"adult":false},{"id":99758,"adult":false},{"id":144336,"adult":false},{"id":282276,"adult":false},{"id":138022,"adult":false},{"id":361042,"adult":false},{"id":367306,"adult":false},{"id":250066,"adult":false},{"id":268920,"adult":false},{"id":57399,"adult":false},{"id":367307,"adult":false},{"id":227094,"adult":false},{"id":7088,"adult":false},{"id":14273,"adult":false},{"id":19197,"adult":false},{"id":280504,"adult":false},{"id":367308,"adult":true},{"id":8838,"adult":false},{"id":367309,"adult":false},{"id":282279,"adult":false},{"id":69016,"adult":false},{"id":10077,"adult":false},{"id":145312,"adult":false},{"id":64502,"adult":false},{"id":367310,"adult":false},{"id":14794,"adult":false},{"id":85645,"adult":false},{"id":3513,"adult":false}],"page":65,"total_pages":108,"total_results":10787}