{"results":[{"id":277685,"adult":false},{"id":345068,"adult":false},{"id":2503,"adult":false},{"id":49040,"adult":false},{"id":19823,"adult":false},{"id":245916,"adult":false},{"id":2502,"adult":false},{"id":89591,"adult":false},{"id":2501,"adult":false},{"id":345069,"adult":false},{"id":341762,"adult":null},{"id":333674,"adult":false},{"id":264652,"adult":false},{"id":291724,"adult":false},{"id":244506,"adult":false},{"id":322194,"adult":false},{"id":329134,"adult":false},{"id":314070,"adult":false},{"id":32636,"adult":false},{"id":345070,"adult":false},{"id":345071,"adult":false},{"id":258947,"adult":false},{"id":345072,"adult":false},{"id":34528,"adult":false},{"id":345073,"adult":false},{"id":329540,"adult":false},{"id":345074,"adult":false},{"id":148980,"adult":false},{"id":345075,"adult":false},{"id":345076,"adult":false},{"id":345077,"adult":false},{"id":51162,"adult":false},{"id":345078,"adult":false},{"id":77663,"adult":false},{"id":82695,"adult":false},{"id":33572,"adult":false},{"id":8741,"adult":false},{"id":345079,"adult":false},{"id":345080,"adult":false},{"id":345081,"adult":false},{"id":345082,"adult":false},{"id":345083,"adult":false},{"id":98169,"adult":false},{"id":127843,"adult":false},{"id":15567,"adult":false},{"id":217576,"adult":false},{"id":345084,"adult":false},{"id":345085,"adult":false},{"id":69540,"adult":false},{"id":345086,"adult":false},{"id":278185,"adult":false},{"id":278798,"adult":false},{"id":125758,"adult":false},{"id":120824,"adult":false},{"id":345087,"adult":false},{"id":345088,"adult":false},{"id":52203,"adult":false},{"id":161726,"adult":false},{"id":345089,"adult":false},{"id":2908,"adult":false},{"id":295595,"adult":false},{"id":334303,"adult":false},{"id":131947,"adult":false},{"id":345090,"adult":false},{"id":254430,"adult":false},{"id":345091,"adult":false},{"id":55287,"adult":false},{"id":345092,"adult":false},{"id":345093,"adult":false},{"id":2855,"adult":false},{"id":147741,"adult":false},{"id":291218,"adult":false},{"id":103509,"adult":false},{"id":51722,"adult":false},{"id":44671,"adult":false},{"id":91334,"adult":false},{"id":107087,"adult":false},{"id":345094,"adult":false},{"id":134681,"adult":false},{"id":19673,"adult":false},{"id":326284,"adult":false},{"id":43609,"adult":false},{"id":197011,"adult":false},{"id":67102,"adult":false},{"id":16318,"adult":false},{"id":254781,"adult":false},{"id":140212,"adult":false},{"id":65504,"adult":false},{"id":83352,"adult":false},{"id":257540,"adult":false},{"id":81324,"adult":false},{"id":345095,"adult":false},{"id":345096,"adult":false},{"id":219924,"adult":false},{"id":270487,"adult":false},{"id":345097,"adult":false},{"id":345098,"adult":false},{"id":306693,"adult":false},{"id":259465,"adult":false},{"id":245706,"adult":false}],"page":25,"total_pages":111,"total_results":11023}