{"results":[{"id":156141,"adult":false},{"id":282288,"adult":false},{"id":340393,"adult":null},{"id":340112,"adult":false},{"id":86357,"adult":false},{"id":254781,"adult":false},{"id":8816,"adult":false},{"id":256962,"adult":false},{"id":64984,"adult":false},{"id":107690,"adult":false},{"id":204607,"adult":false},{"id":107705,"adult":false},{"id":687,"adult":false},{"id":101362,"adult":false},{"id":195557,"adult":false},{"id":48399,"adult":false},{"id":35056,"adult":false},{"id":162853,"adult":false},{"id":340394,"adult":false},{"id":223485,"adult":false},{"id":340107,"adult":false},{"id":208309,"adult":false},{"id":14652,"adult":false},{"id":36264,"adult":false},{"id":340395,"adult":false},{"id":81324,"adult":false},{"id":207260,"adult":false},{"id":340396,"adult":false},{"id":18651,"adult":false},{"id":322469,"adult":false},{"id":68794,"adult":false},{"id":300451,"adult":false},{"id":91653,"adult":false},{"id":14815,"adult":false},{"id":72204,"adult":false},{"id":850,"adult":false},{"id":84821,"adult":false},{"id":91635,"adult":false},{"id":340397,"adult":false},{"id":145947,"adult":false},{"id":91141,"adult":false},{"id":90642,"adult":false},{"id":74314,"adult":false},{"id":90326,"adult":false},{"id":90021,"adult":false},{"id":108256,"adult":false},{"id":193216,"adult":false},{"id":91673,"adult":false},{"id":276839,"adult":false},{"id":72955,"adult":false},{"id":340398,"adult":false},{"id":54991,"adult":false},{"id":68924,"adult":false},{"id":296810,"adult":false},{"id":79231,"adult":false},{"id":289314,"adult":false},{"id":151455,"adult":false},{"id":338754,"adult":false},{"id":69006,"adult":false},{"id":75294,"adult":false},{"id":314285,"adult":false},{"id":132654,"adult":false},{"id":125965,"adult":false},{"id":185907,"adult":false},{"id":54880,"adult":false},{"id":340399,"adult":false},{"id":340189,"adult":false},{"id":299221,"adult":false},{"id":259138,"adult":false},{"id":185,"adult":false},{"id":46443,"adult":false},{"id":114172,"adult":false},{"id":36056,"adult":false},{"id":35608,"adult":false},{"id":161301,"adult":false},{"id":20737,"adult":false},{"id":26258,"adult":false},{"id":19087,"adult":false},{"id":242828,"adult":false},{"id":84302,"adult":false},{"id":340400,"adult":null},{"id":9531,"adult":false},{"id":1924,"adult":false},{"id":52208,"adult":false},{"id":291343,"adult":false},{"id":115042,"adult":false},{"id":10843,"adult":false},{"id":99995,"adult":false},{"id":199887,"adult":false},{"id":825,"adult":false},{"id":340208,"adult":false},{"id":201088,"adult":false},{"id":308084,"adult":false},{"id":260346,"adult":false},{"id":268920,"adult":false},{"id":239573,"adult":false},{"id":116149,"adult":false},{"id":216015,"adult":false},{"id":10802,"adult":false},{"id":210577,"adult":false}],"page":9,"total_pages":103,"total_results":10276}