{"results":[{"id":10219,"adult":false},{"id":333985,"adult":false},{"id":27578,"adult":false},{"id":33624,"adult":false},{"id":358461,"adult":false},{"id":354808,"adult":false},{"id":98,"adult":false},{"id":96721,"adult":false},{"id":287384,"adult":false},{"id":358462,"adult":false},{"id":356819,"adult":false},{"id":10544,"adult":false},{"id":76649,"adult":false},{"id":188161,"adult":false},{"id":172385,"adult":false},{"id":13681,"adult":false},{"id":3685,"adult":false},{"id":239571,"adult":false},{"id":10541,"adult":false},{"id":289720,"adult":false},{"id":358463,"adult":false},{"id":358465,"adult":false},{"id":9547,"adult":false},{"id":358466,"adult":false},{"id":288,"adult":false},{"id":33916,"adult":false},{"id":264370,"adult":false},{"id":6472,"adult":false},{"id":323640,"adult":false},{"id":3686,"adult":false},{"id":342329,"adult":false},{"id":97441,"adult":false},{"id":53512,"adult":false},{"id":358467,"adult":false},{"id":222890,"adult":false},{"id":358468,"adult":false},{"id":247,"adult":false},{"id":358469,"adult":false},{"id":358470,"adult":false},{"id":358471,"adult":false},{"id":9347,"adult":false},{"id":358472,"adult":false},{"id":19199,"adult":false},{"id":358473,"adult":false},{"id":358474,"adult":false},{"id":358475,"adult":false},{"id":222936,"adult":false},{"id":358476,"adult":false},{"id":358477,"adult":false},{"id":358478,"adult":false},{"id":358479,"adult":false},{"id":358480,"adult":false},{"id":358481,"adult":false},{"id":9627,"adult":false},{"id":358482,"adult":false},{"id":358483,"adult":false},{"id":358484,"adult":false},{"id":9628,"adult":false},{"id":75879,"adult":false},{"id":136339,"adult":false},{"id":358485,"adult":false},{"id":358486,"adult":false},{"id":358487,"adult":false},{"id":47849,"adult":false},{"id":358488,"adult":false},{"id":180856,"adult":false},{"id":232039,"adult":false},{"id":9806,"adult":false},{"id":18143,"adult":false},{"id":91613,"adult":false},{"id":358489,"adult":false},{"id":194879,"adult":false},{"id":358490,"adult":false},{"id":175054,"adult":false},{"id":358491,"adult":false},{"id":358492,"adult":false},{"id":112674,"adult":false},{"id":4613,"adult":false},{"id":243185,"adult":false},{"id":24946,"adult":false},{"id":358493,"adult":false},{"id":358494,"adult":false},{"id":358495,"adult":false},{"id":78214,"adult":false},{"id":280543,"adult":false},{"id":358496,"adult":false},{"id":358497,"adult":false},{"id":81305,"adult":false},{"id":358498,"adult":false},{"id":358499,"adult":false},{"id":203723,"adult":false},{"id":358500,"adult":false},{"id":358501,"adult":false},{"id":306031,"adult":false},{"id":111083,"adult":false},{"id":129266,"adult":false},{"id":358502,"adult":false},{"id":326338,"adult":false},{"id":41463,"adult":false},{"id":10104,"adult":false}],"page":58,"total_pages":112,"total_results":11114}