{"results":[{"id":371945,"adult":false},{"id":20628,"adult":false},{"id":27043,"adult":false},{"id":9744,"adult":false},{"id":13765,"adult":false},{"id":32285,"adult":false},{"id":88860,"adult":false},{"id":1241,"adult":false},{"id":367468,"adult":true},{"id":27119,"adult":false},{"id":10545,"adult":false},{"id":117123,"adult":false},{"id":100402,"adult":false},{"id":371946,"adult":true},{"id":56623,"adult":false},{"id":154266,"adult":false},{"id":322438,"adult":false},{"id":182254,"adult":false},{"id":371947,"adult":false},{"id":348528,"adult":false},{"id":195269,"adult":false},{"id":299536,"adult":false},{"id":219674,"adult":false},{"id":299534,"adult":false},{"id":9648,"adult":false},{"id":371948,"adult":false},{"id":285843,"adult":false},{"id":238713,"adult":false},{"id":371949,"adult":false},{"id":82966,"adult":false},{"id":359178,"adult":false},{"id":19562,"adult":false},{"id":358657,"adult":false},{"id":351030,"adult":false},{"id":324825,"adult":false},{"id":324827,"adult":null},{"id":324832,"adult":null},{"id":324835,"adult":null},{"id":324836,"adult":null},{"id":324837,"adult":null},{"id":324831,"adult":null},{"id":41821,"adult":false},{"id":185,"adult":false},{"id":269991,"adult":false},{"id":371950,"adult":false},{"id":25476,"adult":false},{"id":35955,"adult":false},{"id":37041,"adult":false},{"id":232779,"adult":false},{"id":37055,"adult":false},{"id":251979,"adult":false},{"id":8836,"adult":false},{"id":193454,"adult":false},{"id":205566,"adult":false},{"id":72570,"adult":false},{"id":11928,"adult":false},{"id":371951,"adult":false},{"id":765,"adult":false},{"id":186739,"adult":false},{"id":49494,"adult":false},{"id":12834,"adult":false},{"id":60030,"adult":false},{"id":151228,"adult":false},{"id":764,"adult":false},{"id":324558,"adult":false},{"id":37821,"adult":false},{"id":252,"adult":false},{"id":287084,"adult":false},{"id":241855,"adult":false},{"id":41118,"adult":false},{"id":298663,"adult":false},{"id":181582,"adult":false},{"id":961,"adult":false},{"id":371952,"adult":false},{"id":59859,"adult":false},{"id":328298,"adult":false},{"id":23483,"adult":false},{"id":51850,"adult":false},{"id":371953,"adult":false},{"id":6575,"adult":false},{"id":49529,"adult":false},{"id":371954,"adult":false},{"id":371955,"adult":false},{"id":100871,"adult":false},{"id":11037,"adult":false},{"id":371956,"adult":false},{"id":274336,"adult":false},{"id":371957,"adult":false},{"id":14756,"adult":false},{"id":371958,"adult":false},{"id":186431,"adult":false},{"id":11968,"adult":false},{"id":371959,"adult":false},{"id":50368,"adult":false},{"id":371960,"adult":false},{"id":371961,"adult":false},{"id":48693,"adult":false},{"id":371962,"adult":false},{"id":257091,"adult":false},{"id":10908,"adult":false}],"page":73,"total_pages":97,"total_results":9613}