{"results":[{"id":229138,"adult":false},{"id":38292,"adult":false},{"id":169173,"adult":false},{"id":2436,"adult":false},{"id":2357,"adult":false},{"id":339992,"adult":false},{"id":641,"adult":false},{"id":272692,"adult":false},{"id":353200,"adult":false},{"id":512,"adult":false},{"id":13685,"adult":false},{"id":9357,"adult":false},{"id":353201,"adult":false},{"id":35412,"adult":false},{"id":353202,"adult":false},{"id":353203,"adult":false},{"id":353204,"adult":false},{"id":37327,"adult":false},{"id":325692,"adult":false},{"id":353205,"adult":false},{"id":313176,"adult":false},{"id":66818,"adult":false},{"id":353206,"adult":false},{"id":13243,"adult":false},{"id":8079,"adult":false},{"id":353207,"adult":false},{"id":192720,"adult":false},{"id":353208,"adult":false},{"id":110956,"adult":false},{"id":281188,"adult":null},{"id":70439,"adult":false},{"id":212209,"adult":false},{"id":353209,"adult":false},{"id":241225,"adult":false},{"id":353210,"adult":true},{"id":261938,"adult":false},{"id":245439,"adult":false},{"id":51123,"adult":false},{"id":51183,"adult":false},{"id":51124,"adult":false},{"id":120624,"adult":false},{"id":245435,"adult":false},{"id":41654,"adult":false},{"id":14973,"adult":false},{"id":112340,"adult":false},{"id":85460,"adult":false},{"id":91923,"adult":false},{"id":232927,"adult":false},{"id":82418,"adult":false},{"id":33731,"adult":false},{"id":92811,"adult":false},{"id":280752,"adult":false},{"id":336613,"adult":null},{"id":75461,"adult":null},{"id":194958,"adult":false},{"id":353211,"adult":false},{"id":240498,"adult":null},{"id":39514,"adult":false},{"id":332458,"adult":false},{"id":329254,"adult":false},{"id":328812,"adult":false},{"id":207196,"adult":false},{"id":334659,"adult":false},{"id":336128,"adult":false},{"id":353212,"adult":false},{"id":32579,"adult":false},{"id":73625,"adult":false},{"id":341321,"adult":false},{"id":336969,"adult":false},{"id":353213,"adult":false},{"id":292614,"adult":false},{"id":347288,"adult":false},{"id":28209,"adult":false},{"id":215256,"adult":false},{"id":209350,"adult":false},{"id":13672,"adult":false},{"id":224065,"adult":false},{"id":353214,"adult":false},{"id":178222,"adult":false},{"id":353215,"adult":false},{"id":353216,"adult":false},{"id":314093,"adult":false},{"id":342082,"adult":false},{"id":329208,"adult":false},{"id":347688,"adult":false},{"id":63459,"adult":false},{"id":135397,"adult":false},{"id":31319,"adult":false},{"id":79215,"adult":false},{"id":353217,"adult":false},{"id":137233,"adult":false},{"id":21259,"adult":false},{"id":251852,"adult":false},{"id":5776,"adult":false},{"id":168538,"adult":false},{"id":114150,"adult":false},{"id":80647,"adult":false},{"id":353218,"adult":false},{"id":282762,"adult":false},{"id":26550,"adult":false}],"page":39,"total_pages":89,"total_results":8876}