{"results":[{"id":316307,"adult":false},{"id":42225,"adult":false},{"id":1691,"adult":false},{"id":15938,"adult":false},{"id":10161,"adult":false},{"id":8386,"adult":false},{"id":316308,"adult":false},{"id":316309,"adult":false},{"id":172008,"adult":false},{"id":316310,"adult":false},{"id":316311,"adult":false},{"id":316312,"adult":false},{"id":26123,"adult":false},{"id":316313,"adult":false},{"id":5937,"adult":false},{"id":38360,"adult":false},{"id":283262,"adult":false},{"id":316314,"adult":false},{"id":139293,"adult":false},{"id":11005,"adult":false},{"id":87440,"adult":false},{"id":94509,"adult":false},{"id":17185,"adult":false},{"id":316315,"adult":false},{"id":52555,"adult":false},{"id":27582,"adult":false},{"id":23996,"adult":false},{"id":31909,"adult":false},{"id":11589,"adult":false},{"id":22285,"adult":false},{"id":16070,"adult":false},{"id":130629,"adult":false},{"id":56386,"adult":false},{"id":316316,"adult":false},{"id":316317,"adult":false},{"id":15323,"adult":false},{"id":15324,"adult":false},{"id":31587,"adult":false},{"id":243683,"adult":false},{"id":171979,"adult":null},{"id":49673,"adult":false},{"id":23742,"adult":false},{"id":197082,"adult":false},{"id":8456,"adult":false},{"id":210234,"adult":false},{"id":316318,"adult":false},{"id":11056,"adult":false},{"id":149938,"adult":false},{"id":286111,"adult":false},{"id":316319,"adult":false},{"id":59967,"adult":false},{"id":7518,"adult":false},{"id":27150,"adult":false},{"id":99460,"adult":false},{"id":52800,"adult":false},{"id":175445,"adult":false},{"id":168257,"adult":false},{"id":316320,"adult":false},{"id":88338,"adult":false},{"id":316321,"adult":false},{"id":230779,"adult":false},{"id":61705,"adult":false},{"id":62382,"adult":false},{"id":316322,"adult":false},{"id":316323,"adult":false},{"id":307217,"adult":false},{"id":316324,"adult":false},{"id":241377,"adult":true},{"id":56231,"adult":false},{"id":2048,"adult":false},{"id":157353,"adult":false},{"id":24583,"adult":false},{"id":293633,"adult":false},{"id":285131,"adult":null},{"id":90949,"adult":false},{"id":388,"adult":false},{"id":145691,"adult":false},{"id":94192,"adult":false},{"id":316325,"adult":false},{"id":102488,"adult":false},{"id":101314,"adult":false},{"id":134777,"adult":false},{"id":64978,"adult":false},{"id":191583,"adult":false},{"id":27646,"adult":false},{"id":258233,"adult":false},{"id":20531,"adult":false},{"id":45156,"adult":false},{"id":165344,"adult":false},{"id":47943,"adult":false},{"id":254375,"adult":false},{"id":825,"adult":false},{"id":316326,"adult":false},{"id":14280,"adult":false},{"id":11823,"adult":false},{"id":29668,"adult":true},{"id":262872,"adult":false},{"id":43933,"adult":false},{"id":38055,"adult":false},{"id":23629,"adult":false}],"page":64,"total_pages":115,"total_results":11442}