{"results":[{"id":27581,"adult":false},{"id":367419,"adult":false},{"id":367420,"adult":false},{"id":193722,"adult":false},{"id":265765,"adult":false},{"id":26674,"adult":false},{"id":192577,"adult":false},{"id":133805,"adult":false},{"id":40254,"adult":false},{"id":367421,"adult":false},{"id":322061,"adult":false},{"id":58254,"adult":false},{"id":14047,"adult":false},{"id":300187,"adult":false},{"id":32170,"adult":false},{"id":41872,"adult":false},{"id":362719,"adult":null},{"id":131780,"adult":false},{"id":367422,"adult":false},{"id":108251,"adult":false},{"id":248087,"adult":false},{"id":37247,"adult":false},{"id":29946,"adult":false},{"id":200830,"adult":false},{"id":43742,"adult":false},{"id":11439,"adult":false},{"id":36464,"adult":false},{"id":200346,"adult":false},{"id":70476,"adult":false},{"id":197936,"adult":false},{"id":14756,"adult":false},{"id":21612,"adult":false},{"id":178446,"adult":false},{"id":84345,"adult":false},{"id":40814,"adult":false},{"id":48611,"adult":false},{"id":51428,"adult":false},{"id":31619,"adult":false},{"id":10169,"adult":false},{"id":367423,"adult":false},{"id":367424,"adult":true},{"id":49963,"adult":false},{"id":53658,"adult":false},{"id":358604,"adult":false},{"id":312977,"adult":false},{"id":367425,"adult":false},{"id":354148,"adult":false},{"id":14368,"adult":false},{"id":17169,"adult":false},{"id":361792,"adult":null},{"id":2861,"adult":false},{"id":157099,"adult":false},{"id":80865,"adult":false},{"id":50124,"adult":false},{"id":11568,"adult":false},{"id":367426,"adult":null},{"id":102292,"adult":false},{"id":21057,"adult":false},{"id":367427,"adult":false},{"id":16277,"adult":false},{"id":138832,"adult":false},{"id":209244,"adult":false},{"id":22175,"adult":false},{"id":17658,"adult":false},{"id":155084,"adult":false},{"id":46754,"adult":false},{"id":4922,"adult":false},{"id":367428,"adult":false},{"id":18632,"adult":false},{"id":31175,"adult":false},{"id":16638,"adult":false},{"id":30331,"adult":false},{"id":168259,"adult":false},{"id":15417,"adult":false},{"id":199933,"adult":false},{"id":136400,"adult":false},{"id":9326,"adult":false},{"id":81608,"adult":false},{"id":4228,"adult":false},{"id":17174,"adult":false},{"id":32037,"adult":false},{"id":170750,"adult":false},{"id":85248,"adult":false},{"id":9690,"adult":false},{"id":55418,"adult":false},{"id":54979,"adult":false},{"id":367429,"adult":false},{"id":367430,"adult":false},{"id":209189,"adult":false},{"id":74949,"adult":false},{"id":147836,"adult":false},{"id":367431,"adult":false},{"id":277,"adult":false},{"id":105646,"adult":false},{"id":603,"adult":false},{"id":8698,"adult":false},{"id":2698,"adult":false},{"id":367432,"adult":false},{"id":70422,"adult":false},{"id":24634,"adult":false}],"page":70,"total_pages":108,"total_results":10787}