{"results":[{"id":253060,"adult":false},{"id":77385,"adult":true},{"id":75560,"adult":true},{"id":138979,"adult":true},{"id":246655,"adult":false},{"id":13189,"adult":false},{"id":336239,"adult":false},{"id":70580,"adult":false},{"id":252178,"adult":false},{"id":292431,"adult":false},{"id":188326,"adult":false},{"id":110738,"adult":false},{"id":157703,"adult":false},{"id":198475,"adult":false},{"id":286746,"adult":false},{"id":178978,"adult":false},{"id":311977,"adult":false},{"id":336240,"adult":false},{"id":336241,"adult":false},{"id":79547,"adult":false},{"id":336242,"adult":false},{"id":26286,"adult":false},{"id":148436,"adult":false},{"id":336243,"adult":false},{"id":252838,"adult":false},{"id":336244,"adult":false},{"id":336245,"adult":false},{"id":40717,"adult":false},{"id":336246,"adult":false},{"id":308993,"adult":false},{"id":336247,"adult":false},{"id":155782,"adult":false},{"id":305377,"adult":false},{"id":263471,"adult":false},{"id":8967,"adult":false},{"id":336248,"adult":false},{"id":82871,"adult":false},{"id":23698,"adult":false},{"id":299245,"adult":false},{"id":334251,"adult":false},{"id":106419,"adult":false},{"id":82411,"adult":false},{"id":111973,"adult":false},{"id":111814,"adult":false},{"id":280092,"adult":false},{"id":253081,"adult":false},{"id":204959,"adult":false},{"id":70579,"adult":false},{"id":10656,"adult":false},{"id":336249,"adult":false},{"id":336250,"adult":null},{"id":336251,"adult":false},{"id":10837,"adult":false},{"id":261987,"adult":false},{"id":336252,"adult":false},{"id":15653,"adult":false},{"id":336253,"adult":false},{"id":15789,"adult":false},{"id":232500,"adult":false},{"id":13339,"adult":false},{"id":57564,"adult":false},{"id":224575,"adult":false},{"id":336254,"adult":false},{"id":18890,"adult":false},{"id":10485,"adult":false},{"id":253135,"adult":false},{"id":315872,"adult":false},{"id":19018,"adult":false},{"id":11077,"adult":false},{"id":336255,"adult":false},{"id":13173,"adult":false},{"id":82485,"adult":false},{"id":81203,"adult":false},{"id":9556,"adult":false},{"id":41003,"adult":false},{"id":81204,"adult":false},{"id":81205,"adult":false},{"id":336256,"adult":false},{"id":295121,"adult":false},{"id":181310,"adult":false},{"id":283561,"adult":false},{"id":289665,"adult":false},{"id":336257,"adult":null},{"id":336258,"adult":false},{"id":336259,"adult":false},{"id":273481,"adult":false},{"id":127322,"adult":false},{"id":156169,"adult":false},{"id":335030,"adult":false},{"id":49538,"adult":false},{"id":274479,"adult":false},{"id":147,"adult":false},{"id":336260,"adult":false},{"id":66066,"adult":false},{"id":336261,"adult":false},{"id":138987,"adult":false},{"id":9488,"adult":false},{"id":336262,"adult":false},{"id":283322,"adult":false},{"id":39407,"adult":false}],"page":20,"total_pages":102,"total_results":10168}