{"results":[{"id":74083,"adult":false},{"id":86341,"adult":false},{"id":86112,"adult":false},{"id":9400,"adult":false},{"id":323674,"adult":false},{"id":15641,"adult":false},{"id":261269,"adult":false},{"id":98430,"adult":false},{"id":101499,"adult":false},{"id":6603,"adult":false},{"id":358302,"adult":false},{"id":4574,"adult":false},{"id":30794,"adult":false},{"id":47423,"adult":false},{"id":79190,"adult":false},{"id":12241,"adult":false},{"id":323870,"adult":false},{"id":208210,"adult":false},{"id":219691,"adult":false},{"id":341283,"adult":null},{"id":236737,"adult":false},{"id":45477,"adult":false},{"id":16398,"adult":false},{"id":273641,"adult":false},{"id":9412,"adult":false},{"id":29354,"adult":false},{"id":302331,"adult":false},{"id":30652,"adult":false},{"id":80184,"adult":false},{"id":27127,"adult":false},{"id":17901,"adult":false},{"id":335685,"adult":false},{"id":256377,"adult":false},{"id":18338,"adult":false},{"id":10874,"adult":false},{"id":194237,"adult":false},{"id":174412,"adult":false},{"id":257960,"adult":false},{"id":1996,"adult":false},{"id":78247,"adult":false},{"id":1247,"adult":false},{"id":194239,"adult":false},{"id":306750,"adult":false},{"id":136214,"adult":false},{"id":358303,"adult":false},{"id":124188,"adult":false},{"id":11345,"adult":false},{"id":29530,"adult":false},{"id":124901,"adult":false},{"id":88665,"adult":false},{"id":104833,"adult":false},{"id":172680,"adult":false},{"id":6236,"adult":false},{"id":212606,"adult":false},{"id":11530,"adult":false},{"id":186391,"adult":false},{"id":340835,"adult":false},{"id":78033,"adult":false},{"id":267341,"adult":false},{"id":129663,"adult":false},{"id":53169,"adult":false},{"id":358304,"adult":false},{"id":64129,"adult":false},{"id":308441,"adult":false},{"id":275928,"adult":false},{"id":245838,"adult":false},{"id":46665,"adult":false},{"id":5166,"adult":false},{"id":6958,"adult":false},{"id":32654,"adult":false},{"id":15097,"adult":false},{"id":56031,"adult":false},{"id":351279,"adult":false},{"id":6175,"adult":false},{"id":5167,"adult":false},{"id":32553,"adult":false},{"id":76492,"adult":false},{"id":11217,"adult":false},{"id":12148,"adult":false},{"id":29521,"adult":false},{"id":34384,"adult":false},{"id":358305,"adult":false},{"id":349435,"adult":false},{"id":52015,"adult":false},{"id":174821,"adult":false},{"id":9742,"adult":false},{"id":9514,"adult":false},{"id":9496,"adult":false},{"id":45399,"adult":false},{"id":20811,"adult":false},{"id":36647,"adult":false},{"id":10470,"adult":false},{"id":21794,"adult":false},{"id":66896,"adult":false},{"id":342546,"adult":false},{"id":320325,"adult":false},{"id":22355,"adult":false},{"id":80109,"adult":false},{"id":244323,"adult":false},{"id":22794,"adult":false}],"page":48,"total_pages":112,"total_results":11114}