{"results":[{"id":150396,"adult":false},{"id":196544,"adult":false},{"id":205272,"adult":false},{"id":196658,"adult":false},{"id":205281,"adult":false},{"id":41796,"adult":false},{"id":3692,"adult":false},{"id":108241,"adult":false},{"id":203648,"adult":false},{"id":9569,"adult":false},{"id":205256,"adult":false},{"id":254065,"adult":false},{"id":205264,"adult":false},{"id":50157,"adult":false},{"id":205270,"adult":false},{"id":168040,"adult":false},{"id":172135,"adult":false},{"id":205283,"adult":false},{"id":290890,"adult":false},{"id":180048,"adult":false},{"id":24,"adult":false},{"id":326282,"adult":false},{"id":326927,"adult":false},{"id":332686,"adult":false},{"id":316391,"adult":false},{"id":259453,"adult":false},{"id":87516,"adult":false},{"id":203665,"adult":false},{"id":123229,"adult":false},{"id":100830,"adult":false},{"id":332687,"adult":false},{"id":278334,"adult":false},{"id":287556,"adult":false},{"id":332688,"adult":true},{"id":291319,"adult":false},{"id":332689,"adult":false},{"id":159982,"adult":false},{"id":265169,"adult":false},{"id":810,"adult":false},{"id":227300,"adult":false},{"id":332690,"adult":false},{"id":332691,"adult":true},{"id":122961,"adult":false},{"id":284566,"adult":null},{"id":305048,"adult":false},{"id":273947,"adult":false},{"id":200156,"adult":false},{"id":199578,"adult":false},{"id":87502,"adult":false},{"id":130150,"adult":false},{"id":275017,"adult":null},{"id":39967,"adult":false},{"id":332692,"adult":false},{"id":332694,"adult":false},{"id":271714,"adult":false},{"id":332695,"adult":true},{"id":230266,"adult":false},{"id":332696,"adult":false},{"id":17212,"adult":false},{"id":332697,"adult":false},{"id":90851,"adult":false},{"id":210577,"adult":false},{"id":332698,"adult":false},{"id":108994,"adult":false},{"id":27419,"adult":false},{"id":332699,"adult":false},{"id":198663,"adult":false},{"id":329724,"adult":false},{"id":284341,"adult":false},{"id":100042,"adult":false},{"id":32114,"adult":false},{"id":312001,"adult":false},{"id":240832,"adult":false},{"id":135397,"adult":false},{"id":332700,"adult":false},{"id":329898,"adult":false},{"id":104071,"adult":false},{"id":290930,"adult":false},{"id":284276,"adult":false},{"id":324687,"adult":false},{"id":10733,"adult":false},{"id":332701,"adult":true},{"id":11499,"adult":false},{"id":317442,"adult":false},{"id":277710,"adult":false},{"id":332702,"adult":false},{"id":14291,"adult":false},{"id":4734,"adult":false},{"id":332703,"adult":false},{"id":53039,"adult":false},{"id":314253,"adult":false},{"id":332704,"adult":false},{"id":104488,"adult":false},{"id":195309,"adult":false},{"id":211672,"adult":false},{"id":254869,"adult":false},{"id":298702,"adult":false},{"id":332705,"adult":true},{"id":7291,"adult":false},{"id":97211,"adult":false}],"page":111,"total_pages":129,"total_results":12871}