{"results":[{"id":50183,"adult":false},{"id":346983,"adult":false},{"id":186532,"adult":false},{"id":10468,"adult":false},{"id":359326,"adult":null},{"id":847,"adult":false},{"id":13012,"adult":false},{"id":251312,"adult":false},{"id":41923,"adult":false},{"id":359327,"adult":false},{"id":30989,"adult":false},{"id":50456,"adult":false},{"id":359328,"adult":false},{"id":207412,"adult":false},{"id":36763,"adult":false},{"id":122487,"adult":false},{"id":86349,"adult":false},{"id":359329,"adult":false},{"id":19108,"adult":false},{"id":359330,"adult":false},{"id":359331,"adult":false},{"id":274479,"adult":false},{"id":359332,"adult":false},{"id":348655,"adult":false},{"id":33603,"adult":false},{"id":48035,"adult":false},{"id":345268,"adult":false},{"id":42001,"adult":false},{"id":5781,"adult":false},{"id":318832,"adult":false},{"id":135465,"adult":false},{"id":55628,"adult":false},{"id":8692,"adult":false},{"id":263820,"adult":false},{"id":12711,"adult":false},{"id":4049,"adult":false},{"id":359333,"adult":false},{"id":359334,"adult":false},{"id":69517,"adult":false},{"id":9058,"adult":false},{"id":359335,"adult":false},{"id":213,"adult":false},{"id":258866,"adult":false},{"id":238458,"adult":false},{"id":230144,"adult":false},{"id":270783,"adult":false},{"id":345897,"adult":false},{"id":70926,"adult":false},{"id":359336,"adult":false},{"id":8767,"adult":false},{"id":11834,"adult":false},{"id":288248,"adult":false},{"id":151882,"adult":false},{"id":272845,"adult":false},{"id":325242,"adult":false},{"id":347846,"adult":false},{"id":263371,"adult":false},{"id":198011,"adult":false},{"id":274369,"adult":false},{"id":25967,"adult":false},{"id":224,"adult":false},{"id":9663,"adult":false},{"id":150191,"adult":false},{"id":359339,"adult":false},{"id":50156,"adult":false},{"id":103079,"adult":false},{"id":359340,"adult":null},{"id":336335,"adult":false},{"id":12707,"adult":false},{"id":47474,"adult":false},{"id":359341,"adult":false},{"id":10839,"adult":false},{"id":71996,"adult":false},{"id":181955,"adult":false},{"id":164721,"adult":null},{"id":209415,"adult":false},{"id":292040,"adult":false},{"id":285176,"adult":false},{"id":359342,"adult":null},{"id":306952,"adult":false},{"id":262977,"adult":false},{"id":315010,"adult":false},{"id":195073,"adult":false},{"id":315976,"adult":false},{"id":11352,"adult":false},{"id":771,"adult":false},{"id":25205,"adult":false},{"id":772,"adult":false},{"id":285423,"adult":false},{"id":196666,"adult":false},{"id":74593,"adult":false},{"id":31341,"adult":false},{"id":437,"adult":false},{"id":16763,"adult":false},{"id":32869,"adult":false},{"id":138686,"adult":false},{"id":196669,"adult":false},{"id":97008,"adult":false},{"id":88865,"adult":false},{"id":258216,"adult":false}],"page":94,"total_pages":112,"total_results":11114}