{"results":[{"id":65587,"adult":false},{"id":354826,"adult":false},{"id":287495,"adult":false},{"id":278056,"adult":false},{"id":354827,"adult":false},{"id":28294,"adult":false},{"id":15485,"adult":false},{"id":354828,"adult":false},{"id":103925,"adult":false},{"id":100819,"adult":false},{"id":354829,"adult":false},{"id":354830,"adult":false},{"id":67032,"adult":false},{"id":286024,"adult":false},{"id":354831,"adult":false},{"id":84660,"adult":false},{"id":354832,"adult":false},{"id":354833,"adult":false},{"id":354834,"adult":false},{"id":354835,"adult":false},{"id":42017,"adult":false},{"id":117060,"adult":false},{"id":354836,"adult":false},{"id":354837,"adult":false},{"id":131631,"adult":false},{"id":235368,"adult":false},{"id":354838,"adult":null},{"id":354839,"adult":false},{"id":108116,"adult":false},{"id":287098,"adult":false},{"id":354840,"adult":false},{"id":340686,"adult":null},{"id":74383,"adult":false},{"id":354841,"adult":false},{"id":205049,"adult":false},{"id":282774,"adult":false},{"id":241573,"adult":false},{"id":1408,"adult":false},{"id":42943,"adult":false},{"id":19147,"adult":false},{"id":79,"adult":false},{"id":177699,"adult":false},{"id":354842,"adult":false},{"id":9457,"adult":false},{"id":289727,"adult":false},{"id":337698,"adult":false},{"id":191864,"adult":false},{"id":354843,"adult":false},{"id":251617,"adult":false},{"id":290233,"adult":false},{"id":132681,"adult":false},{"id":165545,"adult":false},{"id":284276,"adult":false},{"id":56049,"adult":false},{"id":256178,"adult":false},{"id":240855,"adult":false},{"id":157911,"adult":false},{"id":34014,"adult":false},{"id":62,"adult":false},{"id":622,"adult":false},{"id":352733,"adult":false},{"id":19501,"adult":false},{"id":354844,"adult":false},{"id":45213,"adult":false},{"id":13667,"adult":false},{"id":216580,"adult":false},{"id":305638,"adult":false},{"id":354845,"adult":false},{"id":9576,"adult":false},{"id":354846,"adult":false},{"id":354847,"adult":false},{"id":354848,"adult":false},{"id":19415,"adult":false},{"id":140441,"adult":false},{"id":26969,"adult":false},{"id":354849,"adult":false},{"id":187378,"adult":false},{"id":342708,"adult":false},{"id":225210,"adult":false},{"id":57447,"adult":false},{"id":289198,"adult":false},{"id":286709,"adult":false},{"id":44852,"adult":false},{"id":269057,"adult":false},{"id":92940,"adult":false},{"id":165730,"adult":false},{"id":258054,"adult":false},{"id":149612,"adult":false},{"id":62736,"adult":false},{"id":218043,"adult":false},{"id":68449,"adult":false},{"id":354850,"adult":false},{"id":174695,"adult":false},{"id":32276,"adult":false},{"id":19877,"adult":false},{"id":63290,"adult":false},{"id":251458,"adult":false},{"id":29082,"adult":false},{"id":44179,"adult":false},{"id":9920,"adult":false}],"page":15,"total_pages":100,"total_results":9908}