{"results":[{"id":70053,"adult":false},{"id":342258,"adult":null},{"id":308504,"adult":false},{"id":27011,"adult":false},{"id":154764,"adult":false},{"id":43629,"adult":false},{"id":253261,"adult":false},{"id":287411,"adult":false},{"id":72872,"adult":false},{"id":120288,"adult":false},{"id":289983,"adult":false},{"id":82641,"adult":false},{"id":39088,"adult":false},{"id":342234,"adult":false},{"id":343236,"adult":false},{"id":341512,"adult":false},{"id":118115,"adult":false},{"id":326905,"adult":false},{"id":127716,"adult":false},{"id":285318,"adult":false},{"id":335791,"adult":false},{"id":83188,"adult":false},{"id":130000,"adult":false},{"id":324781,"adult":false},{"id":260627,"adult":false},{"id":255745,"adult":false},{"id":46100,"adult":false},{"id":105634,"adult":false},{"id":132635,"adult":false},{"id":243451,"adult":false},{"id":271983,"adult":false},{"id":34750,"adult":false},{"id":343237,"adult":false},{"id":154349,"adult":false},{"id":105347,"adult":false},{"id":6028,"adult":false},{"id":136614,"adult":false},{"id":49367,"adult":false},{"id":291938,"adult":false},{"id":149509,"adult":false},{"id":55160,"adult":false},{"id":196024,"adult":false},{"id":176068,"adult":false},{"id":273999,"adult":false},{"id":343238,"adult":false},{"id":322163,"adult":false},{"id":140870,"adult":false},{"id":11489,"adult":false},{"id":343239,"adult":false},{"id":94589,"adult":false},{"id":98948,"adult":false},{"id":36501,"adult":false},{"id":343240,"adult":false},{"id":56402,"adult":false},{"id":57991,"adult":false},{"id":56287,"adult":false},{"id":189692,"adult":false},{"id":29731,"adult":false},{"id":259460,"adult":false},{"id":9820,"adult":false},{"id":62701,"adult":false},{"id":103686,"adult":false},{"id":84877,"adult":false},{"id":129734,"adult":false},{"id":220176,"adult":false},{"id":43950,"adult":false},{"id":102796,"adult":false},{"id":127016,"adult":false},{"id":119417,"adult":false},{"id":343241,"adult":false},{"id":23348,"adult":false},{"id":23947,"adult":false},{"id":23985,"adult":false},{"id":24206,"adult":false},{"id":150897,"adult":false},{"id":22585,"adult":false},{"id":87017,"adult":false},{"id":41437,"adult":false},{"id":58937,"adult":false},{"id":273096,"adult":false},{"id":261655,"adult":false},{"id":21635,"adult":false},{"id":267379,"adult":false},{"id":252067,"adult":false},{"id":23827,"adult":false},{"id":343242,"adult":false},{"id":110838,"adult":false},{"id":41436,"adult":false},{"id":302376,"adult":false},{"id":72571,"adult":false},{"id":180651,"adult":false},{"id":82990,"adult":false},{"id":5683,"adult":false},{"id":75280,"adult":true},{"id":343243,"adult":false},{"id":343244,"adult":false},{"id":30502,"adult":false},{"id":343245,"adult":false},{"id":49041,"adult":false},{"id":191086,"adult":false}],"page":32,"total_pages":95,"total_results":9488}