{"results":[{"id":327,"adult":false},{"id":54553,"adult":false},{"id":54551,"adult":false},{"id":54559,"adult":false},{"id":48567,"adult":false},{"id":28871,"adult":false},{"id":335225,"adult":false},{"id":74384,"adult":false},{"id":255718,"adult":false},{"id":364324,"adult":false},{"id":165591,"adult":false},{"id":927,"adult":false},{"id":17306,"adult":false},{"id":13312,"adult":false},{"id":22747,"adult":false},{"id":366860,"adult":false},{"id":54840,"adult":false},{"id":76789,"adult":false},{"id":22832,"adult":false},{"id":357837,"adult":false},{"id":366861,"adult":false},{"id":113180,"adult":false},{"id":25396,"adult":false},{"id":334667,"adult":false},{"id":103430,"adult":false},{"id":65646,"adult":false},{"id":833,"adult":false},{"id":366862,"adult":false},{"id":28971,"adult":false},{"id":366863,"adult":false},{"id":24008,"adult":false},{"id":27191,"adult":false},{"id":1810,"adult":false},{"id":26175,"adult":false},{"id":11873,"adult":false},{"id":38732,"adult":false},{"id":326155,"adult":false},{"id":366864,"adult":false},{"id":356763,"adult":false},{"id":646,"adult":false},{"id":11986,"adult":false},{"id":337713,"adult":false},{"id":657,"adult":false},{"id":658,"adult":false},{"id":660,"adult":false},{"id":11467,"adult":false},{"id":667,"adult":false},{"id":668,"adult":false},{"id":681,"adult":false},{"id":253,"adult":false},{"id":44650,"adult":false},{"id":691,"adult":false},{"id":698,"adult":false},{"id":47226,"adult":false},{"id":14400,"adult":false},{"id":344656,"adult":false},{"id":700,"adult":false},{"id":36670,"adult":false},{"id":363130,"adult":null},{"id":61464,"adult":false},{"id":707,"adult":false},{"id":708,"adult":false},{"id":134781,"adult":false},{"id":709,"adult":false},{"id":366865,"adult":false},{"id":710,"adult":false},{"id":366866,"adult":null},{"id":714,"adult":false},{"id":36643,"adult":false},{"id":36669,"adult":false},{"id":366867,"adult":false},{"id":239595,"adult":false},{"id":10764,"adult":false},{"id":366868,"adult":false},{"id":295490,"adult":false},{"id":37724,"adult":false},{"id":25758,"adult":false},{"id":298653,"adult":false},{"id":366869,"adult":false},{"id":43037,"adult":false},{"id":366870,"adult":false},{"id":645,"adult":false},{"id":360203,"adult":false},{"id":65749,"adult":false},{"id":366871,"adult":false},{"id":366872,"adult":false},{"id":11570,"adult":false},{"id":343637,"adult":null},{"id":33454,"adult":false},{"id":307946,"adult":false},{"id":366873,"adult":false},{"id":33575,"adult":false},{"id":366874,"adult":false},{"id":366875,"adult":false},{"id":65945,"adult":false},{"id":366876,"adult":false},{"id":4460,"adult":false},{"id":249688,"adult":false},{"id":345924,"adult":false},{"id":276613,"adult":false}],"page":41,"total_pages":108,"total_results":10787}