{"results":[{"id":6614,"adult":false},{"id":310619,"adult":false},{"id":367106,"adult":false},{"id":43967,"adult":false},{"id":245706,"adult":false},{"id":49701,"adult":false},{"id":34064,"adult":false},{"id":117263,"adult":false},{"id":327692,"adult":false},{"id":367107,"adult":false},{"id":47579,"adult":false},{"id":125490,"adult":false},{"id":308571,"adult":false},{"id":258210,"adult":false},{"id":360373,"adult":true},{"id":39076,"adult":false},{"id":14823,"adult":false},{"id":8452,"adult":false},{"id":191489,"adult":false},{"id":49836,"adult":false},{"id":298228,"adult":false},{"id":1771,"adult":false},{"id":194798,"adult":false},{"id":141043,"adult":false},{"id":5851,"adult":false},{"id":10223,"adult":false},{"id":31662,"adult":false},{"id":26941,"adult":false},{"id":242959,"adult":false},{"id":15598,"adult":false},{"id":367108,"adult":false},{"id":25430,"adult":false},{"id":367109,"adult":true},{"id":367110,"adult":false},{"id":786,"adult":false},{"id":258284,"adult":false},{"id":11015,"adult":false},{"id":44338,"adult":false},{"id":7457,"adult":false},{"id":367111,"adult":false},{"id":43549,"adult":false},{"id":367112,"adult":false},{"id":116459,"adult":false},{"id":77765,"adult":false},{"id":367113,"adult":false},{"id":365923,"adult":false},{"id":245891,"adult":false},{"id":289257,"adult":false},{"id":268709,"adult":false},{"id":34070,"adult":false},{"id":367114,"adult":false},{"id":328510,"adult":false},{"id":367115,"adult":false},{"id":355203,"adult":false},{"id":367116,"adult":null},{"id":367117,"adult":false},{"id":319080,"adult":false},{"id":367118,"adult":false},{"id":359701,"adult":false},{"id":367119,"adult":false},{"id":337406,"adult":false},{"id":367120,"adult":false},{"id":367121,"adult":false},{"id":367122,"adult":false},{"id":367123,"adult":false},{"id":13686,"adult":false},{"id":367124,"adult":false},{"id":367125,"adult":false},{"id":330007,"adult":false},{"id":104141,"adult":false},{"id":367126,"adult":false},{"id":367127,"adult":false},{"id":367128,"adult":false},{"id":367129,"adult":false},{"id":367130,"adult":false},{"id":367131,"adult":null},{"id":273404,"adult":false},{"id":117974,"adult":false},{"id":265447,"adult":false},{"id":10176,"adult":false},{"id":304181,"adult":null},{"id":367132,"adult":false},{"id":269674,"adult":false},{"id":367133,"adult":false},{"id":48617,"adult":false},{"id":67407,"adult":false},{"id":152584,"adult":false},{"id":210640,"adult":false},{"id":367134,"adult":null},{"id":367135,"adult":false},{"id":367136,"adult":null},{"id":285747,"adult":false},{"id":1647,"adult":false},{"id":367137,"adult":false},{"id":179641,"adult":false},{"id":75311,"adult":false},{"id":1417,"adult":false},{"id":26728,"adult":false},{"id":74998,"adult":false},{"id":121634,"adult":false}],"page":56,"total_pages":108,"total_results":10787}