{"results":[{"id":127585,"adult":false},{"id":76170,"adult":false},{"id":187387,"adult":false},{"id":13933,"adult":false},{"id":110416,"adult":false},{"id":9489,"adult":false},{"id":13061,"adult":false},{"id":304410,"adult":false},{"id":325660,"adult":false},{"id":62,"adult":false},{"id":172075,"adult":false},{"id":5175,"adult":false},{"id":325661,"adult":false},{"id":85977,"adult":false},{"id":5174,"adult":false},{"id":2109,"adult":false},{"id":6795,"adult":false},{"id":301225,"adult":false},{"id":325662,"adult":false},{"id":1581,"adult":false},{"id":325663,"adult":false},{"id":8699,"adult":false},{"id":47924,"adult":false},{"id":324573,"adult":false},{"id":18222,"adult":false},{"id":308460,"adult":false},{"id":272693,"adult":false},{"id":86672,"adult":false},{"id":214047,"adult":false},{"id":60072,"adult":false},{"id":250950,"adult":false},{"id":260339,"adult":false},{"id":276839,"adult":false},{"id":325422,"adult":false},{"id":325434,"adult":false},{"id":248328,"adult":false},{"id":168366,"adult":false},{"id":7214,"adult":false},{"id":72431,"adult":false},{"id":39208,"adult":false},{"id":9466,"adult":false},{"id":228203,"adult":false},{"id":234212,"adult":false},{"id":18273,"adult":false},{"id":1893,"adult":false},{"id":132999,"adult":false},{"id":114750,"adult":false},{"id":254196,"adult":false},{"id":325426,"adult":null},{"id":261267,"adult":false},{"id":266856,"adult":false},{"id":261268,"adult":false},{"id":280002,"adult":false},{"id":310431,"adult":false},{"id":36832,"adult":false},{"id":261270,"adult":false},{"id":199575,"adult":false},{"id":46836,"adult":false},{"id":258251,"adult":false},{"id":32303,"adult":false},{"id":294993,"adult":false},{"id":122917,"adult":false},{"id":251994,"adult":false},{"id":319513,"adult":false},{"id":325664,"adult":false},{"id":324704,"adult":false},{"id":143731,"adult":false},{"id":325665,"adult":false},{"id":159770,"adult":false},{"id":26762,"adult":false},{"id":206821,"adult":false},{"id":325666,"adult":false},{"id":325667,"adult":false},{"id":277702,"adult":false},{"id":4912,"adult":false},{"id":29460,"adult":false},{"id":209276,"adult":false},{"id":276844,"adult":false},{"id":325668,"adult":false},{"id":261273,"adult":false},{"id":191447,"adult":false},{"id":109852,"adult":false},{"id":200727,"adult":false},{"id":325669,"adult":false},{"id":55175,"adult":false},{"id":261275,"adult":false},{"id":26167,"adult":false},{"id":86239,"adult":false},{"id":228614,"adult":false},{"id":325670,"adult":true},{"id":321815,"adult":false},{"id":10329,"adult":false},{"id":262500,"adult":false},{"id":12230,"adult":false},{"id":325671,"adult":false},{"id":44630,"adult":false},{"id":14849,"adult":false},{"id":222607,"adult":false},{"id":265189,"adult":false},{"id":61046,"adult":false}],"page":12,"total_pages":112,"total_results":11193}