{"results":[{"id":704,"adult":false},{"id":331911,"adult":false},{"id":11551,"adult":false},{"id":259254,"adult":false},{"id":13465,"adult":false},{"id":331912,"adult":false},{"id":331913,"adult":false},{"id":311029,"adult":false},{"id":164527,"adult":false},{"id":331914,"adult":false},{"id":331915,"adult":false},{"id":294682,"adult":false},{"id":32302,"adult":false},{"id":290229,"adult":false},{"id":274815,"adult":false},{"id":35975,"adult":false},{"id":105125,"adult":false},{"id":43638,"adult":false},{"id":864,"adult":false},{"id":108483,"adult":false},{"id":262393,"adult":false},{"id":279178,"adult":false},{"id":307188,"adult":null},{"id":262394,"adult":false},{"id":324127,"adult":false},{"id":262395,"adult":false},{"id":324092,"adult":null},{"id":262396,"adult":false},{"id":331916,"adult":false},{"id":215828,"adult":false},{"id":331917,"adult":null},{"id":319820,"adult":null},{"id":262397,"adult":false},{"id":289352,"adult":false},{"id":262398,"adult":false},{"id":262399,"adult":false},{"id":262400,"adult":false},{"id":262401,"adult":false},{"id":331918,"adult":false},{"id":262402,"adult":false},{"id":262403,"adult":false},{"id":262404,"adult":false},{"id":301519,"adult":false},{"id":262405,"adult":false},{"id":262406,"adult":false},{"id":293301,"adult":false},{"id":262407,"adult":false},{"id":262408,"adult":false},{"id":331919,"adult":false},{"id":262409,"adult":false},{"id":262410,"adult":false},{"id":10943,"adult":false},{"id":248660,"adult":false},{"id":18269,"adult":false},{"id":591,"adult":false},{"id":262411,"adult":false},{"id":65175,"adult":false},{"id":262412,"adult":false},{"id":262413,"adult":false},{"id":16305,"adult":false},{"id":299351,"adult":false},{"id":326475,"adult":false},{"id":35841,"adult":false},{"id":38775,"adult":false},{"id":262414,"adult":false},{"id":117801,"adult":false},{"id":331920,"adult":false},{"id":262417,"adult":false},{"id":320431,"adult":false},{"id":16029,"adult":false},{"id":28638,"adult":false},{"id":286033,"adult":false},{"id":171587,"adult":false},{"id":281794,"adult":false},{"id":106299,"adult":false},{"id":262419,"adult":false},{"id":16030,"adult":false},{"id":28770,"adult":false},{"id":3145,"adult":false},{"id":28667,"adult":false},{"id":331921,"adult":false},{"id":26121,"adult":false},{"id":274804,"adult":false},{"id":3124,"adult":false},{"id":14,"adult":false},{"id":39308,"adult":false},{"id":39891,"adult":false},{"id":17604,"adult":false},{"id":23289,"adult":false},{"id":91380,"adult":false},{"id":28750,"adult":false},{"id":331922,"adult":false},{"id":331923,"adult":false},{"id":29400,"adult":false},{"id":331924,"adult":false},{"id":331925,"adult":false},{"id":331926,"adult":false},{"id":33411,"adult":false},{"id":331927,"adult":false},{"id":2268,"adult":false}],"page":64,"total_pages":129,"total_results":12871}