{"results":[{"id":77285,"adult":false},{"id":51722,"adult":false},{"id":274209,"adult":false},{"id":250671,"adult":false},{"id":228221,"adult":false},{"id":279207,"adult":null},{"id":12418,"adult":false},{"id":34013,"adult":false},{"id":331494,"adult":false},{"id":201667,"adult":false},{"id":331495,"adult":null},{"id":197773,"adult":false},{"id":252729,"adult":false},{"id":259016,"adult":false},{"id":331496,"adult":false},{"id":143322,"adult":false},{"id":133764,"adult":false},{"id":95431,"adult":false},{"id":56074,"adult":false},{"id":264698,"adult":false},{"id":91655,"adult":false},{"id":331497,"adult":false},{"id":331498,"adult":false},{"id":50992,"adult":false},{"id":331499,"adult":false},{"id":331500,"adult":false},{"id":223946,"adult":false},{"id":19597,"adult":false},{"id":197017,"adult":false},{"id":308403,"adult":false},{"id":71482,"adult":false},{"id":27823,"adult":false},{"id":46147,"adult":false},{"id":212969,"adult":false},{"id":48496,"adult":false},{"id":331501,"adult":false},{"id":168433,"adult":false},{"id":188479,"adult":false},{"id":294652,"adult":false},{"id":25003,"adult":false},{"id":186277,"adult":false},{"id":166119,"adult":false},{"id":331502,"adult":false},{"id":306364,"adult":false},{"id":63585,"adult":false},{"id":331503,"adult":null},{"id":227527,"adult":false},{"id":221425,"adult":false},{"id":53961,"adult":false},{"id":312942,"adult":false},{"id":178777,"adult":false},{"id":24243,"adult":false},{"id":74294,"adult":false},{"id":327593,"adult":false},{"id":163943,"adult":false},{"id":295586,"adult":false},{"id":331504,"adult":false},{"id":279832,"adult":false},{"id":54380,"adult":false},{"id":331505,"adult":null},{"id":251409,"adult":false},{"id":10172,"adult":false},{"id":207247,"adult":false},{"id":277514,"adult":false},{"id":142366,"adult":false},{"id":278493,"adult":false},{"id":212766,"adult":false},{"id":298873,"adult":false},{"id":142364,"adult":false},{"id":40382,"adult":false},{"id":254121,"adult":false},{"id":331508,"adult":false},{"id":206129,"adult":false},{"id":277515,"adult":false},{"id":251946,"adult":false},{"id":254856,"adult":false},{"id":216788,"adult":false},{"id":219613,"adult":false},{"id":140452,"adult":false},{"id":266084,"adult":false},{"id":324514,"adult":false},{"id":182802,"adult":false},{"id":292081,"adult":false},{"id":273120,"adult":false},{"id":331509,"adult":false},{"id":86177,"adult":false},{"id":245025,"adult":false},{"id":148360,"adult":false},{"id":137652,"adult":false},{"id":228577,"adult":false},{"id":125304,"adult":false},{"id":82321,"adult":false},{"id":13979,"adult":false},{"id":54982,"adult":false},{"id":266223,"adult":false},{"id":84198,"adult":false},{"id":78307,"adult":false},{"id":331510,"adult":false},{"id":58772,"adult":false},{"id":18885,"adult":false}],"page":46,"total_pages":129,"total_results":12871}