{"results":[{"id":91314,"adult":false},{"id":341870,"adult":false},{"id":152284,"adult":false},{"id":157781,"adult":false},{"id":348295,"adult":false},{"id":27,"adult":false},{"id":372930,"adult":false},{"id":50456,"adult":false},{"id":372931,"adult":false},{"id":41843,"adult":false},{"id":309354,"adult":false},{"id":295964,"adult":false},{"id":265018,"adult":false},{"id":63137,"adult":false},{"id":372932,"adult":false},{"id":282984,"adult":false},{"id":372933,"adult":false},{"id":9825,"adult":false},{"id":114455,"adult":false},{"id":81416,"adult":false},{"id":33441,"adult":false},{"id":37907,"adult":false},{"id":372934,"adult":false},{"id":39514,"adult":false},{"id":142404,"adult":false},{"id":372935,"adult":false},{"id":208275,"adult":false},{"id":139937,"adult":false},{"id":25896,"adult":false},{"id":372936,"adult":false},{"id":340816,"adult":false},{"id":2330,"adult":false},{"id":2332,"adult":false},{"id":209189,"adult":false},{"id":2334,"adult":false},{"id":2335,"adult":false},{"id":294308,"adult":false},{"id":72105,"adult":false},{"id":214756,"adult":false},{"id":76817,"adult":false},{"id":296449,"adult":false},{"id":12520,"adult":false},{"id":2177,"adult":false},{"id":8462,"adult":false},{"id":372937,"adult":false},{"id":372938,"adult":false},{"id":372939,"adult":false},{"id":239124,"adult":false},{"id":46748,"adult":false},{"id":372940,"adult":false},{"id":179072,"adult":false},{"id":6374,"adult":false},{"id":5053,"adult":false},{"id":4396,"adult":false},{"id":6693,"adult":false},{"id":7228,"adult":false},{"id":11491,"adult":false},{"id":8012,"adult":false},{"id":9025,"adult":false},{"id":11214,"adult":false},{"id":4956,"adult":false},{"id":174982,"adult":false},{"id":71043,"adult":false},{"id":366869,"adult":false},{"id":327156,"adult":false},{"id":206759,"adult":false},{"id":206764,"adult":false},{"id":145081,"adult":false},{"id":260050,"adult":false},{"id":342442,"adult":false},{"id":16417,"adult":false},{"id":41764,"adult":false},{"id":42108,"adult":false},{"id":372941,"adult":false},{"id":335845,"adult":false},{"id":246306,"adult":false},{"id":263622,"adult":false},{"id":372516,"adult":false},{"id":198605,"adult":false},{"id":272923,"adult":false},{"id":338794,"adult":false},{"id":338799,"adult":false},{"id":75760,"adult":false},{"id":126889,"adult":false},{"id":58257,"adult":false},{"id":301123,"adult":false},{"id":277834,"adult":false},{"id":188927,"adult":false},{"id":73448,"adult":false},{"id":121361,"adult":false},{"id":68004,"adult":false},{"id":10357,"adult":false},{"id":61296,"adult":false},{"id":170767,"adult":false},{"id":98010,"adult":false},{"id":10625,"adult":false},{"id":335190,"adult":false},{"id":29291,"adult":false},{"id":18181,"adult":false},{"id":275601,"adult":false}],"page":17,"total_pages":108,"total_results":10739}