{"results":[{"id":228326,"adult":false},{"id":340738,"adult":false},{"id":77855,"adult":false},{"id":340739,"adult":false},{"id":340740,"adult":false},{"id":340741,"adult":false},{"id":340742,"adult":false},{"id":56860,"adult":false},{"id":104755,"adult":false},{"id":14611,"adult":false},{"id":14609,"adult":false},{"id":208500,"adult":false},{"id":340743,"adult":false},{"id":105627,"adult":false},{"id":299118,"adult":false},{"id":49106,"adult":false},{"id":171497,"adult":false},{"id":199615,"adult":false},{"id":885,"adult":false},{"id":188598,"adult":false},{"id":340744,"adult":false},{"id":30120,"adult":false},{"id":11133,"adult":false},{"id":340745,"adult":false},{"id":22414,"adult":false},{"id":36645,"adult":false},{"id":18969,"adult":false},{"id":195781,"adult":false},{"id":102899,"adult":false},{"id":4967,"adult":false},{"id":319206,"adult":false},{"id":340746,"adult":false},{"id":168098,"adult":false},{"id":265712,"adult":false},{"id":16,"adult":false},{"id":340747,"adult":false},{"id":12542,"adult":false},{"id":274994,"adult":false},{"id":283327,"adult":false},{"id":21991,"adult":false},{"id":83097,"adult":false},{"id":334072,"adult":false},{"id":9816,"adult":false},{"id":340748,"adult":false},{"id":301907,"adult":false},{"id":340266,"adult":false},{"id":307732,"adult":false},{"id":134658,"adult":false},{"id":16763,"adult":false},{"id":338436,"adult":false},{"id":277323,"adult":false},{"id":188758,"adult":false},{"id":135760,"adult":false},{"id":72703,"adult":false},{"id":35950,"adult":false},{"id":75468,"adult":false},{"id":99318,"adult":false},{"id":27593,"adult":false},{"id":107662,"adult":false},{"id":79646,"adult":false},{"id":297745,"adult":false},{"id":127521,"adult":false},{"id":14065,"adult":false},{"id":132714,"adult":false},{"id":338412,"adult":false},{"id":259956,"adult":false},{"id":197624,"adult":false},{"id":340749,"adult":false},{"id":1499,"adult":false},{"id":326011,"adult":false},{"id":242250,"adult":false},{"id":225570,"adult":false},{"id":162559,"adult":false},{"id":15413,"adult":false},{"id":10661,"adult":false},{"id":1883,"adult":false},{"id":9340,"adult":false},{"id":165023,"adult":false},{"id":43347,"adult":false},{"id":105989,"adult":false},{"id":337778,"adult":false},{"id":135531,"adult":false},{"id":21708,"adult":false},{"id":177047,"adult":false},{"id":340750,"adult":false},{"id":10025,"adult":false},{"id":288281,"adult":false},{"id":333302,"adult":null},{"id":306156,"adult":false},{"id":1571,"adult":false},{"id":340751,"adult":false},{"id":339065,"adult":false},{"id":300089,"adult":false},{"id":340752,"adult":false},{"id":85207,"adult":false},{"id":333601,"adult":false},{"id":338836,"adult":false},{"id":41059,"adult":false},{"id":338978,"adult":false},{"id":338839,"adult":false}],"page":32,"total_pages":103,"total_results":10276}