{"results":[{"id":280676,"adult":false},{"id":354447,"adult":false},{"id":362871,"adult":true},{"id":362872,"adult":false},{"id":362873,"adult":false},{"id":333021,"adult":false},{"id":11451,"adult":false},{"id":302042,"adult":false},{"id":362874,"adult":false},{"id":131116,"adult":false},{"id":337540,"adult":false},{"id":5174,"adult":false},{"id":21989,"adult":false},{"id":1791,"adult":false},{"id":13800,"adult":false},{"id":425,"adult":false},{"id":602,"adult":false},{"id":47040,"adult":false},{"id":359534,"adult":null},{"id":9390,"adult":false},{"id":362875,"adult":false},{"id":266723,"adult":false},{"id":267579,"adult":false},{"id":224026,"adult":false},{"id":183443,"adult":false},{"id":49565,"adult":false},{"id":108693,"adult":false},{"id":258092,"adult":false},{"id":48617,"adult":false},{"id":271939,"adult":false},{"id":94380,"adult":false},{"id":362876,"adult":false},{"id":187086,"adult":null},{"id":37556,"adult":false},{"id":323919,"adult":null},{"id":284026,"adult":null},{"id":159711,"adult":null},{"id":255056,"adult":false},{"id":95967,"adult":false},{"id":74904,"adult":null},{"id":334173,"adult":null},{"id":207273,"adult":false},{"id":256917,"adult":false},{"id":159024,"adult":false},{"id":20612,"adult":null},{"id":929,"adult":false},{"id":348366,"adult":false},{"id":54639,"adult":false},{"id":362877,"adult":false},{"id":362878,"adult":false},{"id":11878,"adult":false},{"id":323679,"adult":false},{"id":143146,"adult":false},{"id":362879,"adult":false},{"id":362880,"adult":null},{"id":293035,"adult":false},{"id":322068,"adult":false},{"id":362881,"adult":null},{"id":254023,"adult":false},{"id":318224,"adult":false},{"id":68758,"adult":false},{"id":362882,"adult":false},{"id":250538,"adult":false},{"id":314312,"adult":false},{"id":308374,"adult":false},{"id":10729,"adult":false},{"id":362883,"adult":false},{"id":58632,"adult":false},{"id":85450,"adult":false},{"id":83006,"adult":false},{"id":326441,"adult":false},{"id":24548,"adult":false},{"id":362884,"adult":false},{"id":337930,"adult":false},{"id":62177,"adult":false},{"id":8694,"adult":true},{"id":348634,"adult":false},{"id":43260,"adult":false},{"id":40531,"adult":false},{"id":268940,"adult":false},{"id":102286,"adult":false},{"id":235811,"adult":false},{"id":87,"adult":false},{"id":360604,"adult":false},{"id":362885,"adult":false},{"id":63763,"adult":false},{"id":362886,"adult":false},{"id":40349,"adult":false},{"id":99089,"adult":false},{"id":40533,"adult":false},{"id":68620,"adult":false},{"id":68633,"adult":false},{"id":69096,"adult":false},{"id":72000,"adult":false},{"id":362887,"adult":false},{"id":234744,"adult":false},{"id":264383,"adult":false},{"id":113776,"adult":false},{"id":321751,"adult":false},{"id":105711,"adult":false}],"page":47,"total_pages":108,"total_results":10774}