{"results":[{"id":331659,"adult":false},{"id":8785,"adult":false},{"id":313369,"adult":false},{"id":331660,"adult":null},{"id":260952,"adult":false},{"id":128819,"adult":false},{"id":109089,"adult":false},{"id":331661,"adult":false},{"id":69582,"adult":false},{"id":14053,"adult":false},{"id":331662,"adult":false},{"id":166228,"adult":false},{"id":40998,"adult":false},{"id":331663,"adult":false},{"id":78546,"adult":false},{"id":331664,"adult":false},{"id":252276,"adult":false},{"id":10661,"adult":false},{"id":331665,"adult":false},{"id":314001,"adult":false},{"id":95775,"adult":false},{"id":306005,"adult":false},{"id":13195,"adult":false},{"id":331666,"adult":false},{"id":66343,"adult":false},{"id":331668,"adult":null},{"id":234961,"adult":false},{"id":69591,"adult":false},{"id":72478,"adult":false},{"id":285025,"adult":false},{"id":331669,"adult":false},{"id":276029,"adult":false},{"id":190683,"adult":false},{"id":42544,"adult":false},{"id":137227,"adult":false},{"id":209149,"adult":false},{"id":91727,"adult":false},{"id":69587,"adult":false},{"id":294992,"adult":false},{"id":37954,"adult":false},{"id":69583,"adult":false},{"id":5176,"adult":false},{"id":69584,"adult":false},{"id":331670,"adult":false},{"id":69595,"adult":false},{"id":88249,"adult":false},{"id":331671,"adult":false},{"id":63224,"adult":false},{"id":331672,"adult":false},{"id":49418,"adult":false},{"id":197796,"adult":false},{"id":331673,"adult":false},{"id":129432,"adult":false},{"id":331674,"adult":false},{"id":331675,"adult":false},{"id":329067,"adult":false},{"id":50646,"adult":false},{"id":329069,"adult":false},{"id":12517,"adult":false},{"id":329068,"adult":false},{"id":184108,"adult":false},{"id":331676,"adult":false},{"id":55892,"adult":false},{"id":331677,"adult":false},{"id":331678,"adult":false},{"id":331679,"adult":false},{"id":331680,"adult":false},{"id":331681,"adult":false},{"id":66358,"adult":false},{"id":124091,"adult":false},{"id":331682,"adult":false},{"id":66365,"adult":false},{"id":209925,"adult":false},{"id":19140,"adult":false},{"id":331683,"adult":false},{"id":284279,"adult":false},{"id":331684,"adult":false},{"id":66383,"adult":false},{"id":331688,"adult":false},{"id":204559,"adult":false},{"id":331689,"adult":false},{"id":331690,"adult":false},{"id":331691,"adult":false},{"id":331692,"adult":false},{"id":290294,"adult":false},{"id":66380,"adult":false},{"id":331693,"adult":false},{"id":331694,"adult":false},{"id":290599,"adult":false},{"id":331695,"adult":false},{"id":66379,"adult":false},{"id":331696,"adult":false},{"id":331697,"adult":false},{"id":66370,"adult":false},{"id":152748,"adult":false},{"id":331698,"adult":false},{"id":331699,"adult":false},{"id":66403,"adult":false},{"id":5854,"adult":false},{"id":331700,"adult":false}],"page":55,"total_pages":129,"total_results":12871}