{"results":[{"id":96337,"adult":false},{"id":302619,"adult":false},{"id":257913,"adult":false},{"id":178450,"adult":false},{"id":25653,"adult":false},{"id":294342,"adult":false},{"id":174162,"adult":false},{"id":100986,"adult":false},{"id":302600,"adult":false},{"id":47426,"adult":false},{"id":125433,"adult":false},{"id":97332,"adult":false},{"id":100765,"adult":false},{"id":100527,"adult":false},{"id":109887,"adult":false},{"id":175737,"adult":false},{"id":332737,"adult":false},{"id":294292,"adult":false},{"id":298517,"adult":false},{"id":84303,"adult":false},{"id":130422,"adult":false},{"id":294340,"adult":false},{"id":53931,"adult":false},{"id":12800,"adult":false},{"id":217785,"adult":false},{"id":293295,"adult":false},{"id":96713,"adult":false},{"id":125456,"adult":false},{"id":55651,"adult":false},{"id":257655,"adult":false},{"id":177250,"adult":false},{"id":332738,"adult":false},{"id":133741,"adult":false},{"id":303681,"adult":false},{"id":329895,"adult":false},{"id":92722,"adult":false},{"id":256751,"adult":false},{"id":316887,"adult":false},{"id":133260,"adult":false},{"id":110573,"adult":false},{"id":86515,"adult":false},{"id":106227,"adult":false},{"id":215749,"adult":false},{"id":274007,"adult":false},{"id":582,"adult":false},{"id":300816,"adult":false},{"id":119532,"adult":false},{"id":253836,"adult":false},{"id":163937,"adult":false},{"id":54440,"adult":false},{"id":100100,"adult":false},{"id":86592,"adult":false},{"id":156414,"adult":false},{"id":20531,"adult":false},{"id":89657,"adult":false},{"id":131437,"adult":false},{"id":151180,"adult":false},{"id":104923,"adult":false},{"id":65974,"adult":false},{"id":323730,"adult":false},{"id":93553,"adult":false},{"id":280001,"adult":false},{"id":162507,"adult":false},{"id":332739,"adult":false},{"id":26232,"adult":false},{"id":328250,"adult":false},{"id":266391,"adult":false},{"id":80683,"adult":false},{"id":324508,"adult":false},{"id":184279,"adult":false},{"id":246518,"adult":false},{"id":248235,"adult":false},{"id":76758,"adult":false},{"id":15478,"adult":false},{"id":128669,"adult":false},{"id":236458,"adult":false},{"id":218331,"adult":false},{"id":247441,"adult":false},{"id":266272,"adult":false},{"id":215790,"adult":false},{"id":10659,"adult":false},{"id":97963,"adult":false},{"id":42815,"adult":false},{"id":105701,"adult":false},{"id":298115,"adult":false},{"id":130887,"adult":false},{"id":245568,"adult":false},{"id":98125,"adult":false},{"id":91284,"adult":false},{"id":153290,"adult":false},{"id":86501,"adult":false},{"id":126418,"adult":false},{"id":149333,"adult":false},{"id":31812,"adult":false},{"id":14248,"adult":false},{"id":174635,"adult":false},{"id":248182,"adult":false},{"id":332740,"adult":false},{"id":33319,"adult":false},{"id":186889,"adult":false}],"page":114,"total_pages":129,"total_results":12871}