{"results":[{"id":27019,"adult":false},{"id":330820,"adult":false},{"id":265177,"adult":false},{"id":29141,"adult":false},{"id":330821,"adult":false},{"id":268600,"adult":false},{"id":14349,"adult":false},{"id":330822,"adult":false},{"id":330823,"adult":false},{"id":49690,"adult":false},{"id":27793,"adult":false},{"id":32034,"adult":false},{"id":119278,"adult":false},{"id":7516,"adult":false},{"id":330825,"adult":false},{"id":330682,"adult":false},{"id":232117,"adult":false},{"id":13672,"adult":false},{"id":97256,"adult":null},{"id":290729,"adult":false},{"id":1919,"adult":false},{"id":58400,"adult":false},{"id":1049,"adult":false},{"id":330826,"adult":false},{"id":202592,"adult":false},{"id":4723,"adult":false},{"id":80352,"adult":false},{"id":11978,"adult":false},{"id":282374,"adult":false},{"id":282953,"adult":false},{"id":181921,"adult":false},{"id":104905,"adult":false},{"id":312638,"adult":false},{"id":253312,"adult":false},{"id":129215,"adult":false},{"id":29905,"adult":false},{"id":147441,"adult":false},{"id":11169,"adult":false},{"id":330827,"adult":false},{"id":330828,"adult":false},{"id":330829,"adult":false},{"id":10336,"adult":false},{"id":330830,"adult":false},{"id":309709,"adult":false},{"id":154507,"adult":false},{"id":330831,"adult":false},{"id":311200,"adult":false},{"id":330832,"adult":false},{"id":330833,"adult":false},{"id":330834,"adult":false},{"id":35583,"adult":false},{"id":330835,"adult":false},{"id":330836,"adult":false},{"id":135812,"adult":false},{"id":330837,"adult":false},{"id":330838,"adult":false},{"id":330839,"adult":false},{"id":90098,"adult":false},{"id":1782,"adult":false},{"id":330840,"adult":false},{"id":9074,"adult":false},{"id":239233,"adult":false},{"id":330841,"adult":false},{"id":330842,"adult":false},{"id":27214,"adult":false},{"id":330843,"adult":false},{"id":330844,"adult":false},{"id":15322,"adult":false},{"id":150664,"adult":false},{"id":220781,"adult":false},{"id":57617,"adult":false},{"id":47864,"adult":false},{"id":11328,"adult":false},{"id":42974,"adult":false},{"id":239030,"adult":false},{"id":265195,"adult":false},{"id":9943,"adult":false},{"id":82311,"adult":false},{"id":330845,"adult":false},{"id":656,"adult":false},{"id":55483,"adult":false},{"id":9896,"adult":false},{"id":64748,"adult":false},{"id":53079,"adult":false},{"id":330846,"adult":false},{"id":15603,"adult":false},{"id":330847,"adult":false},{"id":325848,"adult":false},{"id":248379,"adult":false},{"id":86601,"adult":false},{"id":330848,"adult":false},{"id":330633,"adult":false},{"id":330849,"adult":false},{"id":286183,"adult":false},{"id":32061,"adult":false},{"id":63350,"adult":false},{"id":18894,"adult":false},{"id":86192,"adult":false},{"id":114150,"adult":false},{"id":199199,"adult":false}],"page":5,"total_pages":129,"total_results":12871}