{"results":[{"id":56106,"adult":false},{"id":15069,"adult":false},{"id":331914,"adult":false},{"id":5971,"adult":false},{"id":306031,"adult":false},{"id":345574,"adult":null},{"id":285486,"adult":false},{"id":89716,"adult":false},{"id":2665,"adult":false},{"id":96382,"adult":false},{"id":9812,"adult":false},{"id":321554,"adult":false},{"id":345575,"adult":false},{"id":9087,"adult":false},{"id":253491,"adult":null},{"id":9533,"adult":false},{"id":47808,"adult":false},{"id":70160,"adult":false},{"id":110109,"adult":false},{"id":101299,"adult":false},{"id":767,"adult":false},{"id":110110,"adult":false},{"id":12444,"adult":false},{"id":34462,"adult":false},{"id":345576,"adult":false},{"id":12445,"adult":false},{"id":173171,"adult":false},{"id":345577,"adult":false},{"id":127744,"adult":false},{"id":178407,"adult":false},{"id":345584,"adult":false},{"id":345585,"adult":false},{"id":72710,"adult":false},{"id":15762,"adult":false},{"id":166271,"adult":false},{"id":2212,"adult":false},{"id":345587,"adult":false},{"id":208873,"adult":false},{"id":345588,"adult":false},{"id":61819,"adult":false},{"id":28850,"adult":false},{"id":2668,"adult":false},{"id":345589,"adult":false},{"id":9582,"adult":false},{"id":92426,"adult":false},{"id":12405,"adult":false},{"id":27795,"adult":false},{"id":109298,"adult":false},{"id":295150,"adult":false},{"id":44587,"adult":false},{"id":22583,"adult":false},{"id":329225,"adult":null},{"id":345590,"adult":false},{"id":28124,"adult":false},{"id":13483,"adult":false},{"id":46027,"adult":false},{"id":113440,"adult":false},{"id":54069,"adult":false},{"id":14450,"adult":false},{"id":55781,"adult":false},{"id":109333,"adult":false},{"id":15089,"adult":false},{"id":64342,"adult":false},{"id":120520,"adult":false},{"id":453,"adult":false},{"id":199591,"adult":false},{"id":167693,"adult":false},{"id":146778,"adult":false},{"id":116894,"adult":false},{"id":881,"adult":false},{"id":345591,"adult":false},{"id":31278,"adult":false},{"id":18398,"adult":false},{"id":345592,"adult":false},{"id":15728,"adult":false},{"id":3432,"adult":false},{"id":37395,"adult":true},{"id":38760,"adult":false},{"id":345593,"adult":false},{"id":345594,"adult":false},{"id":59879,"adult":false},{"id":290544,"adult":false},{"id":256395,"adult":false},{"id":255073,"adult":false},{"id":110999,"adult":false},{"id":92935,"adult":false},{"id":345595,"adult":false},{"id":42401,"adult":false},{"id":345596,"adult":false},{"id":345597,"adult":false},{"id":6976,"adult":false},{"id":11819,"adult":false},{"id":81077,"adult":false},{"id":29966,"adult":false},{"id":345598,"adult":false},{"id":345599,"adult":false},{"id":3201,"adult":false},{"id":345600,"adult":false},{"id":121854,"adult":false},{"id":108267,"adult":false}],"page":53,"total_pages":111,"total_results":11023}