{"results":[{"id":52056,"adult":false},{"id":141548,"adult":false},{"id":186121,"adult":false},{"id":16235,"adult":false},{"id":60759,"adult":false},{"id":44660,"adult":false},{"id":306247,"adult":false},{"id":75763,"adult":false},{"id":363831,"adult":false},{"id":52871,"adult":false},{"id":41116,"adult":false},{"id":363832,"adult":null},{"id":104829,"adult":false},{"id":50641,"adult":false},{"id":15320,"adult":false},{"id":23368,"adult":false},{"id":35941,"adult":false},{"id":11002,"adult":false},{"id":33003,"adult":false},{"id":363833,"adult":null},{"id":73203,"adult":false},{"id":46888,"adult":false},{"id":29595,"adult":false},{"id":363834,"adult":false},{"id":21974,"adult":false},{"id":35693,"adult":false},{"id":102611,"adult":false},{"id":143687,"adult":false},{"id":11420,"adult":false},{"id":363835,"adult":false},{"id":67834,"adult":false},{"id":22816,"adult":false},{"id":351245,"adult":false},{"id":336544,"adult":false},{"id":2109,"adult":false},{"id":175714,"adult":false},{"id":355623,"adult":false},{"id":224972,"adult":false},{"id":363836,"adult":false},{"id":97211,"adult":false},{"id":168079,"adult":false},{"id":353985,"adult":false},{"id":109907,"adult":false},{"id":357028,"adult":false},{"id":219305,"adult":false},{"id":158576,"adult":false},{"id":402,"adult":false},{"id":88174,"adult":false},{"id":95084,"adult":false},{"id":49292,"adult":false},{"id":60896,"adult":false},{"id":45050,"adult":false},{"id":28555,"adult":false},{"id":28963,"adult":false},{"id":216358,"adult":false},{"id":57846,"adult":false},{"id":241251,"adult":false},{"id":10433,"adult":false},{"id":13197,"adult":false},{"id":18238,"adult":false},{"id":18587,"adult":false},{"id":363837,"adult":false},{"id":363838,"adult":false},{"id":363839,"adult":false},{"id":215662,"adult":false},{"id":7520,"adult":false},{"id":9689,"adult":false},{"id":363840,"adult":false},{"id":363841,"adult":false},{"id":347806,"adult":false},{"id":358614,"adult":false},{"id":340241,"adult":false},{"id":30798,"adult":false},{"id":358100,"adult":false},{"id":12266,"adult":false},{"id":363842,"adult":false},{"id":333112,"adult":false},{"id":2617,"adult":false},{"id":65066,"adult":false},{"id":330978,"adult":false},{"id":363843,"adult":null},{"id":10847,"adult":false},{"id":343859,"adult":false},{"id":277688,"adult":false},{"id":205492,"adult":false},{"id":283283,"adult":false},{"id":29553,"adult":true},{"id":243086,"adult":false},{"id":9960,"adult":false},{"id":363844,"adult":false},{"id":292999,"adult":false},{"id":34133,"adult":false},{"id":363845,"adult":false},{"id":363846,"adult":false},{"id":40652,"adult":false},{"id":354357,"adult":false},{"id":77716,"adult":false},{"id":149662,"adult":false},{"id":363847,"adult":false},{"id":10685,"adult":false}],"page":102,"total_pages":108,"total_results":10774}