{"results":[{"id":329172,"adult":false},{"id":261698,"adult":false},{"id":261699,"adult":false},{"id":329173,"adult":false},{"id":85444,"adult":false},{"id":30793,"adult":false},{"id":52451,"adult":false},{"id":329174,"adult":false},{"id":119050,"adult":false},{"id":292288,"adult":false},{"id":261701,"adult":false},{"id":329175,"adult":false},{"id":329176,"adult":false},{"id":53023,"adult":false},{"id":95378,"adult":false},{"id":329177,"adult":false},{"id":329178,"adult":false},{"id":262150,"adult":false},{"id":24973,"adult":false},{"id":46401,"adult":false},{"id":39387,"adult":false},{"id":69668,"adult":false},{"id":42362,"adult":false},{"id":53523,"adult":false},{"id":22825,"adult":false},{"id":329179,"adult":false},{"id":53519,"adult":false},{"id":53526,"adult":false},{"id":44285,"adult":false},{"id":329180,"adult":false},{"id":62215,"adult":false},{"id":11281,"adult":false},{"id":271845,"adult":false},{"id":140818,"adult":false},{"id":283800,"adult":false},{"id":2662,"adult":false},{"id":2114,"adult":false},{"id":49021,"adult":false},{"id":215299,"adult":false},{"id":329181,"adult":false},{"id":61105,"adult":false},{"id":112326,"adult":false},{"id":276902,"adult":false},{"id":198557,"adult":false},{"id":292498,"adult":false},{"id":111839,"adult":false},{"id":65055,"adult":false},{"id":329182,"adult":false},{"id":10575,"adult":false},{"id":329183,"adult":false},{"id":1023,"adult":false},{"id":228968,"adult":false},{"id":162794,"adult":false},{"id":43008,"adult":false},{"id":39538,"adult":false},{"id":177550,"adult":false},{"id":81661,"adult":false},{"id":146375,"adult":false},{"id":189587,"adult":false},{"id":10515,"adult":false},{"id":96503,"adult":false},{"id":42188,"adult":false},{"id":81703,"adult":false},{"id":12579,"adult":false},{"id":12269,"adult":false},{"id":119102,"adult":false},{"id":329184,"adult":false},{"id":329185,"adult":false},{"id":154122,"adult":false},{"id":288034,"adult":false},{"id":66150,"adult":false},{"id":44009,"adult":false},{"id":11391,"adult":false},{"id":248504,"adult":false},{"id":217033,"adult":false},{"id":329186,"adult":false},{"id":329187,"adult":false},{"id":77801,"adult":false},{"id":146784,"adult":false},{"id":245062,"adult":false},{"id":304839,"adult":false},{"id":329188,"adult":false},{"id":329189,"adult":false},{"id":72892,"adult":false},{"id":329190,"adult":false},{"id":44115,"adult":false},{"id":329191,"adult":false},{"id":260943,"adult":false},{"id":329192,"adult":false},{"id":329193,"adult":false},{"id":329194,"adult":false},{"id":329195,"adult":false},{"id":329196,"adult":false},{"id":11392,"adult":false},{"id":329197,"adult":false},{"id":270886,"adult":false},{"id":271185,"adult":false},{"id":244267,"adult":false},{"id":254188,"adult":false},{"id":12711,"adult":false}],"page":66,"total_pages":123,"total_results":12300}