{"results":[{"id":93058,"adult":false},{"id":44468,"adult":false},{"id":254719,"adult":false},{"id":31694,"adult":false},{"id":82702,"adult":false},{"id":37055,"adult":false},{"id":56535,"adult":false},{"id":332340,"adult":false},{"id":25720,"adult":false},{"id":365290,"adult":false},{"id":327961,"adult":false},{"id":365291,"adult":false},{"id":361074,"adult":false},{"id":55035,"adult":false},{"id":62444,"adult":false},{"id":9536,"adult":false},{"id":173920,"adult":false},{"id":365292,"adult":false},{"id":365293,"adult":false},{"id":40807,"adult":false},{"id":365294,"adult":false},{"id":365295,"adult":false},{"id":365296,"adult":false},{"id":73790,"adult":false},{"id":55632,"adult":false},{"id":140413,"adult":false},{"id":363978,"adult":false},{"id":14584,"adult":false},{"id":365297,"adult":false},{"id":36850,"adult":false},{"id":203055,"adult":false},{"id":365298,"adult":null},{"id":73661,"adult":false},{"id":72894,"adult":false},{"id":14328,"adult":false},{"id":365299,"adult":false},{"id":317992,"adult":false},{"id":248774,"adult":false},{"id":29904,"adult":false},{"id":365300,"adult":null},{"id":79147,"adult":false},{"id":118869,"adult":false},{"id":56581,"adult":false},{"id":253952,"adult":false},{"id":28497,"adult":false},{"id":1893,"adult":false},{"id":1894,"adult":false},{"id":365301,"adult":false},{"id":297635,"adult":false},{"id":118737,"adult":false},{"id":36775,"adult":false},{"id":13477,"adult":false},{"id":365302,"adult":false},{"id":13476,"adult":false},{"id":111975,"adult":false},{"id":365303,"adult":false},{"id":32141,"adult":false},{"id":365304,"adult":false},{"id":30374,"adult":false},{"id":7461,"adult":false},{"id":365305,"adult":false},{"id":131631,"adult":false},{"id":48451,"adult":false},{"id":365306,"adult":false},{"id":120555,"adult":false},{"id":48171,"adult":false},{"id":365307,"adult":false},{"id":365308,"adult":false},{"id":365309,"adult":false},{"id":44877,"adult":false},{"id":101299,"adult":false},{"id":1498,"adult":false},{"id":365310,"adult":false},{"id":9894,"adult":false},{"id":12090,"adult":false},{"id":365311,"adult":false},{"id":275619,"adult":false},{"id":68722,"adult":false},{"id":9369,"adult":false},{"id":303826,"adult":false},{"id":63310,"adult":false},{"id":34314,"adult":false},{"id":365312,"adult":false},{"id":67382,"adult":false},{"id":330537,"adult":false},{"id":2108,"adult":false},{"id":20735,"adult":false},{"id":315843,"adult":false},{"id":20187,"adult":false},{"id":42383,"adult":false},{"id":337115,"adult":false},{"id":81479,"adult":false},{"id":918,"adult":false},{"id":1880,"adult":false},{"id":9433,"adult":false},{"id":67712,"adult":false},{"id":365313,"adult":false},{"id":365314,"adult":false},{"id":365315,"adult":false},{"id":13788,"adult":false}],"page":70,"total_pages":85,"total_results":8453}