{"results":[{"id":89484,"adult":false},{"id":105470,"adult":false},{"id":314034,"adult":false},{"id":324051,"adult":false},{"id":54054,"adult":false},{"id":352526,"adult":null},{"id":353014,"adult":false},{"id":42230,"adult":false},{"id":347223,"adult":true},{"id":136058,"adult":false},{"id":10692,"adult":false},{"id":79548,"adult":false},{"id":55095,"adult":false},{"id":76494,"adult":false},{"id":53453,"adult":false},{"id":227719,"adult":false},{"id":340230,"adult":false},{"id":121824,"adult":false},{"id":138296,"adult":false},{"id":166424,"adult":false},{"id":299715,"adult":false},{"id":203801,"adult":false},{"id":138222,"adult":false},{"id":266647,"adult":false},{"id":226,"adult":false},{"id":60304,"adult":false},{"id":352277,"adult":null},{"id":344882,"adult":null},{"id":329367,"adult":null},{"id":344179,"adult":null},{"id":55758,"adult":false},{"id":173969,"adult":false},{"id":344886,"adult":null},{"id":337320,"adult":null},{"id":132352,"adult":false},{"id":157351,"adult":false},{"id":353015,"adult":false},{"id":62191,"adult":false},{"id":179154,"adult":false},{"id":24001,"adult":false},{"id":231736,"adult":false},{"id":305091,"adult":false},{"id":94562,"adult":false},{"id":22102,"adult":false},{"id":26002,"adult":false},{"id":207871,"adult":false},{"id":353016,"adult":false},{"id":353017,"adult":false},{"id":200725,"adult":false},{"id":305994,"adult":false},{"id":353018,"adult":false},{"id":5137,"adult":false},{"id":53225,"adult":false},{"id":152795,"adult":false},{"id":341025,"adult":false},{"id":352377,"adult":false},{"id":352408,"adult":false},{"id":353019,"adult":false},{"id":250525,"adult":false},{"id":104847,"adult":false},{"id":214075,"adult":false},{"id":8444,"adult":false},{"id":353020,"adult":false},{"id":353021,"adult":false},{"id":353022,"adult":null},{"id":53457,"adult":false},{"id":23410,"adult":false},{"id":72705,"adult":false},{"id":353023,"adult":false},{"id":185181,"adult":false},{"id":59586,"adult":false},{"id":353024,"adult":false},{"id":265019,"adult":false},{"id":119,"adult":false},{"id":14392,"adult":false},{"id":353025,"adult":false},{"id":211721,"adult":false},{"id":237634,"adult":false},{"id":68225,"adult":false},{"id":77296,"adult":false},{"id":94365,"adult":false},{"id":353026,"adult":false},{"id":40823,"adult":false},{"id":302948,"adult":false},{"id":248574,"adult":false},{"id":64397,"adult":false},{"id":353027,"adult":false},{"id":309809,"adult":false},{"id":43552,"adult":false},{"id":25699,"adult":false},{"id":240265,"adult":false},{"id":353028,"adult":false},{"id":353029,"adult":false},{"id":278061,"adult":false},{"id":292388,"adult":false},{"id":12484,"adult":false},{"id":353030,"adult":false},{"id":324333,"adult":false},{"id":315002,"adult":false},{"id":227975,"adult":false}],"page":27,"total_pages":89,"total_results":8876}