{"results":[{"id":8489,"adult":false},{"id":296383,"adult":null},{"id":322218,"adult":false},{"id":49176,"adult":false},{"id":16463,"adult":false},{"id":338314,"adult":false},{"id":322756,"adult":false},{"id":53219,"adult":false},{"id":96882,"adult":false},{"id":314678,"adult":false},{"id":324464,"adult":false},{"id":340870,"adult":false},{"id":24163,"adult":false},{"id":328944,"adult":false},{"id":236190,"adult":false},{"id":194062,"adult":false},{"id":109337,"adult":false},{"id":194017,"adult":false},{"id":315575,"adult":false},{"id":48769,"adult":false},{"id":29850,"adult":false},{"id":265656,"adult":false},{"id":76151,"adult":false},{"id":336843,"adult":false},{"id":255476,"adult":false},{"id":82985,"adult":false},{"id":322172,"adult":false},{"id":340871,"adult":false},{"id":318914,"adult":false},{"id":335095,"adult":false},{"id":335655,"adult":false},{"id":45792,"adult":false},{"id":337393,"adult":false},{"id":43375,"adult":false},{"id":133691,"adult":false},{"id":11357,"adult":false},{"id":121823,"adult":false},{"id":297270,"adult":false},{"id":317028,"adult":false},{"id":326899,"adult":false},{"id":14240,"adult":false},{"id":297477,"adult":false},{"id":189061,"adult":false},{"id":248087,"adult":false},{"id":43555,"adult":false},{"id":42446,"adult":false},{"id":340872,"adult":false},{"id":340873,"adult":false},{"id":37992,"adult":false},{"id":65637,"adult":false},{"id":340874,"adult":true},{"id":9656,"adult":false},{"id":62463,"adult":false},{"id":141711,"adult":false},{"id":65125,"adult":false},{"id":340875,"adult":false},{"id":24712,"adult":false},{"id":24024,"adult":false},{"id":24713,"adult":false},{"id":252990,"adult":false},{"id":340876,"adult":false},{"id":184952,"adult":false},{"id":266983,"adult":false},{"id":340877,"adult":false},{"id":230266,"adult":false},{"id":2033,"adult":false},{"id":10630,"adult":false},{"id":9708,"adult":false},{"id":17632,"adult":false},{"id":2009,"adult":false},{"id":66833,"adult":false},{"id":59558,"adult":false},{"id":258968,"adult":false},{"id":13654,"adult":false},{"id":22572,"adult":false},{"id":15652,"adult":false},{"id":329610,"adult":false},{"id":18943,"adult":false},{"id":61107,"adult":false},{"id":26533,"adult":false},{"id":253210,"adult":false},{"id":1088,"adult":false},{"id":239808,"adult":false},{"id":262952,"adult":false},{"id":26914,"adult":false},{"id":39002,"adult":false},{"id":151368,"adult":false},{"id":239827,"adult":false},{"id":20196,"adult":false},{"id":43379,"adult":false},{"id":280021,"adult":false},{"id":232572,"adult":false},{"id":77705,"adult":false},{"id":22293,"adult":false},{"id":50674,"adult":false},{"id":329317,"adult":false},{"id":302401,"adult":false},{"id":312221,"adult":false},{"id":24018,"adult":false},{"id":340878,"adult":true}],"page":39,"total_pages":103,"total_results":10276}