{"results":[{"id":274284,"adult":false},{"id":314228,"adult":false},{"id":65596,"adult":false},{"id":9336,"adult":false},{"id":245512,"adult":false},{"id":54596,"adult":false},{"id":10600,"adult":false},{"id":1740,"adult":false},{"id":187239,"adult":false},{"id":253279,"adult":false},{"id":326778,"adult":false},{"id":19814,"adult":false},{"id":128876,"adult":false},{"id":147915,"adult":false},{"id":216741,"adult":true},{"id":24667,"adult":false},{"id":15789,"adult":false},{"id":24666,"adult":false},{"id":24668,"adult":false},{"id":24670,"adult":false},{"id":24672,"adult":false},{"id":24687,"adult":false},{"id":24688,"adult":false},{"id":24692,"adult":false},{"id":24693,"adult":false},{"id":24694,"adult":false},{"id":256990,"adult":false},{"id":24697,"adult":false},{"id":24699,"adult":false},{"id":24700,"adult":false},{"id":203819,"adult":false},{"id":34933,"adult":false},{"id":326779,"adult":false},{"id":36955,"adult":false},{"id":326780,"adult":false},{"id":168870,"adult":false},{"id":326781,"adult":false},{"id":18764,"adult":false},{"id":18660,"adult":false},{"id":298032,"adult":false},{"id":267557,"adult":false},{"id":15557,"adult":false},{"id":264001,"adult":false},{"id":325176,"adult":false},{"id":293264,"adult":false},{"id":73172,"adult":false},{"id":21453,"adult":false},{"id":61872,"adult":false},{"id":9829,"adult":false},{"id":42596,"adult":false},{"id":2742,"adult":false},{"id":28169,"adult":false},{"id":22377,"adult":false},{"id":308647,"adult":false},{"id":67900,"adult":false},{"id":10402,"adult":false},{"id":244554,"adult":false},{"id":264460,"adult":false},{"id":32916,"adult":false},{"id":451,"adult":false},{"id":14612,"adult":false},{"id":1443,"adult":false},{"id":489,"adult":false},{"id":302960,"adult":false},{"id":245775,"adult":false},{"id":80280,"adult":false},{"id":1890,"adult":false},{"id":11336,"adult":false},{"id":83100,"adult":false},{"id":13333,"adult":false},{"id":296241,"adult":false},{"id":242512,"adult":false},{"id":174958,"adult":false},{"id":326782,"adult":false},{"id":326783,"adult":false},{"id":868,"adult":false},{"id":27771,"adult":false},{"id":137678,"adult":false},{"id":23101,"adult":false},{"id":10805,"adult":false},{"id":326784,"adult":null},{"id":39414,"adult":false},{"id":53022,"adult":false},{"id":44716,"adult":false},{"id":298000,"adult":null},{"id":9362,"adult":false},{"id":52603,"adult":false},{"id":196446,"adult":false},{"id":289097,"adult":false},{"id":287801,"adult":false},{"id":326785,"adult":false},{"id":73174,"adult":false},{"id":263044,"adult":null},{"id":132561,"adult":false},{"id":326786,"adult":false},{"id":176593,"adult":false},{"id":343,"adult":false},{"id":19715,"adult":false},{"id":266002,"adult":false},{"id":325224,"adult":false}],"page":62,"total_pages":112,"total_results":11193}