{"results":[{"id":369665,"adult":false},{"id":17889,"adult":false},{"id":86494,"adult":false},{"id":345725,"adult":false},{"id":73619,"adult":false},{"id":49685,"adult":false},{"id":346401,"adult":false},{"id":360203,"adult":false},{"id":206918,"adult":false},{"id":206917,"adult":false},{"id":206920,"adult":false},{"id":15493,"adult":false},{"id":206914,"adult":false},{"id":103695,"adult":false},{"id":206919,"adult":false},{"id":119806,"adult":false},{"id":371109,"adult":false},{"id":9653,"adult":false},{"id":254492,"adult":true},{"id":300601,"adult":false},{"id":360373,"adult":true},{"id":324259,"adult":false},{"id":149099,"adult":false},{"id":176181,"adult":false},{"id":371110,"adult":false},{"id":9548,"adult":false},{"id":332083,"adult":false},{"id":250226,"adult":false},{"id":6723,"adult":false},{"id":250497,"adult":false},{"id":186908,"adult":false},{"id":10679,"adult":false},{"id":244490,"adult":false},{"id":258968,"adult":false},{"id":358527,"adult":false},{"id":267473,"adult":false},{"id":296098,"adult":false},{"id":8288,"adult":false},{"id":33613,"adult":false},{"id":37931,"adult":false},{"id":265808,"adult":false},{"id":23631,"adult":false},{"id":317994,"adult":false},{"id":341045,"adult":false},{"id":9659,"adult":false},{"id":949,"adult":false},{"id":8810,"adult":false},{"id":259548,"adult":false},{"id":371111,"adult":false},{"id":9355,"adult":false},{"id":362136,"adult":false},{"id":24271,"adult":false},{"id":282113,"adult":false},{"id":216015,"adult":false},{"id":188507,"adult":false},{"id":371112,"adult":false},{"id":266573,"adult":false},{"id":258764,"adult":false},{"id":366505,"adult":false},{"id":9924,"adult":false},{"id":371113,"adult":false},{"id":356348,"adult":null},{"id":356438,"adult":null},{"id":278462,"adult":false},{"id":342591,"adult":false},{"id":274415,"adult":false},{"id":49355,"adult":false},{"id":4657,"adult":false},{"id":47921,"adult":false},{"id":289095,"adult":false},{"id":363378,"adult":false},{"id":365268,"adult":false},{"id":312726,"adult":false},{"id":14883,"adult":false},{"id":119819,"adult":false},{"id":371114,"adult":false},{"id":96,"adult":false},{"id":50950,"adult":false},{"id":160541,"adult":false},{"id":272688,"adult":false},{"id":79863,"adult":false},{"id":371115,"adult":false},{"id":10479,"adult":false},{"id":50275,"adult":false},{"id":272849,"adult":false},{"id":371116,"adult":false},{"id":10729,"adult":false},{"id":50439,"adult":false},{"id":152044,"adult":false},{"id":152042,"adult":false},{"id":347181,"adult":false},{"id":300803,"adult":false},{"id":64092,"adult":false},{"id":85162,"adult":false},{"id":333278,"adult":false},{"id":371117,"adult":false},{"id":317952,"adult":false},{"id":44009,"adult":false},{"id":101585,"adult":false},{"id":371118,"adult":false}],"page":27,"total_pages":97,"total_results":9613}