{"results":[{"id":355186,"adult":false},{"id":114150,"adult":false},{"id":59412,"adult":false},{"id":75600,"adult":false},{"id":188215,"adult":false},{"id":204959,"adult":false},{"id":257206,"adult":false},{"id":336249,"adult":false},{"id":26306,"adult":false},{"id":355187,"adult":false},{"id":343736,"adult":false},{"id":251210,"adult":false},{"id":355188,"adult":false},{"id":355189,"adult":false},{"id":245695,"adult":false},{"id":206122,"adult":false},{"id":38256,"adult":false},{"id":312266,"adult":false},{"id":277662,"adult":false},{"id":170018,"adult":false},{"id":355190,"adult":false},{"id":38368,"adult":false},{"id":355191,"adult":false},{"id":5562,"adult":false},{"id":250062,"adult":false},{"id":342372,"adult":null},{"id":22572,"adult":false},{"id":222245,"adult":false},{"id":355192,"adult":false},{"id":346443,"adult":false},{"id":88794,"adult":false},{"id":355193,"adult":false},{"id":79997,"adult":false},{"id":355194,"adult":false},{"id":355195,"adult":false},{"id":266193,"adult":false},{"id":355196,"adult":false},{"id":355197,"adult":false},{"id":355198,"adult":true},{"id":355199,"adult":false},{"id":355200,"adult":false},{"id":355201,"adult":false},{"id":297,"adult":false},{"id":355202,"adult":false},{"id":13078,"adult":false},{"id":318531,"adult":false},{"id":25738,"adult":false},{"id":274353,"adult":false},{"id":355203,"adult":false},{"id":355204,"adult":false},{"id":11662,"adult":false},{"id":355205,"adult":false},{"id":355206,"adult":false},{"id":353544,"adult":false},{"id":355207,"adult":false},{"id":355208,"adult":false},{"id":1259,"adult":false},{"id":263818,"adult":false},{"id":81438,"adult":false},{"id":59419,"adult":false},{"id":4564,"adult":false},{"id":259170,"adult":false},{"id":119579,"adult":false},{"id":266797,"adult":false},{"id":9806,"adult":false},{"id":585,"adult":false},{"id":355209,"adult":false},{"id":193103,"adult":false},{"id":333381,"adult":false},{"id":76477,"adult":false},{"id":332270,"adult":false},{"id":127867,"adult":false},{"id":13650,"adult":false},{"id":187133,"adult":false},{"id":10972,"adult":false},{"id":328589,"adult":false},{"id":111544,"adult":false},{"id":4566,"adult":false},{"id":14161,"adult":false},{"id":101956,"adult":false},{"id":42561,"adult":false},{"id":76025,"adult":false},{"id":315537,"adult":false},{"id":62900,"adult":false},{"id":174411,"adult":false},{"id":91011,"adult":false},{"id":84057,"adult":false},{"id":355210,"adult":false},{"id":355211,"adult":false},{"id":355212,"adult":false},{"id":355213,"adult":false},{"id":355214,"adult":false},{"id":19913,"adult":false},{"id":59436,"adult":false},{"id":79267,"adult":false},{"id":160588,"adult":false},{"id":21355,"adult":false},{"id":20682,"adult":false},{"id":287584,"adult":false},{"id":47263,"adult":false}],"page":34,"total_pages":100,"total_results":9908}