{"results":[{"id":105757,"adult":false},{"id":6619,"adult":false},{"id":34783,"adult":false},{"id":330907,"adult":false},{"id":255505,"adult":false},{"id":339562,"adult":false},{"id":63174,"adult":false},{"id":63151,"adult":false},{"id":81912,"adult":false},{"id":119826,"adult":false},{"id":15822,"adult":false},{"id":39885,"adult":false},{"id":11570,"adult":false},{"id":8896,"adult":false},{"id":308954,"adult":true},{"id":105454,"adult":false},{"id":354314,"adult":null},{"id":15390,"adult":false},{"id":254252,"adult":false},{"id":51143,"adult":false},{"id":14928,"adult":false},{"id":264656,"adult":false},{"id":5547,"adult":false},{"id":4283,"adult":false},{"id":43988,"adult":false},{"id":9906,"adult":false},{"id":29556,"adult":false},{"id":5123,"adult":false},{"id":1440,"adult":false},{"id":91465,"adult":false},{"id":255824,"adult":false},{"id":303612,"adult":false},{"id":28468,"adult":false},{"id":12155,"adult":false},{"id":247994,"adult":false},{"id":1809,"adult":false},{"id":110143,"adult":false},{"id":303613,"adult":false},{"id":355062,"adult":null},{"id":34280,"adult":false},{"id":102013,"adult":false},{"id":355063,"adult":null},{"id":52702,"adult":false},{"id":348689,"adult":false},{"id":355064,"adult":null},{"id":355065,"adult":false},{"id":13476,"adult":false},{"id":17709,"adult":false},{"id":58828,"adult":false},{"id":250066,"adult":false},{"id":860,"adult":false},{"id":257444,"adult":false},{"id":294222,"adult":false},{"id":5488,"adult":false},{"id":2176,"adult":false},{"id":176124,"adult":false},{"id":143451,"adult":false},{"id":10627,"adult":false},{"id":276902,"adult":false},{"id":95431,"adult":false},{"id":280996,"adult":false},{"id":163149,"adult":false},{"id":15357,"adult":false},{"id":8348,"adult":false},{"id":10068,"adult":false},{"id":46724,"adult":false},{"id":124868,"adult":false},{"id":53217,"adult":false},{"id":43336,"adult":false},{"id":337356,"adult":false},{"id":196487,"adult":false},{"id":337563,"adult":false},{"id":355066,"adult":false},{"id":118451,"adult":false},{"id":4416,"adult":false},{"id":309028,"adult":false},{"id":355067,"adult":false},{"id":284306,"adult":false},{"id":9929,"adult":false},{"id":192141,"adult":false},{"id":355068,"adult":false},{"id":74026,"adult":false},{"id":355069,"adult":false},{"id":78090,"adult":false},{"id":10521,"adult":false},{"id":355070,"adult":false},{"id":56321,"adult":false},{"id":352114,"adult":false},{"id":239333,"adult":false},{"id":79123,"adult":false},{"id":108805,"adult":false},{"id":85020,"adult":false},{"id":297761,"adult":false},{"id":238349,"adult":false},{"id":16703,"adult":false},{"id":339964,"adult":false},{"id":355071,"adult":false},{"id":77064,"adult":false},{"id":11653,"adult":false},{"id":238749,"adult":false}],"page":27,"total_pages":100,"total_results":9908}