{"results":[{"id":309764,"adult":false},{"id":25795,"adult":false},{"id":157017,"adult":false},{"id":19898,"adult":false},{"id":325342,"adult":false},{"id":15785,"adult":false},{"id":179919,"adult":false},{"id":325343,"adult":false},{"id":325344,"adult":false},{"id":135460,"adult":false},{"id":325345,"adult":false},{"id":317463,"adult":false},{"id":102,"adult":false},{"id":95,"adult":false},{"id":133761,"adult":false},{"id":48650,"adult":false},{"id":137263,"adult":false},{"id":314614,"adult":false},{"id":325346,"adult":false},{"id":325347,"adult":false},{"id":325348,"adult":false},{"id":217471,"adult":false},{"id":212175,"adult":false},{"id":297090,"adult":false},{"id":243794,"adult":false},{"id":10871,"adult":false},{"id":94376,"adult":false},{"id":31347,"adult":false},{"id":2923,"adult":false}],"page":117,"total_pages":117,"total_results":11629}