{"results":[{"id":261599,"adult":false},{"id":337710,"adult":false},{"id":281577,"adult":false},{"id":53999,"adult":false},{"id":115387,"adult":false},{"id":62487,"adult":false},{"id":363815,"adult":false},{"id":622,"adult":false},{"id":363816,"adult":false},{"id":82929,"adult":false},{"id":269100,"adult":false},{"id":91612,"adult":false},{"id":47643,"adult":false},{"id":173327,"adult":false},{"id":64139,"adult":false},{"id":339060,"adult":false},{"id":10989,"adult":false},{"id":159514,"adult":false},{"id":78441,"adult":false},{"id":284630,"adult":false},{"id":109376,"adult":false},{"id":168379,"adult":false},{"id":173165,"adult":false},{"id":234893,"adult":false},{"id":10307,"adult":false},{"id":159008,"adult":false},{"id":230168,"adult":false},{"id":111997,"adult":false},{"id":92506,"adult":false},{"id":98551,"adult":false},{"id":253894,"adult":false},{"id":51241,"adult":false},{"id":56104,"adult":false},{"id":255296,"adult":false},{"id":2566,"adult":false},{"id":13020,"adult":false},{"id":363817,"adult":false},{"id":69746,"adult":false},{"id":333377,"adult":false},{"id":280757,"adult":false},{"id":246308,"adult":false},{"id":221418,"adult":false},{"id":179179,"adult":false},{"id":196942,"adult":false},{"id":187978,"adult":false},{"id":291006,"adult":false},{"id":221800,"adult":false},{"id":127929,"adult":false},{"id":84190,"adult":false},{"id":170101,"adult":false},{"id":4226,"adult":false},{"id":299544,"adult":false},{"id":120893,"adult":false},{"id":105556,"adult":false},{"id":147580,"adult":false},{"id":296209,"adult":false},{"id":357022,"adult":false},{"id":140481,"adult":false},{"id":363818,"adult":false},{"id":84320,"adult":false},{"id":363819,"adult":false},{"id":215012,"adult":false},{"id":363820,"adult":false},{"id":363821,"adult":false},{"id":89873,"adult":false},{"id":363822,"adult":false},{"id":84350,"adult":false},{"id":363823,"adult":false},{"id":363824,"adult":false},{"id":94183,"adult":false},{"id":355488,"adult":false},{"id":363825,"adult":false},{"id":68197,"adult":false},{"id":102752,"adult":false},{"id":329805,"adult":false},{"id":44639,"adult":false},{"id":363826,"adult":false},{"id":43942,"adult":false},{"id":141750,"adult":false},{"id":175395,"adult":false},{"id":57904,"adult":false},{"id":60239,"adult":false},{"id":363827,"adult":false},{"id":105548,"adult":false},{"id":363828,"adult":false},{"id":31869,"adult":false},{"id":283871,"adult":false},{"id":86670,"adult":false},{"id":178459,"adult":false},{"id":338650,"adult":false},{"id":22074,"adult":false},{"id":298850,"adult":false},{"id":28227,"adult":false},{"id":363829,"adult":false},{"id":363830,"adult":null},{"id":132648,"adult":false},{"id":143154,"adult":false},{"id":43907,"adult":false},{"id":111886,"adult":false},{"id":286237,"adult":false}],"page":101,"total_pages":108,"total_results":10774}