{"results":[{"id":168429,"adult":false},{"id":241742,"adult":false},{"id":360339,"adult":false},{"id":9041,"adult":false},{"id":6418,"adult":false},{"id":10655,"adult":false},{"id":278644,"adult":false},{"id":19851,"adult":false},{"id":92488,"adult":false},{"id":371246,"adult":false},{"id":17993,"adult":false},{"id":300168,"adult":false},{"id":371247,"adult":false},{"id":201550,"adult":false},{"id":10768,"adult":false},{"id":371248,"adult":false},{"id":254905,"adult":false},{"id":371249,"adult":false},{"id":151836,"adult":false},{"id":21375,"adult":false},{"id":371250,"adult":false},{"id":76341,"adult":false},{"id":12517,"adult":false},{"id":371251,"adult":false},{"id":9045,"adult":false},{"id":68730,"adult":false},{"id":158091,"adult":false},{"id":133280,"adult":false},{"id":100073,"adult":false},{"id":298855,"adult":false},{"id":86835,"adult":false},{"id":371252,"adult":null},{"id":2039,"adult":false},{"id":371253,"adult":false},{"id":11022,"adult":false},{"id":371254,"adult":false},{"id":228282,"adult":false},{"id":26762,"adult":false},{"id":371255,"adult":false},{"id":64847,"adult":false},{"id":336917,"adult":false},{"id":48213,"adult":false},{"id":157988,"adult":false},{"id":12658,"adult":false},{"id":371256,"adult":false},{"id":26648,"adult":false},{"id":354358,"adult":false},{"id":69398,"adult":false},{"id":28768,"adult":false},{"id":371257,"adult":null},{"id":9908,"adult":false},{"id":342352,"adult":false},{"id":371258,"adult":false},{"id":39413,"adult":false},{"id":278236,"adult":false},{"id":42808,"adult":false},{"id":274854,"adult":false},{"id":371259,"adult":false},{"id":245775,"adult":false},{"id":371260,"adult":false},{"id":217807,"adult":false},{"id":371261,"adult":false},{"id":261872,"adult":false},{"id":338910,"adult":false},{"id":20323,"adult":false},{"id":371262,"adult":false},{"id":79103,"adult":false},{"id":85140,"adult":false},{"id":278330,"adult":false},{"id":80873,"adult":false},{"id":121856,"adult":false},{"id":91876,"adult":false},{"id":60576,"adult":false},{"id":189955,"adult":false},{"id":27364,"adult":false},{"id":29566,"adult":false},{"id":148847,"adult":false},{"id":351155,"adult":false},{"id":25381,"adult":false},{"id":58574,"adult":false},{"id":99361,"adult":false},{"id":29565,"adult":false},{"id":264532,"adult":false},{"id":32330,"adult":false},{"id":20441,"adult":false},{"id":292824,"adult":false},{"id":57664,"adult":false},{"id":124400,"adult":false},{"id":11613,"adult":false},{"id":25264,"adult":false},{"id":244784,"adult":false},{"id":46933,"adult":true},{"id":29107,"adult":false},{"id":200120,"adult":false},{"id":160417,"adult":false},{"id":15953,"adult":false},{"id":9543,"adult":false},{"id":30743,"adult":true},{"id":157405,"adult":false},{"id":42871,"adult":false}],"page":36,"total_pages":97,"total_results":9613}