{"results":[{"id":98168,"adult":false},{"id":38794,"adult":false},{"id":89151,"adult":false},{"id":227415,"adult":false},{"id":148711,"adult":false},{"id":102782,"adult":false},{"id":123612,"adult":false},{"id":351736,"adult":false},{"id":10721,"adult":false},{"id":55395,"adult":false},{"id":105324,"adult":false},{"id":47770,"adult":false},{"id":130849,"adult":false},{"id":10453,"adult":false},{"id":203910,"adult":false},{"id":264338,"adult":false},{"id":351737,"adult":false},{"id":258322,"adult":false},{"id":64750,"adult":false},{"id":86112,"adult":false},{"id":327301,"adult":false},{"id":154002,"adult":false},{"id":157737,"adult":false},{"id":85293,"adult":false},{"id":111793,"adult":false},{"id":96937,"adult":false},{"id":223564,"adult":false},{"id":329289,"adult":false},{"id":790,"adult":false},{"id":92931,"adult":false},{"id":144099,"adult":false},{"id":155474,"adult":false},{"id":87805,"adult":false},{"id":24943,"adult":false},{"id":27606,"adult":false},{"id":16309,"adult":false},{"id":50365,"adult":false},{"id":88905,"adult":false},{"id":351738,"adult":false},{"id":8393,"adult":false},{"id":351739,"adult":false},{"id":175858,"adult":false},{"id":163114,"adult":false},{"id":109076,"adult":false},{"id":43003,"adult":false},{"id":10515,"adult":false},{"id":48314,"adult":false},{"id":93369,"adult":false},{"id":46653,"adult":false},{"id":351740,"adult":false},{"id":30689,"adult":false},{"id":3179,"adult":false},{"id":58588,"adult":false},{"id":11906,"adult":false},{"id":127280,"adult":false},{"id":114478,"adult":false},{"id":346170,"adult":false},{"id":212525,"adult":false},{"id":12110,"adult":false},{"id":88107,"adult":false},{"id":4391,"adult":false},{"id":95807,"adult":false},{"id":14377,"adult":false},{"id":323956,"adult":null},{"id":17832,"adult":false},{"id":351741,"adult":false},{"id":10517,"adult":false},{"id":207621,"adult":false},{"id":4729,"adult":false},{"id":351742,"adult":false},{"id":151263,"adult":false},{"id":351743,"adult":false},{"id":276838,"adult":false},{"id":14337,"adult":false},{"id":346517,"adult":false},{"id":123694,"adult":false},{"id":2179,"adult":false},{"id":332354,"adult":false},{"id":285858,"adult":false},{"id":351744,"adult":false},{"id":351745,"adult":false},{"id":48232,"adult":false},{"id":140607,"adult":false},{"id":52281,"adult":false},{"id":132364,"adult":false},{"id":351746,"adult":false},{"id":351747,"adult":false},{"id":351748,"adult":false},{"id":288842,"adult":false},{"id":341030,"adult":false},{"id":351749,"adult":false},{"id":351750,"adult":false},{"id":346789,"adult":false},{"id":351751,"adult":false},{"id":41392,"adult":false},{"id":15485,"adult":false},{"id":351752,"adult":false},{"id":220471,"adult":false},{"id":87981,"adult":false},{"id":228086,"adult":false}],"page":96,"total_pages":103,"total_results":10231}