{"results":[{"id":33909,"adult":false},{"id":4551,"adult":false},{"id":10,"adult":false},{"id":110679,"adult":false},{"id":9801,"adult":false},{"id":320532,"adult":false},{"id":320533,"adult":false},{"id":60270,"adult":false},{"id":13106,"adult":false},{"id":320534,"adult":false},{"id":320535,"adult":false},{"id":320536,"adult":false},{"id":8080,"adult":false},{"id":320537,"adult":false},{"id":320538,"adult":false},{"id":14462,"adult":false},{"id":10934,"adult":false},{"id":277,"adult":false},{"id":320539,"adult":false},{"id":12767,"adult":false},{"id":320540,"adult":false},{"id":44639,"adult":false},{"id":320542,"adult":false},{"id":320543,"adult":false},{"id":305344,"adult":false},{"id":5279,"adult":false},{"id":320544,"adult":false},{"id":315158,"adult":false},{"id":48130,"adult":false},{"id":9683,"adult":false},{"id":634,"adult":false},{"id":320545,"adult":false},{"id":2575,"adult":false},{"id":1523,"adult":false},{"id":320546,"adult":false},{"id":204656,"adult":false},{"id":320547,"adult":false},{"id":320548,"adult":null},{"id":320549,"adult":false},{"id":118212,"adult":false},{"id":320550,"adult":false},{"id":10077,"adult":false},{"id":261196,"adult":false},{"id":320551,"adult":false},{"id":320552,"adult":false},{"id":320553,"adult":false},{"id":320554,"adult":false},{"id":36775,"adult":false},{"id":320555,"adult":false},{"id":23629,"adult":false},{"id":1091,"adult":false},{"id":320556,"adult":false},{"id":320557,"adult":false},{"id":320558,"adult":false},{"id":320559,"adult":false},{"id":320560,"adult":false},{"id":180897,"adult":false},{"id":320561,"adult":false},{"id":320562,"adult":false},{"id":320563,"adult":false},{"id":389,"adult":false},{"id":320564,"adult":false},{"id":320565,"adult":false},{"id":87499,"adult":false},{"id":11969,"adult":false},{"id":320566,"adult":false},{"id":320567,"adult":false},{"id":98539,"adult":false},{"id":288,"adult":false},{"id":320568,"adult":false},{"id":320569,"adult":false},{"id":93828,"adult":false},{"id":320570,"adult":false},{"id":320571,"adult":false},{"id":180903,"adult":false},{"id":320572,"adult":false},{"id":320573,"adult":false},{"id":320574,"adult":false},{"id":26198,"adult":false},{"id":320575,"adult":false},{"id":320576,"adult":false},{"id":310566,"adult":false},{"id":320577,"adult":false},{"id":320578,"adult":false},{"id":131063,"adult":false},{"id":320579,"adult":false},{"id":320580,"adult":false},{"id":320581,"adult":false},{"id":320582,"adult":false},{"id":320583,"adult":false},{"id":42194,"adult":false},{"id":310138,"adult":null},{"id":11631,"adult":false},{"id":320584,"adult":false},{"id":86834,"adult":false},{"id":316631,"adult":false},{"id":62214,"adult":false},{"id":52882,"adult":false},{"id":9340,"adult":false},{"id":82103,"adult":false}],"page":75,"total_pages":120,"total_results":11995}