{"results":[{"id":334875,"adult":false},{"id":2841,"adult":false},{"id":329909,"adult":false},{"id":325138,"adult":false},{"id":254171,"adult":false},{"id":252053,"adult":false},{"id":250726,"adult":false},{"id":325468,"adult":null},{"id":145840,"adult":false},{"id":254905,"adult":false},{"id":241882,"adult":false},{"id":161043,"adult":false},{"id":191726,"adult":false},{"id":8986,"adult":false},{"id":31644,"adult":false},{"id":211156,"adult":false},{"id":335361,"adult":false},{"id":254086,"adult":false},{"id":244320,"adult":false},{"id":239586,"adult":false},{"id":344495,"adult":false},{"id":222951,"adult":false},{"id":49018,"adult":false},{"id":222430,"adult":false},{"id":220495,"adult":false},{"id":218779,"adult":false},{"id":217446,"adult":false},{"id":345350,"adult":false},{"id":88273,"adult":false},{"id":215776,"adult":false},{"id":215383,"adult":false},{"id":214419,"adult":false},{"id":211990,"adult":false},{"id":209410,"adult":false},{"id":83895,"adult":false},{"id":83898,"adult":false},{"id":121813,"adult":false},{"id":16136,"adult":false},{"id":301016,"adult":false},{"id":345351,"adult":false},{"id":91586,"adult":false},{"id":196289,"adult":false},{"id":9426,"adult":false},{"id":196276,"adult":false},{"id":25584,"adult":false},{"id":10540,"adult":false},{"id":196277,"adult":false},{"id":18387,"adult":false},{"id":196269,"adult":false},{"id":345352,"adult":false},{"id":345353,"adult":false},{"id":345354,"adult":false},{"id":14441,"adult":false},{"id":327909,"adult":false},{"id":334332,"adult":false},{"id":345355,"adult":false},{"id":16248,"adult":false},{"id":83900,"adult":false},{"id":254012,"adult":false},{"id":345356,"adult":false},{"id":35412,"adult":false},{"id":603,"adult":false},{"id":4629,"adult":false},{"id":247940,"adult":true},{"id":76842,"adult":false},{"id":21851,"adult":false},{"id":197434,"adult":true},{"id":192141,"adult":false},{"id":308242,"adult":true},{"id":311619,"adult":true},{"id":40032,"adult":false},{"id":1891,"adult":false},{"id":139893,"adult":false},{"id":60778,"adult":false},{"id":117438,"adult":false},{"id":8952,"adult":false},{"id":253282,"adult":false},{"id":72207,"adult":false},{"id":342786,"adult":false},{"id":180296,"adult":false},{"id":288892,"adult":false},{"id":345357,"adult":false},{"id":261857,"adult":false},{"id":11862,"adult":false},{"id":41479,"adult":false},{"id":298933,"adult":false},{"id":295538,"adult":false},{"id":14565,"adult":false},{"id":284537,"adult":false},{"id":94820,"adult":false},{"id":8839,"adult":false},{"id":145969,"adult":false},{"id":345358,"adult":false},{"id":66,"adult":false},{"id":345359,"adult":false},{"id":76344,"adult":false},{"id":37414,"adult":false},{"id":345360,"adult":false},{"id":174951,"adult":false},{"id":345361,"adult":false}],"page":39,"total_pages":111,"total_results":11023}