{"results":[{"id":162006,"adult":false},{"id":117952,"adult":false},{"id":34326,"adult":false},{"id":324821,"adult":false},{"id":20421,"adult":false},{"id":43333,"adult":false},{"id":16226,"adult":false},{"id":73499,"adult":false},{"id":171823,"adult":false},{"id":324822,"adult":false},{"id":277090,"adult":false},{"id":34384,"adult":false},{"id":255073,"adult":false},{"id":11818,"adult":false},{"id":19263,"adult":false},{"id":80741,"adult":false},{"id":290155,"adult":false},{"id":11071,"adult":false},{"id":324823,"adult":false},{"id":280564,"adult":false},{"id":87250,"adult":false},{"id":7012,"adult":false},{"id":324824,"adult":false},{"id":38778,"adult":false},{"id":324825,"adult":false},{"id":35122,"adult":false},{"id":7461,"adult":false},{"id":324826,"adult":false},{"id":324827,"adult":null},{"id":324828,"adult":false},{"id":4917,"adult":false},{"id":324829,"adult":false},{"id":72277,"adult":false},{"id":324830,"adult":false},{"id":271924,"adult":false},{"id":324831,"adult":null},{"id":324832,"adult":null},{"id":60964,"adult":false},{"id":9571,"adult":false},{"id":296911,"adult":true},{"id":324833,"adult":false},{"id":324834,"adult":null},{"id":324835,"adult":null},{"id":252738,"adult":false},{"id":324836,"adult":null},{"id":324837,"adult":null},{"id":21143,"adult":false},{"id":238127,"adult":false},{"id":324838,"adult":false},{"id":324839,"adult":false},{"id":16102,"adult":false},{"id":324840,"adult":false},{"id":244478,"adult":false},{"id":241639,"adult":false},{"id":324841,"adult":false},{"id":90056,"adult":false},{"id":324842,"adult":false},{"id":173712,"adult":false},{"id":324843,"adult":false},{"id":267623,"adult":false},{"id":613,"adult":false},{"id":45612,"adult":false},{"id":74342,"adult":false},{"id":320227,"adult":false},{"id":22177,"adult":false},{"id":91409,"adult":false},{"id":217,"adult":false},{"id":89,"adult":false},{"id":23508,"adult":false},{"id":87,"adult":false},{"id":27698,"adult":false},{"id":324844,"adult":true},{"id":22927,"adult":false},{"id":22435,"adult":false},{"id":228593,"adult":false},{"id":142477,"adult":false},{"id":71434,"adult":false},{"id":229509,"adult":false},{"id":28893,"adult":false},{"id":10838,"adult":false},{"id":196151,"adult":false},{"id":9487,"adult":false},{"id":11287,"adult":false},{"id":324845,"adult":true},{"id":657,"adult":false},{"id":658,"adult":false},{"id":253,"adult":false},{"id":324846,"adult":null},{"id":316027,"adult":false},{"id":16211,"adult":false},{"id":44631,"adult":false},{"id":324847,"adult":true},{"id":265016,"adult":false},{"id":46204,"adult":false},{"id":268531,"adult":false},{"id":263115,"adult":false},{"id":14580,"adult":false},{"id":324848,"adult":false},{"id":293167,"adult":false},{"id":137131,"adult":null}],"page":94,"total_pages":117,"total_results":11629}