{"results":[{"id":74230,"adult":null},{"id":31595,"adult":false},{"id":31599,"adult":false},{"id":53894,"adult":false},{"id":31050,"adult":false},{"id":45378,"adult":false},{"id":31049,"adult":false},{"id":338912,"adult":false},{"id":76190,"adult":false},{"id":190685,"adult":false},{"id":31053,"adult":false},{"id":31594,"adult":false},{"id":51943,"adult":false},{"id":80741,"adult":false},{"id":12518,"adult":false},{"id":340594,"adult":false},{"id":1694,"adult":false},{"id":340595,"adult":false},{"id":108553,"adult":false},{"id":281825,"adult":false},{"id":246446,"adult":false},{"id":315724,"adult":null},{"id":340596,"adult":false},{"id":340597,"adult":null},{"id":34857,"adult":false},{"id":332278,"adult":false},{"id":340598,"adult":false},{"id":1585,"adult":false},{"id":2005,"adult":false},{"id":2907,"adult":false},{"id":340599,"adult":true},{"id":61012,"adult":false},{"id":293602,"adult":false},{"id":340600,"adult":null},{"id":34813,"adult":false},{"id":11215,"adult":false},{"id":309193,"adult":false},{"id":3132,"adult":false},{"id":294538,"adult":false},{"id":11017,"adult":false},{"id":122369,"adult":false},{"id":11066,"adult":false},{"id":91070,"adult":false},{"id":10723,"adult":false},{"id":210910,"adult":false},{"id":11817,"adult":false},{"id":8408,"adult":false},{"id":207271,"adult":false},{"id":198210,"adult":false},{"id":251994,"adult":false},{"id":333545,"adult":false},{"id":22798,"adult":false},{"id":340601,"adult":false},{"id":12145,"adult":false},{"id":340602,"adult":false},{"id":82527,"adult":false},{"id":14938,"adult":false},{"id":11834,"adult":false},{"id":328378,"adult":null},{"id":262558,"adult":false},{"id":262559,"adult":false},{"id":69215,"adult":false},{"id":12138,"adult":false},{"id":340603,"adult":false},{"id":10691,"adult":false},{"id":321662,"adult":false},{"id":123883,"adult":false},{"id":7547,"adult":false},{"id":38762,"adult":false},{"id":262560,"adult":false},{"id":56928,"adult":false},{"id":11507,"adult":false},{"id":262562,"adult":false},{"id":262563,"adult":false},{"id":203570,"adult":false},{"id":262564,"adult":false},{"id":38918,"adult":false},{"id":39486,"adult":false},{"id":270343,"adult":false},{"id":29232,"adult":false},{"id":300811,"adult":false},{"id":334281,"adult":false},{"id":14686,"adult":false},{"id":245700,"adult":false},{"id":340604,"adult":false},{"id":340605,"adult":false},{"id":903,"adult":false},{"id":65587,"adult":false},{"id":59126,"adult":false},{"id":155689,"adult":false},{"id":98368,"adult":false},{"id":228036,"adult":false},{"id":96213,"adult":false},{"id":14228,"adult":false},{"id":340606,"adult":null},{"id":101669,"adult":false},{"id":315945,"adult":false},{"id":599,"adult":false},{"id":31347,"adult":false},{"id":13813,"adult":false}],"page":21,"total_pages":103,"total_results":10276}