{"results":[{"id":374444,"adult":false},{"id":374446,"adult":null},{"id":147242,"adult":false},{"id":374447,"adult":false},{"id":64481,"adult":false},{"id":374448,"adult":false},{"id":374449,"adult":false},{"id":374450,"adult":false},{"id":374451,"adult":false},{"id":352202,"adult":false},{"id":374452,"adult":false},{"id":199715,"adult":false},{"id":374453,"adult":false},{"id":374454,"adult":null},{"id":6075,"adult":false},{"id":348688,"adult":false},{"id":29067,"adult":false},{"id":374455,"adult":false},{"id":111833,"adult":false},{"id":374456,"adult":false},{"id":326382,"adult":false},{"id":348687,"adult":false},{"id":46358,"adult":false},{"id":299782,"adult":false},{"id":324216,"adult":null},{"id":151933,"adult":false},{"id":6582,"adult":false},{"id":374457,"adult":false},{"id":374458,"adult":false},{"id":4347,"adult":false},{"id":371518,"adult":null},{"id":69035,"adult":false},{"id":237033,"adult":false},{"id":237054,"adult":false},{"id":54864,"adult":false},{"id":237058,"adult":false},{"id":236956,"adult":false},{"id":58458,"adult":false},{"id":236944,"adult":false},{"id":18359,"adult":false},{"id":145963,"adult":false},{"id":131039,"adult":false},{"id":236925,"adult":false},{"id":236929,"adult":false},{"id":153013,"adult":false},{"id":236688,"adult":false},{"id":33642,"adult":false},{"id":316362,"adult":false},{"id":47876,"adult":false},{"id":293471,"adult":false},{"id":17439,"adult":false},{"id":336503,"adult":false},{"id":125779,"adult":false},{"id":282897,"adult":false},{"id":69015,"adult":false},{"id":30149,"adult":false},{"id":85548,"adult":false},{"id":8424,"adult":false},{"id":305019,"adult":false},{"id":374459,"adult":false},{"id":260139,"adult":false},{"id":659,"adult":false},{"id":242090,"adult":false},{"id":327871,"adult":false},{"id":69668,"adult":false},{"id":374460,"adult":false},{"id":73499,"adult":false},{"id":273238,"adult":false},{"id":332903,"adult":false},{"id":159932,"adult":false},{"id":374461,"adult":false},{"id":374462,"adult":false},{"id":263597,"adult":false},{"id":328091,"adult":false},{"id":374463,"adult":null},{"id":55632,"adult":false},{"id":11650,"adult":false},{"id":374464,"adult":false},{"id":366446,"adult":null},{"id":267795,"adult":false},{"id":315439,"adult":false},{"id":9528,"adult":false},{"id":374465,"adult":false},{"id":278134,"adult":false},{"id":70807,"adult":false},{"id":266998,"adult":false},{"id":76544,"adult":false},{"id":42854,"adult":false},{"id":64343,"adult":false},{"id":304,"adult":false},{"id":45046,"adult":false},{"id":271884,"adult":false},{"id":24341,"adult":false},{"id":113673,"adult":true},{"id":45562,"adult":false},{"id":279027,"adult":false},{"id":45830,"adult":false},{"id":336681,"adult":false},{"id":168210,"adult":false},{"id":43147,"adult":false}],"page":103,"total_pages":108,"total_results":10739}