{"results":[{"id":93203,"adult":false},{"id":104528,"adult":false},{"id":143393,"adult":false},{"id":284557,"adult":false},{"id":227,"adult":false},{"id":325095,"adult":false},{"id":325096,"adult":false},{"id":11776,"adult":false},{"id":270302,"adult":false},{"id":66735,"adult":false},{"id":325097,"adult":false},{"id":56693,"adult":false},{"id":325098,"adult":false},{"id":207760,"adult":false},{"id":35992,"adult":false},{"id":325099,"adult":false},{"id":325100,"adult":false},{"id":268899,"adult":false},{"id":325101,"adult":false},{"id":300386,"adult":false},{"id":279808,"adult":false},{"id":214086,"adult":false},{"id":325102,"adult":false},{"id":129668,"adult":false},{"id":325103,"adult":false},{"id":70059,"adult":false},{"id":320318,"adult":false},{"id":276122,"adult":false},{"id":178,"adult":false},{"id":276720,"adult":false},{"id":325104,"adult":false},{"id":36992,"adult":false},{"id":184098,"adult":false},{"id":9340,"adult":false},{"id":306342,"adult":false},{"id":325105,"adult":false},{"id":13643,"adult":false},{"id":84995,"adult":false},{"id":12157,"adult":false},{"id":72241,"adult":false},{"id":8054,"adult":false},{"id":47874,"adult":false},{"id":325106,"adult":false},{"id":845,"adult":false},{"id":11236,"adult":false},{"id":10024,"adult":false},{"id":9331,"adult":false},{"id":52945,"adult":false},{"id":320703,"adult":false},{"id":325107,"adult":false},{"id":14117,"adult":false},{"id":87710,"adult":false},{"id":11130,"adult":false},{"id":228107,"adult":false},{"id":14442,"adult":false},{"id":166528,"adult":false},{"id":298692,"adult":false},{"id":325108,"adult":false},{"id":79396,"adult":false},{"id":166656,"adult":false},{"id":325109,"adult":false},{"id":2800,"adult":false},{"id":12508,"adult":false},{"id":325110,"adult":false},{"id":310,"adult":false},{"id":325111,"adult":false},{"id":15653,"adult":false},{"id":31718,"adult":false},{"id":100402,"adult":false},{"id":325112,"adult":false},{"id":52264,"adult":false},{"id":15789,"adult":false},{"id":931,"adult":false},{"id":325113,"adult":false},{"id":325115,"adult":false},{"id":319,"adult":false},{"id":120,"adult":false},{"id":343,"adult":false},{"id":62215,"adult":false},{"id":325116,"adult":false},{"id":107856,"adult":false},{"id":325117,"adult":false},{"id":315486,"adult":false},{"id":89008,"adult":false},{"id":62037,"adult":false},{"id":7980,"adult":false},{"id":325118,"adult":false},{"id":46503,"adult":false},{"id":260809,"adult":false},{"id":31299,"adult":false},{"id":85817,"adult":false},{"id":325119,"adult":false},{"id":4771,"adult":false},{"id":122,"adult":false},{"id":121,"adult":false},{"id":44450,"adult":false},{"id":277399,"adult":false},{"id":96399,"adult":false},{"id":294993,"adult":false},{"id":91813,"adult":false}],"page":105,"total_pages":117,"total_results":11629}