{"results":[{"id":345944,"adult":false},{"id":287497,"adult":false},{"id":23398,"adult":false},{"id":82650,"adult":false},{"id":257932,"adult":false},{"id":17938,"adult":false},{"id":277217,"adult":false},{"id":274104,"adult":false},{"id":25867,"adult":false},{"id":248698,"adult":false},{"id":277803,"adult":false},{"id":348419,"adult":false},{"id":11890,"adult":false},{"id":221064,"adult":false},{"id":308453,"adult":false},{"id":130938,"adult":false},{"id":348420,"adult":false},{"id":328610,"adult":false},{"id":117971,"adult":false},{"id":348421,"adult":false},{"id":23939,"adult":false},{"id":121835,"adult":false},{"id":10195,"adult":false},{"id":106378,"adult":false},{"id":298044,"adult":false},{"id":323421,"adult":false},{"id":348422,"adult":false},{"id":119861,"adult":false},{"id":2670,"adult":false},{"id":298571,"adult":false},{"id":55462,"adult":false},{"id":348423,"adult":false},{"id":348424,"adult":false},{"id":164966,"adult":false},{"id":225604,"adult":false},{"id":348425,"adult":false},{"id":32986,"adult":false},{"id":17481,"adult":false},{"id":1853,"adult":false},{"id":286452,"adult":false},{"id":6620,"adult":false},{"id":348426,"adult":false},{"id":348427,"adult":true},{"id":14643,"adult":false},{"id":346662,"adult":false},{"id":348428,"adult":false},{"id":183423,"adult":false},{"id":348429,"adult":false},{"id":149232,"adult":false},{"id":313962,"adult":false},{"id":82485,"adult":false},{"id":270672,"adult":false},{"id":41257,"adult":false},{"id":348430,"adult":false},{"id":348431,"adult":false},{"id":246655,"adult":false},{"id":348432,"adult":false},{"id":204002,"adult":false},{"id":348433,"adult":false},{"id":172847,"adult":false},{"id":340627,"adult":false},{"id":320125,"adult":false},{"id":250574,"adult":false},{"id":348434,"adult":false},{"id":348435,"adult":false},{"id":348436,"adult":false},{"id":13804,"adult":false},{"id":51497,"adult":false},{"id":348437,"adult":false},{"id":217708,"adult":false},{"id":26959,"adult":false},{"id":284379,"adult":false},{"id":28774,"adult":false},{"id":348438,"adult":false},{"id":338029,"adult":false},{"id":36762,"adult":false},{"id":220933,"adult":false},{"id":348439,"adult":null},{"id":277662,"adult":false},{"id":348440,"adult":false},{"id":348441,"adult":false},{"id":320733,"adult":null},{"id":12556,"adult":false},{"id":1587,"adult":false},{"id":287903,"adult":false},{"id":348442,"adult":null},{"id":227156,"adult":false},{"id":348443,"adult":false},{"id":319075,"adult":false},{"id":348444,"adult":false},{"id":348445,"adult":false},{"id":348446,"adult":false},{"id":348447,"adult":null},{"id":348448,"adult":null},{"id":222649,"adult":false},{"id":74116,"adult":false},{"id":4254,"adult":false},{"id":348450,"adult":false},{"id":120036,"adult":false},{"id":348451,"adult":false}],"page":77,"total_pages":86,"total_results":8586}