{"results":[{"id":369809,"adult":false},{"id":116351,"adult":false},{"id":1557,"adult":false},{"id":9263,"adult":false},{"id":62369,"adult":false},{"id":4823,"adult":false},{"id":27983,"adult":false},{"id":32117,"adult":false},{"id":16367,"adult":false},{"id":61667,"adult":false},{"id":12157,"adult":false},{"id":11624,"adult":false},{"id":209385,"adult":false},{"id":311288,"adult":false},{"id":369810,"adult":false},{"id":8074,"adult":false},{"id":369811,"adult":true},{"id":2161,"adult":false},{"id":1986,"adult":false},{"id":64965,"adult":false},{"id":363838,"adult":false},{"id":369812,"adult":false},{"id":204482,"adult":false},{"id":98977,"adult":false},{"id":329237,"adult":false},{"id":369813,"adult":false},{"id":319318,"adult":false},{"id":369814,"adult":null},{"id":91979,"adult":false},{"id":369815,"adult":false},{"id":12335,"adult":false},{"id":10072,"adult":false},{"id":313867,"adult":false},{"id":4995,"adult":false},{"id":14248,"adult":false},{"id":37094,"adult":false},{"id":1103,"adult":false},{"id":369816,"adult":false},{"id":27088,"adult":false},{"id":10061,"adult":false},{"id":317229,"adult":false},{"id":369817,"adult":false},{"id":14813,"adult":false},{"id":192729,"adult":false},{"id":251,"adult":false},{"id":319327,"adult":false},{"id":369818,"adult":false},{"id":43336,"adult":false},{"id":40015,"adult":false},{"id":62823,"adult":false},{"id":43407,"adult":false},{"id":44637,"adult":false},{"id":11377,"adult":false},{"id":76282,"adult":false},{"id":102152,"adult":false},{"id":202727,"adult":false},{"id":167,"adult":false},{"id":212891,"adult":false},{"id":115782,"adult":false},{"id":368585,"adult":false},{"id":31459,"adult":false},{"id":10660,"adult":false},{"id":22447,"adult":false},{"id":211557,"adult":false},{"id":37661,"adult":false},{"id":11652,"adult":false},{"id":209325,"adult":false},{"id":299582,"adult":false},{"id":22954,"adult":false},{"id":2731,"adult":false},{"id":6973,"adult":false},{"id":16140,"adult":false},{"id":220321,"adult":false},{"id":313945,"adult":false},{"id":199211,"adult":false},{"id":3515,"adult":false},{"id":190121,"adult":false},{"id":38923,"adult":false},{"id":41609,"adult":false},{"id":264654,"adult":false},{"id":4323,"adult":false},{"id":5820,"adult":false},{"id":149117,"adult":false},{"id":12524,"adult":false},{"id":48520,"adult":false},{"id":10021,"adult":false},{"id":17466,"adult":false},{"id":17170,"adult":false},{"id":12778,"adult":false},{"id":76851,"adult":false},{"id":76654,"adult":false},{"id":67817,"adult":false},{"id":11093,"adult":false},{"id":191587,"adult":false},{"id":199221,"adult":false},{"id":37319,"adult":false},{"id":24363,"adult":false},{"id":258004,"adult":false},{"id":199482,"adult":false},{"id":16208,"adult":false}],"page":76,"total_pages":101,"total_results":10039}