{"results":[{"id":45001,"adult":false},{"id":45002,"adult":false},{"id":45003,"adult":false},{"id":46387,"adult":false},{"id":46403,"adult":false},{"id":53804,"adult":false},{"id":44457,"adult":false},{"id":13986,"adult":false},{"id":79982,"adult":false},{"id":111978,"adult":false},{"id":134446,"adult":false},{"id":143976,"adult":false},{"id":346130,"adult":false},{"id":54971,"adult":false},{"id":60397,"adult":false},{"id":131775,"adult":false},{"id":132260,"adult":false},{"id":185640,"adult":false},{"id":143540,"adult":false},{"id":159090,"adult":false},{"id":238531,"adult":false},{"id":39347,"adult":false},{"id":290482,"adult":false},{"id":37822,"adult":false},{"id":37951,"adult":false},{"id":38253,"adult":false},{"id":38257,"adult":false},{"id":38302,"adult":false},{"id":41114,"adult":false},{"id":41518,"adult":false},{"id":298480,"adult":false},{"id":269598,"adult":false},{"id":95504,"adult":false},{"id":12602,"adult":false},{"id":34851,"adult":false},{"id":54485,"adult":false},{"id":287435,"adult":false},{"id":346131,"adult":false},{"id":27601,"adult":false},{"id":42323,"adult":false},{"id":43216,"adult":false},{"id":124042,"adult":false},{"id":44425,"adult":false},{"id":44549,"adult":false},{"id":44550,"adult":false},{"id":100871,"adult":false},{"id":44565,"adult":false},{"id":44566,"adult":false},{"id":44613,"adult":false},{"id":44910,"adult":false},{"id":44972,"adult":false},{"id":44978,"adult":false},{"id":196379,"adult":false},{"id":237334,"adult":false},{"id":236589,"adult":false},{"id":279991,"adult":false},{"id":65159,"adult":false},{"id":41902,"adult":false},{"id":303308,"adult":false},{"id":73110,"adult":false},{"id":127684,"adult":null},{"id":142412,"adult":false},{"id":143538,"adult":false},{"id":346132,"adult":false},{"id":329721,"adult":false},{"id":121010,"adult":false},{"id":346133,"adult":false},{"id":11518,"adult":false},{"id":58238,"adult":false},{"id":46385,"adult":false},{"id":114691,"adult":false},{"id":346134,"adult":false},{"id":301901,"adult":false},{"id":344123,"adult":false},{"id":346135,"adult":false},{"id":323925,"adult":false},{"id":346136,"adult":false},{"id":346137,"adult":false},{"id":22543,"adult":false},{"id":346138,"adult":false},{"id":2362,"adult":false},{"id":131940,"adult":false},{"id":161219,"adult":false},{"id":66713,"adult":false},{"id":166231,"adult":false},{"id":214022,"adult":false},{"id":4435,"adult":false},{"id":46430,"adult":false},{"id":64880,"adult":false},{"id":346139,"adult":false},{"id":80156,"adult":false},{"id":82575,"adult":false},{"id":113172,"adult":false},{"id":152035,"adult":false},{"id":210068,"adult":false},{"id":16227,"adult":false},{"id":166233,"adult":false},{"id":45316,"adult":false},{"id":46040,"adult":false},{"id":53283,"adult":false}],"page":86,"total_pages":111,"total_results":11023}