{"results":[{"id":92758,"adult":false},{"id":14811,"adult":false},{"id":31868,"adult":false},{"id":340663,"adult":false},{"id":48791,"adult":false},{"id":118802,"adult":false},{"id":147397,"adult":false},{"id":29414,"adult":false},{"id":370076,"adult":false},{"id":291757,"adult":false},{"id":664,"adult":false},{"id":9024,"adult":false},{"id":10338,"adult":false},{"id":19877,"adult":false},{"id":12778,"adult":false},{"id":38031,"adult":false},{"id":318093,"adult":false},{"id":322441,"adult":false},{"id":347096,"adult":false},{"id":370691,"adult":false},{"id":370692,"adult":false},{"id":327585,"adult":false},{"id":360069,"adult":false},{"id":298436,"adult":false},{"id":353798,"adult":true},{"id":43522,"adult":false},{"id":46738,"adult":false},{"id":195143,"adult":false},{"id":9322,"adult":false},{"id":4415,"adult":false},{"id":8870,"adult":false},{"id":337192,"adult":false},{"id":353595,"adult":false},{"id":76289,"adult":false},{"id":368017,"adult":false},{"id":370693,"adult":false},{"id":309581,"adult":false},{"id":280163,"adult":false},{"id":26872,"adult":false},{"id":13739,"adult":false},{"id":14542,"adult":false},{"id":13007,"adult":false},{"id":370694,"adult":false},{"id":9404,"adult":false},{"id":324450,"adult":false},{"id":370695,"adult":false},{"id":368285,"adult":false},{"id":300155,"adult":false},{"id":370696,"adult":false},{"id":370463,"adult":false},{"id":272693,"adult":false},{"id":370697,"adult":false},{"id":65759,"adult":false},{"id":9836,"adult":false},{"id":302429,"adult":false},{"id":370698,"adult":false},{"id":370699,"adult":false},{"id":255343,"adult":false},{"id":370700,"adult":false},{"id":370701,"adult":false},{"id":370702,"adult":false},{"id":339669,"adult":false},{"id":370703,"adult":false},{"id":370704,"adult":false},{"id":370705,"adult":false},{"id":254470,"adult":false},{"id":257346,"adult":false},{"id":370706,"adult":false},{"id":354246,"adult":false},{"id":353485,"adult":false},{"id":323694,"adult":false},{"id":370707,"adult":false},{"id":370708,"adult":false},{"id":370709,"adult":false},{"id":68712,"adult":false},{"id":302397,"adult":null},{"id":177677,"adult":false},{"id":370710,"adult":false},{"id":214756,"adult":false},{"id":9703,"adult":false},{"id":2031,"adult":false},{"id":38575,"adult":false},{"id":43931,"adult":false},{"id":6630,"adult":false},{"id":10536,"adult":false},{"id":256591,"adult":false},{"id":125509,"adult":false},{"id":9005,"adult":false},{"id":5353,"adult":false},{"id":195124,"adult":false},{"id":2440,"adult":false},{"id":101999,"adult":false},{"id":365073,"adult":false},{"id":41733,"adult":false},{"id":70954,"adult":false},{"id":156717,"adult":false},{"id":131631,"adult":false},{"id":131634,"adult":false},{"id":101299,"adult":false},{"id":266396,"adult":false}],"page":4,"total_pages":97,"total_results":9613}