{"results":[{"id":212778,"adult":false},{"id":4248,"adult":false},{"id":4256,"adult":false},{"id":261375,"adult":false},{"id":4257,"adult":false},{"id":8424,"adult":false},{"id":694,"adult":false},{"id":318385,"adult":false},{"id":318386,"adult":false},{"id":4232,"adult":false},{"id":4233,"adult":false},{"id":4234,"adult":false},{"id":115551,"adult":false},{"id":805,"adult":false},{"id":318387,"adult":false},{"id":84987,"adult":false},{"id":318388,"adult":false},{"id":318389,"adult":false},{"id":25556,"adult":false},{"id":10659,"adult":false},{"id":97370,"adult":false},{"id":11459,"adult":false},{"id":7862,"adult":false},{"id":2300,"adult":false},{"id":115,"adult":false},{"id":106067,"adult":false},{"id":252838,"adult":false},{"id":318390,"adult":false},{"id":269060,"adult":false},{"id":36265,"adult":false},{"id":1371,"adult":false},{"id":300176,"adult":false},{"id":318391,"adult":false},{"id":1374,"adult":false},{"id":318392,"adult":false},{"id":5751,"adult":false},{"id":1368,"adult":false},{"id":317622,"adult":false},{"id":60906,"adult":false},{"id":25741,"adult":false},{"id":318205,"adult":false},{"id":250467,"adult":false},{"id":1572,"adult":false},{"id":73218,"adult":false},{"id":16290,"adult":false},{"id":1375,"adult":false},{"id":11918,"adult":false},{"id":10186,"adult":false},{"id":127560,"adult":false},{"id":231,"adult":false},{"id":18,"adult":false},{"id":18487,"adult":false},{"id":266880,"adult":false},{"id":64320,"adult":false},{"id":318393,"adult":false},{"id":67900,"adult":false},{"id":16929,"adult":false},{"id":18775,"adult":false},{"id":1246,"adult":false},{"id":84058,"adult":false},{"id":153329,"adult":false},{"id":308324,"adult":false},{"id":221731,"adult":false},{"id":272852,"adult":false},{"id":25894,"adult":false},{"id":317747,"adult":false},{"id":317745,"adult":false},{"id":317746,"adult":false},{"id":318394,"adult":false},{"id":318395,"adult":false},{"id":318396,"adult":false},{"id":318397,"adult":null},{"id":318398,"adult":false},{"id":318399,"adult":false},{"id":318400,"adult":false},{"id":285689,"adult":false},{"id":318401,"adult":false},{"id":318402,"adult":false},{"id":318403,"adult":false},{"id":126783,"adult":false},{"id":318404,"adult":false},{"id":318405,"adult":false},{"id":318406,"adult":false},{"id":241239,"adult":false},{"id":318407,"adult":false},{"id":318408,"adult":false},{"id":318409,"adult":false},{"id":318410,"adult":false},{"id":318411,"adult":false},{"id":318412,"adult":false},{"id":318413,"adult":false},{"id":318414,"adult":false},{"id":318415,"adult":false},{"id":318416,"adult":false},{"id":97638,"adult":false},{"id":318417,"adult":false},{"id":33539,"adult":false},{"id":318418,"adult":false},{"id":25858,"adult":false},{"id":318419,"adult":false}],"page":6,"total_pages":120,"total_results":11995}