{"results":[{"id":187590,"adult":false},{"id":336166,"adult":false},{"id":359524,"adult":false},{"id":359525,"adult":false},{"id":356380,"adult":false},{"id":359526,"adult":false},{"id":359527,"adult":false},{"id":298589,"adult":false},{"id":313821,"adult":false},{"id":313745,"adult":false},{"id":359528,"adult":false},{"id":313743,"adult":false},{"id":313645,"adult":false},{"id":17898,"adult":false},{"id":313644,"adult":false},{"id":313643,"adult":false},{"id":313635,"adult":false},{"id":313614,"adult":false},{"id":243840,"adult":false},{"id":13966,"adult":false},{"id":359529,"adult":false},{"id":313593,"adult":false},{"id":313538,"adult":false},{"id":313537,"adult":false},{"id":313536,"adult":false},{"id":313535,"adult":false},{"id":313512,"adult":false},{"id":313505,"adult":false},{"id":313293,"adult":false},{"id":313292,"adult":false},{"id":313291,"adult":false},{"id":308921,"adult":false},{"id":305720,"adult":false},{"id":264667,"adult":false},{"id":264661,"adult":false},{"id":264658,"adult":false},{"id":264651,"adult":false},{"id":264634,"adult":false},{"id":264630,"adult":false},{"id":264629,"adult":false},{"id":264534,"adult":false},{"id":359530,"adult":true},{"id":86035,"adult":false},{"id":359531,"adult":false},{"id":744,"adult":false},{"id":32160,"adult":false},{"id":13702,"adult":false},{"id":31214,"adult":false},{"id":87827,"adult":false},{"id":125436,"adult":false},{"id":35253,"adult":false},{"id":25634,"adult":false},{"id":21072,"adult":false},{"id":296491,"adult":false},{"id":81888,"adult":false},{"id":337484,"adult":false},{"id":359532,"adult":false},{"id":181984,"adult":false},{"id":132363,"adult":false},{"id":109424,"adult":false},{"id":1283,"adult":false},{"id":295401,"adult":false},{"id":39210,"adult":false},{"id":303857,"adult":false},{"id":72559,"adult":false},{"id":11665,"adult":false},{"id":124905,"adult":false},{"id":60109,"adult":false},{"id":359533,"adult":true},{"id":109418,"adult":false},{"id":223954,"adult":false},{"id":108693,"adult":false},{"id":359534,"adult":null},{"id":187868,"adult":false},{"id":245649,"adult":false},{"id":359535,"adult":false},{"id":17124,"adult":false},{"id":52996,"adult":false},{"id":127327,"adult":false},{"id":191504,"adult":false},{"id":2262,"adult":false},{"id":359536,"adult":false},{"id":359537,"adult":true},{"id":2048,"adult":false},{"id":11594,"adult":false},{"id":221731,"adult":false},{"id":359538,"adult":false},{"id":168026,"adult":false},{"id":256106,"adult":false},{"id":193173,"adult":false},{"id":359539,"adult":false},{"id":7453,"adult":false},{"id":359540,"adult":false},{"id":31162,"adult":false},{"id":114635,"adult":false},{"id":11067,"adult":false},{"id":342758,"adult":false},{"id":252,"adult":false},{"id":248781,"adult":false},{"id":54257,"adult":false}],"page":103,"total_pages":112,"total_results":11114}