{"results":[{"id":362223,"adult":false},{"id":353022,"adult":null},{"id":316269,"adult":false},{"id":71041,"adult":false},{"id":42789,"adult":false},{"id":40140,"adult":false},{"id":362224,"adult":false},{"id":68855,"adult":false},{"id":5484,"adult":false},{"id":5994,"adult":false},{"id":168259,"adult":false},{"id":82992,"adult":false},{"id":215763,"adult":false},{"id":183292,"adult":false},{"id":10340,"adult":false},{"id":56718,"adult":false},{"id":249376,"adult":false},{"id":348,"adult":false},{"id":362225,"adult":false},{"id":10669,"adult":false},{"id":11230,"adult":false},{"id":639,"adult":false},{"id":9426,"adult":false},{"id":11816,"adult":false},{"id":362226,"adult":false},{"id":360387,"adult":false},{"id":189043,"adult":false},{"id":189042,"adult":false},{"id":835,"adult":false},{"id":222505,"adult":false},{"id":36819,"adult":false},{"id":362227,"adult":false},{"id":339937,"adult":false},{"id":954,"adult":false},{"id":73625,"adult":false},{"id":8068,"adult":false},{"id":362228,"adult":false},{"id":956,"adult":false},{"id":215065,"adult":false},{"id":56292,"adult":false},{"id":362229,"adult":false},{"id":177677,"adult":false},{"id":17927,"adult":false},{"id":268685,"adult":false},{"id":299117,"adult":false},{"id":68605,"adult":false},{"id":21245,"adult":false},{"id":7268,"adult":false},{"id":150084,"adult":false},{"id":362230,"adult":false},{"id":11228,"adult":false},{"id":2320,"adult":false},{"id":6950,"adult":false},{"id":219335,"adult":false},{"id":10357,"adult":false},{"id":7863,"adult":false},{"id":362231,"adult":false},{"id":9208,"adult":false},{"id":76461,"adult":false},{"id":362233,"adult":false},{"id":56126,"adult":false},{"id":293202,"adult":false},{"id":138890,"adult":false},{"id":978,"adult":false},{"id":9377,"adult":false},{"id":335573,"adult":false},{"id":14236,"adult":false},{"id":812,"adult":false},{"id":278311,"adult":false},{"id":38940,"adult":false},{"id":87101,"adult":false},{"id":361795,"adult":null},{"id":36555,"adult":false},{"id":32049,"adult":false},{"id":9381,"adult":false},{"id":238751,"adult":false},{"id":225703,"adult":false},{"id":59053,"adult":false},{"id":15969,"adult":false},{"id":258864,"adult":false},{"id":85154,"adult":false},{"id":38059,"adult":false},{"id":20523,"adult":false},{"id":362234,"adult":false},{"id":362235,"adult":false},{"id":11238,"adult":false},{"id":11326,"adult":false},{"id":362236,"adult":false},{"id":359243,"adult":false},{"id":338729,"adult":false},{"id":361297,"adult":false},{"id":44961,"adult":false},{"id":242167,"adult":false},{"id":101,"adult":false},{"id":1441,"adult":false},{"id":328,"adult":false},{"id":314555,"adult":false},{"id":935,"adult":false},{"id":10,"adult":false},{"id":133121,"adult":false}],"page":8,"total_pages":108,"total_results":10774}