{"results":[{"id":190754,"adult":false},{"id":304137,"adult":false},{"id":12149,"adult":false},{"id":311078,"adult":false},{"id":297526,"adult":false},{"id":340964,"adult":null},{"id":344195,"adult":false},{"id":344196,"adult":false},{"id":344197,"adult":false},{"id":321750,"adult":false},{"id":344198,"adult":false},{"id":24860,"adult":false},{"id":10136,"adult":false},{"id":344199,"adult":false},{"id":47985,"adult":false},{"id":157073,"adult":false},{"id":75023,"adult":false},{"id":18141,"adult":false},{"id":114750,"adult":false},{"id":329376,"adult":false},{"id":136568,"adult":false},{"id":331894,"adult":false},{"id":31507,"adult":false},{"id":295561,"adult":false},{"id":344200,"adult":false},{"id":18983,"adult":false},{"id":43172,"adult":false},{"id":344201,"adult":false},{"id":173842,"adult":false},{"id":68960,"adult":false},{"id":196287,"adult":false},{"id":132,"adult":false},{"id":198943,"adult":false},{"id":232196,"adult":false},{"id":272027,"adult":false},{"id":344202,"adult":false},{"id":226673,"adult":false},{"id":28176,"adult":false},{"id":111432,"adult":false},{"id":46503,"adult":false},{"id":326228,"adult":false},{"id":46368,"adult":false},{"id":68212,"adult":false},{"id":273070,"adult":false},{"id":1843,"adult":false},{"id":17124,"adult":false},{"id":39474,"adult":false},{"id":230214,"adult":false},{"id":344203,"adult":false},{"id":138906,"adult":false},{"id":86996,"adult":false},{"id":228203,"adult":false},{"id":344204,"adult":false},{"id":323029,"adult":false},{"id":344205,"adult":false},{"id":344206,"adult":false},{"id":280002,"adult":false},{"id":307405,"adult":false},{"id":55949,"adult":false},{"id":43092,"adult":false},{"id":344207,"adult":false},{"id":110689,"adult":false},{"id":68873,"adult":false},{"id":4348,"adult":false},{"id":203801,"adult":false},{"id":344208,"adult":false},{"id":93837,"adult":false},{"id":284200,"adult":false},{"id":324289,"adult":false},{"id":180499,"adult":false},{"id":344209,"adult":false},{"id":109614,"adult":false},{"id":344210,"adult":false},{"id":83461,"adult":false},{"id":37861,"adult":false},{"id":138513,"adult":false},{"id":120759,"adult":false},{"id":70131,"adult":false},{"id":344211,"adult":false},{"id":22454,"adult":false},{"id":344212,"adult":false},{"id":72701,"adult":false},{"id":266882,"adult":false},{"id":226338,"adult":false},{"id":55779,"adult":false},{"id":344213,"adult":false},{"id":215208,"adult":false},{"id":17099,"adult":false},{"id":344214,"adult":false},{"id":344215,"adult":false},{"id":27511,"adult":false},{"id":242093,"adult":false},{"id":38398,"adult":false},{"id":25195,"adult":false},{"id":320589,"adult":false},{"id":319096,"adult":false},{"id":344216,"adult":false},{"id":344217,"adult":false},{"id":268693,"adult":false},{"id":344218,"adult":false}],"page":82,"total_pages":95,"total_results":9488}