{"results":[{"id":54752,"adult":false},{"id":363105,"adult":false},{"id":14460,"adult":false},{"id":37840,"adult":false},{"id":72559,"adult":false},{"id":3525,"adult":false},{"id":363106,"adult":false},{"id":51991,"adult":false},{"id":280140,"adult":false},{"id":330770,"adult":false},{"id":363107,"adult":false},{"id":44656,"adult":false},{"id":275049,"adult":false},{"id":296875,"adult":false},{"id":298690,"adult":false},{"id":242747,"adult":false},{"id":298438,"adult":false},{"id":138713,"adult":false},{"id":193523,"adult":false},{"id":356846,"adult":false},{"id":8997,"adult":false},{"id":333167,"adult":false},{"id":10147,"adult":false},{"id":48650,"adult":false},{"id":363108,"adult":false},{"id":114588,"adult":false},{"id":352275,"adult":false},{"id":91239,"adult":false},{"id":35072,"adult":false},{"id":17708,"adult":false},{"id":157663,"adult":false},{"id":72442,"adult":false},{"id":748,"adult":false},{"id":312576,"adult":false},{"id":40420,"adult":false},{"id":46510,"adult":false},{"id":46260,"adult":false},{"id":97256,"adult":null},{"id":67178,"adult":false},{"id":9507,"adult":false},{"id":363109,"adult":false},{"id":363110,"adult":false},{"id":40682,"adult":false},{"id":363111,"adult":false},{"id":43092,"adult":false},{"id":363112,"adult":false},{"id":27207,"adult":false},{"id":285848,"adult":false},{"id":284722,"adult":false},{"id":2031,"adult":false},{"id":363113,"adult":false},{"id":289865,"adult":false},{"id":363114,"adult":false},{"id":363115,"adult":false},{"id":356801,"adult":false},{"id":326988,"adult":false},{"id":87472,"adult":false},{"id":267967,"adult":false},{"id":289023,"adult":false},{"id":361736,"adult":false},{"id":43923,"adult":false},{"id":363116,"adult":false},{"id":270081,"adult":false},{"id":42637,"adult":false},{"id":15876,"adult":false},{"id":75352,"adult":false},{"id":360898,"adult":false},{"id":199798,"adult":false},{"id":276758,"adult":false},{"id":273719,"adult":false},{"id":361448,"adult":null},{"id":246127,"adult":false},{"id":352209,"adult":false},{"id":17030,"adult":false},{"id":64864,"adult":false},{"id":362065,"adult":false},{"id":36430,"adult":false},{"id":250066,"adult":false},{"id":294862,"adult":false},{"id":279800,"adult":false},{"id":57601,"adult":false},{"id":31819,"adult":false},{"id":20156,"adult":false},{"id":11174,"adult":false},{"id":53419,"adult":false},{"id":363117,"adult":false},{"id":284052,"adult":false},{"id":299536,"adult":false},{"id":299534,"adult":false},{"id":363118,"adult":false},{"id":46417,"adult":false},{"id":348094,"adult":false},{"id":33016,"adult":false},{"id":363119,"adult":false},{"id":242112,"adult":false},{"id":270349,"adult":false},{"id":75896,"adult":false},{"id":363120,"adult":false},{"id":44749,"adult":false},{"id":82085,"adult":false}],"page":60,"total_pages":108,"total_results":10774}