{"results":[{"id":211387,"adult":false},{"id":119569,"adult":false},{"id":253980,"adult":false},{"id":334164,"adult":null},{"id":110420,"adult":false},{"id":337906,"adult":false},{"id":347966,"adult":false},{"id":347967,"adult":false},{"id":239342,"adult":false},{"id":162577,"adult":false},{"id":265297,"adult":false},{"id":164572,"adult":false},{"id":343371,"adult":false},{"id":308194,"adult":false},{"id":103640,"adult":false},{"id":331217,"adult":false},{"id":235704,"adult":false},{"id":167458,"adult":false},{"id":238010,"adult":false},{"id":2285,"adult":false},{"id":280690,"adult":false},{"id":182669,"adult":false},{"id":287767,"adult":false},{"id":259099,"adult":false},{"id":127498,"adult":false},{"id":134038,"adult":false},{"id":293876,"adult":false},{"id":289191,"adult":false},{"id":189366,"adult":false},{"id":187098,"adult":false},{"id":116706,"adult":false},{"id":223212,"adult":false},{"id":63265,"adult":false},{"id":153561,"adult":false},{"id":114446,"adult":false},{"id":264127,"adult":false},{"id":287859,"adult":false},{"id":151389,"adult":false},{"id":52943,"adult":false},{"id":285803,"adult":false},{"id":45316,"adult":false},{"id":323407,"adult":false},{"id":125175,"adult":false},{"id":225614,"adult":false},{"id":325896,"adult":false},{"id":228092,"adult":false},{"id":224293,"adult":false},{"id":89987,"adult":false},{"id":177369,"adult":false},{"id":308449,"adult":false},{"id":12201,"adult":false},{"id":347968,"adult":false},{"id":335327,"adult":false},{"id":347969,"adult":false},{"id":329556,"adult":false},{"id":130322,"adult":false},{"id":49979,"adult":false},{"id":347970,"adult":false},{"id":263341,"adult":false},{"id":214256,"adult":false},{"id":70642,"adult":false},{"id":304809,"adult":false},{"id":36888,"adult":false},{"id":347971,"adult":false},{"id":156465,"adult":false},{"id":347972,"adult":false},{"id":306966,"adult":false},{"id":294012,"adult":false},{"id":294652,"adult":false},{"id":285697,"adult":false},{"id":136779,"adult":false},{"id":296,"adult":false},{"id":54588,"adult":false},{"id":12102,"adult":false},{"id":347973,"adult":false},{"id":37757,"adult":false},{"id":37309,"adult":false},{"id":1497,"adult":false},{"id":315590,"adult":false},{"id":19794,"adult":false},{"id":347974,"adult":false},{"id":333878,"adult":null},{"id":347975,"adult":false},{"id":347976,"adult":false},{"id":288256,"adult":false},{"id":305636,"adult":false},{"id":338037,"adult":false},{"id":321659,"adult":false},{"id":103997,"adult":false},{"id":296130,"adult":false},{"id":135175,"adult":false},{"id":347977,"adult":true},{"id":44012,"adult":false},{"id":347978,"adult":false},{"id":335658,"adult":true},{"id":335670,"adult":true},{"id":347979,"adult":false},{"id":268131,"adult":false},{"id":294057,"adult":null},{"id":294058,"adult":null}],"page":53,"total_pages":86,"total_results":8586}