{"results":[{"id":295399,"adult":null},{"id":49292,"adult":false},{"id":246403,"adult":false},{"id":278876,"adult":false},{"id":4437,"adult":false},{"id":9697,"adult":false},{"id":364898,"adult":false},{"id":23830,"adult":false},{"id":9262,"adult":false},{"id":321160,"adult":false},{"id":364899,"adult":false},{"id":168366,"adult":false},{"id":7551,"adult":false},{"id":306952,"adult":false},{"id":343284,"adult":false},{"id":171274,"adult":false},{"id":45045,"adult":false},{"id":191185,"adult":false},{"id":361596,"adult":false},{"id":16643,"adult":false},{"id":364900,"adult":false},{"id":17403,"adult":false},{"id":228970,"adult":false},{"id":256835,"adult":false},{"id":8966,"adult":false},{"id":76492,"adult":false},{"id":65596,"adult":false},{"id":46195,"adult":false},{"id":83900,"adult":false},{"id":294254,"adult":false},{"id":158150,"adult":false},{"id":213,"adult":false},{"id":9552,"adult":false},{"id":325421,"adult":false},{"id":539,"adult":false},{"id":285581,"adult":false},{"id":1164,"adult":false},{"id":142,"adult":false},{"id":73990,"adult":false},{"id":2567,"adult":false},{"id":590,"adult":false},{"id":14141,"adult":false},{"id":210204,"adult":false},{"id":53404,"adult":false},{"id":170039,"adult":false},{"id":364901,"adult":false},{"id":33459,"adult":false},{"id":28503,"adult":false},{"id":3509,"adult":false},{"id":364902,"adult":false},{"id":58397,"adult":false},{"id":20174,"adult":false},{"id":117726,"adult":false},{"id":68476,"adult":false},{"id":74698,"adult":false},{"id":100529,"adult":false},{"id":296065,"adult":false},{"id":333088,"adult":false},{"id":133403,"adult":false},{"id":16857,"adult":false},{"id":303857,"adult":false},{"id":82700,"adult":false},{"id":11496,"adult":false},{"id":644,"adult":false},{"id":11548,"adult":false},{"id":41128,"adult":false},{"id":640,"adult":false},{"id":1907,"adult":false},{"id":69792,"adult":false},{"id":41962,"adult":false},{"id":16005,"adult":false},{"id":44943,"adult":false},{"id":20264,"adult":false},{"id":44833,"adult":false},{"id":164825,"adult":false},{"id":60869,"adult":false},{"id":24452,"adult":false},{"id":258480,"adult":false},{"id":3683,"adult":false},{"id":282631,"adult":false},{"id":128111,"adult":false},{"id":79392,"adult":false},{"id":79125,"adult":false},{"id":940,"adult":false},{"id":276168,"adult":false},{"id":349334,"adult":false},{"id":260565,"adult":false},{"id":65335,"adult":false},{"id":57687,"adult":false},{"id":319861,"adult":false},{"id":28736,"adult":false},{"id":32613,"adult":false},{"id":68477,"adult":false},{"id":31183,"adult":false},{"id":340382,"adult":false},{"id":336026,"adult":false},{"id":20874,"adult":false},{"id":33333,"adult":false},{"id":14564,"adult":false},{"id":364903,"adult":false}],"page":47,"total_pages":85,"total_results":8453}