{"results":[{"id":2923,"adult":false},{"id":77174,"adult":false},{"id":287233,"adult":false},{"id":70355,"adult":false},{"id":6878,"adult":false},{"id":343481,"adult":false},{"id":10942,"adult":false},{"id":343244,"adult":false},{"id":374247,"adult":false},{"id":342821,"adult":false},{"id":374248,"adult":false},{"id":16428,"adult":false},{"id":70354,"adult":false},{"id":859,"adult":false},{"id":11016,"adult":false},{"id":374249,"adult":false},{"id":309242,"adult":false},{"id":374250,"adult":false},{"id":10488,"adult":false},{"id":374251,"adult":false},{"id":374252,"adult":false},{"id":10396,"adult":false},{"id":301056,"adult":false},{"id":96648,"adult":false},{"id":50162,"adult":false},{"id":374253,"adult":false},{"id":374254,"adult":false},{"id":7840,"adult":false},{"id":374255,"adult":false},{"id":10804,"adult":false},{"id":374256,"adult":false},{"id":15903,"adult":false},{"id":22160,"adult":false},{"id":296394,"adult":false},{"id":209350,"adult":false},{"id":222796,"adult":false},{"id":50495,"adult":false},{"id":9573,"adult":false},{"id":92698,"adult":false},{"id":8065,"adult":false},{"id":2022,"adult":false},{"id":272548,"adult":false},{"id":62177,"adult":false},{"id":12154,"adult":false},{"id":322700,"adult":null},{"id":32998,"adult":false},{"id":13056,"adult":false},{"id":363476,"adult":false},{"id":36670,"adult":false},{"id":226486,"adult":false},{"id":48846,"adult":false},{"id":11630,"adult":false},{"id":237804,"adult":false},{"id":253331,"adult":false},{"id":8736,"adult":false},{"id":137235,"adult":false},{"id":185457,"adult":false},{"id":310516,"adult":false},{"id":125606,"adult":false},{"id":225781,"adult":false},{"id":223202,"adult":false},{"id":15925,"adult":false},{"id":79221,"adult":false},{"id":769,"adult":false},{"id":19809,"adult":false},{"id":206135,"adult":false},{"id":74192,"adult":false},{"id":22301,"adult":false},{"id":374257,"adult":false},{"id":48117,"adult":false},{"id":374258,"adult":false},{"id":1620,"adult":false},{"id":772,"adult":false},{"id":44560,"adult":false},{"id":21376,"adult":false},{"id":323661,"adult":false},{"id":91419,"adult":false},{"id":31456,"adult":false},{"id":31510,"adult":false},{"id":374259,"adult":false},{"id":229173,"adult":false},{"id":374260,"adult":false},{"id":55604,"adult":false},{"id":267860,"adult":false},{"id":293788,"adult":false},{"id":186531,"adult":false},{"id":374261,"adult":false},{"id":246037,"adult":false},{"id":61862,"adult":false},{"id":223805,"adult":false},{"id":250639,"adult":false},{"id":59,"adult":false},{"id":293778,"adult":false},{"id":56946,"adult":false},{"id":163230,"adult":false},{"id":374262,"adult":false},{"id":6282,"adult":false},{"id":1257,"adult":false},{"id":8054,"adult":false},{"id":72602,"adult":false}],"page":93,"total_pages":108,"total_results":10739}