{"results":[{"id":364127,"adult":false},{"id":333585,"adult":null},{"id":109706,"adult":false},{"id":321673,"adult":false},{"id":86,"adult":false},{"id":19457,"adult":false},{"id":364128,"adult":false},{"id":364129,"adult":false},{"id":53566,"adult":false},{"id":280996,"adult":false},{"id":282984,"adult":false},{"id":146121,"adult":false},{"id":201085,"adult":false},{"id":115665,"adult":false},{"id":364130,"adult":true},{"id":356161,"adult":false},{"id":26645,"adult":false},{"id":347408,"adult":null},{"id":364131,"adult":false},{"id":319534,"adult":false},{"id":364132,"adult":false},{"id":301348,"adult":false},{"id":61026,"adult":true},{"id":364133,"adult":true},{"id":266647,"adult":false},{"id":363440,"adult":false},{"id":364134,"adult":false},{"id":241257,"adult":false},{"id":364135,"adult":false},{"id":336996,"adult":false},{"id":84852,"adult":false},{"id":156632,"adult":false},{"id":1957,"adult":false},{"id":39865,"adult":false},{"id":295964,"adult":false},{"id":351192,"adult":false},{"id":40440,"adult":false},{"id":253161,"adult":false},{"id":144444,"adult":false},{"id":364136,"adult":false},{"id":364137,"adult":false},{"id":364138,"adult":false},{"id":329682,"adult":false},{"id":284293,"adult":false},{"id":259954,"adult":false},{"id":234200,"adult":false},{"id":140823,"adult":false},{"id":205220,"adult":false},{"id":295592,"adult":false},{"id":147773,"adult":false},{"id":84892,"adult":false},{"id":117691,"adult":false},{"id":64720,"adult":false},{"id":61202,"adult":false},{"id":364139,"adult":false},{"id":245168,"adult":false},{"id":44264,"adult":false},{"id":47931,"adult":false},{"id":44716,"adult":false},{"id":322,"adult":false},{"id":363640,"adult":false},{"id":144648,"adult":false},{"id":235,"adult":false},{"id":218043,"adult":false},{"id":209247,"adult":false},{"id":19223,"adult":false},{"id":454,"adult":false},{"id":50359,"adult":false},{"id":747,"adult":false},{"id":19994,"adult":false},{"id":6114,"adult":false},{"id":1448,"adult":false},{"id":357096,"adult":false},{"id":207768,"adult":false},{"id":364140,"adult":false},{"id":567,"adult":false},{"id":272878,"adult":false},{"id":310,"adult":false},{"id":279608,"adult":false},{"id":9297,"adult":false},{"id":13223,"adult":false},{"id":45515,"adult":false},{"id":364141,"adult":false},{"id":364142,"adult":true},{"id":364143,"adult":false},{"id":364144,"adult":false},{"id":22549,"adult":false},{"id":9489,"adult":false},{"id":364145,"adult":true},{"id":95767,"adult":false},{"id":343611,"adult":false},{"id":324552,"adult":false},{"id":364146,"adult":false},{"id":364147,"adult":true},{"id":72545,"adult":false},{"id":9543,"adult":false},{"id":364148,"adult":false},{"id":6282,"adult":false},{"id":199879,"adult":false},{"id":273746,"adult":false}],"page":8,"total_pages":85,"total_results":8453}