{"results":[{"id":44936,"adult":false},{"id":204802,"adult":false},{"id":133145,"adult":false},{"id":194485,"adult":false},{"id":117478,"adult":false},{"id":42229,"adult":false},{"id":107424,"adult":false},{"id":11333,"adult":false},{"id":198474,"adult":false},{"id":77356,"adult":false},{"id":48210,"adult":false},{"id":44658,"adult":false},{"id":58187,"adult":false},{"id":45799,"adult":false},{"id":47432,"adult":false},{"id":104394,"adult":false},{"id":67446,"adult":false},{"id":15360,"adult":false},{"id":113629,"adult":false},{"id":77571,"adult":false},{"id":327618,"adult":true},{"id":42281,"adult":false},{"id":179519,"adult":false},{"id":104644,"adult":false},{"id":184933,"adult":false},{"id":316798,"adult":false},{"id":36949,"adult":false},{"id":327621,"adult":false},{"id":70386,"adult":false},{"id":39262,"adult":false},{"id":28720,"adult":false},{"id":327622,"adult":false},{"id":42869,"adult":false},{"id":51447,"adult":false},{"id":20000,"adult":false},{"id":40221,"adult":false},{"id":17443,"adult":false},{"id":162321,"adult":false},{"id":307710,"adult":false},{"id":195269,"adult":false},{"id":297608,"adult":false},{"id":76349,"adult":false},{"id":25893,"adult":false},{"id":57222,"adult":false},{"id":89455,"adult":false},{"id":327623,"adult":false},{"id":327624,"adult":false},{"id":327625,"adult":false},{"id":10204,"adult":false},{"id":153122,"adult":false},{"id":327626,"adult":false},{"id":327627,"adult":false},{"id":327628,"adult":false},{"id":8224,"adult":false},{"id":327629,"adult":false},{"id":3132,"adult":false},{"id":644,"adult":false},{"id":59857,"adult":false},{"id":180859,"adult":false},{"id":244478,"adult":false},{"id":39567,"adult":false},{"id":306264,"adult":false},{"id":327630,"adult":false},{"id":327631,"adult":false},{"id":14019,"adult":false},{"id":327632,"adult":false},{"id":11633,"adult":false},{"id":225086,"adult":false},{"id":1586,"adult":false},{"id":242546,"adult":false},{"id":327633,"adult":false},{"id":50081,"adult":false},{"id":215638,"adult":false},{"id":56942,"adult":false},{"id":327634,"adult":false},{"id":327635,"adult":false},{"id":11104,"adult":false},{"id":7916,"adult":false},{"id":327636,"adult":false},{"id":26963,"adult":false},{"id":25968,"adult":false},{"id":149871,"adult":false},{"id":325311,"adult":false},{"id":775,"adult":false},{"id":327637,"adult":false},{"id":9799,"adult":false},{"id":790,"adult":false},{"id":327638,"adult":false},{"id":11575,"adult":false},{"id":327640,"adult":false},{"id":18274,"adult":false},{"id":327641,"adult":false},{"id":218395,"adult":false},{"id":227878,"adult":false},{"id":327642,"adult":false},{"id":25451,"adult":false},{"id":16186,"adult":false},{"id":327643,"adult":false},{"id":230842,"adult":false},{"id":253465,"adult":false}],"page":109,"total_pages":112,"total_results":11193}