{"results":[{"id":117779,"adult":false},{"id":319388,"adult":false},{"id":54075,"adult":false},{"id":319389,"adult":false},{"id":42171,"adult":false},{"id":118695,"adult":false},{"id":319390,"adult":false},{"id":319391,"adult":false},{"id":319392,"adult":false},{"id":291672,"adult":false},{"id":319393,"adult":false},{"id":135416,"adult":false},{"id":45559,"adult":false},{"id":319394,"adult":false},{"id":319395,"adult":false},{"id":56034,"adult":false},{"id":16418,"adult":false},{"id":35018,"adult":false},{"id":319396,"adult":false},{"id":87038,"adult":false},{"id":85514,"adult":false},{"id":48946,"adult":false},{"id":319397,"adult":false},{"id":319398,"adult":false},{"id":5485,"adult":false},{"id":15167,"adult":false},{"id":38867,"adult":false},{"id":41682,"adult":false},{"id":221,"adult":false},{"id":15016,"adult":false},{"id":291545,"adult":false},{"id":319399,"adult":false},{"id":319400,"adult":false},{"id":319401,"adult":false},{"id":319402,"adult":false},{"id":319403,"adult":false},{"id":319404,"adult":false},{"id":262507,"adult":false},{"id":319405,"adult":false},{"id":319406,"adult":false},{"id":319407,"adult":false},{"id":133676,"adult":false},{"id":319408,"adult":false},{"id":319409,"adult":false},{"id":18198,"adult":false},{"id":30706,"adult":false},{"id":319410,"adult":false},{"id":9776,"adult":false},{"id":319411,"adult":false},{"id":429,"adult":false},{"id":319412,"adult":false},{"id":319413,"adult":false},{"id":319414,"adult":false},{"id":319415,"adult":false},{"id":214019,"adult":false},{"id":319416,"adult":false},{"id":319417,"adult":false},{"id":319418,"adult":false},{"id":319419,"adult":false},{"id":319420,"adult":false},{"id":319421,"adult":false},{"id":319422,"adult":null},{"id":319423,"adult":false},{"id":47218,"adult":false},{"id":319424,"adult":false},{"id":319425,"adult":false},{"id":319426,"adult":false},{"id":319427,"adult":false},{"id":319428,"adult":false},{"id":319429,"adult":false},{"id":319430,"adult":false},{"id":319431,"adult":false},{"id":319432,"adult":false},{"id":319433,"adult":false},{"id":319434,"adult":false},{"id":319435,"adult":false},{"id":298055,"adult":false},{"id":319436,"adult":false},{"id":319437,"adult":false},{"id":319438,"adult":false},{"id":319439,"adult":false},{"id":319440,"adult":false},{"id":319441,"adult":false},{"id":319442,"adult":false},{"id":319443,"adult":null},{"id":248847,"adult":false},{"id":319444,"adult":false},{"id":319445,"adult":false},{"id":319446,"adult":false},{"id":319447,"adult":false},{"id":319448,"adult":false},{"id":148833,"adult":false},{"id":319449,"adult":false},{"id":40219,"adult":false},{"id":319450,"adult":false},{"id":319451,"adult":false},{"id":1579,"adult":false},{"id":319452,"adult":false},{"id":184125,"adult":false},{"id":166655,"adult":false}],"page":43,"total_pages":120,"total_results":11995}