{"results":[{"id":351859,"adult":false},{"id":351860,"adult":false},{"id":67447,"adult":false},{"id":293379,"adult":false},{"id":351861,"adult":false},{"id":242806,"adult":false},{"id":287785,"adult":false},{"id":256687,"adult":false},{"id":351862,"adult":false},{"id":351863,"adult":false},{"id":73654,"adult":null},{"id":287347,"adult":false},{"id":4886,"adult":false},{"id":168525,"adult":false},{"id":117098,"adult":false},{"id":13755,"adult":false},{"id":205601,"adult":false},{"id":211581,"adult":false},{"id":351864,"adult":false},{"id":35144,"adult":false},{"id":24174,"adult":false},{"id":47430,"adult":false},{"id":351865,"adult":false},{"id":257396,"adult":false},{"id":227719,"adult":false},{"id":1492,"adult":false},{"id":351867,"adult":false},{"id":283666,"adult":false},{"id":51649,"adult":false},{"id":351868,"adult":false},{"id":101660,"adult":false},{"id":332267,"adult":false},{"id":139775,"adult":false},{"id":224393,"adult":false},{"id":351869,"adult":false},{"id":67172,"adult":false},{"id":91698,"adult":false},{"id":351870,"adult":false},{"id":140468,"adult":false},{"id":345530,"adult":null},{"id":248131,"adult":null},{"id":351871,"adult":false},{"id":351872,"adult":false},{"id":82126,"adult":false},{"id":164142,"adult":false},{"id":78235,"adult":false},{"id":53219,"adult":false},{"id":351873,"adult":false},{"id":210498,"adult":false},{"id":308264,"adult":false},{"id":58035,"adult":false},{"id":351874,"adult":false},{"id":319066,"adult":false},{"id":351875,"adult":null},{"id":12495,"adult":false},{"id":351876,"adult":false},{"id":61980,"adult":false},{"id":103516,"adult":false},{"id":8072,"adult":false},{"id":351877,"adult":false},{"id":4935,"adult":false},{"id":10510,"adult":false},{"id":9619,"adult":false},{"id":351879,"adult":false},{"id":31906,"adult":false},{"id":26963,"adult":false},{"id":201085,"adult":false},{"id":101030,"adult":false},{"id":351880,"adult":false},{"id":346666,"adult":false},{"id":11575,"adult":false},{"id":351881,"adult":false},{"id":188927,"adult":false},{"id":14294,"adult":false},{"id":351882,"adult":false},{"id":142415,"adult":false},{"id":13101,"adult":false},{"id":107671,"adult":false},{"id":208039,"adult":false},{"id":351883,"adult":false},{"id":116360,"adult":false},{"id":48343,"adult":false},{"id":67793,"adult":false},{"id":351884,"adult":false},{"id":112636,"adult":false},{"id":351885,"adult":false},{"id":346963,"adult":false},{"id":221044,"adult":false},{"id":351886,"adult":false},{"id":40645,"adult":false},{"id":351887,"adult":false},{"id":351888,"adult":false},{"id":40697,"adult":false},{"id":10912,"adult":false},{"id":9331,"adult":false},{"id":351889,"adult":false},{"id":116363,"adult":false},{"id":40457,"adult":false},{"id":149981,"adult":false},{"id":67702,"adult":false}],"page":101,"total_pages":103,"total_results":10231}