{"results":[{"id":10313,"adult":false},{"id":254,"adult":false},{"id":315736,"adult":false},{"id":9007,"adult":false},{"id":271434,"adult":false},{"id":275450,"adult":false},{"id":742,"adult":false},{"id":38757,"adult":false},{"id":337277,"adult":false},{"id":270758,"adult":false},{"id":161751,"adult":false},{"id":357806,"adult":false},{"id":349032,"adult":false},{"id":344530,"adult":false},{"id":271853,"adult":false},{"id":72115,"adult":false},{"id":2493,"adult":false},{"id":354770,"adult":false},{"id":276862,"adult":false},{"id":324397,"adult":false},{"id":327223,"adult":false},{"id":51067,"adult":false},{"id":199374,"adult":false},{"id":26655,"adult":false},{"id":354296,"adult":false},{"id":303973,"adult":false},{"id":332613,"adult":false},{"id":314002,"adult":false},{"id":307443,"adult":false},{"id":265195,"adult":false},{"id":2105,"adult":false},{"id":337279,"adult":false},{"id":172229,"adult":false},{"id":122906,"adult":false},{"id":19154,"adult":false},{"id":309781,"adult":false},{"id":24182,"adult":false},{"id":239342,"adult":false},{"id":239450,"adult":false},{"id":54462,"adult":false},{"id":13167,"adult":false},{"id":52592,"adult":false},{"id":330544,"adult":false},{"id":320992,"adult":false},{"id":64381,"adult":false},{"id":116988,"adult":false},{"id":22577,"adult":false},{"id":357807,"adult":false},{"id":15121,"adult":false},{"id":39166,"adult":false},{"id":224237,"adult":false},{"id":213052,"adult":false},{"id":357808,"adult":false},{"id":17074,"adult":false},{"id":19274,"adult":false},{"id":331647,"adult":false},{"id":53129,"adult":false},{"id":14646,"adult":false},{"id":39839,"adult":false},{"id":30069,"adult":false},{"id":128372,"adult":false},{"id":86604,"adult":false},{"id":357811,"adult":false},{"id":352208,"adult":false},{"id":58278,"adult":false},{"id":13853,"adult":false},{"id":357812,"adult":false},{"id":255151,"adult":false},{"id":268711,"adult":false},{"id":288998,"adult":false},{"id":357813,"adult":false},{"id":8668,"adult":false},{"id":357814,"adult":false},{"id":200481,"adult":false},{"id":357815,"adult":false},{"id":357816,"adult":false},{"id":266061,"adult":false},{"id":357817,"adult":false},{"id":357818,"adult":false},{"id":24480,"adult":false},{"id":90926,"adult":false},{"id":357819,"adult":false},{"id":357820,"adult":false},{"id":44247,"adult":false},{"id":101731,"adult":false},{"id":357821,"adult":false},{"id":357822,"adult":false},{"id":357823,"adult":false},{"id":289293,"adult":false},{"id":60860,"adult":false},{"id":357824,"adult":false},{"id":357825,"adult":false},{"id":357826,"adult":false},{"id":357827,"adult":false},{"id":357828,"adult":false},{"id":357829,"adult":false},{"id":357830,"adult":false},{"id":357831,"adult":false},{"id":357832,"adult":false},{"id":357833,"adult":false}],"page":28,"total_pages":112,"total_results":11114}