{"results":[{"id":64792,"adult":false},{"id":22172,"adult":false},{"id":75543,"adult":false},{"id":24037,"adult":false},{"id":266883,"adult":false},{"id":16882,"adult":false},{"id":140972,"adult":false},{"id":23730,"adult":false},{"id":10847,"adult":false},{"id":71494,"adult":false},{"id":265016,"adult":false},{"id":341020,"adult":false},{"id":332467,"adult":false},{"id":341021,"adult":false},{"id":104768,"adult":false},{"id":341022,"adult":false},{"id":49017,"adult":false},{"id":341023,"adult":false},{"id":14906,"adult":false},{"id":341024,"adult":false},{"id":191502,"adult":false},{"id":14573,"adult":false},{"id":186970,"adult":false},{"id":280612,"adult":false},{"id":38050,"adult":false},{"id":24825,"adult":false},{"id":40720,"adult":false},{"id":10670,"adult":false},{"id":20343,"adult":false},{"id":76649,"adult":false},{"id":326660,"adult":false},{"id":46929,"adult":false},{"id":9583,"adult":false},{"id":10176,"adult":false},{"id":21734,"adult":false},{"id":273914,"adult":false},{"id":341025,"adult":false},{"id":86845,"adult":false},{"id":44635,"adult":false},{"id":2074,"adult":false},{"id":200511,"adult":false},{"id":26936,"adult":false},{"id":333596,"adult":false},{"id":15947,"adult":false},{"id":44546,"adult":false},{"id":180098,"adult":false},{"id":1623,"adult":false},{"id":9008,"adult":false},{"id":341026,"adult":false},{"id":127105,"adult":false},{"id":113983,"adult":false},{"id":341027,"adult":false},{"id":339871,"adult":false},{"id":341028,"adult":false},{"id":329289,"adult":false},{"id":145214,"adult":false},{"id":27585,"adult":false},{"id":235594,"adult":false},{"id":20650,"adult":false},{"id":17473,"adult":false},{"id":78478,"adult":false},{"id":341029,"adult":false},{"id":260513,"adult":false},{"id":283256,"adult":false},{"id":275318,"adult":false},{"id":1265,"adult":false},{"id":341030,"adult":false},{"id":99895,"adult":false},{"id":341031,"adult":false},{"id":341032,"adult":false},{"id":9283,"adult":false},{"id":233112,"adult":false},{"id":66253,"adult":false},{"id":271840,"adult":false},{"id":327362,"adult":false},{"id":187927,"adult":false},{"id":299250,"adult":false},{"id":341033,"adult":false},{"id":78672,"adult":false},{"id":341034,"adult":false},{"id":146223,"adult":false},{"id":267109,"adult":false},{"id":279881,"adult":false},{"id":341035,"adult":false},{"id":45431,"adult":false},{"id":143044,"adult":false},{"id":8095,"adult":false},{"id":66257,"adult":false},{"id":4347,"adult":false},{"id":69618,"adult":false},{"id":48231,"adult":false},{"id":2,"adult":false},{"id":332492,"adult":false},{"id":36658,"adult":false},{"id":39072,"adult":false},{"id":326441,"adult":false},{"id":69518,"adult":false},{"id":341036,"adult":false},{"id":23638,"adult":false},{"id":28053,"adult":false}],"page":50,"total_pages":103,"total_results":10276}