{"results":[{"id":366565,"adult":false},{"id":318846,"adult":false},{"id":257629,"adult":false},{"id":267567,"adult":false},{"id":253436,"adult":false},{"id":296100,"adult":false},{"id":70984,"adult":false},{"id":227973,"adult":false},{"id":366566,"adult":false},{"id":332321,"adult":false},{"id":338247,"adult":true},{"id":2609,"adult":false},{"id":301728,"adult":false},{"id":364832,"adult":false},{"id":349185,"adult":false},{"id":366567,"adult":false},{"id":327221,"adult":false},{"id":14452,"adult":false},{"id":195804,"adult":false},{"id":366568,"adult":false},{"id":145916,"adult":false},{"id":565,"adult":false},{"id":45012,"adult":true},{"id":9798,"adult":false},{"id":366569,"adult":false},{"id":353315,"adult":null},{"id":292674,"adult":false},{"id":366570,"adult":false},{"id":366571,"adult":false},{"id":64388,"adult":false},{"id":280728,"adult":false},{"id":366572,"adult":false},{"id":17832,"adult":false},{"id":366573,"adult":false},{"id":280691,"adult":false},{"id":351241,"adult":false},{"id":106747,"adult":false},{"id":149608,"adult":false},{"id":321779,"adult":false},{"id":53959,"adult":false},{"id":366574,"adult":false},{"id":28580,"adult":false},{"id":21990,"adult":false},{"id":366575,"adult":false},{"id":354524,"adult":false},{"id":366576,"adult":false},{"id":167153,"adult":false},{"id":77356,"adult":false},{"id":116,"adult":false},{"id":156472,"adult":false},{"id":329116,"adult":false},{"id":366577,"adult":false},{"id":340275,"adult":false},{"id":366578,"adult":false},{"id":366579,"adult":false},{"id":366580,"adult":false},{"id":33371,"adult":false},{"id":346838,"adult":false},{"id":55984,"adult":false},{"id":366581,"adult":false},{"id":244114,"adult":false},{"id":63959,"adult":false},{"id":366582,"adult":false},{"id":366583,"adult":false},{"id":62654,"adult":false},{"id":366584,"adult":false},{"id":14149,"adult":false},{"id":309302,"adult":false},{"id":771,"adult":false},{"id":287509,"adult":false},{"id":354607,"adult":false},{"id":338901,"adult":false},{"id":317049,"adult":false},{"id":59478,"adult":true},{"id":155277,"adult":false},{"id":364895,"adult":false},{"id":11979,"adult":false},{"id":366585,"adult":false},{"id":366586,"adult":false},{"id":267480,"adult":false},{"id":67730,"adult":false},{"id":341106,"adult":false},{"id":14325,"adult":false},{"id":1398,"adult":false},{"id":366587,"adult":false},{"id":98622,"adult":false},{"id":366588,"adult":false},{"id":366589,"adult":false},{"id":3080,"adult":false},{"id":362884,"adult":false},{"id":361746,"adult":false},{"id":44295,"adult":false},{"id":325843,"adult":false},{"id":283840,"adult":false},{"id":82682,"adult":false},{"id":295964,"adult":false},{"id":27643,"adult":false},{"id":362820,"adult":false},{"id":87502,"adult":false},{"id":162215,"adult":false}],"page":23,"total_pages":108,"total_results":10787}