{"results":[{"id":149887,"adult":false},{"id":42438,"adult":false},{"id":140896,"adult":false},{"id":323998,"adult":false},{"id":335611,"adult":false},{"id":290824,"adult":false},{"id":67465,"adult":false},{"id":10990,"adult":false},{"id":335612,"adult":false},{"id":307946,"adult":false},{"id":335613,"adult":false},{"id":651,"adult":false},{"id":694,"adult":false},{"id":335614,"adult":false},{"id":335615,"adult":false},{"id":143652,"adult":false},{"id":229515,"adult":true},{"id":241740,"adult":true},{"id":333346,"adult":false},{"id":335616,"adult":false},{"id":277,"adult":false},{"id":26440,"adult":false},{"id":62796,"adult":false},{"id":205912,"adult":false},{"id":335617,"adult":false},{"id":335618,"adult":false},{"id":335619,"adult":false},{"id":249021,"adult":false},{"id":335620,"adult":false},{"id":49938,"adult":false},{"id":335621,"adult":false},{"id":331451,"adult":false},{"id":335622,"adult":false},{"id":81556,"adult":false},{"id":31203,"adult":false},{"id":13056,"adult":false},{"id":335623,"adult":false},{"id":331963,"adult":false},{"id":335624,"adult":false},{"id":222899,"adult":false},{"id":335625,"adult":false},{"id":329364,"adult":null},{"id":5820,"adult":false},{"id":335626,"adult":false},{"id":182228,"adult":false},{"id":4245,"adult":false},{"id":136418,"adult":false},{"id":175485,"adult":false},{"id":14623,"adult":false},{"id":86829,"adult":false},{"id":18333,"adult":false},{"id":146823,"adult":false},{"id":244506,"adult":false},{"id":151027,"adult":false},{"id":159817,"adult":false},{"id":329839,"adult":false},{"id":335627,"adult":false},{"id":335628,"adult":null},{"id":37034,"adult":false},{"id":30497,"adult":false},{"id":1731,"adult":false},{"id":335629,"adult":false},{"id":335630,"adult":false},{"id":308456,"adult":false},{"id":157321,"adult":false},{"id":10197,"adult":false},{"id":66602,"adult":false},{"id":335631,"adult":false},{"id":335632,"adult":false},{"id":335633,"adult":false},{"id":335634,"adult":false},{"id":66594,"adult":null},{"id":335635,"adult":false},{"id":307293,"adult":false},{"id":226819,"adult":false},{"id":235011,"adult":false},{"id":70843,"adult":false},{"id":332919,"adult":false},{"id":146466,"adult":false},{"id":311018,"adult":false},{"id":68194,"adult":false},{"id":100364,"adult":false},{"id":234761,"adult":false},{"id":234974,"adult":false},{"id":235134,"adult":false},{"id":156454,"adult":false},{"id":234459,"adult":false},{"id":234696,"adult":false},{"id":207921,"adult":false},{"id":226810,"adult":false},{"id":98,"adult":false},{"id":234881,"adult":false},{"id":235169,"adult":false},{"id":237368,"adult":false},{"id":236000,"adult":false},{"id":208115,"adult":false},{"id":335636,"adult":null},{"id":335637,"adult":false},{"id":335638,"adult":false},{"id":234538,"adult":false}],"page":97,"total_pages":100,"total_results":9923}