{"results":[{"id":35731,"adult":false},{"id":336474,"adult":false},{"id":64124,"adult":false},{"id":134014,"adult":false},{"id":19065,"adult":false},{"id":598,"adult":false},{"id":300600,"adult":false},{"id":8904,"adult":false},{"id":25376,"adult":false},{"id":341745,"adult":false},{"id":17414,"adult":false},{"id":346,"adult":false},{"id":341746,"adult":true},{"id":334198,"adult":false},{"id":71277,"adult":false},{"id":277454,"adult":false},{"id":4998,"adult":false},{"id":72286,"adult":false},{"id":85489,"adult":false},{"id":65442,"adult":false},{"id":36015,"adult":false},{"id":17417,"adult":false},{"id":38099,"adult":false},{"id":17418,"adult":false},{"id":231171,"adult":false},{"id":15742,"adult":false},{"id":208478,"adult":false},{"id":17486,"adult":false},{"id":17658,"adult":false},{"id":33450,"adult":false},{"id":17659,"adult":false},{"id":36253,"adult":false},{"id":629,"adult":false},{"id":47440,"adult":false},{"id":128056,"adult":false},{"id":7295,"adult":false},{"id":17669,"adult":false},{"id":129308,"adult":false},{"id":12628,"adult":false},{"id":204046,"adult":false},{"id":24398,"adult":false},{"id":341747,"adult":false},{"id":17959,"adult":false},{"id":187383,"adult":false},{"id":104867,"adult":false},{"id":112949,"adult":false},{"id":324230,"adult":true},{"id":10779,"adult":false},{"id":47046,"adult":false},{"id":18122,"adult":false},{"id":341748,"adult":false},{"id":96611,"adult":false},{"id":138318,"adult":false},{"id":3049,"adult":false},{"id":2061,"adult":false},{"id":11328,"adult":false},{"id":11330,"adult":false},{"id":289,"adult":false},{"id":177699,"adult":false},{"id":341749,"adult":false},{"id":16113,"adult":false},{"id":203910,"adult":false},{"id":9946,"adult":false},{"id":9346,"adult":false},{"id":48009,"adult":false},{"id":9319,"adult":false},{"id":126250,"adult":false},{"id":10861,"adult":false},{"id":77175,"adult":false},{"id":341750,"adult":false},{"id":129,"adult":false},{"id":70435,"adult":false},{"id":979,"adult":false},{"id":32590,"adult":false},{"id":9025,"adult":false},{"id":901,"adult":false},{"id":1364,"adult":false},{"id":91010,"adult":false},{"id":23990,"adult":false},{"id":56321,"adult":false},{"id":59317,"adult":false},{"id":539,"adult":false},{"id":65296,"adult":false},{"id":10652,"adult":false},{"id":257657,"adult":true},{"id":27776,"adult":true},{"id":102780,"adult":false},{"id":567,"adult":false},{"id":38003,"adult":false},{"id":14847,"adult":false},{"id":61751,"adult":false},{"id":1567,"adult":false},{"id":77338,"adult":false},{"id":299847,"adult":false},{"id":46783,"adult":false},{"id":3082,"adult":false},{"id":8982,"adult":false},{"id":341751,"adult":false},{"id":125862,"adult":false},{"id":36956,"adult":false}],"page":81,"total_pages":103,"total_results":10276}