{"results":[{"id":289302,"adult":false},{"id":10386,"adult":false},{"id":15993,"adult":false},{"id":13376,"adult":false},{"id":10715,"adult":false},{"id":10214,"adult":false},{"id":51162,"adult":false},{"id":270029,"adult":false},{"id":256051,"adult":false},{"id":17578,"adult":false},{"id":334210,"adult":false},{"id":334211,"adult":false},{"id":334212,"adult":false},{"id":33419,"adult":false},{"id":273438,"adult":false},{"id":328060,"adult":false},{"id":186039,"adult":null},{"id":334213,"adult":false},{"id":334214,"adult":false},{"id":331467,"adult":false},{"id":14596,"adult":false},{"id":329880,"adult":false},{"id":212769,"adult":false},{"id":14002,"adult":false},{"id":11004,"adult":false},{"id":334215,"adult":false},{"id":330039,"adult":false},{"id":334216,"adult":false},{"id":268035,"adult":false},{"id":52596,"adult":false},{"id":334217,"adult":false},{"id":11832,"adult":false},{"id":24930,"adult":false},{"id":123649,"adult":false},{"id":290857,"adult":false},{"id":334218,"adult":false},{"id":334219,"adult":false},{"id":47264,"adult":false},{"id":84022,"adult":false},{"id":334220,"adult":false},{"id":43028,"adult":false},{"id":6917,"adult":false},{"id":202949,"adult":null},{"id":83601,"adult":false},{"id":25227,"adult":null},{"id":334221,"adult":false},{"id":334222,"adult":false},{"id":13378,"adult":false},{"id":140403,"adult":false},{"id":323027,"adult":false},{"id":334223,"adult":false},{"id":333373,"adult":false},{"id":63973,"adult":false},{"id":166685,"adult":false},{"id":40437,"adult":false},{"id":334224,"adult":false},{"id":334225,"adult":false},{"id":98586,"adult":false},{"id":334226,"adult":false},{"id":333039,"adult":false},{"id":77966,"adult":false},{"id":4704,"adult":false},{"id":334227,"adult":false},{"id":334228,"adult":false},{"id":235046,"adult":false},{"id":334229,"adult":false},{"id":334230,"adult":false},{"id":331930,"adult":false},{"id":299660,"adult":false},{"id":11065,"adult":false},{"id":6968,"adult":false},{"id":334231,"adult":false},{"id":13401,"adult":false},{"id":184704,"adult":false},{"id":334232,"adult":false},{"id":24192,"adult":false},{"id":334233,"adult":false},{"id":36691,"adult":false},{"id":334234,"adult":false},{"id":252190,"adult":false},{"id":47760,"adult":false},{"id":188758,"adult":false},{"id":91333,"adult":false},{"id":334235,"adult":false},{"id":11077,"adult":false},{"id":52555,"adult":false},{"id":28499,"adult":false},{"id":329537,"adult":false},{"id":334236,"adult":false},{"id":72479,"adult":false},{"id":334237,"adult":false},{"id":299650,"adult":false},{"id":10660,"adult":false},{"id":884,"adult":false},{"id":204046,"adult":false},{"id":109421,"adult":false},{"id":27581,"adult":false},{"id":333363,"adult":false},{"id":14451,"adult":false},{"id":20236,"adult":false}],"page":32,"total_pages":100,"total_results":9923}