{"results":[{"id":311193,"adult":false},{"id":314988,"adult":false},{"id":317275,"adult":false},{"id":261823,"adult":false},{"id":320755,"adult":false},{"id":14069,"adult":false},{"id":333962,"adult":false},{"id":334903,"adult":false},{"id":339119,"adult":false},{"id":345691,"adult":false},{"id":340941,"adult":false},{"id":62881,"adult":false},{"id":85795,"adult":false},{"id":75533,"adult":false},{"id":75896,"adult":false},{"id":83190,"adult":false},{"id":85445,"adult":false},{"id":91797,"adult":false},{"id":205401,"adult":false},{"id":63375,"adult":false},{"id":345692,"adult":false},{"id":65538,"adult":false},{"id":68029,"adult":false},{"id":76138,"adult":false},{"id":76164,"adult":false},{"id":26881,"adult":false},{"id":107242,"adult":false},{"id":116198,"adult":false},{"id":146533,"adult":false},{"id":26883,"adult":false},{"id":26031,"adult":false},{"id":345693,"adult":false},{"id":210588,"adult":false},{"id":59868,"adult":false},{"id":61705,"adult":false},{"id":63376,"adult":false},{"id":63897,"adult":false},{"id":1885,"adult":false},{"id":64399,"adult":false},{"id":65803,"adult":false},{"id":71429,"adult":false},{"id":72180,"adult":false},{"id":278319,"adult":false},{"id":74472,"adult":false},{"id":76305,"adult":false},{"id":139476,"adult":false},{"id":76333,"adult":false},{"id":77863,"adult":false},{"id":79063,"adult":false},{"id":79843,"adult":false},{"id":81136,"adult":false},{"id":81273,"adult":false},{"id":81377,"adult":false},{"id":81722,"adult":false},{"id":22178,"adult":false},{"id":345694,"adult":false},{"id":81853,"adult":false},{"id":280268,"adult":false},{"id":82281,"adult":false},{"id":83048,"adult":false},{"id":335707,"adult":false},{"id":83725,"adult":false},{"id":86712,"adult":false},{"id":98477,"adult":false},{"id":87332,"adult":false},{"id":10881,"adult":false},{"id":89261,"adult":false},{"id":89941,"adult":false},{"id":95916,"adult":false},{"id":96001,"adult":false},{"id":106715,"adult":false},{"id":119172,"adult":false},{"id":279144,"adult":false},{"id":121072,"adult":false},{"id":8856,"adult":false},{"id":188194,"adult":false},{"id":221482,"adult":false},{"id":221640,"adult":false},{"id":225179,"adult":false},{"id":229946,"adult":false},{"id":242501,"adult":false},{"id":43228,"adult":false},{"id":245363,"adult":false},{"id":263931,"adult":false},{"id":303694,"adult":false},{"id":1955,"adult":false},{"id":10495,"adult":false},{"id":344056,"adult":false},{"id":54549,"adult":false},{"id":56991,"adult":false},{"id":19378,"adult":false},{"id":57239,"adult":false},{"id":58333,"adult":false},{"id":58858,"adult":false},{"id":62657,"adult":false},{"id":11231,"adult":false},{"id":63241,"adult":false},{"id":65303,"adult":false},{"id":65647,"adult":false},{"id":65881,"adult":false}],"page":61,"total_pages":111,"total_results":11023}