{"results":[{"id":51300,"adult":false},{"id":241306,"adult":false},{"id":75244,"adult":false},{"id":316187,"adult":false},{"id":316188,"adult":false},{"id":316189,"adult":false},{"id":316190,"adult":false},{"id":303903,"adult":false},{"id":316191,"adult":false},{"id":65296,"adult":false},{"id":27067,"adult":false},{"id":316192,"adult":false},{"id":316193,"adult":false},{"id":56147,"adult":false},{"id":316194,"adult":false},{"id":187893,"adult":null},{"id":316195,"adult":false},{"id":40345,"adult":false},{"id":316196,"adult":false},{"id":295222,"adult":false},{"id":316198,"adult":false},{"id":85876,"adult":false},{"id":96751,"adult":false},{"id":316199,"adult":false},{"id":316200,"adult":false},{"id":272330,"adult":false},{"id":316201,"adult":false},{"id":316202,"adult":false},{"id":316203,"adult":false},{"id":87906,"adult":false},{"id":316204,"adult":false},{"id":58473,"adult":false},{"id":32330,"adult":false},{"id":256667,"adult":false},{"id":271176,"adult":false},{"id":107254,"adult":false},{"id":134196,"adult":false},{"id":316205,"adult":false},{"id":316206,"adult":false},{"id":35381,"adult":false},{"id":316207,"adult":false},{"id":44048,"adult":false},{"id":85133,"adult":false},{"id":316208,"adult":false},{"id":220404,"adult":false},{"id":177902,"adult":false},{"id":316209,"adult":false},{"id":316210,"adult":false},{"id":316211,"adult":false},{"id":184346,"adult":false},{"id":257354,"adult":false},{"id":67532,"adult":false},{"id":2252,"adult":false},{"id":316212,"adult":false},{"id":313827,"adult":false},{"id":316213,"adult":false},{"id":286230,"adult":false},{"id":96413,"adult":false},{"id":316214,"adult":false},{"id":316215,"adult":false},{"id":316216,"adult":false},{"id":316217,"adult":null},{"id":297399,"adult":false},{"id":316218,"adult":false},{"id":252852,"adult":false},{"id":316219,"adult":false},{"id":490,"adult":false},{"id":316220,"adult":false},{"id":316221,"adult":false},{"id":172752,"adult":false},{"id":139648,"adult":false},{"id":293643,"adult":false},{"id":184876,"adult":false},{"id":316222,"adult":false},{"id":201648,"adult":false},{"id":91968,"adult":false},{"id":44943,"adult":false},{"id":210736,"adult":false},{"id":217693,"adult":false},{"id":316223,"adult":false},{"id":183869,"adult":false},{"id":242747,"adult":false},{"id":178772,"adult":false},{"id":84247,"adult":false},{"id":87876,"adult":false},{"id":125636,"adult":false},{"id":316224,"adult":false},{"id":201049,"adult":false},{"id":198568,"adult":false},{"id":181439,"adult":false},{"id":316225,"adult":false},{"id":138774,"adult":false},{"id":171507,"adult":false},{"id":45117,"adult":false},{"id":203992,"adult":false},{"id":174066,"adult":false},{"id":194578,"adult":false},{"id":282487,"adult":false},{"id":273241,"adult":false},{"id":147637,"adult":false}],"page":59,"total_pages":115,"total_results":11442}