{"results":[{"id":334074,"adult":false},{"id":339815,"adult":false},{"id":9353,"adult":false},{"id":268171,"adult":false},{"id":339816,"adult":null},{"id":190588,"adult":false},{"id":12171,"adult":false},{"id":290547,"adult":false},{"id":183277,"adult":false},{"id":339817,"adult":false},{"id":336196,"adult":false},{"id":339818,"adult":false},{"id":263132,"adult":false},{"id":67308,"adult":false},{"id":326306,"adult":null},{"id":23023,"adult":false},{"id":326304,"adult":null},{"id":10660,"adult":false},{"id":326308,"adult":false},{"id":297150,"adult":false},{"id":267854,"adult":false},{"id":104441,"adult":false},{"id":92591,"adult":false},{"id":308638,"adult":false},{"id":284689,"adult":false},{"id":326309,"adult":null},{"id":19833,"adult":false},{"id":25763,"adult":false},{"id":167817,"adult":false},{"id":78194,"adult":false},{"id":173491,"adult":false},{"id":178696,"adult":false},{"id":214690,"adult":false},{"id":96623,"adult":false},{"id":339819,"adult":false},{"id":285898,"adult":false},{"id":40713,"adult":false},{"id":58752,"adult":false},{"id":28827,"adult":false},{"id":21664,"adult":false},{"id":8738,"adult":false},{"id":339820,"adult":false},{"id":332211,"adult":null},{"id":1833,"adult":false},{"id":339821,"adult":true},{"id":20457,"adult":false},{"id":68,"adult":false},{"id":339822,"adult":null},{"id":339823,"adult":false},{"id":245069,"adult":false},{"id":306127,"adult":null},{"id":258071,"adult":false},{"id":206751,"adult":false},{"id":194733,"adult":false},{"id":69602,"adult":false},{"id":139035,"adult":false},{"id":339824,"adult":false},{"id":40670,"adult":false},{"id":204922,"adult":false},{"id":9693,"adult":false},{"id":339825,"adult":false},{"id":13571,"adult":false},{"id":339826,"adult":false},{"id":155294,"adult":false},{"id":204678,"adult":false},{"id":21011,"adult":false},{"id":121598,"adult":false},{"id":339827,"adult":false},{"id":4148,"adult":false},{"id":262959,"adult":false},{"id":329138,"adult":false},{"id":194734,"adult":false},{"id":339828,"adult":false},{"id":39441,"adult":false},{"id":54970,"adult":false},{"id":277880,"adult":false},{"id":310558,"adult":false},{"id":339829,"adult":false},{"id":339830,"adult":false},{"id":59117,"adult":false},{"id":280256,"adult":false},{"id":280260,"adult":false},{"id":339831,"adult":false},{"id":195865,"adult":false},{"id":84178,"adult":false},{"id":339832,"adult":false},{"id":44359,"adult":false},{"id":339833,"adult":null},{"id":339834,"adult":false},{"id":66375,"adult":false},{"id":44026,"adult":false},{"id":1988,"adult":false},{"id":339835,"adult":false},{"id":274954,"adult":false},{"id":13199,"adult":false},{"id":216752,"adult":false},{"id":66384,"adult":false},{"id":309581,"adult":false},{"id":66372,"adult":false},{"id":339836,"adult":false}],"page":93,"total_pages":106,"total_results":10547}