{"results":[{"id":36331,"adult":false},{"id":10195,"adult":false},{"id":76535,"adult":false},{"id":303122,"adult":false},{"id":315667,"adult":false},{"id":315668,"adult":false},{"id":315669,"adult":false},{"id":315670,"adult":false},{"id":315671,"adult":false},{"id":49462,"adult":false},{"id":84799,"adult":false},{"id":181550,"adult":false},{"id":315672,"adult":false},{"id":315674,"adult":null},{"id":315675,"adult":false},{"id":58543,"adult":false},{"id":262904,"adult":false},{"id":11370,"adult":false},{"id":51992,"adult":false},{"id":9559,"adult":false},{"id":87093,"adult":false},{"id":20481,"adult":false},{"id":171274,"adult":false},{"id":1786,"adult":false},{"id":1280,"adult":false},{"id":286006,"adult":false},{"id":315676,"adult":false},{"id":315677,"adult":false},{"id":240073,"adult":false},{"id":42238,"adult":false},{"id":61791,"adult":false},{"id":315678,"adult":false},{"id":315680,"adult":null},{"id":315681,"adult":false},{"id":227348,"adult":false},{"id":1023,"adult":false},{"id":76203,"adult":false},{"id":315682,"adult":false},{"id":13448,"adult":false},{"id":315683,"adult":true},{"id":314996,"adult":false},{"id":205504,"adult":false},{"id":134597,"adult":false},{"id":284326,"adult":false},{"id":209130,"adult":true},{"id":32053,"adult":false},{"id":89072,"adult":false},{"id":192,"adult":false},{"id":186023,"adult":false},{"id":261615,"adult":false},{"id":16367,"adult":false},{"id":255902,"adult":false},{"id":308571,"adult":false},{"id":315684,"adult":false},{"id":305641,"adult":false},{"id":99,"adult":false},{"id":2248,"adult":false},{"id":246403,"adult":false},{"id":1283,"adult":false},{"id":314867,"adult":null},{"id":315685,"adult":false},{"id":315686,"adult":false},{"id":305470,"adult":false},{"id":110416,"adult":false},{"id":304034,"adult":false},{"id":276908,"adult":false},{"id":305276,"adult":false},{"id":315687,"adult":false},{"id":177691,"adult":false},{"id":44443,"adult":false},{"id":266031,"adult":false},{"id":61598,"adult":false},{"id":315688,"adult":false},{"id":265228,"adult":false},{"id":75861,"adult":false},{"id":301512,"adult":false},{"id":245692,"adult":false},{"id":315689,"adult":false},{"id":305932,"adult":false},{"id":315692,"adult":false},{"id":314082,"adult":false},{"id":201132,"adult":false},{"id":315693,"adult":false},{"id":290669,"adult":false},{"id":11901,"adult":false},{"id":19995,"adult":false},{"id":78,"adult":false},{"id":9607,"adult":false},{"id":313633,"adult":false},{"id":12155,"adult":false},{"id":315694,"adult":false},{"id":315695,"adult":false},{"id":9693,"adult":false},{"id":24206,"adult":false},{"id":193502,"adult":false},{"id":82476,"adult":false},{"id":10969,"adult":false},{"id":248087,"adult":false},{"id":12153,"adult":false},{"id":315696,"adult":false}],"page":36,"total_pages":115,"total_results":11442}