{"results":[{"id":88534,"adult":false},{"id":17106,"adult":false},{"id":78123,"adult":false},{"id":124706,"adult":false},{"id":44434,"adult":false},{"id":119281,"adult":false},{"id":350713,"adult":false},{"id":350714,"adult":false},{"id":35847,"adult":false},{"id":196502,"adult":false},{"id":121730,"adult":false},{"id":350715,"adult":false},{"id":99389,"adult":false},{"id":193038,"adult":false},{"id":350716,"adult":false},{"id":37813,"adult":false},{"id":98277,"adult":false},{"id":9679,"adult":false},{"id":139159,"adult":false},{"id":78182,"adult":false},{"id":95191,"adult":false},{"id":333876,"adult":false},{"id":73872,"adult":false},{"id":127489,"adult":false},{"id":350717,"adult":false},{"id":350718,"adult":false},{"id":44944,"adult":false},{"id":56033,"adult":false},{"id":115523,"adult":false},{"id":350719,"adult":false},{"id":50318,"adult":false},{"id":170832,"adult":false},{"id":350720,"adult":false},{"id":350721,"adult":false},{"id":29427,"adult":false},{"id":116953,"adult":false},{"id":60421,"adult":false},{"id":116231,"adult":false},{"id":38568,"adult":false},{"id":85033,"adult":false},{"id":350722,"adult":false},{"id":342713,"adult":false},{"id":19318,"adult":false},{"id":197950,"adult":false},{"id":199647,"adult":false},{"id":350723,"adult":false},{"id":21862,"adult":false},{"id":350724,"adult":false},{"id":11847,"adult":false},{"id":350725,"adult":false},{"id":350726,"adult":true},{"id":157031,"adult":false},{"id":23790,"adult":false},{"id":16931,"adult":false},{"id":277956,"adult":false},{"id":14258,"adult":false},{"id":213621,"adult":false},{"id":49526,"adult":false},{"id":350727,"adult":false},{"id":350728,"adult":false},{"id":350729,"adult":null},{"id":350731,"adult":false},{"id":10710,"adult":false},{"id":38820,"adult":false},{"id":350732,"adult":null},{"id":298892,"adult":false},{"id":350733,"adult":false},{"id":92033,"adult":null},{"id":350734,"adult":false},{"id":328189,"adult":false},{"id":196748,"adult":false},{"id":6715,"adult":false},{"id":92052,"adult":null},{"id":350735,"adult":false},{"id":32654,"adult":false},{"id":92027,"adult":null},{"id":92042,"adult":null},{"id":350736,"adult":false},{"id":92051,"adult":null},{"id":565,"adult":false},{"id":350737,"adult":false},{"id":194662,"adult":false},{"id":127862,"adult":false},{"id":350738,"adult":true},{"id":68818,"adult":false},{"id":67607,"adult":false},{"id":105864,"adult":false},{"id":350739,"adult":false},{"id":18871,"adult":false},{"id":211674,"adult":false},{"id":350740,"adult":false},{"id":66997,"adult":false},{"id":67125,"adult":false},{"id":350741,"adult":false},{"id":188422,"adult":false},{"id":350742,"adult":false},{"id":350743,"adult":false},{"id":18405,"adult":false},{"id":350744,"adult":false},{"id":11563,"adult":false}],"page":60,"total_pages":103,"total_results":10231}