{"results":[{"id":341020,"adult":false},{"id":267329,"adult":false},{"id":112418,"adult":false},{"id":359595,"adult":false},{"id":359596,"adult":false},{"id":57984,"adult":false},{"id":359597,"adult":null},{"id":207532,"adult":false},{"id":34458,"adult":false},{"id":336053,"adult":false},{"id":248113,"adult":false},{"id":37406,"adult":false},{"id":324930,"adult":false},{"id":199951,"adult":false},{"id":86081,"adult":false},{"id":335640,"adult":false},{"id":247827,"adult":false},{"id":82465,"adult":false},{"id":336154,"adult":null},{"id":147327,"adult":null},{"id":224836,"adult":null},{"id":359598,"adult":false},{"id":8467,"adult":false},{"id":128177,"adult":false},{"id":52010,"adult":false},{"id":119227,"adult":false},{"id":298453,"adult":false},{"id":351523,"adult":false},{"id":359601,"adult":false},{"id":12481,"adult":false},{"id":89148,"adult":false},{"id":359604,"adult":false},{"id":359605,"adult":false},{"id":187134,"adult":null},{"id":82530,"adult":false},{"id":15618,"adult":false},{"id":18169,"adult":false},{"id":24740,"adult":false},{"id":116594,"adult":false},{"id":218624,"adult":false},{"id":188927,"adult":false},{"id":18760,"adult":false},{"id":359606,"adult":false},{"id":20701,"adult":false},{"id":328626,"adult":false},{"id":269494,"adult":false},{"id":40130,"adult":false},{"id":144616,"adult":false},{"id":98490,"adult":false},{"id":9016,"adult":false},{"id":4538,"adult":false},{"id":341168,"adult":false},{"id":64751,"adult":false},{"id":107725,"adult":false},{"id":7299,"adult":false},{"id":359607,"adult":false},{"id":30381,"adult":false},{"id":141084,"adult":false},{"id":359608,"adult":false},{"id":11346,"adult":false},{"id":167613,"adult":false},{"id":19898,"adult":false},{"id":4201,"adult":false},{"id":4487,"adult":false},{"id":337301,"adult":true},{"id":100965,"adult":false},{"id":14772,"adult":false},{"id":212167,"adult":false},{"id":284151,"adult":false},{"id":79087,"adult":false},{"id":1960,"adult":false},{"id":12156,"adult":false},{"id":10864,"adult":false},{"id":313086,"adult":false},{"id":109755,"adult":false},{"id":12710,"adult":false},{"id":13376,"adult":false},{"id":37851,"adult":false},{"id":21481,"adult":false},{"id":4199,"adult":false},{"id":108218,"adult":false},{"id":359609,"adult":false},{"id":554,"adult":false},{"id":3601,"adult":false},{"id":359610,"adult":false},{"id":14774,"adult":false},{"id":36800,"adult":false},{"id":12539,"adult":false},{"id":40662,"adult":false},{"id":1974,"adult":false},{"id":126209,"adult":false},{"id":9743,"adult":false},{"id":141086,"adult":false},{"id":66655,"adult":false},{"id":359611,"adult":false},{"id":16866,"adult":false},{"id":17178,"adult":false},{"id":354164,"adult":false},{"id":8966,"adult":false},{"id":4246,"adult":false}],"page":106,"total_pages":112,"total_results":11114}