{"results":[{"id":27601,"adult":false},{"id":362567,"adult":false},{"id":20649,"adult":false},{"id":80530,"adult":false},{"id":246860,"adult":false},{"id":319075,"adult":false},{"id":332600,"adult":false},{"id":362568,"adult":false},{"id":121498,"adult":false},{"id":9290,"adult":false},{"id":29458,"adult":false},{"id":9975,"adult":false},{"id":338103,"adult":false},{"id":66763,"adult":false},{"id":9592,"adult":false},{"id":13475,"adult":false},{"id":86113,"adult":false},{"id":292189,"adult":false},{"id":266961,"adult":false},{"id":362569,"adult":false},{"id":84214,"adult":false},{"id":234567,"adult":false},{"id":342149,"adult":false},{"id":44772,"adult":false},{"id":105325,"adult":false},{"id":8280,"adult":false},{"id":285843,"adult":false},{"id":362570,"adult":null},{"id":322443,"adult":false},{"id":361130,"adult":true},{"id":326359,"adult":false},{"id":268100,"adult":false},{"id":284226,"adult":false},{"id":331114,"adult":false},{"id":293894,"adult":false},{"id":329967,"adult":false},{"id":335663,"adult":false},{"id":339345,"adult":false},{"id":257951,"adult":false},{"id":362571,"adult":false},{"id":336843,"adult":false},{"id":285200,"adult":false},{"id":304031,"adult":false},{"id":37980,"adult":false},{"id":41179,"adult":false},{"id":71350,"adult":false},{"id":293299,"adult":false},{"id":252496,"adult":false},{"id":168802,"adult":false},{"id":47496,"adult":false},{"id":362572,"adult":null},{"id":206356,"adult":false},{"id":362573,"adult":false},{"id":257447,"adult":false},{"id":362574,"adult":false},{"id":14283,"adult":false},{"id":142775,"adult":false},{"id":362575,"adult":false},{"id":172969,"adult":false},{"id":362118,"adult":false},{"id":289363,"adult":false},{"id":362576,"adult":false},{"id":296317,"adult":false},{"id":362577,"adult":null},{"id":362578,"adult":false},{"id":63032,"adult":false},{"id":198868,"adult":false},{"id":327655,"adult":false},{"id":362579,"adult":false},{"id":84348,"adult":false},{"id":173188,"adult":false},{"id":148284,"adult":false},{"id":159117,"adult":false},{"id":327464,"adult":false},{"id":362581,"adult":null},{"id":74953,"adult":false},{"id":362582,"adult":false},{"id":362583,"adult":false},{"id":334328,"adult":false},{"id":361126,"adult":true},{"id":282813,"adult":false},{"id":360178,"adult":false},{"id":330830,"adult":false},{"id":267279,"adult":false},{"id":361415,"adult":false},{"id":254470,"adult":false},{"id":142831,"adult":false},{"id":226456,"adult":false},{"id":134354,"adult":false},{"id":208245,"adult":false},{"id":101368,"adult":false},{"id":101197,"adult":false},{"id":65097,"adult":false},{"id":63375,"adult":false},{"id":357786,"adult":false},{"id":362584,"adult":false},{"id":358377,"adult":false},{"id":362585,"adult":false},{"id":290074,"adult":null},{"id":14367,"adult":false}],"page":31,"total_pages":108,"total_results":10774}