{"results":[{"id":318256,"adult":false},{"id":156685,"adult":false},{"id":320777,"adult":false},{"id":30060,"adult":false},{"id":320779,"adult":false},{"id":320780,"adult":null},{"id":63025,"adult":false},{"id":320781,"adult":false},{"id":295031,"adult":false},{"id":320782,"adult":false},{"id":105490,"adult":false},{"id":320783,"adult":false},{"id":320784,"adult":false},{"id":268210,"adult":false},{"id":262140,"adult":false},{"id":320785,"adult":false},{"id":320786,"adult":false},{"id":320787,"adult":false},{"id":320788,"adult":false},{"id":31083,"adult":false},{"id":124339,"adult":false},{"id":320789,"adult":false},{"id":104053,"adult":false},{"id":320790,"adult":false},{"id":320791,"adult":false},{"id":197139,"adult":false},{"id":44942,"adult":false},{"id":8426,"adult":false},{"id":320792,"adult":false},{"id":103794,"adult":false},{"id":131680,"adult":false},{"id":19337,"adult":false},{"id":19759,"adult":false},{"id":11315,"adult":false},{"id":168479,"adult":false},{"id":320793,"adult":false},{"id":320794,"adult":false},{"id":44203,"adult":false},{"id":320795,"adult":false},{"id":62332,"adult":false},{"id":320796,"adult":false},{"id":265947,"adult":false},{"id":253262,"adult":false},{"id":156684,"adult":false},{"id":320797,"adult":false},{"id":320798,"adult":false},{"id":299104,"adult":false},{"id":320799,"adult":false},{"id":320800,"adult":false},{"id":320801,"adult":false},{"id":320802,"adult":false},{"id":320803,"adult":false},{"id":158193,"adult":false},{"id":320804,"adult":false},{"id":320805,"adult":false},{"id":26821,"adult":false},{"id":103936,"adult":null},{"id":320806,"adult":false},{"id":27067,"adult":false},{"id":91342,"adult":false},{"id":320807,"adult":false},{"id":320808,"adult":false},{"id":110855,"adult":false},{"id":320809,"adult":false},{"id":320810,"adult":false},{"id":160720,"adult":false},{"id":320811,"adult":false},{"id":125069,"adult":false},{"id":320812,"adult":false},{"id":145135,"adult":false},{"id":320813,"adult":false},{"id":320814,"adult":false},{"id":320815,"adult":false},{"id":32961,"adult":false},{"id":320816,"adult":false},{"id":320817,"adult":false},{"id":320818,"adult":false},{"id":320819,"adult":false},{"id":70083,"adult":false},{"id":320821,"adult":false},{"id":320822,"adult":false},{"id":107335,"adult":false},{"id":320823,"adult":false},{"id":320824,"adult":null},{"id":320825,"adult":false},{"id":320826,"adult":false},{"id":315586,"adult":false},{"id":231431,"adult":false},{"id":110509,"adult":false},{"id":43052,"adult":false},{"id":165378,"adult":false},{"id":280922,"adult":false},{"id":320827,"adult":false},{"id":320828,"adult":false},{"id":310592,"adult":false},{"id":320829,"adult":false},{"id":155902,"adult":false},{"id":320830,"adult":false},{"id":320831,"adult":false},{"id":320832,"adult":false}],"page":85,"total_pages":120,"total_results":11995}