{"results":[{"id":59068,"adult":false},{"id":70160,"adult":false},{"id":143473,"adult":false},{"id":199539,"adult":false},{"id":118210,"adult":false},{"id":34743,"adult":false},{"id":90119,"adult":false},{"id":294866,"adult":false},{"id":158618,"adult":false},{"id":50438,"adult":false},{"id":40132,"adult":false},{"id":48374,"adult":false},{"id":122791,"adult":true},{"id":59871,"adult":false},{"id":67120,"adult":false},{"id":14174,"adult":false},{"id":165108,"adult":false},{"id":101299,"adult":false},{"id":30830,"adult":false},{"id":100024,"adult":false},{"id":89578,"adult":false},{"id":30835,"adult":false},{"id":7392,"adult":false},{"id":139543,"adult":false},{"id":20850,"adult":false},{"id":122948,"adult":true},{"id":28654,"adult":true},{"id":204090,"adult":false},{"id":256800,"adult":true},{"id":94238,"adult":false},{"id":256623,"adult":false},{"id":315531,"adult":true},{"id":42520,"adult":true},{"id":81479,"adult":false},{"id":96145,"adult":false},{"id":28779,"adult":false},{"id":5802,"adult":true},{"id":11360,"adult":false},{"id":135056,"adult":false},{"id":585,"adult":false},{"id":258086,"adult":false},{"id":182349,"adult":false},{"id":259432,"adult":false},{"id":45899,"adult":false},{"id":82702,"adult":false},{"id":48864,"adult":false},{"id":315023,"adult":false},{"id":3683,"adult":false},{"id":313055,"adult":false},{"id":184315,"adult":false},{"id":189854,"adult":false},{"id":126268,"adult":false},{"id":126280,"adult":false},{"id":236009,"adult":false},{"id":235946,"adult":false},{"id":66487,"adult":false},{"id":201993,"adult":false},{"id":268022,"adult":false},{"id":161866,"adult":false},{"id":190031,"adult":false},{"id":236189,"adult":false},{"id":10032,"adult":false},{"id":9285,"adult":false},{"id":184837,"adult":false},{"id":174277,"adult":false},{"id":320262,"adult":false},{"id":49022,"adult":false},{"id":32406,"adult":false},{"id":64131,"adult":false},{"id":33317,"adult":false},{"id":159896,"adult":false},{"id":152215,"adult":false},{"id":237075,"adult":false},{"id":40807,"adult":false},{"id":184606,"adult":false},{"id":161586,"adult":false},{"id":166635,"adult":false},{"id":202007,"adult":false},{"id":161773,"adult":false},{"id":320263,"adult":false},{"id":236996,"adult":false},{"id":235880,"adult":false},{"id":122084,"adult":false},{"id":236639,"adult":false},{"id":158739,"adult":false},{"id":320264,"adult":false},{"id":320265,"adult":false},{"id":320266,"adult":false},{"id":320267,"adult":false},{"id":320268,"adult":false},{"id":320269,"adult":false},{"id":320270,"adult":false},{"id":320271,"adult":false},{"id":320272,"adult":false},{"id":320273,"adult":false},{"id":270946,"adult":false},{"id":320274,"adult":false},{"id":320275,"adult":false},{"id":310952,"adult":false},{"id":320276,"adult":false}],"page":66,"total_pages":120,"total_results":11995}