{"results":[{"id":358515,"adult":false},{"id":335430,"adult":false},{"id":80799,"adult":false},{"id":161595,"adult":false},{"id":58950,"adult":false},{"id":49222,"adult":false},{"id":160051,"adult":false},{"id":29702,"adult":false},{"id":39679,"adult":true},{"id":39620,"adult":true},{"id":50782,"adult":false},{"id":281968,"adult":false},{"id":39617,"adult":true},{"id":21344,"adult":false},{"id":39668,"adult":true},{"id":76000,"adult":false},{"id":39651,"adult":true},{"id":258480,"adult":false},{"id":42264,"adult":false},{"id":39624,"adult":true},{"id":39667,"adult":true},{"id":45398,"adult":false},{"id":584,"adult":false},{"id":236570,"adult":false},{"id":9615,"adult":false},{"id":168259,"adult":false},{"id":269250,"adult":false},{"id":11353,"adult":false},{"id":332876,"adult":null},{"id":24920,"adult":false},{"id":369132,"adult":false},{"id":147882,"adult":false},{"id":369133,"adult":false},{"id":284875,"adult":false},{"id":10,"adult":false},{"id":16662,"adult":false},{"id":9817,"adult":false},{"id":314983,"adult":false},{"id":49397,"adult":false},{"id":97735,"adult":false},{"id":365457,"adult":false},{"id":130452,"adult":false},{"id":250696,"adult":false},{"id":151570,"adult":false},{"id":232175,"adult":false},{"id":12501,"adult":false},{"id":45211,"adult":false},{"id":9028,"adult":false},{"id":20345,"adult":false},{"id":207784,"adult":false},{"id":31672,"adult":false},{"id":69576,"adult":false},{"id":71995,"adult":false},{"id":327830,"adult":false},{"id":6591,"adult":false},{"id":9474,"adult":false},{"id":50236,"adult":false},{"id":89541,"adult":false},{"id":277234,"adult":false},{"id":90119,"adult":false},{"id":287491,"adult":false},{"id":177902,"adult":false},{"id":101652,"adult":false},{"id":190787,"adult":false},{"id":90695,"adult":false},{"id":42838,"adult":false},{"id":23244,"adult":false},{"id":174781,"adult":false},{"id":95597,"adult":false},{"id":223481,"adult":false},{"id":180505,"adult":false},{"id":23290,"adult":false},{"id":178623,"adult":false},{"id":94070,"adult":false},{"id":290158,"adult":false},{"id":89645,"adult":false},{"id":89145,"adult":false},{"id":156603,"adult":false},{"id":369134,"adult":false},{"id":204,"adult":false},{"id":232911,"adult":false},{"id":252178,"adult":false},{"id":264048,"adult":false},{"id":369135,"adult":false},{"id":289301,"adult":false},{"id":369136,"adult":false},{"id":168258,"adult":false},{"id":273645,"adult":false},{"id":25652,"adult":false},{"id":98627,"adult":false},{"id":136459,"adult":false},{"id":369137,"adult":false},{"id":246320,"adult":false},{"id":137618,"adult":false},{"id":369138,"adult":false},{"id":321361,"adult":false},{"id":33381,"adult":false},{"id":29488,"adult":false},{"id":81990,"adult":false},{"id":159324,"adult":false}],"page":33,"total_pages":101,"total_results":10039}