{"results":[{"id":347197,"adult":false},{"id":280134,"adult":false},{"id":311158,"adult":false},{"id":361612,"adult":false},{"id":87332,"adult":false},{"id":270078,"adult":false},{"id":65518,"adult":false},{"id":361613,"adult":false},{"id":352280,"adult":false},{"id":295516,"adult":true},{"id":361614,"adult":false},{"id":279133,"adult":false},{"id":123997,"adult":false},{"id":285033,"adult":false},{"id":9560,"adult":false},{"id":42188,"adult":false},{"id":110,"adult":false},{"id":348655,"adult":false},{"id":345330,"adult":false},{"id":361615,"adult":false},{"id":179788,"adult":false},{"id":361616,"adult":false},{"id":307944,"adult":false},{"id":361617,"adult":false},{"id":361618,"adult":false},{"id":265340,"adult":false},{"id":89750,"adult":false},{"id":189357,"adult":false},{"id":361619,"adult":false},{"id":192137,"adult":false},{"id":349158,"adult":false},{"id":270005,"adult":false},{"id":361620,"adult":false},{"id":12778,"adult":false},{"id":361621,"adult":false},{"id":34620,"adult":false},{"id":268251,"adult":false},{"id":289864,"adult":false},{"id":10021,"adult":false},{"id":1628,"adult":false},{"id":316000,"adult":false},{"id":38358,"adult":false},{"id":9024,"adult":false},{"id":361622,"adult":null},{"id":319213,"adult":false},{"id":80752,"adult":false},{"id":74575,"adult":false},{"id":361623,"adult":false},{"id":341599,"adult":false},{"id":361624,"adult":false},{"id":206185,"adult":false},{"id":49584,"adult":false},{"id":361626,"adult":false},{"id":272108,"adult":false},{"id":331451,"adult":false},{"id":98107,"adult":false},{"id":136884,"adult":false},{"id":361627,"adult":false},{"id":9800,"adult":false},{"id":361629,"adult":false},{"id":87326,"adult":false},{"id":330047,"adult":false},{"id":106665,"adult":false},{"id":131582,"adult":false},{"id":40109,"adult":false},{"id":98167,"adult":false},{"id":81463,"adult":false},{"id":13968,"adult":false},{"id":265278,"adult":false},{"id":327726,"adult":false},{"id":47540,"adult":false},{"id":39308,"adult":false},{"id":42210,"adult":false},{"id":30855,"adult":false},{"id":17604,"adult":false},{"id":13371,"adult":false},{"id":75579,"adult":false},{"id":13383,"adult":false},{"id":154178,"adult":false},{"id":228558,"adult":false},{"id":240633,"adult":false},{"id":117871,"adult":false},{"id":173812,"adult":false},{"id":336705,"adult":false},{"id":336930,"adult":false},{"id":336933,"adult":false},{"id":59234,"adult":true},{"id":320061,"adult":false},{"id":265272,"adult":true},{"id":232455,"adult":true},{"id":22716,"adult":false},{"id":331,"adult":false},{"id":350732,"adult":null},{"id":5853,"adult":true},{"id":15254,"adult":false},{"id":361630,"adult":false},{"id":15828,"adult":false},{"id":70456,"adult":false},{"id":115460,"adult":true},{"id":259767,"adult":false}],"page":93,"total_pages":98,"total_results":9775}