{"results":[{"id":285682,"adult":false},{"id":328608,"adult":false},{"id":328609,"adult":false},{"id":70263,"adult":false},{"id":328610,"adult":false},{"id":167554,"adult":false},{"id":328611,"adult":false},{"id":219292,"adult":false},{"id":5156,"adult":false},{"id":138083,"adult":null},{"id":328612,"adult":false},{"id":41317,"adult":false},{"id":89994,"adult":false},{"id":11898,"adult":false},{"id":328613,"adult":false},{"id":165950,"adult":false},{"id":221731,"adult":false},{"id":88299,"adult":false},{"id":328614,"adult":false},{"id":48379,"adult":false},{"id":328615,"adult":false},{"id":296653,"adult":false},{"id":63230,"adult":false},{"id":328616,"adult":false},{"id":328617,"adult":false},{"id":328618,"adult":false},{"id":328619,"adult":false},{"id":324446,"adult":false},{"id":287945,"adult":false},{"id":328620,"adult":false},{"id":253374,"adult":false},{"id":26169,"adult":false},{"id":75588,"adult":false},{"id":328621,"adult":false},{"id":284475,"adult":false},{"id":152857,"adult":false},{"id":152848,"adult":false},{"id":147986,"adult":false},{"id":51940,"adult":false},{"id":328622,"adult":false},{"id":251994,"adult":false},{"id":246080,"adult":false},{"id":328623,"adult":false},{"id":255057,"adult":false},{"id":265074,"adult":false},{"id":561,"adult":false},{"id":322918,"adult":false},{"id":32081,"adult":false},{"id":8681,"adult":false},{"id":6396,"adult":false},{"id":25907,"adult":false},{"id":285382,"adult":false},{"id":37451,"adult":false},{"id":47359,"adult":false},{"id":328624,"adult":false},{"id":8337,"adult":false},{"id":11362,"adult":false},{"id":328626,"adult":false},{"id":277398,"adult":false},{"id":328627,"adult":false},{"id":24453,"adult":false},{"id":328628,"adult":false},{"id":328629,"adult":false},{"id":328630,"adult":false},{"id":140161,"adult":false},{"id":328631,"adult":false},{"id":328632,"adult":false},{"id":98353,"adult":false},{"id":129427,"adult":false},{"id":328633,"adult":false},{"id":201321,"adult":false},{"id":328634,"adult":false},{"id":328635,"adult":false},{"id":328636,"adult":false},{"id":328637,"adult":false},{"id":210322,"adult":false},{"id":54752,"adult":false},{"id":51684,"adult":false},{"id":106631,"adult":false},{"id":328638,"adult":false},{"id":212799,"adult":false},{"id":51693,"adult":false},{"id":179144,"adult":false},{"id":328639,"adult":false},{"id":140373,"adult":false},{"id":26889,"adult":false},{"id":120467,"adult":false},{"id":325712,"adult":false},{"id":42084,"adult":false},{"id":328640,"adult":false},{"id":265884,"adult":false},{"id":38580,"adult":false},{"id":43575,"adult":false},{"id":52778,"adult":false},{"id":5916,"adult":false},{"id":325358,"adult":false},{"id":328641,"adult":false},{"id":167033,"adult":false},{"id":328642,"adult":false},{"id":58873,"adult":false}],"page":34,"total_pages":123,"total_results":12300}