{"results":[{"id":358378,"adult":false},{"id":27724,"adult":false},{"id":351642,"adult":false},{"id":239077,"adult":true},{"id":350481,"adult":false},{"id":13596,"adult":false},{"id":114155,"adult":false},{"id":185,"adult":false},{"id":38854,"adult":false},{"id":9319,"adult":false},{"id":5817,"adult":false},{"id":299221,"adult":false},{"id":62977,"adult":false},{"id":16657,"adult":false},{"id":358379,"adult":false},{"id":12919,"adult":false},{"id":11056,"adult":false},{"id":9476,"adult":false},{"id":358380,"adult":false},{"id":42359,"adult":false},{"id":1645,"adult":false},{"id":195576,"adult":false},{"id":289091,"adult":false},{"id":16124,"adult":false},{"id":303976,"adult":false},{"id":8675,"adult":false},{"id":358381,"adult":false},{"id":215032,"adult":false},{"id":238340,"adult":true},{"id":215813,"adult":true},{"id":2759,"adult":false},{"id":264397,"adult":false},{"id":313049,"adult":null},{"id":10176,"adult":false},{"id":12187,"adult":false},{"id":237756,"adult":false},{"id":142487,"adult":false},{"id":100178,"adult":false},{"id":254032,"adult":false},{"id":20941,"adult":false},{"id":39088,"adult":false},{"id":76757,"adult":false},{"id":215731,"adult":false},{"id":49017,"adult":false},{"id":36659,"adult":false},{"id":358383,"adult":false},{"id":358384,"adult":false},{"id":5185,"adult":false},{"id":26425,"adult":false},{"id":358385,"adult":false},{"id":358386,"adult":false},{"id":358387,"adult":false},{"id":74322,"adult":false},{"id":358389,"adult":false},{"id":35076,"adult":false},{"id":28671,"adult":false},{"id":72123,"adult":false},{"id":356687,"adult":false},{"id":356276,"adult":false},{"id":16046,"adult":false},{"id":97256,"adult":null},{"id":95043,"adult":false},{"id":47350,"adult":false},{"id":358390,"adult":false},{"id":57901,"adult":false},{"id":20178,"adult":false},{"id":31672,"adult":false},{"id":124418,"adult":false},{"id":282631,"adult":false},{"id":72473,"adult":false},{"id":187423,"adult":false},{"id":60647,"adult":false},{"id":214608,"adult":false},{"id":249672,"adult":false},{"id":358391,"adult":false},{"id":70191,"adult":false},{"id":10765,"adult":false},{"id":308027,"adult":false},{"id":4370,"adult":false},{"id":53144,"adult":false},{"id":15764,"adult":false},{"id":43310,"adult":false},{"id":28313,"adult":false},{"id":24993,"adult":false},{"id":129606,"adult":false},{"id":11541,"adult":false},{"id":358392,"adult":false},{"id":39027,"adult":false},{"id":50346,"adult":false},{"id":318954,"adult":false},{"id":40661,"adult":false},{"id":9588,"adult":false},{"id":238678,"adult":false},{"id":292391,"adult":false},{"id":358393,"adult":false},{"id":22356,"adult":false},{"id":44867,"adult":false},{"id":30442,"adult":false},{"id":11144,"adult":false},{"id":11877,"adult":false}],"page":54,"total_pages":112,"total_results":11114}