{"results":[{"id":431,"adult":false},{"id":228326,"adult":false},{"id":244247,"adult":false},{"id":43716,"adult":false},{"id":48150,"adult":false},{"id":159037,"adult":false},{"id":229979,"adult":false},{"id":130971,"adult":false},{"id":5820,"adult":false},{"id":315336,"adult":false},{"id":260312,"adult":false},{"id":315337,"adult":false},{"id":8281,"adult":false},{"id":58232,"adult":false},{"id":315338,"adult":false},{"id":38557,"adult":false},{"id":315339,"adult":false},{"id":199575,"adult":false},{"id":10776,"adult":false},{"id":99321,"adult":false},{"id":56832,"adult":false},{"id":37512,"adult":false},{"id":3489,"adult":false},{"id":312171,"adult":false},{"id":315340,"adult":true},{"id":315341,"adult":false},{"id":302431,"adult":false},{"id":315342,"adult":false},{"id":315343,"adult":false},{"id":315344,"adult":false},{"id":260179,"adult":false},{"id":295315,"adult":false},{"id":294837,"adult":false},{"id":7974,"adult":false},{"id":155940,"adult":true},{"id":315345,"adult":false},{"id":36592,"adult":false},{"id":296241,"adult":false},{"id":65291,"adult":false},{"id":269584,"adult":false},{"id":299049,"adult":false},{"id":1999,"adult":false},{"id":196355,"adult":false},{"id":250950,"adult":false},{"id":46029,"adult":false},{"id":9689,"adult":false},{"id":1599,"adult":false},{"id":13910,"adult":false},{"id":314874,"adult":false},{"id":179154,"adult":false},{"id":301455,"adult":false},{"id":301453,"adult":false},{"id":49787,"adult":false},{"id":11862,"adult":false},{"id":315346,"adult":false},{"id":315347,"adult":false},{"id":9981,"adult":false},{"id":32593,"adult":false},{"id":677,"adult":false},{"id":14365,"adult":false},{"id":269033,"adult":null},{"id":315348,"adult":null},{"id":199327,"adult":false},{"id":190754,"adult":false},{"id":49517,"adult":false},{"id":75909,"adult":false},{"id":27360,"adult":false},{"id":53452,"adult":false},{"id":11184,"adult":false},{"id":11479,"adult":false},{"id":248870,"adult":false},{"id":313106,"adult":false},{"id":57534,"adult":false},{"id":2608,"adult":false},{"id":192117,"adult":false},{"id":190469,"adult":false},{"id":33152,"adult":false},{"id":256791,"adult":false},{"id":182737,"adult":false},{"id":155556,"adult":false},{"id":192098,"adult":false},{"id":27683,"adult":false},{"id":268726,"adult":false},{"id":143800,"adult":false},{"id":689,"adult":false},{"id":307721,"adult":false},{"id":54803,"adult":false},{"id":16932,"adult":false},{"id":311444,"adult":false},{"id":86092,"adult":false},{"id":244761,"adult":false},{"id":2959,"adult":false},{"id":16553,"adult":false},{"id":6109,"adult":false},{"id":87251,"adult":false},{"id":9700,"adult":false},{"id":315349,"adult":false},{"id":95,"adult":false},{"id":315352,"adult":false},{"id":1950,"adult":false}],"page":16,"total_pages":115,"total_results":11442}