{"results":[{"id":132765,"adult":false},{"id":55729,"adult":false},{"id":259693,"adult":false},{"id":68728,"adult":false},{"id":49730,"adult":false},{"id":285783,"adult":false},{"id":13179,"adult":false},{"id":60703,"adult":false},{"id":44683,"adult":false},{"id":345473,"adult":false},{"id":175112,"adult":false},{"id":9655,"adult":false},{"id":26195,"adult":false},{"id":33502,"adult":false},{"id":345474,"adult":false},{"id":37780,"adult":false},{"id":14118,"adult":false},{"id":254918,"adult":false},{"id":50673,"adult":false},{"id":225813,"adult":false},{"id":75258,"adult":false},{"id":25475,"adult":false},{"id":345475,"adult":false},{"id":20352,"adult":false},{"id":67315,"adult":false},{"id":93456,"adult":false},{"id":82690,"adult":false},{"id":38757,"adult":false},{"id":107182,"adult":false},{"id":109445,"adult":false},{"id":2539,"adult":false},{"id":344303,"adult":false},{"id":64701,"adult":false},{"id":87018,"adult":false},{"id":24428,"adult":false},{"id":201478,"adult":false},{"id":262504,"adult":false},{"id":345476,"adult":false},{"id":283489,"adult":false},{"id":51608,"adult":false},{"id":32657,"adult":false},{"id":345477,"adult":null},{"id":138085,"adult":false},{"id":41371,"adult":false},{"id":9323,"adult":false},{"id":340157,"adult":false},{"id":10803,"adult":false},{"id":18257,"adult":false},{"id":21474,"adult":false},{"id":23398,"adult":false},{"id":5137,"adult":false},{"id":345478,"adult":null},{"id":345479,"adult":false},{"id":84974,"adult":false},{"id":9523,"adult":false},{"id":9593,"adult":false},{"id":92853,"adult":false},{"id":345480,"adult":null},{"id":92823,"adult":false},{"id":322841,"adult":false},{"id":2396,"adult":false},{"id":42108,"adult":false},{"id":28489,"adult":false},{"id":92522,"adult":false},{"id":345481,"adult":null},{"id":329205,"adult":false},{"id":274975,"adult":false},{"id":19581,"adult":false},{"id":24245,"adult":false},{"id":203104,"adult":false},{"id":24285,"adult":false},{"id":31956,"adult":false},{"id":51440,"adult":false},{"id":345482,"adult":false},{"id":99325,"adult":false},{"id":131890,"adult":false},{"id":173587,"adult":false},{"id":343946,"adult":false},{"id":5473,"adult":false},{"id":22424,"adult":false},{"id":24199,"adult":false},{"id":345483,"adult":false},{"id":89237,"adult":false},{"id":345484,"adult":null},{"id":308469,"adult":false},{"id":2039,"adult":false},{"id":32618,"adult":false},{"id":26804,"adult":false},{"id":37600,"adult":false},{"id":84975,"adult":false},{"id":82707,"adult":false},{"id":340414,"adult":false},{"id":267108,"adult":false},{"id":185351,"adult":false},{"id":85049,"adult":false},{"id":46582,"adult":false},{"id":168986,"adult":false},{"id":345485,"adult":null},{"id":4379,"adult":false},{"id":178375,"adult":false}],"page":46,"total_pages":111,"total_results":11023}