{"results":[{"id":353844,"adult":false},{"id":351052,"adult":false},{"id":351062,"adult":false},{"id":353845,"adult":false},{"id":21469,"adult":false},{"id":346307,"adult":false},{"id":353846,"adult":false},{"id":28282,"adult":false},{"id":353847,"adult":null},{"id":336415,"adult":false},{"id":353848,"adult":false},{"id":260778,"adult":false},{"id":10423,"adult":false},{"id":353849,"adult":false},{"id":267686,"adult":false},{"id":78212,"adult":false},{"id":70459,"adult":true},{"id":70550,"adult":true},{"id":111798,"adult":false},{"id":293310,"adult":false},{"id":122917,"adult":false},{"id":130105,"adult":false},{"id":324849,"adult":false},{"id":311201,"adult":false},{"id":15997,"adult":false},{"id":353850,"adult":false},{"id":7219,"adult":false},{"id":353853,"adult":false},{"id":353854,"adult":true},{"id":214129,"adult":false},{"id":57848,"adult":false},{"id":353855,"adult":false},{"id":28967,"adult":false},{"id":316164,"adult":false},{"id":341843,"adult":true},{"id":8771,"adult":false},{"id":13461,"adult":false},{"id":327225,"adult":false},{"id":49746,"adult":false},{"id":328939,"adult":false},{"id":324082,"adult":false},{"id":353856,"adult":false},{"id":353857,"adult":false},{"id":113145,"adult":false},{"id":112012,"adult":false},{"id":116870,"adult":false},{"id":387,"adult":false},{"id":574,"adult":false},{"id":15,"adult":false},{"id":10823,"adult":false},{"id":10068,"adult":false},{"id":11165,"adult":false},{"id":829,"adult":false},{"id":2636,"adult":false},{"id":225570,"adult":false},{"id":254194,"adult":false},{"id":353858,"adult":false},{"id":250538,"adult":false},{"id":250657,"adult":false},{"id":144288,"adult":false},{"id":46561,"adult":false},{"id":9618,"adult":false},{"id":43507,"adult":false},{"id":254193,"adult":false},{"id":100042,"adult":false},{"id":241855,"adult":false},{"id":58033,"adult":false},{"id":36838,"adult":false},{"id":16646,"adult":false},{"id":29457,"adult":false},{"id":62316,"adult":false},{"id":221087,"adult":false},{"id":353859,"adult":false},{"id":130129,"adult":false},{"id":132177,"adult":false},{"id":25631,"adult":false},{"id":353860,"adult":false},{"id":340981,"adult":false},{"id":39414,"adult":false},{"id":10802,"adult":false},{"id":277249,"adult":false},{"id":253255,"adult":false},{"id":13745,"adult":false},{"id":172442,"adult":false},{"id":288049,"adult":false},{"id":27581,"adult":false},{"id":136328,"adult":false},{"id":353861,"adult":false},{"id":251432,"adult":false},{"id":351986,"adult":false},{"id":353862,"adult":false},{"id":353863,"adult":false},{"id":131830,"adult":false},{"id":353864,"adult":false},{"id":353865,"adult":false},{"id":353866,"adult":false},{"id":26725,"adult":false},{"id":321697,"adult":false},{"id":299584,"adult":false},{"id":44125,"adult":false}],"page":64,"total_pages":89,"total_results":8876}