{"results":[{"id":347562,"adult":false},{"id":84892,"adult":false},{"id":76170,"adult":false},{"id":347563,"adult":false},{"id":10550,"adult":false},{"id":347564,"adult":false},{"id":316229,"adult":false},{"id":61791,"adult":false},{"id":310507,"adult":false},{"id":184315,"adult":false},{"id":265208,"adult":false},{"id":123553,"adult":false},{"id":346856,"adult":false},{"id":270403,"adult":false},{"id":192132,"adult":false},{"id":333381,"adult":false},{"id":110415,"adult":false},{"id":256546,"adult":false},{"id":258152,"adult":false},{"id":58526,"adult":false},{"id":137696,"adult":false},{"id":347565,"adult":false},{"id":8354,"adult":false},{"id":14740,"adult":false},{"id":86066,"adult":false},{"id":347566,"adult":false},{"id":295,"adult":false},{"id":230652,"adult":false},{"id":10619,"adult":false},{"id":347567,"adult":false},{"id":155418,"adult":false},{"id":347568,"adult":false},{"id":58,"adult":false},{"id":260110,"adult":false},{"id":237710,"adult":false},{"id":304357,"adult":false},{"id":241035,"adult":false},{"id":27196,"adult":false},{"id":347569,"adult":false},{"id":238713,"adult":false},{"id":347570,"adult":null},{"id":190802,"adult":false},{"id":337876,"adult":false},{"id":6028,"adult":false},{"id":34276,"adult":false},{"id":221902,"adult":false},{"id":1689,"adult":false},{"id":315918,"adult":false},{"id":269148,"adult":false},{"id":77022,"adult":false},{"id":121936,"adult":false},{"id":9458,"adult":false},{"id":244623,"adult":false},{"id":321217,"adult":false},{"id":67609,"adult":false},{"id":150488,"adult":false},{"id":80927,"adult":false},{"id":34751,"adult":false},{"id":9562,"adult":false},{"id":45522,"adult":false},{"id":11626,"adult":false},{"id":22084,"adult":false},{"id":12127,"adult":false},{"id":347571,"adult":false},{"id":13825,"adult":false},{"id":241251,"adult":false},{"id":254216,"adult":false},{"id":31984,"adult":false},{"id":347572,"adult":null},{"id":156643,"adult":false},{"id":283718,"adult":false},{"id":2171,"adult":false},{"id":119468,"adult":false},{"id":38621,"adult":false},{"id":252168,"adult":false},{"id":595,"adult":false},{"id":98927,"adult":false},{"id":59462,"adult":false},{"id":144978,"adult":false},{"id":347573,"adult":false},{"id":43529,"adult":false},{"id":347574,"adult":false},{"id":112001,"adult":false},{"id":208695,"adult":false},{"id":4416,"adult":false},{"id":269421,"adult":false},{"id":347575,"adult":false},{"id":347576,"adult":false},{"id":53359,"adult":false},{"id":213681,"adult":false},{"id":82386,"adult":false},{"id":47853,"adult":false},{"id":208696,"adult":false},{"id":347577,"adult":false},{"id":303542,"adult":false},{"id":155014,"adult":false},{"id":53906,"adult":false},{"id":27531,"adult":false},{"id":347578,"adult":false},{"id":20919,"adult":false}],"page":30,"total_pages":86,"total_results":8586}