{"results":[{"id":329592,"adult":false},{"id":329593,"adult":false},{"id":30143,"adult":false},{"id":268922,"adult":false},{"id":12239,"adult":false},{"id":31977,"adult":false},{"id":329594,"adult":false},{"id":33728,"adult":false},{"id":33176,"adult":false},{"id":39472,"adult":false},{"id":203872,"adult":false},{"id":329595,"adult":false},{"id":327677,"adult":false},{"id":31049,"adult":false},{"id":42597,"adult":false},{"id":38222,"adult":false},{"id":6949,"adult":false},{"id":31599,"adult":false},{"id":31901,"adult":false},{"id":42176,"adult":false},{"id":329596,"adult":false},{"id":329597,"adult":false},{"id":19053,"adult":false},{"id":81528,"adult":false},{"id":10854,"adult":false},{"id":17207,"adult":false},{"id":101501,"adult":false},{"id":6878,"adult":false},{"id":263234,"adult":false},{"id":25059,"adult":false},{"id":329598,"adult":false},{"id":51836,"adult":false},{"id":329599,"adult":null},{"id":80860,"adult":false},{"id":78696,"adult":false},{"id":78139,"adult":false},{"id":11317,"adult":false},{"id":50812,"adult":false},{"id":32873,"adult":false},{"id":51943,"adult":false},{"id":39952,"adult":false},{"id":46033,"adult":false},{"id":329600,"adult":false},{"id":31050,"adult":false},{"id":329601,"adult":false},{"id":289820,"adult":false},{"id":329602,"adult":null},{"id":172886,"adult":false},{"id":239529,"adult":false},{"id":329603,"adult":false},{"id":322467,"adult":false},{"id":329604,"adult":false},{"id":105941,"adult":false},{"id":329605,"adult":false},{"id":31053,"adult":false},{"id":167960,"adult":false},{"id":10493,"adult":false},{"id":175109,"adult":false},{"id":38033,"adult":false},{"id":329606,"adult":false},{"id":316681,"adult":false},{"id":26546,"adult":false},{"id":329607,"adult":false},{"id":87226,"adult":false},{"id":80863,"adult":false},{"id":109572,"adult":false},{"id":31051,"adult":false},{"id":329608,"adult":false},{"id":80857,"adult":false},{"id":329609,"adult":null},{"id":80865,"adult":false},{"id":53894,"adult":false},{"id":80868,"adult":false},{"id":329610,"adult":false},{"id":15860,"adult":false},{"id":298580,"adult":false},{"id":45378,"adult":false},{"id":329611,"adult":false},{"id":80861,"adult":false},{"id":50482,"adult":false},{"id":31595,"adult":false},{"id":329612,"adult":false},{"id":245928,"adult":false},{"id":329613,"adult":false},{"id":241868,"adult":false},{"id":80405,"adult":false},{"id":329614,"adult":false},{"id":14681,"adult":false},{"id":17028,"adult":false},{"id":39954,"adult":false},{"id":3580,"adult":false},{"id":329615,"adult":false},{"id":161064,"adult":false},{"id":329616,"adult":false},{"id":329617,"adult":false},{"id":329618,"adult":false},{"id":42137,"adult":false},{"id":271200,"adult":false},{"id":261902,"adult":false},{"id":329619,"adult":false}],"page":89,"total_pages":123,"total_results":12300}