{"results":[{"id":277647,"adult":false},{"id":218784,"adult":false},{"id":276907,"adult":false},{"id":628,"adult":false},{"id":18320,"adult":false},{"id":251981,"adult":false},{"id":257448,"adult":false},{"id":362204,"adult":false},{"id":94104,"adult":false},{"id":77564,"adult":false},{"id":955,"adult":false},{"id":362205,"adult":false},{"id":301228,"adult":false},{"id":349155,"adult":false},{"id":8321,"adult":false},{"id":362206,"adult":false},{"id":34995,"adult":false},{"id":295964,"adult":false},{"id":17238,"adult":false},{"id":362207,"adult":false},{"id":362208,"adult":false},{"id":255270,"adult":false},{"id":257211,"adult":false},{"id":301351,"adult":false},{"id":28715,"adult":false},{"id":40430,"adult":false},{"id":340401,"adult":false},{"id":362209,"adult":false},{"id":8077,"adult":false},{"id":38745,"adult":false},{"id":362210,"adult":false},{"id":234,"adult":false},{"id":76721,"adult":false},{"id":17988,"adult":false},{"id":122917,"adult":false},{"id":362211,"adult":false},{"id":76929,"adult":false},{"id":83407,"adult":false},{"id":332748,"adult":false},{"id":273752,"adult":false},{"id":76082,"adult":false},{"id":362212,"adult":false},{"id":3112,"adult":false},{"id":362213,"adult":false},{"id":303398,"adult":false},{"id":195590,"adult":false},{"id":76420,"adult":false},{"id":309002,"adult":false},{"id":362214,"adult":false},{"id":7364,"adult":false},{"id":362215,"adult":false},{"id":346970,"adult":false},{"id":346987,"adult":false},{"id":346997,"adult":false},{"id":76205,"adult":false},{"id":346989,"adult":false},{"id":346973,"adult":false},{"id":362216,"adult":false},{"id":43187,"adult":false},{"id":360619,"adult":false},{"id":309242,"adult":false},{"id":12,"adult":false},{"id":94803,"adult":false},{"id":28365,"adult":false},{"id":359892,"adult":false},{"id":342008,"adult":false},{"id":53182,"adult":false},{"id":324538,"adult":false},{"id":43972,"adult":false},{"id":341928,"adult":null},{"id":343023,"adult":null},{"id":342883,"adult":null},{"id":338320,"adult":null},{"id":342882,"adult":null},{"id":338369,"adult":null},{"id":78700,"adult":null},{"id":328396,"adult":null},{"id":361307,"adult":null},{"id":233694,"adult":null},{"id":362217,"adult":false},{"id":348619,"adult":false},{"id":12155,"adult":false},{"id":116764,"adult":false},{"id":27145,"adult":false},{"id":310669,"adult":false},{"id":90939,"adult":false},{"id":362219,"adult":false},{"id":34800,"adult":false},{"id":362220,"adult":false},{"id":12151,"adult":false},{"id":2207,"adult":false},{"id":362221,"adult":false},{"id":228165,"adult":false},{"id":336379,"adult":false},{"id":290764,"adult":false},{"id":316053,"adult":false},{"id":44591,"adult":false},{"id":362222,"adult":false},{"id":107676,"adult":false},{"id":56281,"adult":false}],"page":7,"total_pages":108,"total_results":10774}