{"results":[{"id":222958,"adult":false},{"id":53592,"adult":false},{"id":222957,"adult":false},{"id":942,"adult":false},{"id":50903,"adult":false},{"id":111969,"adult":false},{"id":49543,"adult":false},{"id":13836,"adult":false},{"id":175574,"adult":false},{"id":12531,"adult":false},{"id":41216,"adult":false},{"id":50920,"adult":false},{"id":5559,"adult":false},{"id":50921,"adult":false},{"id":50922,"adult":false},{"id":157823,"adult":false},{"id":276624,"adult":false},{"id":187662,"adult":false},{"id":24469,"adult":false},{"id":206821,"adult":false},{"id":249941,"adult":false},{"id":31913,"adult":false},{"id":14874,"adult":false},{"id":55533,"adult":false},{"id":41827,"adult":false},{"id":291692,"adult":false},{"id":9669,"adult":false},{"id":9693,"adult":false},{"id":10857,"adult":false},{"id":1378,"adult":false},{"id":49979,"adult":false},{"id":43950,"adult":false},{"id":578,"adult":false},{"id":37753,"adult":false},{"id":37707,"adult":false},{"id":365152,"adult":false},{"id":3597,"adult":false},{"id":292100,"adult":false},{"id":110282,"adult":false},{"id":365153,"adult":false},{"id":59917,"adult":false},{"id":49018,"adult":false},{"id":365154,"adult":null},{"id":362455,"adult":false},{"id":32961,"adult":false},{"id":28432,"adult":false},{"id":4584,"adult":false},{"id":14459,"adult":false},{"id":338628,"adult":true},{"id":210302,"adult":false},{"id":282041,"adult":false},{"id":9767,"adult":false},{"id":11914,"adult":false},{"id":13813,"adult":false},{"id":17741,"adult":false},{"id":286489,"adult":false},{"id":365155,"adult":false},{"id":2616,"adult":false},{"id":82089,"adult":true},{"id":13816,"adult":false},{"id":27714,"adult":false},{"id":310026,"adult":false},{"id":6072,"adult":false},{"id":365156,"adult":false},{"id":325220,"adult":false},{"id":351819,"adult":false},{"id":37124,"adult":false},{"id":14144,"adult":false},{"id":325712,"adult":false},{"id":25763,"adult":false},{"id":48851,"adult":false},{"id":21290,"adult":false},{"id":11009,"adult":false},{"id":286767,"adult":false},{"id":2594,"adult":false},{"id":285423,"adult":false},{"id":356718,"adult":false},{"id":160019,"adult":false},{"id":203793,"adult":false},{"id":3033,"adult":false},{"id":159805,"adult":false},{"id":305276,"adult":false},{"id":333112,"adult":false},{"id":9963,"adult":false},{"id":315335,"adult":false},{"id":3040,"adult":false},{"id":274415,"adult":false},{"id":365157,"adult":false},{"id":40630,"adult":false},{"id":365158,"adult":false},{"id":1419,"adult":false},{"id":11231,"adult":false},{"id":365159,"adult":false},{"id":323694,"adult":false},{"id":1698,"adult":false},{"id":330703,"adult":false},{"id":42726,"adult":false},{"id":10226,"adult":false},{"id":10399,"adult":false},{"id":75162,"adult":false}],"page":60,"total_pages":85,"total_results":8453}