{"results":[{"id":91333,"adult":false},{"id":242166,"adult":false},{"id":62215,"adult":false},{"id":251516,"adult":false},{"id":151691,"adult":false},{"id":299939,"adult":false},{"id":18632,"adult":false},{"id":9751,"adult":false},{"id":289720,"adult":false},{"id":44698,"adult":false},{"id":86499,"adult":false},{"id":173523,"adult":false},{"id":25656,"adult":false},{"id":76519,"adult":false},{"id":4436,"adult":false},{"id":284296,"adult":false},{"id":322456,"adult":false},{"id":330474,"adult":null},{"id":269650,"adult":false},{"id":13981,"adult":false},{"id":232679,"adult":false},{"id":229328,"adult":false},{"id":210926,"adult":false},{"id":258099,"adult":false},{"id":316002,"adult":false},{"id":140047,"adult":false},{"id":253254,"adult":false},{"id":198062,"adult":false},{"id":10310,"adult":false},{"id":257235,"adult":false},{"id":244260,"adult":false},{"id":133434,"adult":false},{"id":241553,"adult":false},{"id":319966,"adult":false},{"id":282672,"adult":false},{"id":319075,"adult":false},{"id":201377,"adult":false},{"id":105022,"adult":false},{"id":134800,"adult":false},{"id":197796,"adult":false},{"id":123109,"adult":false},{"id":16700,"adult":false},{"id":85962,"adult":false},{"id":294463,"adult":false},{"id":342709,"adult":false},{"id":277355,"adult":false},{"id":2357,"adult":false},{"id":19429,"adult":false},{"id":255450,"adult":false},{"id":244007,"adult":false},{"id":215960,"adult":false},{"id":262839,"adult":false},{"id":254007,"adult":false},{"id":256008,"adult":false},{"id":54910,"adult":false},{"id":275696,"adult":false},{"id":14709,"adult":false},{"id":46291,"adult":false},{"id":321494,"adult":false},{"id":281783,"adult":false},{"id":334356,"adult":false},{"id":97430,"adult":false},{"id":198184,"adult":false},{"id":342710,"adult":false},{"id":99675,"adult":false},{"id":10093,"adult":false},{"id":298960,"adult":false},{"id":267919,"adult":false},{"id":225982,"adult":false},{"id":201419,"adult":false},{"id":293189,"adult":false},{"id":105166,"adult":false},{"id":283701,"adult":false},{"id":299818,"adult":false},{"id":584,"adult":false},{"id":72698,"adult":false},{"id":194722,"adult":false},{"id":24348,"adult":false},{"id":87093,"adult":false},{"id":71984,"adult":false},{"id":263372,"adult":false},{"id":50618,"adult":false},{"id":257454,"adult":false},{"id":342711,"adult":false},{"id":207724,"adult":false},{"id":86391,"adult":false},{"id":263514,"adult":false},{"id":243526,"adult":false},{"id":116185,"adult":false},{"id":315200,"adult":false},{"id":285205,"adult":false},{"id":164127,"adult":false},{"id":242582,"adult":false},{"id":17669,"adult":false},{"id":8010,"adult":false},{"id":8011,"adult":false},{"id":311162,"adult":false},{"id":12211,"adult":false},{"id":13360,"adult":false},{"id":52256,"adult":false}],"page":4,"total_pages":95,"total_results":9488}