{"results":[{"id":82530,"adult":false},{"id":26130,"adult":false},{"id":344998,"adult":false},{"id":324334,"adult":false},{"id":16006,"adult":false},{"id":197655,"adult":false},{"id":245692,"adult":false},{"id":180900,"adult":false},{"id":142993,"adult":false},{"id":26771,"adult":false},{"id":28832,"adult":false},{"id":30367,"adult":false},{"id":60850,"adult":false},{"id":344999,"adult":true},{"id":931,"adult":false},{"id":85544,"adult":false},{"id":225264,"adult":false},{"id":7364,"adult":false},{"id":41499,"adult":false},{"id":308027,"adult":false},{"id":248979,"adult":false},{"id":22800,"adult":false},{"id":8933,"adult":false},{"id":12660,"adult":false},{"id":424,"adult":false},{"id":345000,"adult":false},{"id":345001,"adult":false},{"id":146083,"adult":false},{"id":169068,"adult":false},{"id":37837,"adult":false},{"id":8842,"adult":false},{"id":47015,"adult":false},{"id":1586,"adult":false},{"id":49444,"adult":false},{"id":74559,"adult":false},{"id":56519,"adult":false},{"id":266683,"adult":false},{"id":641,"adult":false},{"id":58574,"adult":false},{"id":345002,"adult":false},{"id":1389,"adult":false},{"id":194967,"adult":false},{"id":256277,"adult":false},{"id":96569,"adult":false},{"id":17709,"adult":false},{"id":1576,"adult":false},{"id":10476,"adult":false},{"id":295581,"adult":false},{"id":13341,"adult":false},{"id":16561,"adult":false},{"id":127921,"adult":false},{"id":20704,"adult":false},{"id":7737,"adult":false},{"id":141418,"adult":false},{"id":284894,"adult":false},{"id":14698,"adult":false},{"id":86522,"adult":false},{"id":15395,"adult":false},{"id":11248,"adult":false},{"id":345003,"adult":false},{"id":64690,"adult":false},{"id":65441,"adult":false},{"id":345004,"adult":false},{"id":345005,"adult":false},{"id":333318,"adult":false},{"id":339148,"adult":false},{"id":165027,"adult":false},{"id":1893,"adult":false},{"id":7304,"adult":false},{"id":37753,"adult":false},{"id":294086,"adult":false},{"id":331447,"adult":null},{"id":250577,"adult":false},{"id":345006,"adult":false},{"id":337395,"adult":false},{"id":233206,"adult":false},{"id":415,"adult":false},{"id":339934,"adult":false},{"id":2360,"adult":false},{"id":10612,"adult":false},{"id":137457,"adult":false},{"id":342266,"adult":false},{"id":9619,"adult":false},{"id":30855,"adult":false},{"id":338103,"adult":false},{"id":25780,"adult":false},{"id":345007,"adult":false},{"id":203801,"adult":false},{"id":131916,"adult":false},{"id":314828,"adult":false},{"id":33706,"adult":false},{"id":177813,"adult":false},{"id":282067,"adult":false},{"id":330404,"adult":false},{"id":39039,"adult":false},{"id":334521,"adult":false},{"id":954,"adult":false},{"id":164284,"adult":false},{"id":54352,"adult":false},{"id":118079,"adult":false}],"page":21,"total_pages":111,"total_results":11023}