{"results":[{"id":33020,"adult":false},{"id":223271,"adult":false},{"id":48949,"adult":false},{"id":826,"adult":false},{"id":316554,"adult":false},{"id":316555,"adult":false},{"id":139977,"adult":false},{"id":11868,"adult":false},{"id":50546,"adult":false},{"id":316556,"adult":false},{"id":316557,"adult":false},{"id":187695,"adult":false},{"id":316558,"adult":false},{"id":316560,"adult":false},{"id":316561,"adult":false},{"id":316562,"adult":false},{"id":621,"adult":false},{"id":316563,"adult":false},{"id":8469,"adult":false},{"id":6471,"adult":false},{"id":181753,"adult":false},{"id":266880,"adult":false},{"id":259416,"adult":false},{"id":316564,"adult":false},{"id":3090,"adult":false},{"id":61810,"adult":false},{"id":316565,"adult":false},{"id":6644,"adult":false},{"id":316566,"adult":false},{"id":316567,"adult":false},{"id":6523,"adult":false},{"id":425,"adult":false},{"id":4971,"adult":false},{"id":316568,"adult":false},{"id":290,"adult":false},{"id":8354,"adult":false},{"id":316569,"adult":false},{"id":11977,"adult":false},{"id":746,"adult":false},{"id":9549,"adult":false},{"id":316570,"adult":false},{"id":9462,"adult":false},{"id":950,"adult":false},{"id":316571,"adult":false},{"id":39807,"adult":false},{"id":17979,"adult":false},{"id":316572,"adult":false},{"id":15915,"adult":false},{"id":316573,"adult":false},{"id":316574,"adult":false},{"id":57585,"adult":false},{"id":316575,"adult":false},{"id":43418,"adult":false},{"id":316576,"adult":false},{"id":316577,"adult":false},{"id":8355,"adult":false},{"id":8274,"adult":false},{"id":316578,"adult":false},{"id":6615,"adult":false},{"id":316579,"adult":false},{"id":46788,"adult":false},{"id":316580,"adult":false},{"id":11590,"adult":false},{"id":316581,"adult":false},{"id":1931,"adult":false},{"id":316582,"adult":false},{"id":13197,"adult":false},{"id":316583,"adult":false},{"id":249170,"adult":false},{"id":316584,"adult":false},{"id":89691,"adult":false},{"id":336,"adult":false},{"id":316585,"adult":false},{"id":316586,"adult":false},{"id":15255,"adult":false},{"id":316587,"adult":false},{"id":316588,"adult":false},{"id":316589,"adult":false},{"id":229315,"adult":false},{"id":9726,"adult":false},{"id":316590,"adult":false},{"id":316591,"adult":false},{"id":316592,"adult":false},{"id":316593,"adult":false},{"id":316594,"adult":false},{"id":316595,"adult":false},{"id":316598,"adult":false},{"id":316599,"adult":false},{"id":48832,"adult":false},{"id":263978,"adult":false},{"id":316600,"adult":false},{"id":316601,"adult":false},{"id":316602,"adult":false},{"id":71768,"adult":false},{"id":316603,"adult":false},{"id":316604,"adult":false},{"id":316605,"adult":false},{"id":316606,"adult":false},{"id":8247,"adult":false},{"id":316607,"adult":false}],"page":76,"total_pages":115,"total_results":11442}