{"results":[{"id":314320,"adult":false},{"id":1875,"adult":false},{"id":1870,"adult":false},{"id":293766,"adult":false},{"id":14256,"adult":false},{"id":26710,"adult":false},{"id":14983,"adult":false},{"id":86640,"adult":false},{"id":192034,"adult":false},{"id":273812,"adult":false},{"id":11132,"adult":false},{"id":125142,"adult":false},{"id":18644,"adult":false},{"id":281780,"adult":false},{"id":315585,"adult":false},{"id":41383,"adult":false},{"id":20966,"adult":false},{"id":15657,"adult":false},{"id":28355,"adult":false},{"id":4889,"adult":false},{"id":11300,"adult":false},{"id":90369,"adult":false},{"id":19203,"adult":false},{"id":303074,"adult":null},{"id":1992,"adult":false},{"id":25266,"adult":false},{"id":313699,"adult":false},{"id":11888,"adult":false},{"id":314619,"adult":false},{"id":260496,"adult":false},{"id":70718,"adult":false},{"id":6693,"adult":false},{"id":76590,"adult":false},{"id":295410,"adult":false},{"id":32653,"adult":false},{"id":152795,"adult":false},{"id":56589,"adult":false},{"id":9325,"adult":false},{"id":11544,"adult":false},{"id":18691,"adult":false},{"id":155219,"adult":false},{"id":20760,"adult":false},{"id":315586,"adult":false},{"id":10144,"adult":false},{"id":12110,"adult":false},{"id":524,"adult":false},{"id":315587,"adult":false},{"id":7555,"adult":false},{"id":19912,"adult":false},{"id":269258,"adult":false},{"id":315588,"adult":false},{"id":293301,"adult":false},{"id":158431,"adult":false},{"id":38274,"adult":false},{"id":37773,"adult":false},{"id":274348,"adult":false},{"id":36557,"adult":false},{"id":60398,"adult":false},{"id":302903,"adult":null},{"id":4545,"adult":false},{"id":4555,"adult":false},{"id":150540,"adult":false},{"id":124673,"adult":false},{"id":266647,"adult":false},{"id":315589,"adult":false},{"id":18975,"adult":false},{"id":10872,"adult":false},{"id":231265,"adult":false},{"id":77459,"adult":false},{"id":27063,"adult":true},{"id":303991,"adult":false},{"id":270005,"adult":false},{"id":56727,"adult":false},{"id":147161,"adult":false},{"id":118939,"adult":false},{"id":262088,"adult":false},{"id":21513,"adult":false},{"id":219292,"adult":false},{"id":283696,"adult":false},{"id":291084,"adult":false},{"id":313075,"adult":false},{"id":315590,"adult":false},{"id":291092,"adult":false},{"id":86461,"adult":false},{"id":22189,"adult":false},{"id":188608,"adult":false},{"id":9757,"adult":false},{"id":9669,"adult":false},{"id":315591,"adult":false},{"id":10320,"adult":false},{"id":11635,"adult":false},{"id":8271,"adult":false},{"id":6877,"adult":false},{"id":9398,"adult":false},{"id":9038,"adult":false},{"id":44896,"adult":false},{"id":9602,"adult":false},{"id":132335,"adult":false},{"id":10307,"adult":false},{"id":315592,"adult":false}],"page":31,"total_pages":115,"total_results":11442}