{"results":[{"id":101976,"adult":false},{"id":35854,"adult":false},{"id":147979,"adult":false},{"id":328228,"adult":false},{"id":129609,"adult":false},{"id":21174,"adult":false},{"id":20527,"adult":false},{"id":11942,"adult":false},{"id":297721,"adult":false},{"id":296850,"adult":false},{"id":31347,"adult":false},{"id":10187,"adult":false},{"id":110855,"adult":false},{"id":45384,"adult":false},{"id":37711,"adult":false},{"id":290864,"adult":false},{"id":243441,"adult":false},{"id":12208,"adult":false},{"id":25746,"adult":false},{"id":302349,"adult":false},{"id":60163,"adult":false},{"id":747,"adult":false},{"id":73138,"adult":false},{"id":212814,"adult":false},{"id":312791,"adult":false},{"id":267046,"adult":false},{"id":257527,"adult":false},{"id":140441,"adult":false},{"id":64678,"adult":false},{"id":110430,"adult":false},{"id":44667,"adult":false},{"id":5489,"adult":false},{"id":146309,"adult":false},{"id":100271,"adult":false},{"id":75861,"adult":false},{"id":143945,"adult":false},{"id":74517,"adult":false},{"id":175966,"adult":false},{"id":214464,"adult":false},{"id":312113,"adult":false},{"id":50203,"adult":false},{"id":328230,"adult":false},{"id":17126,"adult":false},{"id":282296,"adult":false},{"id":9587,"adult":false},{"id":30139,"adult":false},{"id":38722,"adult":false},{"id":281171,"adult":false},{"id":29154,"adult":false},{"id":18041,"adult":false},{"id":328232,"adult":false},{"id":324445,"adult":false},{"id":40119,"adult":false},{"id":17057,"adult":false},{"id":28632,"adult":false},{"id":143940,"adult":false},{"id":116745,"adult":false},{"id":52101,"adult":false},{"id":179624,"adult":false},{"id":64748,"adult":false},{"id":36178,"adult":false},{"id":52592,"adult":false},{"id":328233,"adult":false},{"id":9522,"adult":false},{"id":79516,"adult":false},{"id":14069,"adult":false},{"id":312620,"adult":false},{"id":55470,"adult":false},{"id":48138,"adult":false},{"id":14021,"adult":false},{"id":192141,"adult":false},{"id":15795,"adult":false},{"id":146233,"adult":false},{"id":300146,"adult":false},{"id":266048,"adult":false},{"id":238636,"adult":false},{"id":11216,"adult":false},{"id":75465,"adult":false},{"id":2109,"adult":false},{"id":27324,"adult":false},{"id":240956,"adult":false},{"id":90863,"adult":false},{"id":5175,"adult":false},{"id":8363,"adult":false},{"id":69574,"adult":false},{"id":9694,"adult":false},{"id":38757,"adult":false},{"id":192145,"adult":false},{"id":208210,"adult":false},{"id":328234,"adult":false},{"id":239678,"adult":false},{"id":1924,"adult":false},{"id":328237,"adult":false},{"id":63043,"adult":false},{"id":8536,"adult":false},{"id":76759,"adult":false},{"id":20526,"adult":false},{"id":9084,"adult":false},{"id":9531,"adult":false},{"id":48145,"adult":false}],"page":16,"total_pages":123,"total_results":12300}