{"results":[{"id":319389,"adult":false},{"id":256838,"adult":false},{"id":359470,"adult":false},{"id":336118,"adult":false},{"id":68489,"adult":false},{"id":334033,"adult":false},{"id":40768,"adult":false},{"id":43618,"adult":false},{"id":347530,"adult":false},{"id":347780,"adult":false},{"id":347784,"adult":false},{"id":347781,"adult":false},{"id":347777,"adult":false},{"id":284159,"adult":false},{"id":41423,"adult":false},{"id":359471,"adult":false},{"id":29452,"adult":false},{"id":276684,"adult":false},{"id":359472,"adult":null},{"id":59352,"adult":false},{"id":32,"adult":false},{"id":311019,"adult":false},{"id":87358,"adult":false},{"id":311016,"adult":false},{"id":273912,"adult":false},{"id":19738,"adult":false},{"id":36250,"adult":false},{"id":359473,"adult":false},{"id":42116,"adult":false},{"id":16164,"adult":false},{"id":112437,"adult":false},{"id":44555,"adult":false},{"id":359474,"adult":false},{"id":10358,"adult":false},{"id":36867,"adult":false},{"id":154442,"adult":false},{"id":359475,"adult":false},{"id":243526,"adult":false},{"id":19337,"adult":false},{"id":359476,"adult":false},{"id":3763,"adult":false},{"id":359477,"adult":false},{"id":10974,"adult":false},{"id":279449,"adult":false},{"id":359478,"adult":false},{"id":359479,"adult":false},{"id":288841,"adult":false},{"id":359480,"adult":false},{"id":36895,"adult":false},{"id":111,"adult":false},{"id":359481,"adult":false},{"id":282296,"adult":false},{"id":291229,"adult":false},{"id":5516,"adult":false},{"id":42516,"adult":false},{"id":359482,"adult":false},{"id":131586,"adult":false},{"id":359483,"adult":false},{"id":11953,"adult":false},{"id":14926,"adult":false},{"id":359484,"adult":false},{"id":2164,"adult":false},{"id":36244,"adult":false},{"id":341397,"adult":false},{"id":359485,"adult":false},{"id":37056,"adult":false},{"id":77057,"adult":false},{"id":359486,"adult":null},{"id":11104,"adult":false},{"id":254050,"adult":false},{"id":359487,"adult":false},{"id":330238,"adult":false},{"id":332491,"adult":false},{"id":18329,"adult":false},{"id":86917,"adult":false},{"id":330592,"adult":false},{"id":28638,"adult":false},{"id":135966,"adult":false},{"id":16916,"adult":false},{"id":11557,"adult":false},{"id":359489,"adult":false},{"id":44165,"adult":false},{"id":23606,"adult":false},{"id":13534,"adult":false},{"id":359490,"adult":false},{"id":359491,"adult":false},{"id":152711,"adult":false},{"id":787,"adult":false},{"id":169025,"adult":false},{"id":359492,"adult":false},{"id":12231,"adult":false},{"id":352199,"adult":false},{"id":298736,"adult":false},{"id":269004,"adult":false},{"id":51966,"adult":false},{"id":359493,"adult":false},{"id":228941,"adult":false},{"id":216908,"adult":false},{"id":271938,"adult":null},{"id":323363,"adult":true}],"page":101,"total_pages":112,"total_results":11114}