{"results":[{"id":269213,"adult":false},{"id":155888,"adult":false},{"id":345617,"adult":false},{"id":46445,"adult":false},{"id":173367,"adult":null},{"id":97615,"adult":false},{"id":345618,"adult":false},{"id":334452,"adult":false},{"id":13200,"adult":false},{"id":133454,"adult":false},{"id":117074,"adult":false},{"id":106095,"adult":false},{"id":44092,"adult":false},{"id":101438,"adult":false},{"id":11144,"adult":false},{"id":42501,"adult":false},{"id":46567,"adult":false},{"id":276613,"adult":false},{"id":128475,"adult":false},{"id":345619,"adult":false},{"id":52109,"adult":false},{"id":271640,"adult":false},{"id":11169,"adult":false},{"id":61237,"adult":false},{"id":144645,"adult":false},{"id":188507,"adult":false},{"id":106096,"adult":false},{"id":70438,"adult":false},{"id":70843,"adult":false},{"id":2959,"adult":false},{"id":205891,"adult":false},{"id":6957,"adult":false},{"id":18147,"adult":false},{"id":225519,"adult":false},{"id":52721,"adult":false},{"id":18360,"adult":false},{"id":24983,"adult":false},{"id":41630,"adult":false},{"id":118340,"adult":false},{"id":345620,"adult":false},{"id":67675,"adult":false},{"id":97448,"adult":false},{"id":338520,"adult":false},{"id":345621,"adult":false},{"id":109301,"adult":false},{"id":96641,"adult":false},{"id":252529,"adult":false},{"id":50217,"adult":false},{"id":44008,"adult":false},{"id":52338,"adult":false},{"id":146243,"adult":false},{"id":364,"adult":false},{"id":89061,"adult":false},{"id":268060,"adult":false},{"id":38907,"adult":false},{"id":186039,"adult":null},{"id":345622,"adult":false},{"id":319144,"adult":false},{"id":344535,"adult":true},{"id":270145,"adult":false},{"id":344529,"adult":true},{"id":46374,"adult":true},{"id":135636,"adult":true},{"id":145963,"adult":false},{"id":208678,"adult":true},{"id":100357,"adult":false},{"id":24860,"adult":false},{"id":100353,"adult":false},{"id":230896,"adult":false},{"id":414,"adult":false},{"id":1410,"adult":false},{"id":40472,"adult":false},{"id":345623,"adult":false},{"id":345624,"adult":false},{"id":345625,"adult":false},{"id":224244,"adult":false},{"id":126442,"adult":false},{"id":333657,"adult":false},{"id":43942,"adult":false},{"id":1248,"adult":false},{"id":56033,"adult":false},{"id":31957,"adult":false},{"id":2247,"adult":false},{"id":345626,"adult":false},{"id":57590,"adult":false},{"id":23223,"adult":false},{"id":12262,"adult":false},{"id":83528,"adult":false},{"id":129518,"adult":false},{"id":2286,"adult":false},{"id":9614,"adult":false},{"id":57768,"adult":false},{"id":21990,"adult":false},{"id":73864,"adult":false},{"id":92979,"adult":false},{"id":47439,"adult":false},{"id":243577,"adult":false},{"id":345628,"adult":false},{"id":42910,"adult":false},{"id":345629,"adult":false}],"page":55,"total_pages":111,"total_results":11023}