{"results":[{"id":44982,"adult":false},{"id":241595,"adult":false},{"id":103360,"adult":false},{"id":266672,"adult":false},{"id":8275,"adult":false},{"id":215929,"adult":false},{"id":208748,"adult":false},{"id":247166,"adult":false},{"id":16988,"adult":false},{"id":306031,"adult":false},{"id":128014,"adult":false},{"id":35333,"adult":null},{"id":125978,"adult":false},{"id":58857,"adult":false},{"id":347813,"adult":false},{"id":45569,"adult":false},{"id":195635,"adult":false},{"id":317473,"adult":false},{"id":347814,"adult":false},{"id":21562,"adult":false},{"id":347815,"adult":false},{"id":224061,"adult":false},{"id":182954,"adult":false},{"id":13852,"adult":false},{"id":155738,"adult":false},{"id":125835,"adult":false},{"id":38220,"adult":false},{"id":32911,"adult":false},{"id":199229,"adult":false},{"id":37172,"adult":false},{"id":71918,"adult":false},{"id":77715,"adult":false},{"id":181882,"adult":false},{"id":347816,"adult":false},{"id":232306,"adult":false},{"id":27599,"adult":false},{"id":110146,"adult":false},{"id":299537,"adult":false},{"id":347817,"adult":null},{"id":9354,"adult":false},{"id":314588,"adult":false},{"id":347818,"adult":false},{"id":29978,"adult":false},{"id":253337,"adult":false},{"id":54659,"adult":false},{"id":181080,"adult":false},{"id":35332,"adult":null},{"id":342103,"adult":null},{"id":278760,"adult":false},{"id":343543,"adult":null},{"id":95539,"adult":false},{"id":238615,"adult":false},{"id":232954,"adult":false},{"id":7234,"adult":false},{"id":338189,"adult":false},{"id":329805,"adult":false},{"id":198436,"adult":false},{"id":70578,"adult":false},{"id":42739,"adult":false},{"id":347819,"adult":null},{"id":106747,"adult":false},{"id":194071,"adult":false},{"id":281400,"adult":null},{"id":201292,"adult":false},{"id":25927,"adult":false},{"id":10731,"adult":false},{"id":30578,"adult":null},{"id":347820,"adult":false},{"id":347821,"adult":false},{"id":61677,"adult":false},{"id":16564,"adult":false},{"id":274817,"adult":false},{"id":115550,"adult":false},{"id":316783,"adult":false},{"id":347822,"adult":false},{"id":277216,"adult":false},{"id":347823,"adult":false},{"id":284286,"adult":false},{"id":283445,"adult":false},{"id":41925,"adult":false},{"id":119885,"adult":false},{"id":174751,"adult":false},{"id":152752,"adult":false},{"id":22585,"adult":false},{"id":338033,"adult":false},{"id":87093,"adult":false},{"id":41281,"adult":false},{"id":20540,"adult":false},{"id":8421,"adult":false},{"id":84342,"adult":false},{"id":121975,"adult":false},{"id":43491,"adult":false},{"id":301758,"adult":true},{"id":29489,"adult":false},{"id":27706,"adult":false},{"id":76072,"adult":false},{"id":131966,"adult":false},{"id":241239,"adult":false},{"id":67392,"adult":false},{"id":338124,"adult":false}],"page":43,"total_pages":86,"total_results":8586}