{"results":[{"id":249117,"adult":false},{"id":29009,"adult":false},{"id":52318,"adult":false},{"id":40064,"adult":false},{"id":394149,"adult":false},{"id":151321,"adult":false},{"id":124177,"adult":false},{"id":78256,"adult":false},{"id":135212,"adult":false},{"id":422400,"adult":false},{"id":1894,"adult":false},{"id":1895,"adult":false},{"id":18149,"adult":false},{"id":1891,"adult":false},{"id":148808,"adult":false},{"id":1892,"adult":false},{"id":140607,"adult":false},{"id":33202,"adult":false},{"id":53445,"adult":false},{"id":403428,"adult":false},{"id":10725,"adult":false},{"id":46158,"adult":false},{"id":298695,"adult":false},{"id":401889,"adult":false},{"id":39890,"adult":false},{"id":422401,"adult":null},{"id":193612,"adult":false},{"id":22033,"adult":false},{"id":76772,"adult":false},{"id":416146,"adult":false},{"id":414513,"adult":null},{"id":422402,"adult":false},{"id":44809,"adult":false},{"id":316762,"adult":false},{"id":11650,"adult":false},{"id":294963,"adult":false},{"id":422403,"adult":false},{"id":407506,"adult":false},{"id":349045,"adult":false},{"id":11775,"adult":false},{"id":104634,"adult":false},{"id":417936,"adult":false},{"id":81987,"adult":false},{"id":40365,"adult":false},{"id":43387,"adult":false},{"id":34875,"adult":false},{"id":422404,"adult":false},{"id":32301,"adult":false},{"id":404112,"adult":false},{"id":97430,"adult":false},{"id":78247,"adult":false},{"id":422405,"adult":false},{"id":18550,"adult":false},{"id":412692,"adult":false},{"id":422406,"adult":false},{"id":408270,"adult":false},{"id":378491,"adult":false},{"id":36075,"adult":false},{"id":245706,"adult":false},{"id":251499,"adult":false},{"id":81443,"adult":false},{"id":223319,"adult":false},{"id":422407,"adult":false},{"id":45214,"adult":false},{"id":365003,"adult":false},{"id":422408,"adult":false},{"id":422409,"adult":false},{"id":110743,"adult":false},{"id":154515,"adult":false},{"id":422410,"adult":false},{"id":422412,"adult":false},{"id":422413,"adult":false},{"id":308529,"adult":false},{"id":29126,"adult":false},{"id":422414,"adult":false},{"id":422415,"adult":false},{"id":155084,"adult":false},{"id":378502,"adult":false},{"id":45520,"adult":false},{"id":84362,"adult":false},{"id":422416,"adult":false},{"id":276474,"adult":false},{"id":77953,"adult":false},{"id":63557,"adult":false},{"id":422417,"adult":false},{"id":106467,"adult":false},{"id":122805,"adult":false},{"id":46732,"adult":false},{"id":52227,"adult":false},{"id":41775,"adult":false},{"id":422418,"adult":false},{"id":86172,"adult":false},{"id":61280,"adult":false},{"id":22016,"adult":false},{"id":50687,"adult":false},{"id":254474,"adult":false},{"id":191017,"adult":false},{"id":29436,"adult":false},{"id":245719,"adult":false},{"id":422419,"adult":false}],"page":81,"total_pages":123,"total_results":12202}