{"results":[{"id":152,"adult":false},{"id":154,"adult":false},{"id":25955,"adult":false},{"id":389652,"adult":null},{"id":157,"adult":false},{"id":168,"adult":false},{"id":270302,"adult":false},{"id":15660,"adult":false},{"id":172,"adult":false},{"id":13475,"adult":false},{"id":193,"adult":false},{"id":199,"adult":false},{"id":200,"adult":false},{"id":201,"adult":false},{"id":931,"adult":false},{"id":333339,"adult":false},{"id":175966,"adult":false},{"id":49781,"adult":false},{"id":183182,"adult":false},{"id":389653,"adult":false},{"id":125262,"adult":false},{"id":389654,"adult":false},{"id":389655,"adult":false},{"id":389656,"adult":false},{"id":216641,"adult":false},{"id":85498,"adult":false},{"id":389657,"adult":false},{"id":44542,"adult":false},{"id":389658,"adult":false},{"id":2038,"adult":false},{"id":29094,"adult":false},{"id":13784,"adult":false},{"id":107,"adult":false},{"id":334080,"adult":false},{"id":389659,"adult":false},{"id":626,"adult":false},{"id":389660,"adult":false},{"id":193726,"adult":false},{"id":20436,"adult":false},{"id":330907,"adult":false},{"id":35114,"adult":false},{"id":389661,"adult":false},{"id":9657,"adult":false},{"id":389662,"adult":false},{"id":44871,"adult":false},{"id":280030,"adult":false},{"id":57212,"adult":false},{"id":300410,"adult":false},{"id":9252,"adult":false},{"id":287525,"adult":false},{"id":142589,"adult":false},{"id":49607,"adult":false},{"id":408,"adult":false},{"id":377056,"adult":false},{"id":389663,"adult":false},{"id":271841,"adult":false},{"id":389664,"adult":false},{"id":377212,"adult":false},{"id":389665,"adult":false},{"id":355664,"adult":false},{"id":210228,"adult":false},{"id":2212,"adult":false},{"id":389666,"adult":false},{"id":389667,"adult":false},{"id":385070,"adult":false},{"id":389668,"adult":false},{"id":389669,"adult":false},{"id":389670,"adult":false},{"id":11575,"adult":false},{"id":389671,"adult":false},{"id":389672,"adult":false},{"id":4032,"adult":false},{"id":389673,"adult":false},{"id":389674,"adult":false},{"id":25699,"adult":false},{"id":59,"adult":false},{"id":241554,"adult":false},{"id":343912,"adult":false},{"id":360784,"adult":false},{"id":42105,"adult":false},{"id":389675,"adult":false},{"id":30497,"adult":false},{"id":70349,"adult":false},{"id":100633,"adult":false},{"id":321581,"adult":false},{"id":10674,"adult":false},{"id":389676,"adult":true},{"id":309195,"adult":false},{"id":283915,"adult":false},{"id":374712,"adult":false},{"id":244580,"adult":false},{"id":234416,"adult":false},{"id":389677,"adult":false},{"id":365748,"adult":false},{"id":323684,"adult":false},{"id":389678,"adult":false},{"id":8293,"adult":false},{"id":389682,"adult":false},{"id":52559,"adult":false},{"id":389683,"adult":false}],"page":103,"total_pages":120,"total_results":11936}