{"results":[{"id":288016,"adult":false},{"id":308759,"adult":false},{"id":16642,"adult":false},{"id":313237,"adult":false},{"id":378964,"adult":false},{"id":366188,"adult":false},{"id":371028,"adult":false},{"id":344580,"adult":false},{"id":384180,"adult":false},{"id":10843,"adult":false},{"id":334557,"adult":false},{"id":415012,"adult":false},{"id":9504,"adult":false},{"id":351886,"adult":false},{"id":13678,"adult":false},{"id":101482,"adult":false},{"id":12311,"adult":false},{"id":34784,"adult":false},{"id":9543,"adult":false},{"id":78164,"adult":false},{"id":391477,"adult":false},{"id":410092,"adult":false},{"id":8665,"adult":false},{"id":129733,"adult":false},{"id":326152,"adult":false},{"id":47070,"adult":false},{"id":393374,"adult":false},{"id":345734,"adult":false},{"id":163230,"adult":false},{"id":408806,"adult":false},{"id":332170,"adult":false},{"id":377634,"adult":false},{"id":377635,"adult":false},{"id":377633,"adult":false},{"id":389791,"adult":false},{"id":389661,"adult":false},{"id":415014,"adult":false},{"id":64744,"adult":false},{"id":415015,"adult":false},{"id":354857,"adult":false},{"id":410005,"adult":false},{"id":306347,"adult":false},{"id":43112,"adult":false},{"id":287906,"adult":false},{"id":302613,"adult":false},{"id":223645,"adult":false},{"id":75224,"adult":false},{"id":117903,"adult":false},{"id":18770,"adult":false},{"id":172187,"adult":false},{"id":173506,"adult":false},{"id":176684,"adult":false},{"id":180156,"adult":false},{"id":226331,"adult":false},{"id":178547,"adult":false},{"id":368308,"adult":false},{"id":335293,"adult":false},{"id":159841,"adult":false},{"id":285640,"adult":false},{"id":316465,"adult":false},{"id":338007,"adult":false},{"id":378036,"adult":false},{"id":415016,"adult":false},{"id":75329,"adult":false},{"id":407946,"adult":false},{"id":398149,"adult":false},{"id":415017,"adult":null},{"id":367521,"adult":false},{"id":315855,"adult":false},{"id":364226,"adult":false},{"id":4889,"adult":false},{"id":360248,"adult":false},{"id":354877,"adult":false},{"id":269090,"adult":false},{"id":364067,"adult":false},{"id":384947,"adult":false},{"id":399019,"adult":false},{"id":337272,"adult":false},{"id":388771,"adult":false},{"id":363703,"adult":false},{"id":30766,"adult":false},{"id":153010,"adult":false},{"id":344244,"adult":false},{"id":74726,"adult":false},{"id":411522,"adult":false},{"id":411894,"adult":false},{"id":412544,"adult":false},{"id":415018,"adult":false},{"id":235821,"adult":false},{"id":76163,"adult":false},{"id":28370,"adult":false},{"id":134408,"adult":false},{"id":324586,"adult":false},{"id":4344,"adult":false},{"id":193682,"adult":false},{"id":37624,"adult":false},{"id":385737,"adult":false},{"id":360812,"adult":false},{"id":10070,"adult":false},{"id":211636,"adult":false}],"page":82,"total_pages":126,"total_results":12554}