{"results":[{"id":34803,"adult":false},{"id":348296,"adult":false},{"id":260720,"adult":false},{"id":389929,"adult":false},{"id":19152,"adult":false},{"id":10480,"adult":false},{"id":318954,"adult":false},{"id":13555,"adult":false},{"id":389930,"adult":false},{"id":27637,"adult":false},{"id":4701,"adult":false},{"id":107864,"adult":false},{"id":60170,"adult":false},{"id":182131,"adult":false},{"id":389931,"adult":false},{"id":9291,"adult":false},{"id":32037,"adult":false},{"id":347413,"adult":false},{"id":165518,"adult":false},{"id":42068,"adult":false},{"id":313049,"adult":null},{"id":165520,"adult":false},{"id":110978,"adult":false},{"id":377718,"adult":false},{"id":389932,"adult":false},{"id":17501,"adult":false},{"id":109379,"adult":false},{"id":11639,"adult":false},{"id":254879,"adult":false},{"id":56231,"adult":false},{"id":53482,"adult":false},{"id":83899,"adult":false},{"id":389933,"adult":false},{"id":10678,"adult":false},{"id":98426,"adult":false},{"id":362015,"adult":false},{"id":308639,"adult":false},{"id":304023,"adult":false},{"id":316873,"adult":false},{"id":53354,"adult":false},{"id":23325,"adult":false},{"id":241074,"adult":false},{"id":58436,"adult":false},{"id":389934,"adult":false},{"id":282464,"adult":false},{"id":341368,"adult":false},{"id":43947,"adult":false},{"id":389935,"adult":null},{"id":71774,"adult":false},{"id":78796,"adult":false},{"id":80144,"adult":false},{"id":389936,"adult":false},{"id":73733,"adult":false},{"id":314010,"adult":false},{"id":75815,"adult":false},{"id":253299,"adult":false},{"id":52454,"adult":false},{"id":90479,"adult":null},{"id":43593,"adult":false},{"id":27651,"adult":false},{"id":348771,"adult":false},{"id":389938,"adult":null},{"id":389939,"adult":false},{"id":110416,"adult":false},{"id":41402,"adult":false},{"id":46812,"adult":false},{"id":301810,"adult":false},{"id":389940,"adult":false},{"id":508,"adult":false},{"id":389941,"adult":false},{"id":104185,"adult":false},{"id":389942,"adult":false},{"id":187905,"adult":true},{"id":389943,"adult":false},{"id":389944,"adult":false},{"id":18755,"adult":false},{"id":344478,"adult":true},{"id":245,"adult":false},{"id":389945,"adult":false},{"id":389946,"adult":false},{"id":28990,"adult":false},{"id":634,"adult":false},{"id":389947,"adult":false},{"id":389948,"adult":false},{"id":16258,"adult":false},{"id":4584,"adult":false},{"id":375290,"adult":false},{"id":130158,"adult":false},{"id":17532,"adult":false},{"id":307842,"adult":false},{"id":389949,"adult":false},{"id":21474,"adult":false},{"id":99367,"adult":false},{"id":24150,"adult":false},{"id":389950,"adult":false},{"id":110415,"adult":false},{"id":10154,"adult":false},{"id":36917,"adult":false},{"id":26693,"adult":false},{"id":39199,"adult":false}],"page":114,"total_pages":120,"total_results":11936}