{"results":[{"id":221781,"adult":true},{"id":289549,"adult":true},{"id":289551,"adult":true},{"id":289552,"adult":true},{"id":298016,"adult":false},{"id":374728,"adult":false},{"id":378702,"adult":false},{"id":378703,"adult":false},{"id":112336,"adult":false},{"id":241257,"adult":false},{"id":286184,"adult":false},{"id":369761,"adult":false},{"id":378704,"adult":false},{"id":347031,"adult":false},{"id":325346,"adult":false},{"id":169565,"adult":false},{"id":348320,"adult":false},{"id":9874,"adult":false},{"id":219302,"adult":false},{"id":355178,"adult":false},{"id":374512,"adult":false},{"id":143517,"adult":false},{"id":81307,"adult":false},{"id":9645,"adult":false},{"id":260029,"adult":false},{"id":197823,"adult":false},{"id":92591,"adult":false},{"id":329186,"adult":false},{"id":260569,"adult":false},{"id":280630,"adult":false},{"id":63972,"adult":false},{"id":128136,"adult":false},{"id":262066,"adult":false},{"id":77146,"adult":false},{"id":262900,"adult":false},{"id":101421,"adult":false},{"id":263229,"adult":false},{"id":263422,"adult":false},{"id":378706,"adult":false},{"id":81532,"adult":false},{"id":264360,"adult":false},{"id":9533,"adult":false},{"id":269156,"adult":false},{"id":269494,"adult":false},{"id":302394,"adult":false},{"id":378707,"adult":false},{"id":269877,"adult":false},{"id":290092,"adult":false},{"id":270923,"adult":false},{"id":378708,"adult":false},{"id":273468,"adult":false},{"id":378709,"adult":false},{"id":57937,"adult":false},{"id":287746,"adult":false},{"id":275276,"adult":false},{"id":46502,"adult":false},{"id":276128,"adult":false},{"id":179144,"adult":false},{"id":283552,"adult":false},{"id":280665,"adult":false},{"id":320953,"adult":false},{"id":217759,"adult":false},{"id":378710,"adult":false},{"id":9932,"adult":false},{"id":282663,"adult":false},{"id":282793,"adult":false},{"id":20152,"adult":false},{"id":207184,"adult":false},{"id":286390,"adult":false},{"id":325559,"adult":false},{"id":25563,"adult":false},{"id":96267,"adult":false},{"id":120664,"adult":false},{"id":289069,"adult":false},{"id":289291,"adult":false},{"id":292682,"adult":false},{"id":178995,"adult":false},{"id":292999,"adult":false},{"id":79880,"adult":false},{"id":295133,"adult":null},{"id":173141,"adult":false},{"id":101471,"adult":false},{"id":44092,"adult":false},{"id":19167,"adult":false},{"id":219101,"adult":false},{"id":327418,"adult":false},{"id":296025,"adult":false},{"id":378711,"adult":false},{"id":26388,"adult":false},{"id":44040,"adult":false},{"id":12589,"adult":false},{"id":2984,"adult":false},{"id":5174,"adult":false},{"id":123,"adult":false},{"id":768,"adult":false},{"id":296942,"adult":false},{"id":754,"adult":false},{"id":42022,"adult":true},{"id":194266,"adult":false},{"id":307169,"adult":false}],"page":70,"total_pages":226,"total_results":22514}