{"results":[{"id":403476,"adult":null},{"id":403477,"adult":false},{"id":403478,"adult":false},{"id":233277,"adult":false},{"id":403479,"adult":null},{"id":109445,"adult":false},{"id":159824,"adult":false},{"id":82702,"adult":false},{"id":403480,"adult":false},{"id":2300,"adult":false},{"id":278190,"adult":false},{"id":378629,"adult":false},{"id":278399,"adult":false},{"id":280189,"adult":false},{"id":403481,"adult":null},{"id":280196,"adult":false},{"id":280916,"adult":false},{"id":368377,"adult":false},{"id":403482,"adult":false},{"id":403483,"adult":false},{"id":354580,"adult":false},{"id":269151,"adult":false},{"id":65,"adult":false},{"id":374465,"adult":false},{"id":41940,"adult":false},{"id":283680,"adult":false},{"id":39408,"adult":false},{"id":403484,"adult":false},{"id":403485,"adult":false},{"id":41462,"adult":false},{"id":361772,"adult":false},{"id":85001,"adult":false},{"id":39224,"adult":false},{"id":77930,"adult":false},{"id":403486,"adult":false},{"id":366656,"adult":false},{"id":403487,"adult":false},{"id":103753,"adult":false},{"id":403488,"adult":false},{"id":55658,"adult":false},{"id":403489,"adult":false},{"id":44248,"adult":false},{"id":8321,"adult":false},{"id":403490,"adult":null},{"id":403491,"adult":null},{"id":403492,"adult":null},{"id":403495,"adult":null},{"id":18587,"adult":false},{"id":51808,"adult":false},{"id":2176,"adult":false},{"id":3716,"adult":false},{"id":338314,"adult":false},{"id":45316,"adult":false},{"id":403496,"adult":null},{"id":48686,"adult":false},{"id":1999,"adult":false},{"id":339304,"adult":false},{"id":403497,"adult":null},{"id":356783,"adult":false},{"id":19833,"adult":false},{"id":454,"adult":false},{"id":387479,"adult":null},{"id":29760,"adult":false},{"id":5879,"adult":false},{"id":403498,"adult":null},{"id":131318,"adult":false},{"id":46738,"adult":false},{"id":107237,"adult":false},{"id":40158,"adult":false},{"id":21906,"adult":false},{"id":378316,"adult":false},{"id":10775,"adult":false},{"id":148980,"adult":false},{"id":42171,"adult":false},{"id":30833,"adult":false},{"id":24869,"adult":false},{"id":214731,"adult":false},{"id":101886,"adult":false},{"id":371558,"adult":false},{"id":97472,"adult":false},{"id":73881,"adult":false},{"id":137164,"adult":false},{"id":25318,"adult":false},{"id":46373,"adult":false},{"id":403499,"adult":false},{"id":55256,"adult":false},{"id":357131,"adult":false},{"id":158015,"adult":false},{"id":196313,"adult":false},{"id":13567,"adult":false},{"id":366057,"adult":false},{"id":349740,"adult":false},{"id":203896,"adult":false},{"id":403500,"adult":false},{"id":198544,"adult":false},{"id":10536,"adult":false},{"id":16130,"adult":false},{"id":342878,"adult":false},{"id":2984,"adult":false},{"id":341881,"adult":false}],"page":90,"total_pages":116,"total_results":11526}