{"results":[{"id":73311,"adult":false},{"id":407432,"adult":false},{"id":407433,"adult":false},{"id":363314,"adult":false},{"id":198184,"adult":false},{"id":33602,"adult":false},{"id":407434,"adult":false},{"id":290795,"adult":false},{"id":8748,"adult":false},{"id":131076,"adult":false},{"id":229862,"adult":false},{"id":64368,"adult":false},{"id":183073,"adult":false},{"id":21032,"adult":false},{"id":65881,"adult":false},{"id":112570,"adult":false},{"id":286566,"adult":false},{"id":10371,"adult":false},{"id":369415,"adult":false},{"id":341271,"adult":false},{"id":407435,"adult":false},{"id":564,"adult":false},{"id":339547,"adult":false},{"id":18391,"adult":false},{"id":407436,"adult":false},{"id":42688,"adult":false},{"id":383498,"adult":false},{"id":42554,"adult":false},{"id":105529,"adult":false},{"id":407437,"adult":null},{"id":407438,"adult":false},{"id":407439,"adult":false},{"id":120895,"adult":false},{"id":407440,"adult":false},{"id":79728,"adult":false},{"id":206408,"adult":false},{"id":45912,"adult":false},{"id":407442,"adult":null},{"id":407443,"adult":false},{"id":82914,"adult":false},{"id":377859,"adult":false},{"id":10202,"adult":false},{"id":40025,"adult":false},{"id":401557,"adult":false},{"id":115717,"adult":false},{"id":407444,"adult":false},{"id":401460,"adult":false},{"id":407445,"adult":false},{"id":407446,"adult":false},{"id":404707,"adult":false},{"id":227935,"adult":false},{"id":407447,"adult":false},{"id":653,"adult":false},{"id":57265,"adult":false},{"id":407448,"adult":false},{"id":310010,"adult":false},{"id":407449,"adult":false},{"id":283041,"adult":false},{"id":407450,"adult":false},{"id":47402,"adult":false},{"id":407451,"adult":false},{"id":398970,"adult":false},{"id":258216,"adult":false},{"id":67660,"adult":false},{"id":59006,"adult":false},{"id":10219,"adult":false},{"id":18400,"adult":false},{"id":195454,"adult":false},{"id":11659,"adult":false},{"id":111839,"adult":false},{"id":17658,"adult":false},{"id":297400,"adult":false},{"id":13067,"adult":false},{"id":114718,"adult":false},{"id":73723,"adult":false},{"id":78463,"adult":false},{"id":44578,"adult":false},{"id":18517,"adult":false},{"id":133200,"adult":false},{"id":384664,"adult":false},{"id":407453,"adult":false},{"id":51071,"adult":false},{"id":35019,"adult":false},{"id":36658,"adult":false},{"id":15020,"adult":false},{"id":385586,"adult":false},{"id":36668,"adult":false},{"id":19587,"adult":false},{"id":27576,"adult":false},{"id":199445,"adult":false},{"id":374416,"adult":false},{"id":373314,"adult":false},{"id":17179,"adult":false},{"id":37724,"adult":false},{"id":291356,"adult":false},{"id":13490,"adult":false},{"id":11283,"adult":false},{"id":10360,"adult":false},{"id":168643,"adult":false},{"id":12604,"adult":false}],"page":70,"total_pages":120,"total_results":11946}