{"results":[{"id":190806,"adult":false},{"id":172021,"adult":false},{"id":401634,"adult":false},{"id":399802,"adult":false},{"id":584,"adult":false},{"id":337339,"adult":false},{"id":384081,"adult":false},{"id":345932,"adult":false},{"id":401635,"adult":false},{"id":389626,"adult":false},{"id":373881,"adult":false},{"id":373526,"adult":false},{"id":69357,"adult":false},{"id":399810,"adult":false},{"id":8413,"adult":false},{"id":143670,"adult":false},{"id":401636,"adult":false},{"id":117324,"adult":false},{"id":11905,"adult":false},{"id":210728,"adult":false},{"id":243752,"adult":false},{"id":401637,"adult":false},{"id":8814,"adult":false},{"id":381341,"adult":false},{"id":401638,"adult":true},{"id":60573,"adult":false},{"id":389754,"adult":false},{"id":401639,"adult":true},{"id":29905,"adult":false},{"id":284760,"adult":false},{"id":80601,"adult":false},{"id":29290,"adult":false},{"id":401640,"adult":false},{"id":268564,"adult":false},{"id":401641,"adult":false},{"id":401642,"adult":true},{"id":59098,"adult":false},{"id":346962,"adult":false},{"id":401643,"adult":false},{"id":3043,"adult":false},{"id":384965,"adult":false},{"id":16036,"adult":false},{"id":3163,"adult":false},{"id":401644,"adult":true},{"id":324253,"adult":false},{"id":124381,"adult":false},{"id":401645,"adult":true},{"id":84042,"adult":false},{"id":82093,"adult":false},{"id":401650,"adult":false},{"id":401651,"adult":false},{"id":286238,"adult":false},{"id":326255,"adult":false},{"id":401652,"adult":true},{"id":354100,"adult":false},{"id":384039,"adult":null},{"id":89644,"adult":false},{"id":151536,"adult":false},{"id":268775,"adult":false},{"id":107397,"adult":false},{"id":105836,"adult":false},{"id":353356,"adult":false},{"id":401653,"adult":false},{"id":48291,"adult":false},{"id":401654,"adult":false},{"id":356167,"adult":false},{"id":206185,"adult":false},{"id":86645,"adult":false},{"id":94832,"adult":false},{"id":43968,"adult":false},{"id":401655,"adult":false},{"id":17205,"adult":false},{"id":371335,"adult":null},{"id":30588,"adult":false},{"id":295278,"adult":false},{"id":43460,"adult":false},{"id":363014,"adult":false},{"id":82101,"adult":false},{"id":401656,"adult":false},{"id":217153,"adult":false},{"id":401657,"adult":false},{"id":43463,"adult":false},{"id":80287,"adult":false},{"id":44132,"adult":false},{"id":149687,"adult":false},{"id":90187,"adult":false},{"id":398577,"adult":false},{"id":362124,"adult":false},{"id":56231,"adult":false},{"id":401658,"adult":false},{"id":129564,"adult":false},{"id":43012,"adult":false},{"id":47096,"adult":false},{"id":18871,"adult":false},{"id":399594,"adult":false},{"id":19169,"adult":false},{"id":92420,"adult":false},{"id":26451,"adult":false},{"id":121139,"adult":false},{"id":16391,"adult":false}],"page":94,"total_pages":116,"total_results":11568}