{"results":[{"id":13757,"adult":false},{"id":407258,"adult":null},{"id":14906,"adult":false},{"id":407259,"adult":false},{"id":122644,"adult":false},{"id":11190,"adult":false},{"id":20343,"adult":false},{"id":407260,"adult":null},{"id":11816,"adult":false},{"id":127380,"adult":false},{"id":46929,"adult":false},{"id":407261,"adult":null},{"id":13385,"adult":false},{"id":15947,"adult":false},{"id":60041,"adult":false},{"id":38717,"adult":false},{"id":31516,"adult":false},{"id":407262,"adult":null},{"id":263472,"adult":false},{"id":400136,"adult":false},{"id":17889,"adult":false},{"id":205588,"adult":false},{"id":407263,"adult":null},{"id":35790,"adult":false},{"id":341787,"adult":false},{"id":407264,"adult":null},{"id":91471,"adult":false},{"id":160171,"adult":false},{"id":16155,"adult":false},{"id":362970,"adult":false},{"id":341792,"adult":false},{"id":407265,"adult":null},{"id":407266,"adult":false},{"id":194727,"adult":false},{"id":4193,"adult":false},{"id":34106,"adult":false},{"id":152742,"adult":false},{"id":407267,"adult":false},{"id":12311,"adult":false},{"id":35026,"adult":false},{"id":407268,"adult":null},{"id":631,"adult":false},{"id":407269,"adult":null},{"id":182827,"adult":false},{"id":33680,"adult":false},{"id":31589,"adult":false},{"id":15919,"adult":false},{"id":28881,"adult":false},{"id":318914,"adult":false},{"id":270303,"adult":false},{"id":329892,"adult":false},{"id":43199,"adult":false},{"id":102382,"adult":false},{"id":43266,"adult":false},{"id":56164,"adult":false},{"id":66150,"adult":false},{"id":45726,"adult":false},{"id":27367,"adult":false},{"id":43277,"adult":false},{"id":200954,"adult":false},{"id":100627,"adult":false},{"id":234249,"adult":false},{"id":353069,"adult":false},{"id":234112,"adult":false},{"id":407271,"adult":true},{"id":14551,"adult":false},{"id":219532,"adult":false},{"id":93520,"adult":false},{"id":30080,"adult":false},{"id":56960,"adult":false},{"id":2980,"adult":false},{"id":407272,"adult":false},{"id":56386,"adult":false},{"id":62676,"adult":false},{"id":55441,"adult":false},{"id":50477,"adult":false},{"id":204605,"adult":false},{"id":1868,"adult":false},{"id":369239,"adult":false},{"id":308650,"adult":false},{"id":22994,"adult":false},{"id":28916,"adult":false},{"id":56156,"adult":false},{"id":285176,"adult":false},{"id":93553,"adult":false},{"id":16323,"adult":false},{"id":330770,"adult":false},{"id":15600,"adult":false},{"id":11293,"adult":false},{"id":208198,"adult":false},{"id":407273,"adult":false},{"id":26685,"adult":false},{"id":279445,"adult":false},{"id":52859,"adult":false},{"id":110552,"adult":false},{"id":321166,"adult":false},{"id":59851,"adult":false},{"id":315841,"adult":false},{"id":3,"adult":false},{"id":70409,"adult":false}],"page":53,"total_pages":120,"total_results":11946}