{"results":[{"id":242338,"adult":false},{"id":289928,"adult":false},{"id":318312,"adult":false},{"id":39781,"adult":false},{"id":319662,"adult":false},{"id":51421,"adult":false},{"id":341894,"adult":false},{"id":28138,"adult":false},{"id":80724,"adult":false},{"id":394708,"adult":false},{"id":283154,"adult":false},{"id":360252,"adult":false},{"id":341378,"adult":false},{"id":394709,"adult":false},{"id":363518,"adult":true},{"id":369245,"adult":false},{"id":394710,"adult":false},{"id":394711,"adult":false},{"id":169925,"adult":false},{"id":22824,"adult":false},{"id":394712,"adult":true},{"id":363579,"adult":false},{"id":76013,"adult":false},{"id":353266,"adult":false},{"id":126644,"adult":false},{"id":394713,"adult":false},{"id":19027,"adult":false},{"id":280548,"adult":false},{"id":343724,"adult":false},{"id":394714,"adult":false},{"id":168098,"adult":false},{"id":394715,"adult":false},{"id":318494,"adult":false},{"id":27277,"adult":false},{"id":342656,"adult":false},{"id":316521,"adult":false},{"id":394716,"adult":false},{"id":316932,"adult":false},{"id":283365,"adult":false},{"id":319045,"adult":false},{"id":324771,"adult":false},{"id":317949,"adult":false},{"id":394717,"adult":false},{"id":3989,"adult":false},{"id":93399,"adult":false},{"id":153,"adult":false},{"id":394718,"adult":false},{"id":9741,"adult":false},{"id":394719,"adult":false},{"id":11075,"adult":false},{"id":12589,"adult":false},{"id":103,"adult":false},{"id":394720,"adult":false},{"id":388336,"adult":null},{"id":394721,"adult":false},{"id":285559,"adult":false},{"id":300667,"adult":false},{"id":40249,"adult":false},{"id":159004,"adult":false},{"id":178040,"adult":false},{"id":325038,"adult":false},{"id":394723,"adult":false},{"id":3112,"adult":false},{"id":292474,"adult":false},{"id":394724,"adult":false},{"id":394725,"adult":false},{"id":22076,"adult":false},{"id":101806,"adult":false},{"id":366339,"adult":false},{"id":394726,"adult":false},{"id":394727,"adult":false},{"id":11414,"adult":false},{"id":394728,"adult":false},{"id":70886,"adult":false},{"id":8920,"adult":false},{"id":394729,"adult":false},{"id":394730,"adult":false},{"id":44921,"adult":false},{"id":10133,"adult":false},{"id":105763,"adult":false},{"id":285605,"adult":false},{"id":394731,"adult":false},{"id":394732,"adult":false},{"id":277638,"adult":false},{"id":64068,"adult":false},{"id":394733,"adult":false},{"id":86115,"adult":false},{"id":2106,"adult":false},{"id":285179,"adult":false},{"id":46338,"adult":false},{"id":235093,"adult":false},{"id":41464,"adult":false},{"id":42541,"adult":false},{"id":28240,"adult":false},{"id":9513,"adult":false},{"id":11692,"adult":false},{"id":303663,"adult":false},{"id":303662,"adult":false},{"id":303661,"adult":false},{"id":31128,"adult":false}],"page":117,"total_pages":127,"total_results":12659}