{"results":[{"id":386382,"adult":false},{"id":386383,"adult":null},{"id":326359,"adult":false},{"id":386384,"adult":false},{"id":386385,"adult":false},{"id":386386,"adult":false},{"id":386387,"adult":false},{"id":28971,"adult":false},{"id":81415,"adult":false},{"id":332270,"adult":false},{"id":21845,"adult":false},{"id":301228,"adult":false},{"id":386388,"adult":false},{"id":386389,"adult":false},{"id":290764,"adult":false},{"id":386390,"adult":false},{"id":386391,"adult":false},{"id":207768,"adult":false},{"id":1073,"adult":false},{"id":386392,"adult":false},{"id":43947,"adult":false},{"id":386393,"adult":false},{"id":152742,"adult":false},{"id":259596,"adult":false},{"id":387,"adult":false},{"id":68067,"adult":false},{"id":65123,"adult":false},{"id":167810,"adult":false},{"id":386394,"adult":false},{"id":386395,"adult":false},{"id":386396,"adult":false},{"id":386397,"adult":false},{"id":383703,"adult":false},{"id":386398,"adult":false},{"id":369952,"adult":false},{"id":386399,"adult":false},{"id":370037,"adult":false},{"id":386400,"adult":false},{"id":386401,"adult":false},{"id":386402,"adult":false},{"id":386403,"adult":false},{"id":386404,"adult":false},{"id":303606,"adult":false},{"id":287145,"adult":false},{"id":386405,"adult":false},{"id":386406,"adult":false},{"id":386407,"adult":false},{"id":386408,"adult":false},{"id":386409,"adult":false},{"id":386410,"adult":false},{"id":386411,"adult":false},{"id":297075,"adult":false},{"id":1893,"adult":false},{"id":386412,"adult":false},{"id":386413,"adult":false},{"id":386414,"adult":false},{"id":77058,"adult":false},{"id":386415,"adult":false},{"id":48775,"adult":false},{"id":1894,"adult":false},{"id":386416,"adult":false},{"id":369959,"adult":false},{"id":289580,"adult":false},{"id":327542,"adult":false},{"id":386417,"adult":false},{"id":386418,"adult":false},{"id":386419,"adult":false},{"id":18973,"adult":false},{"id":1891,"adult":false},{"id":158826,"adult":false},{"id":386420,"adult":false},{"id":386421,"adult":false},{"id":317631,"adult":false},{"id":299601,"adult":false},{"id":265066,"adult":false},{"id":39099,"adult":false},{"id":324308,"adult":false},{"id":79649,"adult":false},{"id":373756,"adult":null},{"id":373764,"adult":null},{"id":259316,"adult":false},{"id":386422,"adult":false},{"id":268114,"adult":false},{"id":296300,"adult":false},{"id":308822,"adult":false},{"id":386423,"adult":false},{"id":252169,"adult":false},{"id":274154,"adult":false},{"id":63516,"adult":false},{"id":27226,"adult":false},{"id":384021,"adult":false},{"id":56499,"adult":false},{"id":265960,"adult":false},{"id":363472,"adult":null},{"id":36414,"adult":false},{"id":380778,"adult":false},{"id":68737,"adult":false},{"id":300072,"adult":false},{"id":18095,"adult":false},{"id":290442,"adult":false}],"page":72,"total_pages":123,"total_results":12230}