{"results":[{"id":417180,"adult":false},{"id":14460,"adult":false},{"id":36460,"adult":false},{"id":366885,"adult":false},{"id":420913,"adult":false},{"id":19761,"adult":false},{"id":158240,"adult":false},{"id":179798,"adult":false},{"id":28679,"adult":false},{"id":264956,"adult":false},{"id":15742,"adult":false},{"id":420914,"adult":false},{"id":267711,"adult":false},{"id":236786,"adult":false},{"id":379284,"adult":false},{"id":220333,"adult":false},{"id":71503,"adult":false},{"id":70642,"adult":false},{"id":121507,"adult":false},{"id":420915,"adult":false},{"id":10765,"adult":false},{"id":64511,"adult":false},{"id":37084,"adult":false},{"id":70423,"adult":false},{"id":44462,"adult":false},{"id":284918,"adult":false},{"id":420916,"adult":false},{"id":1906,"adult":false},{"id":89160,"adult":false},{"id":205552,"adult":false},{"id":29845,"adult":false},{"id":156614,"adult":false},{"id":420917,"adult":false},{"id":98864,"adult":false},{"id":138100,"adult":false},{"id":302429,"adult":false},{"id":250,"adult":false},{"id":11333,"adult":false},{"id":96051,"adult":false},{"id":39996,"adult":false},{"id":366805,"adult":false},{"id":47942,"adult":false},{"id":64739,"adult":false},{"id":55321,"adult":false},{"id":420918,"adult":false},{"id":35125,"adult":false},{"id":420919,"adult":false},{"id":78448,"adult":false},{"id":33806,"adult":false},{"id":77334,"adult":false},{"id":10746,"adult":false},{"id":333386,"adult":false},{"id":420920,"adult":false},{"id":28212,"adult":false},{"id":420921,"adult":false},{"id":30120,"adult":false},{"id":175,"adult":false},{"id":38147,"adult":false},{"id":800,"adult":false},{"id":29122,"adult":false},{"id":380111,"adult":false},{"id":65891,"adult":false},{"id":420922,"adult":false},{"id":37786,"adult":false},{"id":26347,"adult":false},{"id":420923,"adult":false},{"id":174907,"adult":false},{"id":401672,"adult":false},{"id":162512,"adult":false},{"id":47736,"adult":false},{"id":383501,"adult":false},{"id":2211,"adult":false},{"id":218796,"adult":false},{"id":38442,"adult":false},{"id":414547,"adult":false},{"id":147747,"adult":false},{"id":356185,"adult":false},{"id":166334,"adult":false},{"id":420924,"adult":null},{"id":36040,"adult":false},{"id":8075,"adult":false},{"id":420925,"adult":false},{"id":18975,"adult":false},{"id":420926,"adult":false},{"id":372341,"adult":false},{"id":420927,"adult":true},{"id":56774,"adult":false},{"id":420928,"adult":false},{"id":71308,"adult":false},{"id":48742,"adult":false},{"id":10337,"adult":false},{"id":14160,"adult":false},{"id":40894,"adult":false},{"id":218836,"adult":false},{"id":51138,"adult":false},{"id":393129,"adult":false},{"id":10193,"adult":false},{"id":9381,"adult":false},{"id":329166,"adult":false},{"id":294,"adult":false}],"page":132,"total_pages":144,"total_results":14341}