{"results":[{"id":325422,"adult":false},{"id":303606,"adult":false},{"id":376586,"adult":false},{"id":120670,"adult":false},{"id":384576,"adult":false},{"id":37980,"adult":false},{"id":384577,"adult":false},{"id":384578,"adult":false},{"id":180687,"adult":false},{"id":384579,"adult":false},{"id":384580,"adult":false},{"id":384581,"adult":false},{"id":49036,"adult":false},{"id":384582,"adult":false},{"id":105711,"adult":false},{"id":339533,"adult":false},{"id":384583,"adult":false},{"id":181533,"adult":false},{"id":384584,"adult":false},{"id":384585,"adult":false},{"id":50392,"adult":false},{"id":384586,"adult":false},{"id":384587,"adult":false},{"id":298583,"adult":false},{"id":13194,"adult":false},{"id":384588,"adult":false},{"id":384589,"adult":false},{"id":197823,"adult":false},{"id":104378,"adult":false},{"id":337717,"adult":false},{"id":280492,"adult":false},{"id":47425,"adult":false},{"id":150405,"adult":false},{"id":11913,"adult":false},{"id":4728,"adult":false},{"id":384590,"adult":false},{"id":363421,"adult":null},{"id":384591,"adult":false},{"id":384592,"adult":false},{"id":49979,"adult":false},{"id":210953,"adult":false},{"id":384593,"adult":false},{"id":73764,"adult":false},{"id":384594,"adult":false},{"id":384595,"adult":false},{"id":56835,"adult":false},{"id":348913,"adult":null},{"id":339984,"adult":false},{"id":348915,"adult":null},{"id":348918,"adult":null},{"id":348914,"adult":null},{"id":348916,"adult":null},{"id":348917,"adult":null},{"id":300441,"adult":false},{"id":348919,"adult":null},{"id":348920,"adult":null},{"id":343680,"adult":null},{"id":98927,"adult":false},{"id":343679,"adult":null},{"id":379989,"adult":null},{"id":39463,"adult":false},{"id":16417,"adult":false},{"id":212738,"adult":false},{"id":85525,"adult":false},{"id":328253,"adult":null},{"id":70410,"adult":false},{"id":81217,"adult":false},{"id":104268,"adult":false},{"id":256345,"adult":false},{"id":167571,"adult":false},{"id":384596,"adult":false},{"id":353658,"adult":null},{"id":384597,"adult":false},{"id":54325,"adult":false},{"id":220816,"adult":false},{"id":384598,"adult":false},{"id":10734,"adult":false},{"id":95140,"adult":false},{"id":360820,"adult":null},{"id":373314,"adult":false},{"id":286206,"adult":false},{"id":351064,"adult":false},{"id":384599,"adult":false},{"id":331588,"adult":false},{"id":266215,"adult":false},{"id":360366,"adult":null},{"id":384600,"adult":false},{"id":372954,"adult":false},{"id":384601,"adult":false},{"id":363455,"adult":null},{"id":9803,"adult":false},{"id":172747,"adult":false},{"id":316023,"adult":false},{"id":50619,"adult":false},{"id":321751,"adult":false},{"id":15557,"adult":false},{"id":113080,"adult":false},{"id":309593,"adult":false},{"id":114155,"adult":false},{"id":196691,"adult":false}],"page":106,"total_pages":123,"total_results":12205}