{"results":[{"id":32707,"adult":false},{"id":416240,"adult":false},{"id":428765,"adult":false},{"id":421632,"adult":false},{"id":84956,"adult":false},{"id":332210,"adult":false},{"id":421631,"adult":false},{"id":293660,"adult":false},{"id":421630,"adult":false},{"id":422842,"adult":false},{"id":4513,"adult":false},{"id":418969,"adult":false},{"id":17212,"adult":false},{"id":58891,"adult":false},{"id":42941,"adult":false},{"id":150641,"adult":false},{"id":59027,"adult":false},{"id":428766,"adult":false},{"id":428767,"adult":false},{"id":62567,"adult":false},{"id":344603,"adult":true},{"id":428768,"adult":false},{"id":252178,"adult":false},{"id":43171,"adult":true},{"id":4442,"adult":false},{"id":20647,"adult":false},{"id":52246,"adult":null},{"id":11253,"adult":false},{"id":44067,"adult":false},{"id":428769,"adult":true},{"id":112951,"adult":false},{"id":428770,"adult":false},{"id":237328,"adult":false},{"id":155,"adult":false},{"id":272,"adult":false},{"id":23387,"adult":false},{"id":9362,"adult":false},{"id":114077,"adult":false},{"id":49026,"adult":false},{"id":42879,"adult":false},{"id":14365,"adult":false},{"id":428290,"adult":false},{"id":406547,"adult":false},{"id":18588,"adult":false},{"id":8999,"adult":false},{"id":43837,"adult":false},{"id":83015,"adult":false},{"id":370563,"adult":null},{"id":73211,"adult":false},{"id":340816,"adult":false},{"id":256371,"adult":false},{"id":339291,"adult":false},{"id":44043,"adult":false},{"id":284057,"adult":false},{"id":216859,"adult":false},{"id":428771,"adult":false},{"id":43137,"adult":false},{"id":358893,"adult":false},{"id":9842,"adult":false},{"id":421357,"adult":false},{"id":2330,"adult":false},{"id":423653,"adult":false},{"id":425841,"adult":false},{"id":59585,"adult":false},{"id":137094,"adult":false},{"id":187302,"adult":false},{"id":33725,"adult":false},{"id":393,"adult":false},{"id":397486,"adult":false},{"id":345925,"adult":false},{"id":53112,"adult":false},{"id":253490,"adult":false},{"id":132094,"adult":false},{"id":185981,"adult":false},{"id":418725,"adult":false},{"id":87117,"adult":false},{"id":428772,"adult":null},{"id":65292,"adult":false},{"id":428773,"adult":false},{"id":322162,"adult":null},{"id":54844,"adult":false},{"id":12633,"adult":false},{"id":105865,"adult":false},{"id":363944,"adult":false},{"id":428774,"adult":false},{"id":428775,"adult":null},{"id":268716,"adult":false},{"id":239376,"adult":false},{"id":297651,"adult":false},{"id":404950,"adult":false},{"id":46614,"adult":false},{"id":428776,"adult":false},{"id":390277,"adult":false},{"id":10029,"adult":false},{"id":52741,"adult":false},{"id":272820,"adult":false},{"id":43747,"adult":false},{"id":351454,"adult":false},{"id":506,"adult":false},{"id":342666,"adult":true}],"page":27,"total_pages":123,"total_results":12242}