{"results":[{"id":362410,"adult":false},{"id":72977,"adult":false},{"id":297636,"adult":false},{"id":196726,"adult":false},{"id":171899,"adult":false},{"id":348721,"adult":false},{"id":129234,"adult":false},{"id":141,"adult":false},{"id":185527,"adult":false},{"id":204485,"adult":false},{"id":256925,"adult":false},{"id":149109,"adult":false},{"id":90645,"adult":false},{"id":60935,"adult":false},{"id":18419,"adult":false},{"id":344364,"adult":false},{"id":114676,"adult":false},{"id":192738,"adult":false},{"id":264130,"adult":false},{"id":54956,"adult":false},{"id":74800,"adult":false},{"id":286670,"adult":false},{"id":384500,"adult":false},{"id":33244,"adult":false},{"id":138147,"adult":false},{"id":159648,"adult":false},{"id":84147,"adult":false},{"id":44843,"adult":false},{"id":171477,"adult":false},{"id":323366,"adult":false},{"id":172409,"adult":false},{"id":358705,"adult":false},{"id":357719,"adult":false},{"id":347659,"adult":false},{"id":203571,"adult":false},{"id":287915,"adult":false},{"id":343981,"adult":false},{"id":370318,"adult":false},{"id":127505,"adult":false},{"id":42316,"adult":false},{"id":291911,"adult":false},{"id":110687,"adult":false},{"id":36192,"adult":false},{"id":325319,"adult":false},{"id":15965,"adult":false},{"id":283077,"adult":false},{"id":203576,"adult":false},{"id":203558,"adult":false},{"id":163936,"adult":false},{"id":194386,"adult":false},{"id":169466,"adult":false},{"id":53818,"adult":false},{"id":20704,"adult":false},{"id":274871,"adult":false},{"id":203568,"adult":false},{"id":203565,"adult":false},{"id":254448,"adult":false},{"id":18898,"adult":false},{"id":271331,"adult":false},{"id":384501,"adult":null},{"id":256836,"adult":false},{"id":11844,"adult":false},{"id":255647,"adult":false},{"id":249147,"adult":false},{"id":11928,"adult":false},{"id":318167,"adult":false},{"id":278322,"adult":false},{"id":346942,"adult":false},{"id":292763,"adult":false},{"id":211539,"adult":false},{"id":186957,"adult":false},{"id":54148,"adult":false},{"id":367064,"adult":false},{"id":23537,"adult":false},{"id":100856,"adult":false},{"id":100854,"adult":false},{"id":384502,"adult":false},{"id":348127,"adult":false},{"id":274424,"adult":false},{"id":368284,"adult":false},{"id":8902,"adult":false},{"id":54955,"adult":false},{"id":172418,"adult":false},{"id":95661,"adult":false},{"id":174415,"adult":false},{"id":174033,"adult":false},{"id":174071,"adult":false},{"id":203566,"adult":false},{"id":67912,"adult":false},{"id":203569,"adult":false},{"id":137853,"adult":false},{"id":1738,"adult":false},{"id":183898,"adult":true},{"id":329160,"adult":false},{"id":338538,"adult":false},{"id":384503,"adult":false},{"id":384504,"adult":null},{"id":341571,"adult":false},{"id":58945,"adult":false},{"id":55244,"adult":false}],"page":101,"total_pages":123,"total_results":12205}