{"results":[{"id":9480,"adult":false},{"id":16993,"adult":false},{"id":279728,"adult":false},{"id":238751,"adult":false},{"id":18925,"adult":false},{"id":75969,"adult":false},{"id":10898,"adult":false},{"id":348549,"adult":false},{"id":2034,"adult":false},{"id":330244,"adult":false},{"id":200505,"adult":false},{"id":351127,"adult":false},{"id":33085,"adult":false},{"id":98612,"adult":false},{"id":184200,"adult":false},{"id":267864,"adult":false},{"id":2605,"adult":false},{"id":351895,"adult":false},{"id":87026,"adult":false},{"id":179308,"adult":false},{"id":355231,"adult":null},{"id":306927,"adult":false},{"id":208051,"adult":false},{"id":197921,"adult":false},{"id":355215,"adult":null},{"id":378931,"adult":false},{"id":39860,"adult":false},{"id":355217,"adult":null},{"id":40216,"adult":false},{"id":355218,"adult":null},{"id":355219,"adult":null},{"id":262787,"adult":false},{"id":355220,"adult":null},{"id":174603,"adult":false},{"id":355221,"adult":null},{"id":166376,"adult":false},{"id":355222,"adult":null},{"id":378932,"adult":false},{"id":11966,"adult":false},{"id":248156,"adult":false},{"id":355223,"adult":null},{"id":36121,"adult":false},{"id":355224,"adult":null},{"id":9383,"adult":false},{"id":355225,"adult":null},{"id":8997,"adult":false},{"id":355226,"adult":null},{"id":355227,"adult":null},{"id":330098,"adult":false},{"id":265123,"adult":false},{"id":24633,"adult":false},{"id":176129,"adult":false},{"id":97111,"adult":false},{"id":269024,"adult":false},{"id":358926,"adult":false},{"id":35571,"adult":false},{"id":8271,"adult":false},{"id":220590,"adult":false},{"id":356930,"adult":false},{"id":9359,"adult":false},{"id":253861,"adult":false},{"id":356986,"adult":false},{"id":333344,"adult":false},{"id":378933,"adult":null},{"id":176132,"adult":false},{"id":208202,"adult":false},{"id":378934,"adult":null},{"id":12705,"adult":false},{"id":357971,"adult":null},{"id":378935,"adult":null},{"id":358556,"adult":false},{"id":288004,"adult":false},{"id":378936,"adult":null},{"id":203739,"adult":false},{"id":359434,"adult":false},{"id":378937,"adult":null},{"id":361799,"adult":false},{"id":378938,"adult":null},{"id":31822,"adult":false},{"id":378939,"adult":null},{"id":361811,"adult":false},{"id":378940,"adult":false},{"id":378941,"adult":null},{"id":7220,"adult":false},{"id":287947,"adult":false},{"id":50056,"adult":false},{"id":157845,"adult":false},{"id":378942,"adult":null},{"id":378944,"adult":false},{"id":145174,"adult":false},{"id":51888,"adult":false},{"id":363220,"adult":false},{"id":62837,"adult":false},{"id":298618,"adult":false},{"id":141052,"adult":false},{"id":227735,"adult":false},{"id":363658,"adult":false},{"id":747,"adult":false},{"id":13996,"adult":false},{"id":2268,"adult":false}],"page":81,"total_pages":226,"total_results":22514}