{"results":[{"id":15018,"adult":false},{"id":1988,"adult":false},{"id":84330,"adult":false},{"id":314041,"adult":false},{"id":199818,"adult":false},{"id":10028,"adult":false},{"id":10253,"adult":false},{"id":27418,"adult":false},{"id":47597,"adult":false},{"id":62580,"adult":false},{"id":815,"adult":false},{"id":40520,"adult":false},{"id":18606,"adult":false},{"id":36597,"adult":false},{"id":14859,"adult":false},{"id":15124,"adult":false},{"id":1253,"adult":false},{"id":43210,"adult":false},{"id":49901,"adult":false},{"id":42225,"adult":false},{"id":56739,"adult":false},{"id":16143,"adult":false},{"id":2200,"adult":false},{"id":68381,"adult":false},{"id":172847,"adult":false},{"id":702,"adult":false},{"id":73737,"adult":false},{"id":20873,"adult":false},{"id":18222,"adult":false},{"id":204349,"adult":false},{"id":26522,"adult":false},{"id":23816,"adult":false},{"id":78346,"adult":false},{"id":64566,"adult":false},{"id":58857,"adult":false},{"id":74523,"adult":false},{"id":74180,"adult":false},{"id":10086,"adult":false},{"id":121835,"adult":false},{"id":10774,"adult":false},{"id":12151,"adult":false},{"id":662,"adult":false},{"id":348635,"adult":false},{"id":17644,"adult":false},{"id":86709,"adult":false},{"id":284019,"adult":false},{"id":11854,"adult":false},{"id":595,"adult":false},{"id":104755,"adult":false},{"id":128215,"adult":false},{"id":14113,"adult":false},{"id":31985,"adult":false},{"id":23172,"adult":false},{"id":34204,"adult":false},{"id":13119,"adult":false},{"id":266500,"adult":false},{"id":36964,"adult":false},{"id":73262,"adult":false},{"id":254128,"adult":false},{"id":9976,"adult":false},{"id":53487,"adult":false},{"id":33644,"adult":false},{"id":22492,"adult":false},{"id":9785,"adult":false},{"id":305044,"adult":false},{"id":7913,"adult":false},{"id":197919,"adult":false},{"id":28973,"adult":false},{"id":81555,"adult":false},{"id":116683,"adult":false},{"id":379676,"adult":null},{"id":655,"adult":false},{"id":26149,"adult":false},{"id":76749,"adult":false},{"id":1977,"adult":false},{"id":27785,"adult":false},{"id":40465,"adult":false},{"id":300665,"adult":false},{"id":66949,"adult":false},{"id":16156,"adult":false},{"id":2469,"adult":false},{"id":1831,"adult":false},{"id":107235,"adult":false},{"id":244,"adult":false},{"id":26594,"adult":false},{"id":65996,"adult":false},{"id":13200,"adult":false},{"id":15457,"adult":false},{"id":25678,"adult":false},{"id":15809,"adult":false},{"id":11300,"adult":false},{"id":34099,"adult":false},{"id":13508,"adult":false},{"id":43645,"adult":false},{"id":55170,"adult":false},{"id":49787,"adult":false},{"id":43795,"adult":false},{"id":71112,"adult":false},{"id":10845,"adult":false},{"id":172100,"adult":false}],"page":133,"total_pages":226,"total_results":22514}