{"results":[{"id":336902,"adult":false},{"id":332296,"adult":false},{"id":331592,"adult":false},{"id":329168,"adult":false},{"id":389560,"adult":false},{"id":80798,"adult":false},{"id":371645,"adult":false},{"id":284564,"adult":false},{"id":28100,"adult":false},{"id":324492,"adult":false},{"id":402399,"adult":false},{"id":56996,"adult":false},{"id":209534,"adult":false},{"id":38675,"adult":null},{"id":32770,"adult":false},{"id":253478,"adult":false},{"id":373054,"adult":false},{"id":25631,"adult":false},{"id":29008,"adult":false},{"id":236232,"adult":false},{"id":321876,"adult":false},{"id":402400,"adult":false},{"id":295564,"adult":false},{"id":288526,"adult":false},{"id":275274,"adult":false},{"id":72838,"adult":false},{"id":268717,"adult":false},{"id":245206,"adult":false},{"id":243937,"adult":true},{"id":287888,"adult":false},{"id":237435,"adult":false},{"id":234387,"adult":false},{"id":402401,"adult":false},{"id":232342,"adult":false},{"id":220365,"adult":false},{"id":218861,"adult":false},{"id":26317,"adult":false},{"id":193072,"adult":false},{"id":381639,"adult":false},{"id":42235,"adult":false},{"id":342360,"adult":false},{"id":190536,"adult":false},{"id":388440,"adult":false},{"id":187512,"adult":false},{"id":90888,"adult":false},{"id":86119,"adult":false},{"id":198871,"adult":false},{"id":184996,"adult":false},{"id":137385,"adult":false},{"id":182166,"adult":false},{"id":28529,"adult":false},{"id":140464,"adult":false},{"id":137009,"adult":false},{"id":394510,"adult":false},{"id":339984,"adult":false},{"id":36797,"adult":false},{"id":279486,"adult":false},{"id":125810,"adult":true},{"id":69414,"adult":false},{"id":40130,"adult":false},{"id":281937,"adult":false},{"id":96201,"adult":false},{"id":72371,"adult":false},{"id":301608,"adult":false},{"id":297702,"adult":false},{"id":279363,"adult":false},{"id":125493,"adult":false},{"id":402402,"adult":false},{"id":400391,"adult":false},{"id":400131,"adult":null},{"id":46979,"adult":false},{"id":52696,"adult":false},{"id":222911,"adult":false},{"id":402403,"adult":false},{"id":402404,"adult":false},{"id":73454,"adult":false},{"id":352179,"adult":false},{"id":110146,"adult":false},{"id":396536,"adult":false},{"id":355245,"adult":false},{"id":254559,"adult":false},{"id":93553,"adult":false},{"id":71181,"adult":false},{"id":172226,"adult":false},{"id":391757,"adult":false},{"id":14746,"adult":false},{"id":402405,"adult":false},{"id":227156,"adult":false},{"id":333358,"adult":false},{"id":11645,"adult":false},{"id":402406,"adult":false},{"id":11222,"adult":false},{"id":271736,"adult":false},{"id":4498,"adult":false},{"id":5890,"adult":false},{"id":11985,"adult":false},{"id":402407,"adult":false},{"id":54291,"adult":false},{"id":267935,"adult":false},{"id":402408,"adult":false}],"page":15,"total_pages":116,"total_results":11526}