{"results":[{"id":361915,"adult":false},{"id":26199,"adult":false},{"id":377740,"adult":false},{"id":377741,"adult":false},{"id":377742,"adult":false},{"id":338676,"adult":false},{"id":377743,"adult":false},{"id":377744,"adult":false},{"id":243526,"adult":false},{"id":260362,"adult":false},{"id":11230,"adult":false},{"id":377745,"adult":false},{"id":377746,"adult":false},{"id":361916,"adult":false},{"id":361917,"adult":false},{"id":377747,"adult":false},{"id":1858,"adult":false},{"id":377748,"adult":false},{"id":374130,"adult":false},{"id":377749,"adult":false},{"id":169558,"adult":false},{"id":82248,"adult":false},{"id":377750,"adult":false},{"id":377751,"adult":false},{"id":91076,"adult":false},{"id":364218,"adult":false},{"id":377752,"adult":false},{"id":106299,"adult":false},{"id":377753,"adult":false},{"id":189507,"adult":false},{"id":91767,"adult":false},{"id":377754,"adult":false},{"id":377755,"adult":false},{"id":58817,"adult":false},{"id":369557,"adult":false},{"id":377756,"adult":false},{"id":377757,"adult":false},{"id":25074,"adult":false},{"id":377758,"adult":false},{"id":377759,"adult":false},{"id":194,"adult":false},{"id":43252,"adult":false},{"id":1640,"adult":false},{"id":85108,"adult":true},{"id":377760,"adult":false},{"id":377761,"adult":false},{"id":377762,"adult":false},{"id":44113,"adult":false},{"id":53064,"adult":false},{"id":50114,"adult":false},{"id":377763,"adult":false},{"id":298643,"adult":false},{"id":201006,"adult":false},{"id":70927,"adult":false},{"id":377764,"adult":false},{"id":377765,"adult":false},{"id":76722,"adult":false},{"id":81438,"adult":false},{"id":21036,"adult":false},{"id":4708,"adult":false},{"id":377766,"adult":false},{"id":266598,"adult":false},{"id":377767,"adult":false},{"id":377768,"adult":false},{"id":54712,"adult":false},{"id":326732,"adult":false},{"id":257505,"adult":false},{"id":373314,"adult":false},{"id":377770,"adult":false},{"id":42090,"adult":false},{"id":375384,"adult":false},{"id":377771,"adult":false},{"id":377772,"adult":false},{"id":338755,"adult":false},{"id":377773,"adult":false},{"id":330700,"adult":false},{"id":377774,"adult":null},{"id":42142,"adult":false},{"id":352441,"adult":false},{"id":310,"adult":false},{"id":373536,"adult":false},{"id":377775,"adult":false},{"id":8342,"adult":false},{"id":377776,"adult":false},{"id":299211,"adult":false},{"id":375167,"adult":false},{"id":377777,"adult":false},{"id":80609,"adult":false},{"id":67166,"adult":false},{"id":37431,"adult":false},{"id":28909,"adult":false},{"id":227195,"adult":false},{"id":8073,"adult":false},{"id":33736,"adult":false},{"id":11936,"adult":false},{"id":203801,"adult":false},{"id":248319,"adult":false},{"id":1629,"adult":false},{"id":40166,"adult":false},{"id":31522,"adult":false}],"page":17,"total_pages":226,"total_results":22514}