{"results":[{"id":48279,"adult":false},{"id":411059,"adult":false},{"id":369885,"adult":false},{"id":287086,"adult":false},{"id":348674,"adult":false},{"id":398369,"adult":false},{"id":305404,"adult":false},{"id":12,"adult":false},{"id":321497,"adult":false},{"id":52244,"adult":false},{"id":411060,"adult":false},{"id":250920,"adult":false},{"id":16808,"adult":false},{"id":389499,"adult":true},{"id":411061,"adult":false},{"id":405923,"adult":false},{"id":138370,"adult":false},{"id":323108,"adult":false},{"id":373453,"adult":false},{"id":273197,"adult":false},{"id":322145,"adult":false},{"id":390734,"adult":false},{"id":411062,"adult":false},{"id":407930,"adult":false},{"id":9078,"adult":false},{"id":15356,"adult":false},{"id":353547,"adult":false},{"id":411063,"adult":false},{"id":411064,"adult":false},{"id":302348,"adult":false},{"id":140870,"adult":false},{"id":411065,"adult":false},{"id":227735,"adult":false},{"id":47480,"adult":false},{"id":333683,"adult":false},{"id":137106,"adult":false},{"id":187,"adult":false},{"id":5745,"adult":false},{"id":411066,"adult":false},{"id":93950,"adult":false},{"id":87827,"adult":false},{"id":29527,"adult":false},{"id":11406,"adult":false},{"id":359609,"adult":false},{"id":411067,"adult":false},{"id":5722,"adult":false},{"id":391018,"adult":false},{"id":386581,"adult":false},{"id":371008,"adult":false},{"id":159458,"adult":false},{"id":11681,"adult":false},{"id":10964,"adult":false},{"id":173999,"adult":false},{"id":11048,"adult":false},{"id":11039,"adult":false},{"id":411068,"adult":false},{"id":137193,"adult":false},{"id":323277,"adult":false},{"id":143,"adult":false},{"id":325947,"adult":false},{"id":411069,"adult":false},{"id":72733,"adult":false},{"id":156632,"adult":false},{"id":71254,"adult":false},{"id":288203,"adult":false},{"id":51557,"adult":false},{"id":40642,"adult":false},{"id":63410,"adult":false},{"id":42949,"adult":false},{"id":2396,"adult":false},{"id":411070,"adult":false},{"id":393345,"adult":false},{"id":411071,"adult":false},{"id":73920,"adult":false},{"id":30642,"adult":false},{"id":231754,"adult":false},{"id":87458,"adult":false},{"id":15138,"adult":false},{"id":827,"adult":false},{"id":72083,"adult":false},{"id":50363,"adult":false},{"id":114657,"adult":false},{"id":52105,"adult":false},{"id":44888,"adult":false},{"id":40633,"adult":false},{"id":126009,"adult":false},{"id":66701,"adult":false},{"id":303677,"adult":false},{"id":78405,"adult":false},{"id":28575,"adult":false},{"id":43318,"adult":false},{"id":29963,"adult":false},{"id":8354,"adult":false},{"id":403232,"adult":false},{"id":411072,"adult":false},{"id":118910,"adult":false},{"id":58664,"adult":false},{"id":10653,"adult":false},{"id":382951,"adult":false},{"id":43316,"adult":false}],"page":108,"total_pages":117,"total_results":11641}