{"results":[{"id":419728,"adult":false},{"id":241004,"adult":false},{"id":419729,"adult":false},{"id":419730,"adult":false},{"id":41371,"adult":false},{"id":353446,"adult":false},{"id":419731,"adult":false},{"id":416583,"adult":false},{"id":232696,"adult":false},{"id":419732,"adult":false},{"id":48648,"adult":false},{"id":50126,"adult":false},{"id":399185,"adult":false},{"id":29535,"adult":false},{"id":419733,"adult":null},{"id":419734,"adult":false},{"id":419735,"adult":false},{"id":419736,"adult":false},{"id":641,"adult":false},{"id":419737,"adult":false},{"id":411272,"adult":false},{"id":27437,"adult":false},{"id":419738,"adult":false},{"id":241574,"adult":false},{"id":137339,"adult":false},{"id":419739,"adult":false},{"id":9715,"adult":false},{"id":419740,"adult":false},{"id":366758,"adult":false},{"id":96482,"adult":false},{"id":333348,"adult":false},{"id":419741,"adult":true},{"id":419742,"adult":false},{"id":47933,"adult":false},{"id":410199,"adult":false},{"id":304023,"adult":false},{"id":419743,"adult":false},{"id":157266,"adult":false},{"id":289130,"adult":false},{"id":419744,"adult":false},{"id":401917,"adult":false},{"id":419745,"adult":true},{"id":51321,"adult":false},{"id":7304,"adult":false},{"id":419746,"adult":false},{"id":200978,"adult":false},{"id":419747,"adult":false},{"id":50856,"adult":false},{"id":419748,"adult":true},{"id":348455,"adult":false},{"id":51373,"adult":false},{"id":164721,"adult":null},{"id":77530,"adult":false},{"id":419749,"adult":false},{"id":73215,"adult":false},{"id":416023,"adult":false},{"id":50904,"adult":false},{"id":83965,"adult":false},{"id":47386,"adult":false},{"id":366868,"adult":false},{"id":419750,"adult":true},{"id":375793,"adult":false},{"id":48818,"adult":false},{"id":52841,"adult":false},{"id":81998,"adult":false},{"id":72735,"adult":false},{"id":373229,"adult":false},{"id":419751,"adult":false},{"id":50925,"adult":false},{"id":13017,"adult":false},{"id":419752,"adult":false},{"id":27429,"adult":false},{"id":50919,"adult":false},{"id":17638,"adult":false},{"id":48888,"adult":false},{"id":15865,"adult":false},{"id":75538,"adult":false},{"id":13855,"adult":false},{"id":25898,"adult":false},{"id":32896,"adult":false},{"id":50863,"adult":false},{"id":50828,"adult":false},{"id":395930,"adult":false},{"id":50868,"adult":false},{"id":50912,"adult":false},{"id":141101,"adult":false},{"id":419753,"adult":false},{"id":48830,"adult":false},{"id":227043,"adult":false},{"id":417796,"adult":false},{"id":90272,"adult":false},{"id":48672,"adult":false},{"id":419754,"adult":false},{"id":396425,"adult":false},{"id":397175,"adult":false},{"id":50920,"adult":false},{"id":429,"adult":false},{"id":419755,"adult":false},{"id":200110,"adult":false},{"id":414028,"adult":false}],"page":72,"total_pages":144,"total_results":14341}