{"results":[{"id":29193,"adult":false},{"id":65260,"adult":false},{"id":389153,"adult":false},{"id":256214,"adult":false},{"id":227365,"adult":false},{"id":7737,"adult":false},{"id":18203,"adult":false},{"id":389154,"adult":false},{"id":233547,"adult":false},{"id":31855,"adult":false},{"id":90765,"adult":false},{"id":93122,"adult":false},{"id":389155,"adult":false},{"id":129093,"adult":false},{"id":37463,"adult":false},{"id":145571,"adult":false},{"id":389156,"adult":false},{"id":365842,"adult":false},{"id":26208,"adult":false},{"id":77772,"adult":false},{"id":389158,"adult":false},{"id":266809,"adult":false},{"id":389160,"adult":false},{"id":389161,"adult":null},{"id":51929,"adult":false},{"id":389162,"adult":false},{"id":233554,"adult":false},{"id":369362,"adult":false},{"id":389163,"adult":false},{"id":243235,"adult":false},{"id":233551,"adult":false},{"id":30203,"adult":false},{"id":34173,"adult":false},{"id":31626,"adult":false},{"id":9994,"adult":false},{"id":389164,"adult":false},{"id":16347,"adult":false},{"id":389165,"adult":false},{"id":313466,"adult":false},{"id":64988,"adult":false},{"id":331099,"adult":false},{"id":366138,"adult":false},{"id":57100,"adult":false},{"id":4808,"adult":false},{"id":155121,"adult":false},{"id":233550,"adult":false},{"id":281658,"adult":false},{"id":26386,"adult":false},{"id":35038,"adult":false},{"id":3483,"adult":false},{"id":38995,"adult":false},{"id":161028,"adult":false},{"id":75704,"adult":false},{"id":77256,"adult":false},{"id":17281,"adult":false},{"id":11787,"adult":false},{"id":1452,"adult":false},{"id":91007,"adult":false},{"id":91286,"adult":false},{"id":63719,"adult":false},{"id":259565,"adult":false},{"id":389166,"adult":false},{"id":260969,"adult":false},{"id":389167,"adult":false},{"id":389168,"adult":false},{"id":8326,"adult":false},{"id":389169,"adult":false},{"id":389170,"adult":false},{"id":585,"adult":false},{"id":306819,"adult":false},{"id":377587,"adult":false},{"id":389171,"adult":false},{"id":11971,"adult":false},{"id":13671,"adult":false},{"id":389172,"adult":false},{"id":389173,"adult":false},{"id":154732,"adult":false},{"id":389174,"adult":false},{"id":13156,"adult":false},{"id":4997,"adult":false},{"id":193314,"adult":false},{"id":140197,"adult":false},{"id":10974,"adult":false},{"id":389175,"adult":false},{"id":389176,"adult":false},{"id":154736,"adult":false},{"id":94026,"adult":false},{"id":237584,"adult":false},{"id":389177,"adult":false},{"id":389178,"adult":false},{"id":389179,"adult":false},{"id":389180,"adult":false},{"id":847,"adult":false},{"id":389181,"adult":false},{"id":389182,"adult":false},{"id":389183,"adult":false},{"id":381089,"adult":false},{"id":9081,"adult":false},{"id":389184,"adult":false},{"id":2359,"adult":false}],"page":79,"total_pages":120,"total_results":11936}