{"results":[{"id":95342,"adult":false},{"id":396743,"adult":false},{"id":396744,"adult":false},{"id":396745,"adult":false},{"id":2011,"adult":false},{"id":243566,"adult":false},{"id":201642,"adult":false},{"id":17376,"adult":false},{"id":125945,"adult":false},{"id":261763,"adult":false},{"id":37174,"adult":false},{"id":8014,"adult":false},{"id":394176,"adult":false},{"id":82403,"adult":null},{"id":103709,"adult":false},{"id":302662,"adult":false},{"id":255293,"adult":false},{"id":40388,"adult":false},{"id":180570,"adult":false},{"id":29228,"adult":false},{"id":396746,"adult":false},{"id":396747,"adult":false},{"id":396748,"adult":false},{"id":167906,"adult":false},{"id":55077,"adult":false},{"id":381255,"adult":false},{"id":396749,"adult":false},{"id":396750,"adult":false},{"id":19026,"adult":false},{"id":78402,"adult":false},{"id":396751,"adult":false},{"id":71847,"adult":false},{"id":18164,"adult":false},{"id":396752,"adult":false},{"id":1116,"adult":false},{"id":396753,"adult":false},{"id":8436,"adult":false},{"id":396754,"adult":false},{"id":70822,"adult":false},{"id":71732,"adult":false},{"id":396755,"adult":false},{"id":389388,"adult":false},{"id":82552,"adult":false},{"id":396756,"adult":false},{"id":396757,"adult":false},{"id":148,"adult":false},{"id":150932,"adult":false},{"id":396758,"adult":false},{"id":396759,"adult":false},{"id":396760,"adult":false},{"id":44896,"adult":false},{"id":396761,"adult":false},{"id":396762,"adult":false},{"id":49040,"adult":false},{"id":50620,"adult":false},{"id":396763,"adult":false},{"id":20521,"adult":false},{"id":256789,"adult":false},{"id":344526,"adult":false},{"id":156901,"adult":false},{"id":396764,"adult":false},{"id":394407,"adult":false},{"id":78992,"adult":false},{"id":301199,"adult":false},{"id":396765,"adult":false},{"id":396766,"adult":false},{"id":396767,"adult":false},{"id":17960,"adult":false},{"id":294263,"adult":false},{"id":396768,"adult":false},{"id":11490,"adult":false},{"id":175107,"adult":false},{"id":39366,"adult":false},{"id":1622,"adult":false},{"id":396769,"adult":false},{"id":13746,"adult":false},{"id":396770,"adult":false},{"id":21588,"adult":false},{"id":13073,"adult":false},{"id":127763,"adult":false},{"id":396771,"adult":false},{"id":121987,"adult":false},{"id":103,"adult":false},{"id":291374,"adult":false},{"id":79009,"adult":false},{"id":73981,"adult":false},{"id":40642,"adult":false},{"id":86230,"adult":false},{"id":25643,"adult":false},{"id":23847,"adult":false},{"id":52512,"adult":false},{"id":151368,"adult":false},{"id":65255,"adult":false},{"id":58694,"adult":false},{"id":396772,"adult":false},{"id":362185,"adult":false},{"id":48121,"adult":false},{"id":334531,"adult":false},{"id":197581,"adult":false},{"id":1653,"adult":false}],"page":93,"total_pages":130,"total_results":12927}