{"results":[{"id":128,"adult":false},{"id":271776,"adult":false},{"id":420636,"adult":false},{"id":25656,"adult":false},{"id":120979,"adult":false},{"id":36683,"adult":false},{"id":420637,"adult":false},{"id":69840,"adult":false},{"id":166688,"adult":false},{"id":334387,"adult":false},{"id":420638,"adult":false},{"id":209276,"adult":false},{"id":420639,"adult":false},{"id":420640,"adult":false},{"id":420641,"adult":false},{"id":380539,"adult":false},{"id":389201,"adult":false},{"id":414770,"adult":false},{"id":420642,"adult":false},{"id":420643,"adult":false},{"id":59965,"adult":false},{"id":420644,"adult":false},{"id":2755,"adult":false},{"id":122906,"adult":false},{"id":411757,"adult":false},{"id":75674,"adult":false},{"id":369552,"adult":false},{"id":191610,"adult":false},{"id":144340,"adult":false},{"id":379170,"adult":false},{"id":227707,"adult":false},{"id":420645,"adult":false},{"id":75638,"adult":false},{"id":405755,"adult":false},{"id":415636,"adult":false},{"id":256106,"adult":false},{"id":381890,"adult":false},{"id":396065,"adult":false},{"id":389187,"adult":false},{"id":240916,"adult":false},{"id":415621,"adult":false},{"id":207974,"adult":false},{"id":420646,"adult":false},{"id":420647,"adult":false},{"id":376659,"adult":false},{"id":239131,"adult":false},{"id":420648,"adult":false},{"id":406947,"adult":false},{"id":420649,"adult":false},{"id":420650,"adult":false},{"id":25642,"adult":false},{"id":271185,"adult":false},{"id":420651,"adult":false},{"id":420652,"adult":false},{"id":420653,"adult":false},{"id":420654,"adult":false},{"id":325191,"adult":false},{"id":363805,"adult":false},{"id":420655,"adult":false},{"id":349822,"adult":false},{"id":144083,"adult":false},{"id":11328,"adult":false},{"id":417024,"adult":false},{"id":18217,"adult":false},{"id":420656,"adult":false},{"id":266285,"adult":false},{"id":30711,"adult":false},{"id":62849,"adult":false},{"id":420657,"adult":false},{"id":420658,"adult":false},{"id":55602,"adult":false},{"id":420659,"adult":false},{"id":409218,"adult":false},{"id":23706,"adult":false},{"id":420660,"adult":false},{"id":335753,"adult":false},{"id":10631,"adult":false},{"id":2043,"adult":false},{"id":5966,"adult":false},{"id":345664,"adult":false},{"id":352694,"adult":false},{"id":403010,"adult":false},{"id":178476,"adult":false},{"id":420662,"adult":false},{"id":420663,"adult":false},{"id":11352,"adult":false},{"id":420664,"adult":false},{"id":420665,"adult":false},{"id":86987,"adult":false},{"id":420666,"adult":false},{"id":420667,"adult":false},{"id":420668,"adult":false},{"id":280979,"adult":false},{"id":420669,"adult":null},{"id":102242,"adult":false},{"id":9410,"adult":false},{"id":383950,"adult":false},{"id":27476,"adult":false},{"id":24686,"adult":false},{"id":19908,"adult":false}],"page":120,"total_pages":144,"total_results":14341}