{"results":[{"id":218740,"adult":false},{"id":407936,"adult":false},{"id":402802,"adult":false},{"id":332607,"adult":false},{"id":282289,"adult":false},{"id":291337,"adult":false},{"id":419625,"adult":false},{"id":327115,"adult":false},{"id":282929,"adult":false},{"id":402143,"adult":false},{"id":100048,"adult":false},{"id":288162,"adult":false},{"id":358916,"adult":false},{"id":378482,"adult":false},{"id":411038,"adult":false},{"id":398651,"adult":false},{"id":12493,"adult":false},{"id":137270,"adult":false},{"id":54857,"adult":false},{"id":218559,"adult":false},{"id":400823,"adult":false},{"id":161629,"adult":false},{"id":218212,"adult":false},{"id":80992,"adult":false},{"id":419626,"adult":false},{"id":161072,"adult":false},{"id":327467,"adult":false},{"id":259075,"adult":false},{"id":419627,"adult":false},{"id":405309,"adult":false},{"id":284755,"adult":false},{"id":76847,"adult":false},{"id":118727,"adult":false},{"id":416527,"adult":false},{"id":203833,"adult":false},{"id":387626,"adult":false},{"id":17578,"adult":false},{"id":184572,"adult":false},{"id":419628,"adult":false},{"id":42468,"adult":false},{"id":124026,"adult":false},{"id":4347,"adult":false},{"id":109424,"adult":false},{"id":174751,"adult":false},{"id":119675,"adult":false},{"id":415972,"adult":false},{"id":50875,"adult":false},{"id":419629,"adult":false},{"id":26652,"adult":false},{"id":402466,"adult":false},{"id":11314,"adult":false},{"id":419630,"adult":false},{"id":22536,"adult":false},{"id":70476,"adult":false},{"id":392856,"adult":false},{"id":22679,"adult":false},{"id":57395,"adult":false},{"id":419631,"adult":false},{"id":419632,"adult":false},{"id":5000,"adult":false},{"id":395834,"adult":false},{"id":419633,"adult":false},{"id":419634,"adult":null},{"id":419635,"adult":false},{"id":44899,"adult":false},{"id":419636,"adult":null},{"id":39227,"adult":false},{"id":419637,"adult":null},{"id":419638,"adult":false},{"id":54005,"adult":false},{"id":34729,"adult":false},{"id":419639,"adult":false},{"id":419640,"adult":false},{"id":54004,"adult":false},{"id":36251,"adult":false},{"id":356296,"adult":false},{"id":13700,"adult":false},{"id":31646,"adult":false},{"id":242083,"adult":false},{"id":352090,"adult":false},{"id":419641,"adult":false},{"id":399747,"adult":false},{"id":38057,"adult":false},{"id":146233,"adult":false},{"id":11045,"adult":false},{"id":208763,"adult":false},{"id":419642,"adult":false},{"id":949,"adult":false},{"id":76094,"adult":false},{"id":419643,"adult":false},{"id":11309,"adult":false},{"id":27509,"adult":false},{"id":39988,"adult":false},{"id":299736,"adult":false},{"id":419644,"adult":false},{"id":151043,"adult":false},{"id":419645,"adult":false},{"id":292869,"adult":false},{"id":419646,"adult":false},{"id":158102,"adult":false}],"page":67,"total_pages":144,"total_results":14341}