{"results":[{"id":101501,"adult":false},{"id":407254,"adult":false},{"id":217333,"adult":false},{"id":427383,"adult":false},{"id":73376,"adult":false},{"id":343977,"adult":false},{"id":341012,"adult":false},{"id":24546,"adult":false},{"id":286668,"adult":false},{"id":44664,"adult":false},{"id":49240,"adult":false},{"id":120591,"adult":false},{"id":10895,"adult":false},{"id":13498,"adult":false},{"id":33615,"adult":false},{"id":179111,"adult":false},{"id":14177,"adult":false},{"id":399417,"adult":false},{"id":110080,"adult":false},{"id":416437,"adult":false},{"id":19965,"adult":false},{"id":427384,"adult":false},{"id":9489,"adult":false},{"id":108668,"adult":false},{"id":858,"adult":false},{"id":49022,"adult":false},{"id":8424,"adult":false},{"id":85784,"adult":false},{"id":187439,"adult":false},{"id":34056,"adult":false},{"id":360030,"adult":false},{"id":427385,"adult":false},{"id":28333,"adult":false},{"id":102055,"adult":false},{"id":263341,"adult":false},{"id":118683,"adult":false},{"id":5956,"adult":false},{"id":362373,"adult":false},{"id":42286,"adult":false},{"id":320018,"adult":false},{"id":394052,"adult":false},{"id":427386,"adult":false},{"id":427387,"adult":false},{"id":427388,"adult":false},{"id":397114,"adult":null},{"id":220772,"adult":false},{"id":10052,"adult":false},{"id":427389,"adult":null},{"id":427390,"adult":false},{"id":204668,"adult":false},{"id":97796,"adult":false},{"id":80601,"adult":false},{"id":316854,"adult":false},{"id":698,"adult":false},{"id":334304,"adult":false},{"id":329556,"adult":false},{"id":42700,"adult":false},{"id":13346,"adult":false},{"id":124461,"adult":false},{"id":427392,"adult":false},{"id":14838,"adult":false},{"id":707,"adult":false},{"id":45613,"adult":false},{"id":41414,"adult":false},{"id":294963,"adult":false},{"id":8698,"adult":false},{"id":38583,"adult":false},{"id":12540,"adult":false},{"id":11211,"adult":false},{"id":62931,"adult":false},{"id":86794,"adult":false},{"id":17566,"adult":false},{"id":94901,"adult":false},{"id":98168,"adult":false},{"id":111273,"adult":false},{"id":17113,"adult":false},{"id":427393,"adult":false},{"id":353728,"adult":false},{"id":360139,"adult":false},{"id":56292,"adult":false},{"id":236261,"adult":false},{"id":13505,"adult":false},{"id":33735,"adult":false},{"id":177677,"adult":false},{"id":34544,"adult":false},{"id":18927,"adult":false},{"id":427394,"adult":false},{"id":427395,"adult":false},{"id":251172,"adult":false},{"id":427396,"adult":false},{"id":34601,"adult":false},{"id":19788,"adult":false},{"id":106493,"adult":false},{"id":427397,"adult":false},{"id":238328,"adult":false},{"id":28508,"adult":false},{"id":427398,"adult":false},{"id":392662,"adult":null},{"id":80280,"adult":false},{"id":282285,"adult":false}],"page":83,"total_pages":119,"total_results":11862}