{"results":[{"id":333075,"adult":false},{"id":252168,"adult":false},{"id":404609,"adult":false},{"id":217704,"adult":false},{"id":399624,"adult":false},{"id":306659,"adult":false},{"id":415138,"adult":false},{"id":1620,"adult":false},{"id":322684,"adult":false},{"id":379475,"adult":false},{"id":126545,"adult":false},{"id":135466,"adult":false},{"id":374509,"adult":false},{"id":286066,"adult":false},{"id":343669,"adult":null},{"id":415139,"adult":false},{"id":401270,"adult":false},{"id":285338,"adult":false},{"id":289090,"adult":false},{"id":415140,"adult":false},{"id":415141,"adult":false},{"id":415142,"adult":false},{"id":293427,"adult":false},{"id":253696,"adult":false},{"id":296899,"adult":false},{"id":193642,"adult":false},{"id":415143,"adult":false},{"id":324017,"adult":false},{"id":415144,"adult":false},{"id":278821,"adult":false},{"id":166795,"adult":false},{"id":415145,"adult":false},{"id":324670,"adult":false},{"id":345242,"adult":false},{"id":311499,"adult":false},{"id":321572,"adult":false},{"id":86345,"adult":false},{"id":90974,"adult":false},{"id":324801,"adult":false},{"id":415146,"adult":false},{"id":74875,"adult":false},{"id":415147,"adult":false},{"id":415148,"adult":false},{"id":358989,"adult":false},{"id":95688,"adult":true},{"id":415149,"adult":false},{"id":64243,"adult":false},{"id":348892,"adult":false},{"id":415150,"adult":false},{"id":374321,"adult":false},{"id":415151,"adult":false},{"id":1382,"adult":false},{"id":415152,"adult":false},{"id":299865,"adult":false},{"id":347201,"adult":false},{"id":415153,"adult":false},{"id":385102,"adult":false},{"id":415154,"adult":false},{"id":177945,"adult":false},{"id":66922,"adult":false},{"id":2440,"adult":false},{"id":415155,"adult":false},{"id":171292,"adult":false},{"id":415156,"adult":false},{"id":32030,"adult":false},{"id":415157,"adult":false},{"id":415158,"adult":false},{"id":415159,"adult":false},{"id":415160,"adult":false},{"id":21175,"adult":false},{"id":415161,"adult":false},{"id":415162,"adult":false},{"id":415163,"adult":false},{"id":415164,"adult":false},{"id":317442,"adult":false},{"id":82046,"adult":false},{"id":415165,"adult":false},{"id":300602,"adult":false},{"id":415166,"adult":false},{"id":415167,"adult":false},{"id":286977,"adult":false},{"id":79074,"adult":false},{"id":386084,"adult":false},{"id":296453,"adult":null},{"id":415168,"adult":null},{"id":415169,"adult":false},{"id":415170,"adult":false},{"id":386219,"adult":false},{"id":415171,"adult":true},{"id":286852,"adult":false},{"id":415172,"adult":false},{"id":270395,"adult":false},{"id":58019,"adult":false},{"id":415173,"adult":false},{"id":303872,"adult":false},{"id":415174,"adult":false},{"id":334030,"adult":false},{"id":265428,"adult":false},{"id":384235,"adult":false},{"id":386534,"adult":false}],"page":94,"total_pages":126,"total_results":12554}