{"results":[{"id":263407,"adult":false},{"id":393228,"adult":false},{"id":9499,"adult":false},{"id":368272,"adult":false},{"id":10799,"adult":false},{"id":228028,"adult":false},{"id":14976,"adult":false},{"id":9034,"adult":false},{"id":32872,"adult":false},{"id":70554,"adult":false},{"id":368422,"adult":false},{"id":294861,"adult":false},{"id":295830,"adult":false},{"id":393229,"adult":false},{"id":276908,"adult":false},{"id":393230,"adult":false},{"id":292089,"adult":false},{"id":349171,"adult":false},{"id":22548,"adult":false},{"id":393231,"adult":false},{"id":272787,"adult":false},{"id":294289,"adult":false},{"id":378228,"adult":false},{"id":12102,"adult":false},{"id":393232,"adult":false},{"id":385300,"adult":false},{"id":387610,"adult":false},{"id":340382,"adult":false},{"id":330764,"adult":false},{"id":92012,"adult":false},{"id":20034,"adult":false},{"id":293646,"adult":false},{"id":393233,"adult":false},{"id":264761,"adult":false},{"id":46525,"adult":false},{"id":117639,"adult":false},{"id":59331,"adult":false},{"id":59328,"adult":false},{"id":105864,"adult":false},{"id":195191,"adult":false},{"id":393234,"adult":false},{"id":205584,"adult":false},{"id":393235,"adult":false},{"id":380448,"adult":null},{"id":393236,"adult":false},{"id":393237,"adult":false},{"id":382515,"adult":true},{"id":393238,"adult":false},{"id":393239,"adult":false},{"id":331576,"adult":false},{"id":284664,"adult":false},{"id":205775,"adult":false},{"id":310350,"adult":false},{"id":298382,"adult":false},{"id":393240,"adult":false},{"id":27483,"adult":false},{"id":282070,"adult":false},{"id":393241,"adult":false},{"id":393242,"adult":false},{"id":388195,"adult":false},{"id":130485,"adult":false},{"id":388167,"adult":false},{"id":119556,"adult":false},{"id":393243,"adult":false},{"id":20220,"adult":false},{"id":338387,"adult":false},{"id":184719,"adult":false},{"id":180884,"adult":false},{"id":282069,"adult":false},{"id":336397,"adult":false},{"id":82639,"adult":false},{"id":365468,"adult":true},{"id":393244,"adult":false},{"id":264966,"adult":false},{"id":102899,"adult":false},{"id":274479,"adult":false},{"id":435,"adult":false},{"id":305634,"adult":false},{"id":393245,"adult":false},{"id":135003,"adult":true},{"id":285477,"adult":false},{"id":300673,"adult":false},{"id":319888,"adult":false},{"id":378949,"adult":false},{"id":285181,"adult":false},{"id":11545,"adult":false},{"id":250235,"adult":false},{"id":80304,"adult":false},{"id":393247,"adult":false},{"id":2056,"adult":false},{"id":393248,"adult":false},{"id":259316,"adult":false},{"id":189574,"adult":false},{"id":393249,"adult":false},{"id":84521,"adult":false},{"id":223702,"adult":false},{"id":393250,"adult":false},{"id":103758,"adult":false},{"id":393251,"adult":true},{"id":242715,"adult":false}],"page":24,"total_pages":127,"total_results":12659}