{"results":[{"id":134838,"adult":false},{"id":59877,"adult":false},{"id":387813,"adult":false},{"id":258923,"adult":false},{"id":15373,"adult":false},{"id":13371,"adult":false},{"id":253287,"adult":false},{"id":21605,"adult":false},{"id":162439,"adult":false},{"id":387814,"adult":false},{"id":52439,"adult":false},{"id":387815,"adult":false},{"id":387816,"adult":false},{"id":383356,"adult":false},{"id":80481,"adult":false},{"id":332270,"adult":false},{"id":1771,"adult":false},{"id":49320,"adult":false},{"id":48289,"adult":false},{"id":363164,"adult":false},{"id":33538,"adult":false},{"id":177677,"adult":false},{"id":25520,"adult":false},{"id":15237,"adult":false},{"id":370595,"adult":false},{"id":7978,"adult":false},{"id":11109,"adult":false},{"id":46435,"adult":false},{"id":387817,"adult":false},{"id":154034,"adult":false},{"id":68095,"adult":false},{"id":387818,"adult":false},{"id":239520,"adult":false},{"id":288569,"adult":false},{"id":387819,"adult":false},{"id":338928,"adult":false},{"id":387820,"adult":true},{"id":80876,"adult":false},{"id":345068,"adult":false},{"id":288403,"adult":false},{"id":268606,"adult":false},{"id":209437,"adult":false},{"id":387821,"adult":false},{"id":26338,"adult":false},{"id":158455,"adult":false},{"id":233415,"adult":false},{"id":105056,"adult":false},{"id":387822,"adult":false},{"id":299608,"adult":false},{"id":387823,"adult":false},{"id":91095,"adult":false},{"id":90042,"adult":false},{"id":318703,"adult":false},{"id":387824,"adult":false},{"id":387825,"adult":false},{"id":78406,"adult":false},{"id":254531,"adult":false},{"id":266675,"adult":false},{"id":387826,"adult":false},{"id":288418,"adult":false},{"id":387827,"adult":false},{"id":345098,"adult":false},{"id":107812,"adult":false},{"id":296715,"adult":false},{"id":387829,"adult":false},{"id":157030,"adult":false},{"id":308624,"adult":false},{"id":124480,"adult":false},{"id":345104,"adult":false},{"id":387830,"adult":false},{"id":190452,"adult":false},{"id":248211,"adult":false},{"id":387831,"adult":false},{"id":387832,"adult":false},{"id":387833,"adult":false},{"id":329441,"adult":false},{"id":166206,"adult":false},{"id":387834,"adult":false},{"id":387835,"adult":false},{"id":357246,"adult":false},{"id":269955,"adult":false},{"id":221768,"adult":false},{"id":180779,"adult":false},{"id":100037,"adult":false},{"id":371447,"adult":false},{"id":387836,"adult":false},{"id":61897,"adult":false},{"id":334735,"adult":false},{"id":332179,"adult":false},{"id":216067,"adult":false},{"id":46064,"adult":false},{"id":191771,"adult":false},{"id":226327,"adult":false},{"id":107825,"adult":false},{"id":296241,"adult":false},{"id":387837,"adult":false},{"id":387838,"adult":false},{"id":387839,"adult":false},{"id":123655,"adult":false},{"id":387598,"adult":null}],"page":7,"total_pages":120,"total_results":11936}