{"results":[{"id":417500,"adult":false},{"id":417501,"adult":false},{"id":344843,"adult":false},{"id":153657,"adult":false},{"id":276907,"adult":false},{"id":403030,"adult":false},{"id":417502,"adult":false},{"id":291270,"adult":false},{"id":318846,"adult":false},{"id":9835,"adult":false},{"id":10198,"adult":false},{"id":417503,"adult":false},{"id":15379,"adult":false},{"id":417504,"adult":false},{"id":12764,"adult":false},{"id":319838,"adult":false},{"id":272878,"adult":false},{"id":417505,"adult":false},{"id":35106,"adult":false},{"id":417507,"adult":false},{"id":398321,"adult":false},{"id":10528,"adult":false},{"id":417508,"adult":false},{"id":417509,"adult":false},{"id":417510,"adult":false},{"id":417511,"adult":false},{"id":114138,"adult":false},{"id":417512,"adult":false},{"id":290804,"adult":false},{"id":3050,"adult":false},{"id":417513,"adult":false},{"id":262504,"adult":false},{"id":50092,"adult":false},{"id":417514,"adult":false},{"id":403941,"adult":false},{"id":346646,"adult":false},{"id":417515,"adult":false},{"id":287899,"adult":false},{"id":417516,"adult":false},{"id":417517,"adult":false},{"id":417518,"adult":false},{"id":249213,"adult":false},{"id":406535,"adult":false},{"id":13511,"adult":false},{"id":388083,"adult":false},{"id":417519,"adult":false},{"id":334245,"adult":false},{"id":369769,"adult":false},{"id":149129,"adult":false},{"id":274849,"adult":null},{"id":171144,"adult":false},{"id":417521,"adult":false},{"id":223974,"adult":false},{"id":274850,"adult":null},{"id":387061,"adult":false},{"id":212465,"adult":false},{"id":417522,"adult":false},{"id":417523,"adult":false},{"id":103609,"adult":false},{"id":7518,"adult":false},{"id":417524,"adult":false},{"id":281655,"adult":true},{"id":58938,"adult":false},{"id":16321,"adult":false},{"id":57521,"adult":false},{"id":60037,"adult":false},{"id":391758,"adult":false},{"id":417525,"adult":false},{"id":417526,"adult":false},{"id":77950,"adult":false},{"id":38401,"adult":false},{"id":141491,"adult":false},{"id":28141,"adult":false},{"id":140965,"adult":false},{"id":417527,"adult":false},{"id":359762,"adult":false},{"id":400411,"adult":false},{"id":395763,"adult":false},{"id":417528,"adult":false},{"id":198500,"adult":false},{"id":4922,"adult":false},{"id":64912,"adult":false},{"id":417529,"adult":false},{"id":225914,"adult":false},{"id":86251,"adult":false},{"id":106259,"adult":false},{"id":193050,"adult":false},{"id":262742,"adult":false},{"id":363162,"adult":null},{"id":399659,"adult":null},{"id":360185,"adult":false},{"id":98344,"adult":false},{"id":313226,"adult":null},{"id":343669,"adult":null},{"id":401288,"adult":false},{"id":417530,"adult":false},{"id":417531,"adult":null},{"id":9993,"adult":false},{"id":9538,"adult":false},{"id":112220,"adult":false}],"page":89,"total_pages":141,"total_results":14019}