{"results":[{"id":383104,"adult":false},{"id":110661,"adult":false},{"id":257913,"adult":false},{"id":383105,"adult":false},{"id":383106,"adult":false},{"id":256750,"adult":false},{"id":346149,"adult":false},{"id":157545,"adult":false},{"id":377382,"adult":false},{"id":161158,"adult":false},{"id":383107,"adult":false},{"id":307730,"adult":null},{"id":383108,"adult":false},{"id":278953,"adult":false},{"id":229097,"adult":false},{"id":381928,"adult":false},{"id":383109,"adult":false},{"id":2164,"adult":false},{"id":265694,"adult":false},{"id":218419,"adult":false},{"id":13001,"adult":false},{"id":359656,"adult":false},{"id":367551,"adult":false},{"id":44215,"adult":false},{"id":326215,"adult":false},{"id":228257,"adult":false},{"id":12914,"adult":false},{"id":80527,"adult":false},{"id":378502,"adult":false},{"id":324298,"adult":false},{"id":24972,"adult":false},{"id":330381,"adult":false},{"id":324462,"adult":false},{"id":8392,"adult":false},{"id":366901,"adult":false},{"id":296098,"adult":false},{"id":37933,"adult":false},{"id":45512,"adult":false},{"id":73,"adult":false},{"id":329989,"adult":false},{"id":273248,"adult":false},{"id":40069,"adult":false},{"id":119058,"adult":false},{"id":189955,"adult":false},{"id":40756,"adult":false},{"id":187585,"adult":false},{"id":324300,"adult":false},{"id":4375,"adult":false},{"id":383110,"adult":null},{"id":383111,"adult":false},{"id":383112,"adult":null},{"id":125249,"adult":false},{"id":38390,"adult":false},{"id":147635,"adult":false},{"id":83359,"adult":false},{"id":323675,"adult":false},{"id":135714,"adult":false},{"id":299759,"adult":false},{"id":292031,"adult":false},{"id":248690,"adult":false},{"id":378221,"adult":false},{"id":2755,"adult":false},{"id":44925,"adult":false},{"id":2131,"adult":false},{"id":9978,"adult":false},{"id":382197,"adult":false},{"id":311660,"adult":false},{"id":189260,"adult":false},{"id":376405,"adult":false},{"id":364543,"adult":null},{"id":871,"adult":false},{"id":80520,"adult":false},{"id":934,"adult":false},{"id":3699,"adult":false},{"id":254215,"adult":false},{"id":346910,"adult":false},{"id":323465,"adult":false},{"id":21433,"adult":false},{"id":81207,"adult":false},{"id":381010,"adult":false},{"id":239056,"adult":false},{"id":383113,"adult":false},{"id":75741,"adult":false},{"id":303993,"adult":false},{"id":383114,"adult":false},{"id":383115,"adult":false},{"id":307288,"adult":null},{"id":114564,"adult":false},{"id":343043,"adult":false},{"id":383116,"adult":false},{"id":245703,"adult":false},{"id":308061,"adult":false},{"id":42994,"adult":false},{"id":259963,"adult":false},{"id":24739,"adult":false},{"id":67456,"adult":null},{"id":256889,"adult":false},{"id":354251,"adult":false},{"id":383117,"adult":false},{"id":339526,"adult":false}],"page":20,"total_pages":123,"total_results":12205}