{"results":[{"id":593,"adult":false},{"id":60475,"adult":false},{"id":295383,"adult":false},{"id":2103,"adult":false},{"id":399,"adult":false},{"id":169,"adult":false},{"id":376592,"adult":false},{"id":11901,"adult":false},{"id":196024,"adult":false},{"id":158852,"adult":false},{"id":65990,"adult":false},{"id":376596,"adult":null},{"id":150540,"adult":false},{"id":376597,"adult":false},{"id":50185,"adult":false},{"id":376598,"adult":false},{"id":70,"adult":false},{"id":163372,"adult":false},{"id":225044,"adult":false},{"id":376599,"adult":false},{"id":260001,"adult":false},{"id":376600,"adult":false},{"id":363269,"adult":false},{"id":9644,"adult":false},{"id":61755,"adult":false},{"id":257476,"adult":false},{"id":2899,"adult":false},{"id":136580,"adult":false},{"id":184315,"adult":false},{"id":358351,"adult":null},{"id":248039,"adult":false},{"id":18972,"adult":false},{"id":200358,"adult":false},{"id":65402,"adult":false},{"id":115301,"adult":false},{"id":13396,"adult":false},{"id":66060,"adult":false},{"id":39798,"adult":false},{"id":9526,"adult":false},{"id":90461,"adult":false},{"id":191825,"adult":false},{"id":47123,"adult":false},{"id":177456,"adult":false},{"id":369696,"adult":false},{"id":329805,"adult":false},{"id":326033,"adult":false},{"id":238886,"adult":false},{"id":62298,"adult":false},{"id":289961,"adult":false},{"id":371445,"adult":false},{"id":54113,"adult":false},{"id":236746,"adult":false},{"id":28302,"adult":false},{"id":207489,"adult":false},{"id":23631,"adult":false},{"id":106747,"adult":false},{"id":23437,"adult":false},{"id":376601,"adult":false},{"id":371447,"adult":false},{"id":9422,"adult":false},{"id":9480,"adult":false},{"id":95610,"adult":false},{"id":81446,"adult":false},{"id":376602,"adult":false},{"id":342525,"adult":false},{"id":34582,"adult":false},{"id":77794,"adult":false},{"id":18394,"adult":false},{"id":924,"adult":false},{"id":7270,"adult":false},{"id":8874,"adult":false},{"id":371694,"adult":false},{"id":72545,"adult":false},{"id":11322,"adult":false},{"id":16614,"adult":false},{"id":341811,"adult":false},{"id":2275,"adult":false},{"id":240916,"adult":false},{"id":216388,"adult":false},{"id":313026,"adult":false},{"id":293767,"adult":false},{"id":86099,"adult":false},{"id":376603,"adult":false},{"id":141906,"adult":false},{"id":376604,"adult":false},{"id":376605,"adult":false},{"id":221544,"adult":false},{"id":10307,"adult":false},{"id":197836,"adult":false},{"id":29242,"adult":false},{"id":374585,"adult":false},{"id":31498,"adult":false},{"id":376606,"adult":true},{"id":29243,"adult":false},{"id":374935,"adult":false},{"id":44132,"adult":false},{"id":376607,"adult":false},{"id":202575,"adult":false},{"id":376608,"adult":true},{"id":72842,"adult":false}],"page":80,"total_pages":121,"total_results":12060}