{"results":[{"id":11335,"adult":false},{"id":395674,"adult":false},{"id":19204,"adult":false},{"id":388155,"adult":false},{"id":395675,"adult":false},{"id":395676,"adult":false},{"id":231292,"adult":false},{"id":385695,"adult":false},{"id":350576,"adult":false},{"id":263998,"adult":false},{"id":395677,"adult":false},{"id":393407,"adult":false},{"id":206647,"adult":false},{"id":395678,"adult":false},{"id":10258,"adult":false},{"id":106448,"adult":false},{"id":169022,"adult":false},{"id":148887,"adult":false},{"id":47383,"adult":false},{"id":395679,"adult":false},{"id":357464,"adult":false},{"id":99513,"adult":false},{"id":39067,"adult":false},{"id":357521,"adult":false},{"id":395680,"adult":false},{"id":24862,"adult":false},{"id":1979,"adult":false},{"id":14174,"adult":false},{"id":395681,"adult":false},{"id":277392,"adult":false},{"id":9738,"adult":false},{"id":27027,"adult":false},{"id":185512,"adult":false},{"id":68179,"adult":false},{"id":2135,"adult":false},{"id":394818,"adult":false},{"id":27154,"adult":false},{"id":198262,"adult":false},{"id":118390,"adult":false},{"id":11586,"adult":false},{"id":11587,"adult":false},{"id":160741,"adult":false},{"id":391850,"adult":false},{"id":395682,"adult":false},{"id":395683,"adult":false},{"id":137798,"adult":false},{"id":204167,"adult":false},{"id":395684,"adult":false},{"id":77076,"adult":false},{"id":275619,"adult":false},{"id":2260,"adult":false},{"id":315912,"adult":false},{"id":395685,"adult":false},{"id":395114,"adult":null},{"id":353018,"adult":false},{"id":394623,"adult":null},{"id":395115,"adult":false},{"id":269849,"adult":true},{"id":221902,"adult":false},{"id":205775,"adult":false},{"id":370127,"adult":false},{"id":230731,"adult":false},{"id":395116,"adult":null},{"id":395689,"adult":false},{"id":231700,"adult":false},{"id":227306,"adult":false},{"id":395117,"adult":false},{"id":86591,"adult":false},{"id":395118,"adult":null},{"id":360731,"adult":false},{"id":70387,"adult":false},{"id":29452,"adult":false},{"id":157834,"adult":false},{"id":156422,"adult":false},{"id":172705,"adult":false},{"id":165,"adult":false},{"id":91581,"adult":false},{"id":218634,"adult":false},{"id":360798,"adult":false},{"id":395120,"adult":false},{"id":200727,"adult":false},{"id":89604,"adult":false},{"id":26488,"adult":false},{"id":50266,"adult":false},{"id":335505,"adult":false},{"id":137106,"adult":false},{"id":78744,"adult":false},{"id":10895,"adult":false},{"id":129674,"adult":true},{"id":78626,"adult":false},{"id":395690,"adult":false},{"id":82889,"adult":null},{"id":258964,"adult":false},{"id":90565,"adult":false},{"id":80109,"adult":false},{"id":38813,"adult":false},{"id":357400,"adult":false},{"id":103044,"adult":false},{"id":104135,"adult":false},{"id":78892,"adult":false}],"page":17,"total_pages":130,"total_results":12927}