{"results":[{"id":56840,"adult":false},{"id":31483,"adult":false},{"id":261077,"adult":false},{"id":313788,"adult":false},{"id":6399,"adult":false},{"id":405658,"adult":false},{"id":176915,"adult":false},{"id":333622,"adult":false},{"id":311056,"adult":false},{"id":11281,"adult":false},{"id":11072,"adult":false},{"id":3034,"adult":false},{"id":12110,"adult":false},{"id":242090,"adult":false},{"id":264676,"adult":false},{"id":230726,"adult":false},{"id":137607,"adult":false},{"id":149084,"adult":null},{"id":77853,"adult":false},{"id":233470,"adult":false},{"id":214314,"adult":false},{"id":376263,"adult":false},{"id":360404,"adult":false},{"id":25009,"adult":false},{"id":373349,"adult":false},{"id":11529,"adult":false},{"id":405659,"adult":false},{"id":11609,"adult":false},{"id":336041,"adult":false},{"id":356325,"adult":false},{"id":405660,"adult":false},{"id":4543,"adult":false},{"id":320589,"adult":false},{"id":11828,"adult":false},{"id":265007,"adult":false},{"id":369364,"adult":false},{"id":362268,"adult":false},{"id":14256,"adult":false},{"id":9741,"adult":false},{"id":58825,"adult":false},{"id":39474,"adult":false},{"id":61492,"adult":false},{"id":344170,"adult":false},{"id":336811,"adult":false},{"id":13746,"adult":false},{"id":304878,"adult":false},{"id":405661,"adult":null},{"id":240237,"adult":false},{"id":29211,"adult":false},{"id":405662,"adult":null},{"id":365447,"adult":false},{"id":405663,"adult":false},{"id":326255,"adult":false},{"id":13256,"adult":false},{"id":405664,"adult":null},{"id":25755,"adult":false},{"id":405665,"adult":false},{"id":75900,"adult":false},{"id":405666,"adult":null},{"id":405667,"adult":null},{"id":71681,"adult":false},{"id":405668,"adult":null},{"id":39002,"adult":false},{"id":19109,"adult":false},{"id":10782,"adult":false},{"id":405669,"adult":null},{"id":405670,"adult":false},{"id":405671,"adult":false},{"id":405672,"adult":null},{"id":58308,"adult":false},{"id":405673,"adult":null},{"id":321876,"adult":false},{"id":34574,"adult":false},{"id":168259,"adult":false},{"id":209131,"adult":false},{"id":405674,"adult":null},{"id":123503,"adult":false},{"id":405675,"adult":null},{"id":405676,"adult":null},{"id":405677,"adult":null},{"id":77270,"adult":false},{"id":405678,"adult":null},{"id":14689,"adult":false},{"id":405679,"adult":null},{"id":405680,"adult":null},{"id":312409,"adult":false},{"id":405681,"adult":null},{"id":405682,"adult":null},{"id":237874,"adult":false},{"id":405683,"adult":null},{"id":405684,"adult":false},{"id":107090,"adult":false},{"id":405685,"adult":null},{"id":375992,"adult":null},{"id":233183,"adult":false},{"id":273235,"adult":false},{"id":264961,"adult":false},{"id":405686,"adult":null},{"id":405687,"adult":false},{"id":405688,"adult":null}],"page":78,"total_pages":112,"total_results":11190}