{"results":[{"id":250961,"adult":false},{"id":135579,"adult":false},{"id":415237,"adult":false},{"id":55120,"adult":false},{"id":322873,"adult":false},{"id":421,"adult":false},{"id":41780,"adult":false},{"id":2787,"adult":false},{"id":239797,"adult":false},{"id":26728,"adult":false},{"id":82961,"adult":false},{"id":415238,"adult":false},{"id":17808,"adult":false},{"id":55563,"adult":false},{"id":33159,"adult":false},{"id":196304,"adult":false},{"id":196309,"adult":false},{"id":299817,"adult":false},{"id":100474,"adult":false},{"id":196048,"adult":false},{"id":196311,"adult":false},{"id":196306,"adult":false},{"id":196307,"adult":false},{"id":415239,"adult":false},{"id":415240,"adult":false},{"id":415241,"adult":false},{"id":296555,"adult":false},{"id":142349,"adult":false},{"id":415242,"adult":false},{"id":70455,"adult":false},{"id":164713,"adult":false},{"id":230767,"adult":false},{"id":405316,"adult":false},{"id":27727,"adult":false},{"id":415243,"adult":false},{"id":332340,"adult":false},{"id":42400,"adult":false},{"id":296159,"adult":false},{"id":275187,"adult":false},{"id":343815,"adult":false},{"id":44354,"adult":false},{"id":415244,"adult":false},{"id":166898,"adult":false},{"id":415245,"adult":false},{"id":415246,"adult":false},{"id":104334,"adult":false},{"id":296137,"adult":false},{"id":10700,"adult":null},{"id":131653,"adult":false},{"id":286189,"adult":false},{"id":412720,"adult":false},{"id":415247,"adult":false},{"id":415248,"adult":false},{"id":415249,"adult":false},{"id":121454,"adult":false},{"id":415250,"adult":false},{"id":111058,"adult":false},{"id":415251,"adult":false},{"id":20108,"adult":false},{"id":9653,"adult":false},{"id":4955,"adult":false},{"id":384563,"adult":false},{"id":415252,"adult":false},{"id":415253,"adult":false},{"id":415254,"adult":false},{"id":415255,"adult":false},{"id":347200,"adult":false},{"id":411881,"adult":false},{"id":40464,"adult":false},{"id":62297,"adult":false},{"id":415256,"adult":false},{"id":197316,"adult":false},{"id":415257,"adult":false},{"id":120696,"adult":false},{"id":394855,"adult":false},{"id":390388,"adult":false},{"id":128542,"adult":false},{"id":9611,"adult":false},{"id":329851,"adult":false},{"id":255784,"adult":false},{"id":149681,"adult":false},{"id":15090,"adult":false},{"id":415258,"adult":false},{"id":352771,"adult":false},{"id":415259,"adult":false},{"id":415260,"adult":false},{"id":13851,"adult":false},{"id":360341,"adult":false},{"id":11340,"adult":false},{"id":199076,"adult":false},{"id":340393,"adult":null},{"id":300424,"adult":false},{"id":322456,"adult":false},{"id":375086,"adult":null},{"id":50087,"adult":false},{"id":374886,"adult":null},{"id":76324,"adult":false},{"id":401887,"adult":false},{"id":33427,"adult":false},{"id":129597,"adult":false}],"page":99,"total_pages":126,"total_results":12554}