{"results":[{"id":86651,"adult":false},{"id":83438,"adult":false},{"id":437,"adult":false},{"id":160312,"adult":false},{"id":296951,"adult":false},{"id":8840,"adult":false},{"id":169452,"adult":false},{"id":30141,"adult":false},{"id":296949,"adult":false},{"id":296950,"adult":false},{"id":333042,"adult":false},{"id":9762,"adult":false},{"id":86092,"adult":false},{"id":8328,"adult":false},{"id":41233,"adult":false},{"id":205724,"adult":false},{"id":302091,"adult":false},{"id":88005,"adult":false},{"id":244264,"adult":false},{"id":14061,"adult":false},{"id":14753,"adult":false},{"id":402537,"adult":false},{"id":71134,"adult":false},{"id":293941,"adult":false},{"id":136867,"adult":false},{"id":18072,"adult":false},{"id":9475,"adult":false},{"id":619,"adult":false},{"id":11317,"adult":false},{"id":85960,"adult":false},{"id":304,"adult":false},{"id":1844,"adult":false},{"id":402538,"adult":false},{"id":299824,"adult":false},{"id":96724,"adult":false},{"id":10057,"adult":false},{"id":52451,"adult":false},{"id":252625,"adult":false},{"id":334930,"adult":false},{"id":338421,"adult":false},{"id":402539,"adult":false},{"id":13291,"adult":false},{"id":356842,"adult":false},{"id":163957,"adult":false},{"id":20372,"adult":false},{"id":147834,"adult":false},{"id":107445,"adult":false},{"id":282999,"adult":false},{"id":92336,"adult":null},{"id":97292,"adult":false},{"id":317316,"adult":false},{"id":400536,"adult":false},{"id":402540,"adult":false},{"id":401361,"adult":false},{"id":146769,"adult":false},{"id":354835,"adult":false},{"id":346543,"adult":false},{"id":315635,"adult":false},{"id":95027,"adult":false},{"id":402541,"adult":false},{"id":345456,"adult":false},{"id":373207,"adult":false},{"id":25953,"adult":false},{"id":395551,"adult":false},{"id":70954,"adult":false},{"id":21832,"adult":false},{"id":24789,"adult":false},{"id":274418,"adult":false},{"id":9721,"adult":false},{"id":10049,"adult":false},{"id":5881,"adult":false},{"id":26431,"adult":false},{"id":9924,"adult":false},{"id":3349,"adult":false},{"id":7279,"adult":false},{"id":28143,"adult":false},{"id":23437,"adult":false},{"id":3585,"adult":false},{"id":3350,"adult":false},{"id":161143,"adult":false},{"id":286572,"adult":false},{"id":398535,"adult":false},{"id":402542,"adult":false},{"id":400401,"adult":false},{"id":402543,"adult":false},{"id":358377,"adult":false},{"id":278633,"adult":false},{"id":1919,"adult":false},{"id":10781,"adult":false},{"id":70495,"adult":false},{"id":323373,"adult":false},{"id":402544,"adult":false},{"id":182227,"adult":false},{"id":226429,"adult":false},{"id":138095,"adult":false},{"id":26389,"adult":false},{"id":106758,"adult":false},{"id":74289,"adult":false},{"id":41380,"adult":false},{"id":64994,"adult":false}],"page":23,"total_pages":116,"total_results":11526}