{"results":[{"id":365339,"adult":false},{"id":90111,"adult":false},{"id":28580,"adult":false},{"id":422214,"adult":false},{"id":367284,"adult":false},{"id":333427,"adult":false},{"id":145135,"adult":false},{"id":100636,"adult":false},{"id":422215,"adult":null},{"id":245397,"adult":false},{"id":174383,"adult":false},{"id":324412,"adult":false},{"id":422216,"adult":true},{"id":237851,"adult":false},{"id":348035,"adult":false},{"id":422217,"adult":false},{"id":237943,"adult":false},{"id":238188,"adult":false},{"id":311667,"adult":false},{"id":407036,"adult":false},{"id":257440,"adult":false},{"id":238189,"adult":false},{"id":238197,"adult":false},{"id":422218,"adult":false},{"id":139320,"adult":false},{"id":141124,"adult":false},{"id":397717,"adult":false},{"id":238194,"adult":false},{"id":422219,"adult":false},{"id":388893,"adult":false},{"id":410718,"adult":false},{"id":19095,"adult":false},{"id":422220,"adult":false},{"id":12924,"adult":false},{"id":78429,"adult":false},{"id":422221,"adult":false},{"id":1273,"adult":false},{"id":44551,"adult":false},{"id":14059,"adult":false},{"id":6278,"adult":false},{"id":9788,"adult":false},{"id":9273,"adult":false},{"id":11817,"adult":false},{"id":8366,"adult":false},{"id":9838,"adult":false},{"id":366500,"adult":false},{"id":10471,"adult":false},{"id":422222,"adult":false},{"id":6038,"adult":false},{"id":8584,"adult":false},{"id":422223,"adult":true},{"id":11824,"adult":false},{"id":11797,"adult":false},{"id":1613,"adult":false},{"id":1369,"adult":false},{"id":422224,"adult":false},{"id":94865,"adult":false},{"id":1694,"adult":false},{"id":34093,"adult":false},{"id":378909,"adult":false},{"id":12701,"adult":false},{"id":19014,"adult":false},{"id":31789,"adult":false},{"id":6519,"adult":false},{"id":67352,"adult":false},{"id":11893,"adult":false},{"id":208989,"adult":false},{"id":46938,"adult":false},{"id":422225,"adult":false},{"id":167395,"adult":false},{"id":420271,"adult":false},{"id":420554,"adult":false},{"id":13764,"adult":false},{"id":42044,"adult":false},{"id":32387,"adult":false},{"id":422226,"adult":false},{"id":14040,"adult":false},{"id":11509,"adult":false},{"id":11532,"adult":false},{"id":277,"adult":false},{"id":422227,"adult":false},{"id":11557,"adult":false},{"id":25391,"adult":false},{"id":422228,"adult":false},{"id":18502,"adult":false},{"id":56288,"adult":false},{"id":10656,"adult":false},{"id":17824,"adult":false},{"id":8130,"adult":false},{"id":422229,"adult":false},{"id":143889,"adult":false},{"id":42045,"adult":false},{"id":526,"adult":false},{"id":422230,"adult":null},{"id":636,"adult":false},{"id":11830,"adult":false},{"id":26422,"adult":false},{"id":422231,"adult":false},{"id":113555,"adult":false},{"id":422232,"adult":false}],"page":68,"total_pages":123,"total_results":12202}