{"results":[{"id":282017,"adult":false},{"id":101592,"adult":false},{"id":385823,"adult":false},{"id":78075,"adult":false},{"id":43612,"adult":false},{"id":59703,"adult":false},{"id":68238,"adult":false},{"id":98586,"adult":false},{"id":281660,"adult":false},{"id":42230,"adult":false},{"id":233146,"adult":false},{"id":178040,"adult":false},{"id":59701,"adult":false},{"id":333696,"adult":false},{"id":45813,"adult":false},{"id":254472,"adult":false},{"id":26103,"adult":false},{"id":158751,"adult":false},{"id":22965,"adult":false},{"id":220448,"adult":false},{"id":56718,"adult":false},{"id":385824,"adult":false},{"id":265177,"adult":false},{"id":385825,"adult":false},{"id":240832,"adult":false},{"id":102651,"adult":false},{"id":206647,"adult":false},{"id":187897,"adult":false},{"id":25898,"adult":false},{"id":293863,"adult":false},{"id":2789,"adult":false},{"id":228205,"adult":false},{"id":23298,"adult":false},{"id":360284,"adult":false},{"id":384562,"adult":false},{"id":43326,"adult":false},{"id":272567,"adult":false},{"id":329010,"adult":false},{"id":111233,"adult":false},{"id":17745,"adult":false},{"id":299400,"adult":false},{"id":101551,"adult":false},{"id":152621,"adult":false},{"id":361951,"adult":false},{"id":102272,"adult":false},{"id":79861,"adult":false},{"id":311209,"adult":false},{"id":384861,"adult":null},{"id":259940,"adult":false},{"id":159845,"adult":false},{"id":385826,"adult":false},{"id":285592,"adult":false},{"id":316447,"adult":false},{"id":283589,"adult":false},{"id":202493,"adult":false},{"id":14271,"adult":false},{"id":87267,"adult":false},{"id":36194,"adult":false},{"id":356352,"adult":false},{"id":19287,"adult":false},{"id":42110,"adult":false},{"id":217197,"adult":false},{"id":133958,"adult":false},{"id":370239,"adult":false},{"id":228872,"adult":false},{"id":103648,"adult":false},{"id":96973,"adult":false},{"id":121401,"adult":false},{"id":383340,"adult":false},{"id":82419,"adult":false},{"id":347764,"adult":false},{"id":383501,"adult":false},{"id":221950,"adult":false},{"id":383859,"adult":false},{"id":118109,"adult":false},{"id":323730,"adult":false},{"id":355117,"adult":false},{"id":42139,"adult":false},{"id":111997,"adult":false},{"id":91571,"adult":false},{"id":83061,"adult":false},{"id":31293,"adult":false},{"id":44022,"adult":false},{"id":383504,"adult":false},{"id":55245,"adult":false},{"id":126146,"adult":false},{"id":342272,"adult":false},{"id":141666,"adult":false},{"id":383338,"adult":false},{"id":53657,"adult":false},{"id":252839,"adult":false},{"id":140849,"adult":false},{"id":41730,"adult":false},{"id":140837,"adult":false},{"id":20640,"adult":false},{"id":215760,"adult":false},{"id":369019,"adult":false},{"id":345940,"adult":false},{"id":96137,"adult":false},{"id":35568,"adult":false}],"page":36,"total_pages":123,"total_results":12230}