{"results":[{"id":318973,"adult":false},{"id":391390,"adult":false},{"id":27642,"adult":false},{"id":285208,"adult":false},{"id":410574,"adult":false},{"id":413686,"adult":false},{"id":393624,"adult":false},{"id":12139,"adult":false},{"id":97630,"adult":false},{"id":341087,"adult":false},{"id":12569,"adult":false},{"id":10371,"adult":false},{"id":174340,"adult":false},{"id":266379,"adult":false},{"id":313166,"adult":false},{"id":266630,"adult":false},{"id":10261,"adult":false},{"id":33514,"adult":false},{"id":70068,"adult":false},{"id":37472,"adult":false},{"id":31220,"adult":false},{"id":80286,"adult":false},{"id":313086,"adult":false},{"id":413687,"adult":false},{"id":411871,"adult":false},{"id":151970,"adult":false},{"id":333382,"adult":false},{"id":58290,"adult":false},{"id":283552,"adult":false},{"id":208567,"adult":false},{"id":375794,"adult":false},{"id":98025,"adult":false},{"id":301334,"adult":false},{"id":315664,"adult":false},{"id":24585,"adult":false},{"id":44249,"adult":false},{"id":82867,"adult":false},{"id":48939,"adult":false},{"id":328252,"adult":false},{"id":413177,"adult":false},{"id":411432,"adult":false},{"id":147913,"adult":false},{"id":33217,"adult":false},{"id":86110,"adult":false},{"id":251,"adult":false},{"id":28178,"adult":false},{"id":65256,"adult":false},{"id":17915,"adult":false},{"id":436,"adult":false},{"id":413688,"adult":true},{"id":383893,"adult":false},{"id":423,"adult":false},{"id":13680,"adult":false},{"id":264644,"adult":false},{"id":306819,"adult":false},{"id":138843,"adult":false},{"id":406231,"adult":false},{"id":4944,"adult":false},{"id":77846,"adult":false},{"id":413689,"adult":false},{"id":10402,"adult":false},{"id":413496,"adult":null},{"id":403895,"adult":false},{"id":13618,"adult":false},{"id":11003,"adult":false},{"id":10723,"adult":false},{"id":8871,"adult":false},{"id":100120,"adult":false},{"id":62781,"adult":false},{"id":7857,"adult":false},{"id":47802,"adult":false},{"id":5001,"adult":false},{"id":11422,"adult":false},{"id":413690,"adult":false},{"id":360029,"adult":false},{"id":413691,"adult":false},{"id":413692,"adult":false},{"id":43563,"adult":false},{"id":643,"adult":false},{"id":406181,"adult":false},{"id":194163,"adult":false},{"id":115301,"adult":false},{"id":114896,"adult":false},{"id":114626,"adult":false},{"id":118009,"adult":false},{"id":413693,"adult":false},{"id":77360,"adult":false},{"id":408609,"adult":false},{"id":11130,"adult":false},{"id":189159,"adult":false},{"id":30322,"adult":false},{"id":102634,"adult":false},{"id":4599,"adult":false},{"id":2806,"adult":false},{"id":32856,"adult":false},{"id":2770,"adult":false},{"id":97307,"adult":false},{"id":290973,"adult":false},{"id":158808,"adult":false},{"id":413694,"adult":false}],"page":9,"total_pages":126,"total_results":12554}