{"results":[{"id":430357,"adult":false},{"id":92953,"adult":false},{"id":9074,"adult":false},{"id":392011,"adult":false},{"id":424131,"adult":false},{"id":21382,"adult":false},{"id":67552,"adult":false},{"id":167673,"adult":false},{"id":294435,"adult":false},{"id":13939,"adult":false},{"id":35432,"adult":false},{"id":290710,"adult":false},{"id":26612,"adult":false},{"id":14373,"adult":false},{"id":301471,"adult":false},{"id":24873,"adult":false},{"id":26263,"adult":false},{"id":34746,"adult":false},{"id":315664,"adult":false},{"id":37929,"adult":false},{"id":244904,"adult":false},{"id":121856,"adult":false},{"id":345920,"adult":false},{"id":413242,"adult":false},{"id":345010,"adult":false},{"id":301365,"adult":false},{"id":114630,"adult":false},{"id":238,"adult":false},{"id":240,"adult":false},{"id":242,"adult":false},{"id":430358,"adult":false},{"id":289555,"adult":false},{"id":10093,"adult":false},{"id":290433,"adult":false},{"id":199368,"adult":false},{"id":430359,"adult":false},{"id":252360,"adult":false},{"id":170309,"adult":false},{"id":384682,"adult":false},{"id":192162,"adult":false},{"id":219372,"adult":false},{"id":386424,"adult":false},{"id":35073,"adult":false},{"id":184952,"adult":false},{"id":281302,"adult":false},{"id":430360,"adult":false},{"id":387600,"adult":false},{"id":384687,"adult":false},{"id":104940,"adult":false},{"id":29166,"adult":false},{"id":405940,"adult":false},{"id":255056,"adult":false},{"id":381418,"adult":false},{"id":106944,"adult":false},{"id":61131,"adult":true},{"id":257345,"adult":false},{"id":113697,"adult":false},{"id":257057,"adult":false},{"id":215699,"adult":false},{"id":294772,"adult":false},{"id":430361,"adult":false},{"id":288166,"adult":false},{"id":293818,"adult":null},{"id":407271,"adult":true},{"id":109778,"adult":false},{"id":164479,"adult":false},{"id":397981,"adult":false},{"id":296587,"adult":false},{"id":36089,"adult":false},{"id":105105,"adult":false},{"id":71030,"adult":false},{"id":85074,"adult":false},{"id":429782,"adult":false},{"id":18264,"adult":false},{"id":339397,"adult":false},{"id":89903,"adult":false},{"id":137686,"adult":false},{"id":371560,"adult":false},{"id":430362,"adult":false},{"id":429778,"adult":false},{"id":430363,"adult":false},{"id":218976,"adult":false},{"id":379327,"adult":false},{"id":430364,"adult":false},{"id":16270,"adult":false},{"id":329865,"adult":false},{"id":381284,"adult":false},{"id":369061,"adult":false},{"id":4498,"adult":false},{"id":39925,"adult":false},{"id":430365,"adult":false},{"id":76777,"adult":false},{"id":430366,"adult":false},{"id":430367,"adult":false},{"id":430368,"adult":false},{"id":127690,"adult":false},{"id":271969,"adult":false},{"id":345111,"adult":false},{"id":268717,"adult":false},{"id":72838,"adult":false}],"page":12,"total_pages":114,"total_results":11339}