{"results":[{"id":391293,"adult":false},{"id":10545,"adult":false},{"id":12448,"adult":false},{"id":141222,"adult":false},{"id":11144,"adult":false},{"id":159824,"adult":false},{"id":318346,"adult":false},{"id":11970,"adult":false},{"id":80543,"adult":false},{"id":234567,"adult":false},{"id":11048,"adult":false},{"id":391294,"adult":false},{"id":26728,"adult":false},{"id":264773,"adult":false},{"id":13956,"adult":false},{"id":11619,"adult":false},{"id":390662,"adult":false},{"id":25741,"adult":false},{"id":68179,"adult":false},{"id":78825,"adult":false},{"id":391295,"adult":false},{"id":92222,"adult":false},{"id":32617,"adult":false},{"id":78344,"adult":false},{"id":391296,"adult":false},{"id":391297,"adult":false},{"id":391298,"adult":false},{"id":377516,"adult":false},{"id":391299,"adult":false},{"id":29056,"adult":false},{"id":20051,"adult":false},{"id":49689,"adult":false},{"id":24424,"adult":false},{"id":391300,"adult":false},{"id":287825,"adult":false},{"id":391301,"adult":false},{"id":384545,"adult":false},{"id":391302,"adult":false},{"id":36593,"adult":false},{"id":29173,"adult":false},{"id":354997,"adult":false},{"id":245698,"adult":false},{"id":170501,"adult":false},{"id":391303,"adult":false},{"id":309886,"adult":false},{"id":361128,"adult":false},{"id":273725,"adult":false},{"id":391304,"adult":false},{"id":391305,"adult":false},{"id":125862,"adult":false},{"id":391306,"adult":false},{"id":336769,"adult":false},{"id":324552,"adult":false},{"id":44741,"adult":false},{"id":391307,"adult":false},{"id":62830,"adult":false},{"id":391308,"adult":false},{"id":390191,"adult":false},{"id":145677,"adult":false},{"id":346755,"adult":false},{"id":391309,"adult":false},{"id":68718,"adult":false},{"id":391310,"adult":false},{"id":376873,"adult":false},{"id":391311,"adult":false},{"id":362190,"adult":false},{"id":370125,"adult":false},{"id":391312,"adult":false},{"id":391313,"adult":false},{"id":391314,"adult":false},{"id":366500,"adult":false},{"id":171899,"adult":false},{"id":390147,"adult":false},{"id":52749,"adult":false},{"id":298006,"adult":false},{"id":4397,"adult":false},{"id":87359,"adult":false},{"id":391315,"adult":false},{"id":391316,"adult":false},{"id":259560,"adult":false},{"id":377852,"adult":false},{"id":380986,"adult":null},{"id":391317,"adult":false},{"id":55604,"adult":false},{"id":391318,"adult":false},{"id":49370,"adult":false},{"id":391319,"adult":false},{"id":391320,"adult":false},{"id":391321,"adult":false},{"id":391322,"adult":false},{"id":290098,"adult":false},{"id":283984,"adult":false},{"id":391323,"adult":false},{"id":391324,"adult":false},{"id":94731,"adult":false},{"id":391325,"adult":false},{"id":391326,"adult":false},{"id":391327,"adult":false},{"id":391328,"adult":false},{"id":364911,"adult":false}],"page":33,"total_pages":118,"total_results":11761}