{"results":[{"id":81531,"adult":false},{"id":49026,"adult":false},{"id":31221,"adult":false},{"id":374278,"adult":null},{"id":279927,"adult":false},{"id":57165,"adult":false},{"id":377080,"adult":false},{"id":10323,"adult":false},{"id":18823,"adult":false},{"id":147441,"adult":false},{"id":264660,"adult":false},{"id":82501,"adult":false},{"id":72431,"adult":false},{"id":166089,"adult":false},{"id":54106,"adult":false},{"id":255343,"adult":false},{"id":61719,"adult":false},{"id":51822,"adult":false},{"id":80274,"adult":false},{"id":59148,"adult":false},{"id":295631,"adult":false},{"id":158426,"adult":false},{"id":49017,"adult":false},{"id":53447,"adult":false},{"id":78387,"adult":false},{"id":9366,"adult":false},{"id":240745,"adult":false},{"id":176061,"adult":false},{"id":50620,"adult":false},{"id":50619,"adult":false},{"id":82539,"adult":false},{"id":18239,"adult":false},{"id":8966,"adult":false},{"id":10396,"adult":false},{"id":216015,"adult":false},{"id":100402,"adult":false},{"id":341689,"adult":false},{"id":9667,"adult":false},{"id":169917,"adult":false},{"id":260346,"adult":false},{"id":10140,"adult":false},{"id":862,"adult":false},{"id":254399,"adult":false},{"id":356005,"adult":false},{"id":411,"adult":false},{"id":204922,"adult":false},{"id":377526,"adult":false},{"id":218556,"adult":false},{"id":64807,"adult":false},{"id":192126,"adult":false},{"id":79379,"adult":false},{"id":121789,"adult":false},{"id":275318,"adult":false},{"id":72815,"adult":false},{"id":347703,"adult":false},{"id":284627,"adult":false},{"id":347692,"adult":false},{"id":347713,"adult":false},{"id":64830,"adult":false},{"id":140076,"adult":false},{"id":255190,"adult":false},{"id":207883,"adult":false},{"id":18031,"adult":false},{"id":59436,"adult":false},{"id":323373,"adult":false},{"id":42611,"adult":false},{"id":27585,"adult":false},{"id":101280,"adult":false},{"id":303991,"adult":false},{"id":59968,"adult":false},{"id":371157,"adult":false},{"id":291188,"adult":false},{"id":9381,"adult":false},{"id":252680,"adult":false},{"id":298539,"adult":false},{"id":159024,"adult":false},{"id":146322,"adult":false},{"id":356512,"adult":true},{"id":377527,"adult":false},{"id":341657,"adult":false},{"id":325133,"adult":false},{"id":298212,"adult":true},{"id":377528,"adult":false},{"id":17431,"adult":false},{"id":302699,"adult":false},{"id":193610,"adult":false},{"id":238615,"adult":false},{"id":258532,"adult":false},{"id":279207,"adult":null},{"id":343702,"adult":false},{"id":377529,"adult":null},{"id":288980,"adult":false},{"id":366551,"adult":false},{"id":287903,"adult":false},{"id":82700,"adult":false},{"id":377530,"adult":false},{"id":135597,"adult":false},{"id":362703,"adult":false},{"id":14207,"adult":false},{"id":377531,"adult":false}],"page":1,"total_pages":226,"total_results":22514}