{"results":[{"id":196753,"adult":false},{"id":427309,"adult":null},{"id":427310,"adult":false},{"id":194883,"adult":false},{"id":101342,"adult":false},{"id":427311,"adult":false},{"id":29098,"adult":false},{"id":424289,"adult":false},{"id":90521,"adult":false},{"id":83237,"adult":false},{"id":372313,"adult":false},{"id":83225,"adult":false},{"id":185826,"adult":false},{"id":417910,"adult":false},{"id":249966,"adult":false},{"id":65130,"adult":false},{"id":91676,"adult":false},{"id":389868,"adult":false},{"id":427312,"adult":false},{"id":380289,"adult":false},{"id":427313,"adult":false},{"id":427314,"adult":false},{"id":427315,"adult":false},{"id":427316,"adult":false},{"id":366837,"adult":false},{"id":366682,"adult":null},{"id":407389,"adult":false},{"id":427317,"adult":false},{"id":257091,"adult":false},{"id":352178,"adult":false},{"id":427318,"adult":false},{"id":427319,"adult":false},{"id":10999,"adult":false},{"id":427320,"adult":false},{"id":398946,"adult":false},{"id":413096,"adult":false},{"id":427321,"adult":false},{"id":427322,"adult":false},{"id":100730,"adult":false},{"id":2453,"adult":false},{"id":427323,"adult":false},{"id":363731,"adult":false},{"id":384134,"adult":false},{"id":138744,"adult":false},{"id":427324,"adult":false},{"id":382692,"adult":false},{"id":427325,"adult":false},{"id":427326,"adult":false},{"id":427327,"adult":false},{"id":9573,"adult":false},{"id":28415,"adult":false},{"id":26332,"adult":false},{"id":399556,"adult":false},{"id":69846,"adult":false},{"id":334859,"adult":false},{"id":147999,"adult":false},{"id":32450,"adult":false},{"id":11775,"adult":false},{"id":427328,"adult":false},{"id":274867,"adult":false},{"id":87874,"adult":false},{"id":333960,"adult":false},{"id":353491,"adult":false},{"id":392794,"adult":false},{"id":16471,"adult":false},{"id":28377,"adult":false},{"id":395992,"adult":false},{"id":119675,"adult":false},{"id":307201,"adult":false},{"id":334527,"adult":false},{"id":427329,"adult":false},{"id":427330,"adult":false},{"id":14510,"adult":false},{"id":15588,"adult":false},{"id":90641,"adult":false},{"id":427331,"adult":false},{"id":105113,"adult":false},{"id":38983,"adult":false},{"id":59115,"adult":false},{"id":74082,"adult":false},{"id":427332,"adult":false},{"id":427333,"adult":false},{"id":68724,"adult":false},{"id":130401,"adult":false},{"id":18044,"adult":false},{"id":406052,"adult":false},{"id":427334,"adult":false},{"id":427335,"adult":false},{"id":153234,"adult":false},{"id":266215,"adult":false},{"id":105663,"adult":false},{"id":4205,"adult":false},{"id":427336,"adult":false},{"id":23030,"adult":false},{"id":338986,"adult":false},{"id":37166,"adult":false},{"id":348668,"adult":false},{"id":351768,"adult":false},{"id":337154,"adult":false},{"id":334033,"adult":false}],"page":79,"total_pages":119,"total_results":11862}