{"results":[{"id":50301,"adult":false},{"id":381763,"adult":false},{"id":376228,"adult":false},{"id":378484,"adult":null},{"id":125570,"adult":false},{"id":105541,"adult":false},{"id":288997,"adult":false},{"id":85836,"adult":false},{"id":30874,"adult":false},{"id":38360,"adult":false},{"id":40536,"adult":false},{"id":318040,"adult":false},{"id":381764,"adult":true},{"id":271786,"adult":false},{"id":93369,"adult":false},{"id":381765,"adult":false},{"id":72109,"adult":false},{"id":381766,"adult":false},{"id":173656,"adult":false},{"id":223043,"adult":false},{"id":381767,"adult":false},{"id":269334,"adult":false},{"id":24942,"adult":false},{"id":260549,"adult":false},{"id":4965,"adult":false},{"id":260415,"adult":false},{"id":207625,"adult":false},{"id":269337,"adult":false},{"id":264362,"adult":false},{"id":7518,"adult":false},{"id":19595,"adult":false},{"id":2976,"adult":false},{"id":106020,"adult":false},{"id":33806,"adult":false},{"id":339281,"adult":true},{"id":6023,"adult":false},{"id":1857,"adult":false},{"id":11619,"adult":false},{"id":381768,"adult":false},{"id":136069,"adult":false},{"id":260537,"adult":false},{"id":264355,"adult":false},{"id":18374,"adult":false},{"id":225703,"adult":false},{"id":381769,"adult":false},{"id":301902,"adult":false},{"id":10593,"adult":false},{"id":381770,"adult":false},{"id":316273,"adult":true},{"id":82696,"adult":false},{"id":381771,"adult":false},{"id":196326,"adult":false},{"id":28004,"adult":false},{"id":11367,"adult":false},{"id":44826,"adult":false},{"id":34557,"adult":false},{"id":813,"adult":false},{"id":381772,"adult":false},{"id":1452,"adult":false},{"id":775,"adult":false},{"id":215400,"adult":false},{"id":57953,"adult":false},{"id":193893,"adult":false},{"id":318224,"adult":false},{"id":802,"adult":false},{"id":128452,"adult":false},{"id":76929,"adult":false},{"id":46315,"adult":false},{"id":41479,"adult":false},{"id":265189,"adult":false},{"id":334894,"adult":false},{"id":130093,"adult":false},{"id":48676,"adult":false},{"id":13529,"adult":false},{"id":205556,"adult":false},{"id":381773,"adult":false},{"id":892,"adult":false},{"id":381774,"adult":false},{"id":228036,"adult":false},{"id":381775,"adult":false},{"id":381776,"adult":false},{"id":43885,"adult":false},{"id":139705,"adult":false},{"id":238124,"adult":false},{"id":318909,"adult":false},{"id":265169,"adult":false},{"id":3432,"adult":false},{"id":144471,"adult":false},{"id":371585,"adult":false},{"id":175153,"adult":false},{"id":255990,"adult":false},{"id":27349,"adult":false},{"id":240237,"adult":false},{"id":381777,"adult":false},{"id":14729,"adult":false},{"id":13496,"adult":false},{"id":129461,"adult":false},{"id":183825,"adult":false},{"id":58591,"adult":false},{"id":200,"adult":false}],"page":71,"total_pages":119,"total_results":11854}