{"results":[{"id":430306,"adult":false},{"id":419398,"adult":false},{"id":333000,"adult":false},{"id":305387,"adult":false},{"id":214108,"adult":false},{"id":298294,"adult":false},{"id":430307,"adult":false},{"id":46594,"adult":false},{"id":37765,"adult":false},{"id":430308,"adult":false},{"id":44861,"adult":false},{"id":256557,"adult":false},{"id":62029,"adult":false},{"id":285178,"adult":false},{"id":35634,"adult":false},{"id":292783,"adult":false},{"id":430309,"adult":false},{"id":284539,"adult":false},{"id":268208,"adult":false},{"id":428417,"adult":false},{"id":428409,"adult":false},{"id":148905,"adult":false},{"id":284495,"adult":false},{"id":430310,"adult":false},{"id":428415,"adult":false},{"id":428405,"adult":false},{"id":218449,"adult":false},{"id":31026,"adult":false},{"id":258230,"adult":false},{"id":343504,"adult":false},{"id":430313,"adult":false},{"id":430314,"adult":false},{"id":48773,"adult":false},{"id":21955,"adult":false},{"id":159469,"adult":false},{"id":428403,"adult":false},{"id":430315,"adult":false},{"id":430316,"adult":false},{"id":123636,"adult":false},{"id":140411,"adult":false},{"id":397717,"adult":false},{"id":148630,"adult":false},{"id":284365,"adult":false},{"id":430317,"adult":false},{"id":337339,"adult":false},{"id":31245,"adult":false},{"id":411632,"adult":false},{"id":386805,"adult":false},{"id":418292,"adult":false},{"id":28354,"adult":false},{"id":430318,"adult":false},{"id":430057,"adult":false},{"id":38918,"adult":false},{"id":269054,"adult":false},{"id":15265,"adult":false},{"id":282864,"adult":false},{"id":108483,"adult":false},{"id":293412,"adult":false},{"id":783,"adult":false},{"id":430319,"adult":false},{"id":430320,"adult":false},{"id":11337,"adult":false},{"id":430321,"adult":false},{"id":430322,"adult":false},{"id":341284,"adult":false},{"id":238751,"adult":false},{"id":430323,"adult":false},{"id":414159,"adult":false},{"id":423507,"adult":false},{"id":210945,"adult":false},{"id":32049,"adult":false},{"id":36567,"adult":false},{"id":821,"adult":false},{"id":29767,"adult":false},{"id":430324,"adult":false},{"id":104896,"adult":false},{"id":430325,"adult":false},{"id":430326,"adult":false},{"id":430327,"adult":false},{"id":412120,"adult":false},{"id":192767,"adult":false},{"id":227707,"adult":false},{"id":65427,"adult":false},{"id":430328,"adult":false},{"id":266569,"adult":false},{"id":4723,"adult":false},{"id":342909,"adult":false},{"id":95218,"adult":false},{"id":430329,"adult":false},{"id":409088,"adult":false},{"id":424322,"adult":false},{"id":295264,"adult":false},{"id":22625,"adult":false},{"id":54863,"adult":false},{"id":11084,"adult":false},{"id":313445,"adult":false},{"id":429668,"adult":null},{"id":23736,"adult":false},{"id":11548,"adult":false},{"id":258786,"adult":false}],"page":7,"total_pages":114,"total_results":11339}