{"results":[{"id":400148,"adult":false},{"id":44645,"adult":false},{"id":313086,"adult":false},{"id":374173,"adult":false},{"id":402521,"adult":false},{"id":207655,"adult":false},{"id":354424,"adult":false},{"id":184935,"adult":false},{"id":4560,"adult":false},{"id":643,"adult":false},{"id":337987,"adult":false},{"id":308027,"adult":false},{"id":402522,"adult":false},{"id":101348,"adult":false},{"id":300673,"adult":false},{"id":264644,"adult":false},{"id":402523,"adult":false},{"id":15983,"adult":false},{"id":15859,"adult":false},{"id":24424,"adult":false},{"id":67415,"adult":false},{"id":163106,"adult":false},{"id":323262,"adult":false},{"id":402524,"adult":false},{"id":328901,"adult":false},{"id":86267,"adult":false},{"id":37905,"adult":false},{"id":282438,"adult":false},{"id":402525,"adult":false},{"id":52414,"adult":false},{"id":402526,"adult":false},{"id":402527,"adult":false},{"id":402528,"adult":false},{"id":62604,"adult":false},{"id":123655,"adult":false},{"id":401373,"adult":false},{"id":54642,"adult":false},{"id":364548,"adult":null},{"id":207703,"adult":false},{"id":377878,"adult":false},{"id":241259,"adult":false},{"id":402529,"adult":false},{"id":325348,"adult":false},{"id":76757,"adult":false},{"id":11,"adult":false},{"id":15961,"adult":false},{"id":402530,"adult":false},{"id":46812,"adult":false},{"id":101299,"adult":false},{"id":257344,"adult":false},{"id":312221,"adult":false},{"id":105864,"adult":false},{"id":150689,"adult":false},{"id":52365,"adult":false},{"id":550,"adult":false},{"id":242582,"adult":false},{"id":68737,"adult":false},{"id":401392,"adult":false},{"id":402531,"adult":false},{"id":318917,"adult":false},{"id":303542,"adult":false},{"id":603,"adult":false},{"id":52413,"adult":false},{"id":7840,"adult":false},{"id":402532,"adult":false},{"id":680,"adult":false},{"id":264660,"adult":false},{"id":46315,"adult":false},{"id":119450,"adult":false},{"id":73281,"adult":false},{"id":402533,"adult":false},{"id":74860,"adult":false},{"id":14,"adult":false},{"id":201088,"adult":false},{"id":402534,"adult":false},{"id":155781,"adult":false},{"id":353817,"adult":null},{"id":25473,"adult":false},{"id":316027,"adult":false},{"id":157560,"adult":false},{"id":45185,"adult":false},{"id":241554,"adult":false},{"id":402535,"adult":false},{"id":106373,"adult":false},{"id":310491,"adult":false},{"id":50182,"adult":false},{"id":328594,"adult":false},{"id":8933,"adult":false},{"id":326644,"adult":false},{"id":326654,"adult":false},{"id":326624,"adult":false},{"id":390479,"adult":false},{"id":402536,"adult":false},{"id":341443,"adult":false},{"id":286782,"adult":false},{"id":438,"adult":false},{"id":73467,"adult":false},{"id":432,"adult":false},{"id":283696,"adult":false},{"id":431,"adult":false}],"page":22,"total_pages":116,"total_results":11526}