{"results":[{"id":10292,"adult":false},{"id":67071,"adult":false},{"id":196422,"adult":false},{"id":211088,"adult":false},{"id":157351,"adult":false},{"id":51191,"adult":false},{"id":53443,"adult":false},{"id":313573,"adult":false},{"id":68905,"adult":false},{"id":175952,"adult":false},{"id":384750,"adult":false},{"id":25051,"adult":false},{"id":88440,"adult":false},{"id":1607,"adult":false},{"id":76340,"adult":false},{"id":384751,"adult":null},{"id":295782,"adult":false},{"id":289008,"adult":false},{"id":292349,"adult":false},{"id":369170,"adult":false},{"id":388,"adult":false},{"id":81411,"adult":false},{"id":288420,"adult":false},{"id":122216,"adult":false},{"id":40969,"adult":false},{"id":94837,"adult":false},{"id":310595,"adult":false},{"id":335446,"adult":false},{"id":347393,"adult":false},{"id":79087,"adult":false},{"id":10660,"adult":false},{"id":384752,"adult":false},{"id":70691,"adult":false},{"id":76826,"adult":false},{"id":38473,"adult":false},{"id":384753,"adult":false},{"id":351434,"adult":false},{"id":208986,"adult":false},{"id":230628,"adult":false},{"id":270556,"adult":false},{"id":79382,"adult":false},{"id":384754,"adult":false},{"id":384755,"adult":false},{"id":335556,"adult":false},{"id":384756,"adult":false},{"id":295673,"adult":false},{"id":355944,"adult":false},{"id":384757,"adult":false},{"id":137106,"adult":false},{"id":889,"adult":false},{"id":274649,"adult":false},{"id":384758,"adult":false},{"id":260972,"adult":false},{"id":10140,"adult":false},{"id":52660,"adult":false},{"id":384759,"adult":false},{"id":10479,"adult":false},{"id":384760,"adult":false},{"id":384761,"adult":false},{"id":10055,"adult":false},{"id":9796,"adult":false},{"id":55016,"adult":false},{"id":360648,"adult":false},{"id":9029,"adult":false},{"id":264660,"adult":false},{"id":337965,"adult":false},{"id":384762,"adult":false},{"id":54013,"adult":false},{"id":384763,"adult":false},{"id":221966,"adult":false},{"id":302818,"adult":false},{"id":76180,"adult":false},{"id":384764,"adult":false},{"id":350843,"adult":false},{"id":199661,"adult":false},{"id":81401,"adult":false},{"id":1407,"adult":false},{"id":109565,"adult":false},{"id":279579,"adult":false},{"id":384765,"adult":false},{"id":161422,"adult":false},{"id":254651,"adult":false},{"id":196867,"adult":false},{"id":217013,"adult":false},{"id":289935,"adult":false},{"id":384766,"adult":false},{"id":270923,"adult":false},{"id":52633,"adult":false},{"id":296266,"adult":false},{"id":384767,"adult":false},{"id":323403,"adult":false},{"id":336664,"adult":false},{"id":154057,"adult":false},{"id":377062,"adult":false},{"id":156383,"adult":false},{"id":369420,"adult":false},{"id":23340,"adult":false},{"id":82395,"adult":false},{"id":356531,"adult":false},{"id":9353,"adult":false}],"page":114,"total_pages":123,"total_results":12205}