{"results":[{"id":329601,"adult":false},{"id":315620,"adult":false},{"id":8354,"adult":false},{"id":258133,"adult":false},{"id":206192,"adult":false},{"id":377350,"adult":false},{"id":377351,"adult":false},{"id":57744,"adult":false},{"id":377352,"adult":false},{"id":12263,"adult":false},{"id":91630,"adult":false},{"id":377353,"adult":false},{"id":12700,"adult":false},{"id":377354,"adult":false},{"id":12689,"adult":false},{"id":377355,"adult":false},{"id":377356,"adult":false},{"id":377357,"adult":false},{"id":79678,"adult":false},{"id":96922,"adult":false},{"id":377358,"adult":false},{"id":96677,"adult":false},{"id":377359,"adult":false},{"id":253800,"adult":false},{"id":377360,"adult":false},{"id":227159,"adult":false},{"id":23283,"adult":false},{"id":248705,"adult":false},{"id":168672,"adult":false},{"id":188293,"adult":false},{"id":525,"adult":false},{"id":236995,"adult":false},{"id":86336,"adult":false},{"id":58595,"adult":false},{"id":200252,"adult":false},{"id":223819,"adult":false},{"id":223817,"adult":false},{"id":377361,"adult":false},{"id":360271,"adult":false},{"id":377362,"adult":false},{"id":372227,"adult":false},{"id":147846,"adult":false},{"id":192785,"adult":false},{"id":14821,"adult":false},{"id":227717,"adult":false},{"id":158483,"adult":false},{"id":27579,"adult":false},{"id":270473,"adult":false},{"id":31102,"adult":false},{"id":159688,"adult":false},{"id":37264,"adult":false},{"id":43411,"adult":false},{"id":306307,"adult":false},{"id":55961,"adult":false},{"id":28355,"adult":false},{"id":212740,"adult":false},{"id":42901,"adult":false},{"id":9059,"adult":false},{"id":13970,"adult":false},{"id":85591,"adult":false},{"id":27303,"adult":false},{"id":307670,"adult":false},{"id":27973,"adult":false},{"id":333853,"adult":false},{"id":10559,"adult":false},{"id":7507,"adult":false},{"id":600,"adult":false},{"id":124916,"adult":false},{"id":377363,"adult":false},{"id":8960,"adult":false},{"id":327833,"adult":false},{"id":1960,"adult":false},{"id":262009,"adult":false},{"id":62204,"adult":false},{"id":377364,"adult":false},{"id":13191,"adult":false},{"id":371264,"adult":false},{"id":317422,"adult":false},{"id":29425,"adult":false},{"id":33851,"adult":false},{"id":3767,"adult":false},{"id":134411,"adult":false},{"id":347182,"adult":false},{"id":365348,"adult":false},{"id":303857,"adult":false},{"id":283350,"adult":false},{"id":324812,"adult":false},{"id":15373,"adult":false},{"id":364067,"adult":false},{"id":306964,"adult":false},{"id":347754,"adult":false},{"id":364973,"adult":false},{"id":316410,"adult":false},{"id":338803,"adult":false},{"id":9087,"adult":false},{"id":209274,"adult":false},{"id":33085,"adult":false},{"id":290250,"adult":false},{"id":52596,"adult":false},{"id":95858,"adult":false}],"page":118,"total_pages":121,"total_results":12060}