{"results":[{"id":10664,"adult":false},{"id":353501,"adult":false},{"id":409026,"adult":false},{"id":47088,"adult":false},{"id":129777,"adult":null},{"id":12445,"adult":false},{"id":363479,"adult":false},{"id":158359,"adult":false},{"id":51957,"adult":false},{"id":305320,"adult":false},{"id":309887,"adult":false},{"id":2150,"adult":false},{"id":293554,"adult":null},{"id":4477,"adult":false},{"id":409366,"adult":false},{"id":9703,"adult":false},{"id":381691,"adult":false},{"id":137,"adult":false},{"id":105506,"adult":false},{"id":317128,"adult":false},{"id":8470,"adult":false},{"id":11048,"adult":false},{"id":330076,"adult":false},{"id":218217,"adult":false},{"id":421563,"adult":false},{"id":4954,"adult":false},{"id":81161,"adult":false},{"id":262500,"adult":false},{"id":280678,"adult":false},{"id":426219,"adult":false},{"id":342588,"adult":false},{"id":11053,"adult":false},{"id":153948,"adult":false},{"id":25886,"adult":false},{"id":375240,"adult":false},{"id":133096,"adult":false},{"id":348748,"adult":false},{"id":429000,"adult":false},{"id":11055,"adult":false},{"id":362811,"adult":false},{"id":358441,"adult":false},{"id":11160,"adult":false},{"id":32352,"adult":false},{"id":172349,"adult":false},{"id":281745,"adult":false},{"id":281251,"adult":false},{"id":70435,"adult":false},{"id":2214,"adult":false},{"id":308366,"adult":false},{"id":30432,"adult":false},{"id":114,"adult":false},{"id":58690,"adult":false},{"id":318913,"adult":false},{"id":250328,"adult":false},{"id":26926,"adult":false},{"id":196753,"adult":false},{"id":180,"adult":false},{"id":394684,"adult":false},{"id":23668,"adult":false},{"id":429001,"adult":false},{"id":97437,"adult":false},{"id":39545,"adult":false},{"id":265447,"adult":false},{"id":291402,"adult":false},{"id":377338,"adult":false},{"id":30018,"adult":false},{"id":295676,"adult":false},{"id":8202,"adult":false},{"id":295001,"adult":false},{"id":80321,"adult":false},{"id":429002,"adult":false},{"id":400160,"adult":false},{"id":295492,"adult":false},{"id":99343,"adult":false},{"id":399738,"adult":false},{"id":429003,"adult":false},{"id":5151,"adult":false},{"id":280395,"adult":false},{"id":79218,"adult":false},{"id":289911,"adult":false},{"id":55580,"adult":false},{"id":84575,"adult":false},{"id":1608,"adult":false},{"id":35650,"adult":false},{"id":268127,"adult":false},{"id":373027,"adult":false},{"id":297804,"adult":false},{"id":370567,"adult":false},{"id":216541,"adult":false},{"id":357094,"adult":false},{"id":339913,"adult":false},{"id":346698,"adult":false},{"id":285296,"adult":false},{"id":283746,"adult":false},{"id":239571,"adult":false},{"id":422429,"adult":false},{"id":5152,"adult":false},{"id":422426,"adult":false},{"id":306520,"adult":false},{"id":55725,"adult":false}],"page":49,"total_pages":123,"total_results":12242}