{"results":[{"id":145814,"adult":false},{"id":155,"adult":false},{"id":80662,"adult":false},{"id":48482,"adult":false},{"id":23023,"adult":false},{"id":308924,"adult":false},{"id":77744,"adult":false},{"id":221917,"adult":false},{"id":297026,"adult":false},{"id":21450,"adult":false},{"id":291870,"adult":false},{"id":56383,"adult":false},{"id":398628,"adult":false},{"id":403520,"adult":false},{"id":37700,"adult":false},{"id":44591,"adult":false},{"id":24468,"adult":false},{"id":157063,"adult":false},{"id":273339,"adult":false},{"id":89666,"adult":false},{"id":412020,"adult":false},{"id":9077,"adult":false},{"id":42949,"adult":false},{"id":134,"adult":false},{"id":227387,"adult":false},{"id":286114,"adult":false},{"id":127756,"adult":false},{"id":412021,"adult":false},{"id":299313,"adult":false},{"id":158359,"adult":false},{"id":28000,"adult":false},{"id":305377,"adult":false},{"id":98894,"adult":false},{"id":412022,"adult":null},{"id":29403,"adult":false},{"id":352890,"adult":false},{"id":49026,"adult":false},{"id":62916,"adult":false},{"id":80693,"adult":false},{"id":293429,"adult":false},{"id":160794,"adult":false},{"id":40909,"adult":false},{"id":386451,"adult":false},{"id":406601,"adult":null},{"id":312886,"adult":null},{"id":1364,"adult":false},{"id":308027,"adult":false},{"id":383478,"adult":false},{"id":339928,"adult":false},{"id":3558,"adult":false},{"id":22476,"adult":false},{"id":49232,"adult":false},{"id":25927,"adult":false},{"id":412023,"adult":null},{"id":26900,"adult":false},{"id":412024,"adult":false},{"id":412025,"adult":false},{"id":412026,"adult":null},{"id":26234,"adult":false},{"id":403605,"adult":false},{"id":409489,"adult":false},{"id":412027,"adult":false},{"id":96434,"adult":false},{"id":410270,"adult":false},{"id":412028,"adult":false},{"id":36949,"adult":false},{"id":343717,"adult":false},{"id":55134,"adult":false},{"id":412029,"adult":false},{"id":404269,"adult":false},{"id":29032,"adult":false},{"id":309990,"adult":false},{"id":100468,"adult":false},{"id":5701,"adult":false},{"id":412030,"adult":false},{"id":412031,"adult":false},{"id":348390,"adult":false},{"id":115570,"adult":false},{"id":922,"adult":false},{"id":412032,"adult":false},{"id":31293,"adult":false},{"id":40180,"adult":false},{"id":412033,"adult":false},{"id":288319,"adult":false},{"id":196499,"adult":false},{"id":134012,"adult":false},{"id":412034,"adult":false},{"id":104193,"adult":false},{"id":360141,"adult":false},{"id":412035,"adult":false},{"id":197521,"adult":false},{"id":33460,"adult":false},{"id":391578,"adult":false},{"id":53457,"adult":false},{"id":1576,"adult":false},{"id":255947,"adult":false},{"id":19980,"adult":false},{"id":219598,"adult":false},{"id":38701,"adult":false},{"id":388347,"adult":false}],"page":39,"total_pages":103,"total_results":10211}