{"results":[{"id":261593,"adult":false},{"id":20246,"adult":false},{"id":118894,"adult":false},{"id":58895,"adult":false},{"id":20457,"adult":false},{"id":21325,"adult":false},{"id":318473,"adult":false},{"id":4291,"adult":false},{"id":97989,"adult":false},{"id":194529,"adult":false},{"id":30390,"adult":false},{"id":140897,"adult":false},{"id":427018,"adult":false},{"id":431272,"adult":false},{"id":431273,"adult":false},{"id":563,"adult":false},{"id":431274,"adult":false},{"id":50942,"adult":false},{"id":212092,"adult":false},{"id":80089,"adult":false},{"id":277089,"adult":false},{"id":431275,"adult":false},{"id":15003,"adult":false},{"id":130091,"adult":false},{"id":17708,"adult":false},{"id":44513,"adult":false},{"id":23134,"adult":false},{"id":340182,"adult":false},{"id":59582,"adult":false},{"id":431276,"adult":false},{"id":53003,"adult":false},{"id":16785,"adult":false},{"id":431277,"adult":false},{"id":8359,"adult":false},{"id":39796,"adult":false},{"id":414337,"adult":false},{"id":431278,"adult":false},{"id":431279,"adult":false},{"id":431280,"adult":false},{"id":336445,"adult":false},{"id":142973,"adult":false},{"id":185525,"adult":false},{"id":431281,"adult":false},{"id":431282,"adult":false},{"id":425134,"adult":false},{"id":393729,"adult":false},{"id":431283,"adult":false},{"id":23527,"adult":false},{"id":325385,"adult":false},{"id":24099,"adult":false},{"id":74849,"adult":false},{"id":431284,"adult":true},{"id":431285,"adult":false},{"id":43678,"adult":false},{"id":10942,"adult":false},{"id":431286,"adult":false},{"id":431287,"adult":true},{"id":10940,"adult":false},{"id":19698,"adult":false},{"id":431288,"adult":false},{"id":431289,"adult":false},{"id":284286,"adult":false},{"id":10941,"adult":false},{"id":174316,"adult":false},{"id":81476,"adult":false},{"id":16068,"adult":false},{"id":398935,"adult":false},{"id":27407,"adult":false},{"id":431290,"adult":false},{"id":262788,"adult":false},{"id":418815,"adult":false},{"id":146650,"adult":false},{"id":402239,"adult":true},{"id":431291,"adult":false},{"id":390964,"adult":false},{"id":161303,"adult":false},{"id":431292,"adult":true},{"id":85583,"adult":false},{"id":83240,"adult":false},{"id":89940,"adult":false},{"id":394280,"adult":false},{"id":35806,"adult":false},{"id":392794,"adult":false},{"id":10916,"adult":false},{"id":278984,"adult":false},{"id":97625,"adult":false},{"id":192501,"adult":false},{"id":430191,"adult":false},{"id":431293,"adult":true},{"id":294242,"adult":false},{"id":378697,"adult":false},{"id":119926,"adult":false},{"id":395762,"adult":false},{"id":431294,"adult":false},{"id":431295,"adult":false},{"id":1417,"adult":false},{"id":159932,"adult":false},{"id":63899,"adult":false},{"id":431296,"adult":false},{"id":333348,"adult":false}],"page":71,"total_pages":114,"total_results":11339}