{"results":[{"id":329025,"adult":false},{"id":304386,"adult":false},{"id":336172,"adult":false},{"id":360325,"adult":false},{"id":360528,"adult":false},{"id":366657,"adult":false},{"id":399244,"adult":false},{"id":341285,"adult":false},{"id":364764,"adult":false},{"id":396149,"adult":false},{"id":396142,"adult":false},{"id":305085,"adult":false},{"id":343990,"adult":false},{"id":405343,"adult":false},{"id":378134,"adult":false},{"id":381108,"adult":false},{"id":328072,"adult":false},{"id":377210,"adult":false},{"id":174340,"adult":false},{"id":379485,"adult":false},{"id":277647,"adult":false},{"id":387536,"adult":false},{"id":334538,"adult":false},{"id":392029,"adult":false},{"id":76127,"adult":false},{"id":356901,"adult":false},{"id":375527,"adult":false},{"id":346491,"adult":false},{"id":333462,"adult":false},{"id":383627,"adult":false},{"id":145311,"adult":false},{"id":229702,"adult":false},{"id":241448,"adult":false},{"id":123238,"adult":false},{"id":305345,"adult":false},{"id":419386,"adult":false},{"id":253461,"adult":false},{"id":134602,"adult":false},{"id":355635,"adult":false},{"id":159244,"adult":false},{"id":419387,"adult":false},{"id":393510,"adult":false},{"id":263302,"adult":false},{"id":202140,"adult":false},{"id":390351,"adult":false},{"id":391803,"adult":false},{"id":348090,"adult":false},{"id":334979,"adult":false},{"id":370631,"adult":false},{"id":136065,"adult":false},{"id":144929,"adult":false},{"id":412005,"adult":false},{"id":240003,"adult":false},{"id":120856,"adult":false},{"id":408545,"adult":false},{"id":273313,"adult":false},{"id":353508,"adult":false},{"id":419388,"adult":false},{"id":257237,"adult":false},{"id":419389,"adult":false},{"id":4965,"adult":false},{"id":130810,"adult":false},{"id":404495,"adult":false},{"id":361929,"adult":false},{"id":202014,"adult":false},{"id":215221,"adult":false},{"id":314197,"adult":false},{"id":330817,"adult":false},{"id":254116,"adult":false},{"id":320954,"adult":false},{"id":325219,"adult":false},{"id":325218,"adult":false},{"id":362664,"adult":false},{"id":419390,"adult":false},{"id":390693,"adult":false},{"id":419391,"adult":false},{"id":31304,"adult":false},{"id":84425,"adult":false},{"id":419392,"adult":false},{"id":338517,"adult":false},{"id":419393,"adult":false},{"id":417056,"adult":false},{"id":41878,"adult":false},{"id":419394,"adult":false},{"id":419395,"adult":null},{"id":530,"adult":false},{"id":14447,"adult":false},{"id":2011,"adult":false},{"id":797,"adult":false},{"id":531,"adult":false},{"id":9800,"adult":false},{"id":532,"adult":false},{"id":65060,"adult":false},{"id":50797,"adult":false},{"id":215660,"adult":false},{"id":38318,"adult":false},{"id":12819,"adult":false},{"id":170990,"adult":false},{"id":258096,"adult":false},{"id":381547,"adult":false}],"page":52,"total_pages":144,"total_results":14341}