{"results":[{"id":17456,"adult":false},{"id":398900,"adult":true},{"id":1582,"adult":false},{"id":398901,"adult":false},{"id":258353,"adult":false},{"id":290254,"adult":false},{"id":183538,"adult":false},{"id":398902,"adult":false},{"id":57520,"adult":false},{"id":60479,"adult":false},{"id":57017,"adult":false},{"id":304574,"adult":false},{"id":352297,"adult":false},{"id":339193,"adult":false},{"id":278463,"adult":false},{"id":255939,"adult":false},{"id":325676,"adult":false},{"id":398903,"adult":false},{"id":363269,"adult":false},{"id":82046,"adult":false},{"id":265174,"adult":false},{"id":106645,"adult":false},{"id":247045,"adult":false},{"id":217707,"adult":false},{"id":10823,"adult":false},{"id":398904,"adult":false},{"id":25753,"adult":false},{"id":70575,"adult":false},{"id":81081,"adult":false},{"id":25751,"adult":false},{"id":250622,"adult":false},{"id":398905,"adult":false},{"id":398906,"adult":false},{"id":398907,"adult":false},{"id":398908,"adult":true},{"id":330587,"adult":false},{"id":308293,"adult":false},{"id":252360,"adult":false},{"id":290981,"adult":false},{"id":238288,"adult":false},{"id":325346,"adult":false},{"id":337556,"adult":false},{"id":364116,"adult":false},{"id":398909,"adult":false},{"id":398910,"adult":true},{"id":362045,"adult":false},{"id":297802,"adult":false},{"id":398911,"adult":false},{"id":62323,"adult":false},{"id":398912,"adult":false},{"id":318917,"adult":false},{"id":353571,"adult":false},{"id":280330,"adult":false},{"id":155447,"adult":false},{"id":77399,"adult":false},{"id":398913,"adult":false},{"id":398914,"adult":false},{"id":138,"adult":false},{"id":213681,"adult":false},{"id":334541,"adult":false},{"id":44683,"adult":false},{"id":380669,"adult":false},{"id":374466,"adult":false},{"id":370105,"adult":false},{"id":340666,"adult":false},{"id":287636,"adult":false},{"id":398915,"adult":false},{"id":398916,"adult":false},{"id":44750,"adult":false},{"id":144855,"adult":false},{"id":201447,"adult":false},{"id":16012,"adult":false},{"id":15930,"adult":false},{"id":353172,"adult":false},{"id":14603,"adult":false},{"id":398917,"adult":false},{"id":110109,"adult":false},{"id":392553,"adult":false},{"id":74767,"adult":false},{"id":398918,"adult":false},{"id":398919,"adult":false},{"id":395762,"adult":false},{"id":358807,"adult":false},{"id":337170,"adult":false},{"id":398920,"adult":false},{"id":398921,"adult":false},{"id":111772,"adult":false},{"id":398922,"adult":false},{"id":398923,"adult":false},{"id":293767,"adult":false},{"id":398924,"adult":false},{"id":398925,"adult":false},{"id":398926,"adult":false},{"id":398927,"adult":true},{"id":382589,"adult":false},{"id":168777,"adult":false},{"id":12408,"adult":false},{"id":398928,"adult":false},{"id":398929,"adult":false},{"id":169881,"adult":false}],"page":89,"total_pages":128,"total_results":12797}