{"results":[{"id":429457,"adult":false},{"id":48833,"adult":false},{"id":244560,"adult":false},{"id":429458,"adult":false},{"id":622,"adult":false},{"id":285730,"adult":false},{"id":317116,"adult":false},{"id":166346,"adult":false},{"id":257845,"adult":false},{"id":125525,"adult":false},{"id":509,"adult":false},{"id":13466,"adult":false},{"id":323384,"adult":false},{"id":219553,"adult":false},{"id":429459,"adult":false},{"id":325078,"adult":false},{"id":417602,"adult":false},{"id":24700,"adult":false},{"id":325071,"adult":false},{"id":30237,"adult":false},{"id":328848,"adult":false},{"id":2206,"adult":false},{"id":288593,"adult":false},{"id":429460,"adult":false},{"id":18561,"adult":false},{"id":4966,"adult":false},{"id":380023,"adult":false},{"id":96712,"adult":false},{"id":429461,"adult":false},{"id":330161,"adult":false},{"id":338485,"adult":false},{"id":344123,"adult":false},{"id":424131,"adult":false},{"id":412510,"adult":false},{"id":346228,"adult":false},{"id":429462,"adult":false},{"id":339580,"adult":false},{"id":429463,"adult":false},{"id":241306,"adult":false},{"id":348631,"adult":false},{"id":348630,"adult":false},{"id":429464,"adult":false},{"id":429465,"adult":false},{"id":53945,"adult":false},{"id":10381,"adult":false},{"id":53934,"adult":false},{"id":54003,"adult":false},{"id":10212,"adult":false},{"id":9535,"adult":false},{"id":47215,"adult":false},{"id":24116,"adult":false},{"id":16331,"adult":false},{"id":429466,"adult":false},{"id":31336,"adult":false},{"id":429467,"adult":false},{"id":192938,"adult":false},{"id":429468,"adult":false},{"id":4644,"adult":false},{"id":316726,"adult":false},{"id":285450,"adult":false},{"id":41777,"adult":false},{"id":10359,"adult":false},{"id":81622,"adult":false},{"id":22267,"adult":false},{"id":32969,"adult":false},{"id":54982,"adult":false},{"id":290672,"adult":false},{"id":121730,"adult":false},{"id":429469,"adult":false},{"id":228429,"adult":false},{"id":70772,"adult":false},{"id":32874,"adult":false},{"id":429470,"adult":false},{"id":73052,"adult":false},{"id":198853,"adult":false},{"id":289483,"adult":false},{"id":28485,"adult":false},{"id":429471,"adult":false},{"id":155992,"adult":false},{"id":429472,"adult":false},{"id":33243,"adult":false},{"id":342550,"adult":false},{"id":429473,"adult":false},{"id":127367,"adult":false},{"id":27708,"adult":false},{"id":222306,"adult":false},{"id":429474,"adult":false},{"id":198516,"adult":false},{"id":17094,"adult":false},{"id":429475,"adult":false},{"id":111121,"adult":false},{"id":429476,"adult":false},{"id":370267,"adult":false},{"id":865,"adult":false},{"id":173498,"adult":false},{"id":31245,"adult":false},{"id":424388,"adult":false},{"id":75174,"adult":false},{"id":58626,"adult":false},{"id":377813,"adult":false}],"page":80,"total_pages":123,"total_results":12242}