{"results":[{"id":406921,"adult":false},{"id":315846,"adult":false},{"id":1890,"adult":false},{"id":406922,"adult":false},{"id":88012,"adult":false},{"id":406923,"adult":false},{"id":406924,"adult":false},{"id":338613,"adult":false},{"id":17556,"adult":false},{"id":406925,"adult":false},{"id":405781,"adult":false},{"id":13047,"adult":false},{"id":17540,"adult":false},{"id":406926,"adult":false},{"id":17499,"adult":false},{"id":34783,"adult":false},{"id":286172,"adult":false},{"id":4689,"adult":false},{"id":205584,"adult":false},{"id":17507,"adult":false},{"id":406927,"adult":false},{"id":227833,"adult":false},{"id":14004,"adult":false},{"id":68182,"adult":false},{"id":362511,"adult":false},{"id":15459,"adult":false},{"id":406928,"adult":false},{"id":399146,"adult":false},{"id":406929,"adult":false},{"id":17515,"adult":false},{"id":8488,"adult":false},{"id":53137,"adult":false},{"id":17549,"adult":false},{"id":53138,"adult":false},{"id":13116,"adult":false},{"id":53139,"adult":false},{"id":17542,"adult":false},{"id":17527,"adult":false},{"id":406930,"adult":false},{"id":280548,"adult":false},{"id":338168,"adult":false},{"id":17534,"adult":false},{"id":405894,"adult":false},{"id":17530,"adult":false},{"id":96398,"adult":false},{"id":17513,"adult":false},{"id":406933,"adult":false},{"id":17517,"adult":false},{"id":79745,"adult":false},{"id":289614,"adult":false},{"id":358389,"adult":false},{"id":303634,"adult":false},{"id":295341,"adult":false},{"id":255947,"adult":false},{"id":406934,"adult":false},{"id":337564,"adult":false},{"id":271761,"adult":false},{"id":315187,"adult":false},{"id":322719,"adult":false},{"id":133826,"adult":false},{"id":259432,"adult":false},{"id":271828,"adult":false},{"id":406935,"adult":false},{"id":280202,"adult":false},{"id":274479,"adult":false},{"id":276751,"adult":false},{"id":38623,"adult":false},{"id":77867,"adult":false},{"id":266884,"adult":false},{"id":13112,"adult":false},{"id":205836,"adult":false},{"id":406937,"adult":false},{"id":857,"adult":false},{"id":406938,"adult":false},{"id":401123,"adult":false},{"id":346,"adult":false},{"id":308548,"adult":false},{"id":406939,"adult":false},{"id":9738,"adult":false},{"id":128206,"adult":false},{"id":7508,"adult":false},{"id":225728,"adult":false},{"id":385738,"adult":false},{"id":10154,"adult":false},{"id":1417,"adult":false},{"id":238196,"adult":false},{"id":323676,"adult":false},{"id":28855,"adult":false},{"id":406940,"adult":false},{"id":33061,"adult":false},{"id":152698,"adult":false},{"id":492,"adult":false},{"id":406941,"adult":false},{"id":293660,"adult":false},{"id":287903,"adult":false},{"id":264644,"adult":false},{"id":266294,"adult":false},{"id":70490,"adult":false},{"id":406942,"adult":false},{"id":63045,"adult":false}],"page":27,"total_pages":120,"total_results":11946}