{"results":[{"id":269504,"adult":false},{"id":251,"adult":false},{"id":35263,"adult":false},{"id":375856,"adult":false},{"id":375857,"adult":false},{"id":74093,"adult":false},{"id":58878,"adult":false},{"id":334376,"adult":false},{"id":317851,"adult":false},{"id":159338,"adult":false},{"id":14092,"adult":false},{"id":285578,"adult":null},{"id":18050,"adult":false},{"id":328145,"adult":null},{"id":372750,"adult":false},{"id":26038,"adult":false},{"id":117559,"adult":false},{"id":83633,"adult":false},{"id":43810,"adult":false},{"id":370545,"adult":false},{"id":37317,"adult":false},{"id":373913,"adult":null},{"id":32716,"adult":false},{"id":57103,"adult":false},{"id":44399,"adult":false},{"id":44534,"adult":false},{"id":375097,"adult":false},{"id":193313,"adult":false},{"id":31770,"adult":false},{"id":83989,"adult":false},{"id":94753,"adult":false},{"id":44533,"adult":false},{"id":50307,"adult":false},{"id":72602,"adult":false},{"id":375108,"adult":false},{"id":54570,"adult":false},{"id":102144,"adult":false},{"id":77012,"adult":false},{"id":110628,"adult":false},{"id":40687,"adult":false},{"id":374117,"adult":false},{"id":42158,"adult":false},{"id":369376,"adult":false},{"id":370711,"adult":false},{"id":330419,"adult":false},{"id":8780,"adult":false},{"id":280154,"adult":false},{"id":78850,"adult":null},{"id":280115,"adult":false},{"id":103923,"adult":false},{"id":369823,"adult":false},{"id":369819,"adult":false},{"id":320912,"adult":false},{"id":97519,"adult":false},{"id":363978,"adult":false},{"id":366148,"adult":false},{"id":330406,"adult":false},{"id":363313,"adult":false},{"id":349740,"adult":false},{"id":349204,"adult":false},{"id":349200,"adult":false},{"id":280167,"adult":false},{"id":278358,"adult":false},{"id":245168,"adult":false},{"id":280958,"adult":false},{"id":280049,"adult":false},{"id":263486,"adult":false},{"id":272676,"adult":false},{"id":263506,"adult":false},{"id":263504,"adult":null},{"id":300693,"adult":false},{"id":280146,"adult":false},{"id":280173,"adult":false},{"id":280953,"adult":false},{"id":263508,"adult":false},{"id":369094,"adult":false},{"id":318579,"adult":false},{"id":260625,"adult":false},{"id":273872,"adult":false},{"id":32163,"adult":false},{"id":273878,"adult":false},{"id":280152,"adult":false},{"id":270780,"adult":false},{"id":79355,"adult":false},{"id":280945,"adult":false},{"id":272671,"adult":false},{"id":77504,"adult":false},{"id":270776,"adult":false},{"id":260658,"adult":false},{"id":280946,"adult":false},{"id":40118,"adult":false},{"id":300366,"adult":false},{"id":375858,"adult":false},{"id":35435,"adult":false},{"id":44734,"adult":false},{"id":198511,"adult":false},{"id":274167,"adult":false},{"id":324476,"adult":false},{"id":217232,"adult":false},{"id":371109,"adult":false}],"page":39,"total_pages":121,"total_results":12060}