{"results":[{"id":386195,"adult":false},{"id":307282,"adult":false},{"id":179969,"adult":false},{"id":50382,"adult":false},{"id":19268,"adult":false},{"id":201085,"adult":false},{"id":386196,"adult":false},{"id":60084,"adult":false},{"id":61708,"adult":false},{"id":386197,"adult":false},{"id":309024,"adult":false},{"id":386198,"adult":false},{"id":636,"adult":false},{"id":380714,"adult":false},{"id":378693,"adult":false},{"id":159203,"adult":false},{"id":341437,"adult":false},{"id":238615,"adult":false},{"id":386199,"adult":false},{"id":192141,"adult":false},{"id":386200,"adult":false},{"id":386201,"adult":false},{"id":52255,"adult":false},{"id":372200,"adult":false},{"id":386202,"adult":false},{"id":386203,"adult":false},{"id":290637,"adult":false},{"id":386204,"adult":false},{"id":223235,"adult":false},{"id":386205,"adult":false},{"id":308639,"adult":false},{"id":386206,"adult":false},{"id":360253,"adult":null},{"id":386207,"adult":false},{"id":308369,"adult":false},{"id":386208,"adult":false},{"id":253412,"adult":false},{"id":250124,"adult":false},{"id":109545,"adult":false},{"id":1895,"adult":false},{"id":9657,"adult":false},{"id":4550,"adult":false},{"id":110129,"adult":false},{"id":154645,"adult":false},{"id":340128,"adult":false},{"id":205587,"adult":false},{"id":386209,"adult":false},{"id":380265,"adult":false},{"id":9252,"adult":false},{"id":373726,"adult":false},{"id":343326,"adult":false},{"id":123916,"adult":false},{"id":9897,"adult":false},{"id":296779,"adult":false},{"id":9379,"adult":false},{"id":9883,"adult":false},{"id":37724,"adult":false},{"id":366299,"adult":false},{"id":22747,"adult":false},{"id":1419,"adult":false},{"id":532,"adult":false},{"id":386210,"adult":false},{"id":386211,"adult":false},{"id":180365,"adult":false},{"id":386212,"adult":false},{"id":386213,"adult":false},{"id":20982,"adult":false},{"id":386214,"adult":false},{"id":263231,"adult":false},{"id":380713,"adult":false},{"id":380692,"adult":false},{"id":365660,"adult":false},{"id":72205,"adult":false},{"id":380429,"adult":false},{"id":358907,"adult":false},{"id":386215,"adult":false},{"id":13260,"adult":false},{"id":44921,"adult":false},{"id":386216,"adult":false},{"id":369105,"adult":null},{"id":370907,"adult":null},{"id":370914,"adult":null},{"id":370918,"adult":null},{"id":370921,"adult":null},{"id":369178,"adult":null},{"id":369101,"adult":null},{"id":308201,"adult":false},{"id":369096,"adult":null},{"id":165758,"adult":false},{"id":217033,"adult":false},{"id":263214,"adult":false},{"id":386217,"adult":false},{"id":55864,"adult":false},{"id":52736,"adult":false},{"id":39895,"adult":false},{"id":9785,"adult":false},{"id":10974,"adult":false},{"id":346830,"adult":false},{"id":87147,"adult":false},{"id":109667,"adult":false}],"page":62,"total_pages":123,"total_results":12230}