{"results":[{"id":46565,"adult":false},{"id":431826,"adult":false},{"id":313048,"adult":false},{"id":413317,"adult":false},{"id":431827,"adult":false},{"id":192558,"adult":false},{"id":103663,"adult":false},{"id":376821,"adult":false},{"id":12276,"adult":false},{"id":280996,"adult":false},{"id":431828,"adult":false},{"id":83505,"adult":false},{"id":4771,"adult":false},{"id":263296,"adult":false},{"id":5929,"adult":false},{"id":431829,"adult":false},{"id":431830,"adult":false},{"id":299135,"adult":false},{"id":431831,"adult":null},{"id":402397,"adult":false},{"id":74626,"adult":false},{"id":265226,"adult":false},{"id":29615,"adult":null},{"id":431832,"adult":null},{"id":374430,"adult":false},{"id":427342,"adult":false},{"id":277689,"adult":false},{"id":431833,"adult":false},{"id":76748,"adult":false},{"id":4370,"adult":false},{"id":259720,"adult":false},{"id":431834,"adult":false},{"id":431835,"adult":false},{"id":15822,"adult":false},{"id":45438,"adult":false},{"id":369297,"adult":false},{"id":431836,"adult":false},{"id":269559,"adult":false},{"id":336790,"adult":false},{"id":11144,"adult":false},{"id":431837,"adult":false},{"id":431838,"adult":null},{"id":431839,"adult":null},{"id":11011,"adult":false},{"id":675,"adult":false},{"id":767,"adult":false},{"id":295172,"adult":false},{"id":314406,"adult":false},{"id":431840,"adult":null},{"id":431841,"adult":false},{"id":122165,"adult":false},{"id":431842,"adult":false},{"id":178,"adult":false},{"id":427185,"adult":false},{"id":402331,"adult":false},{"id":30966,"adult":false},{"id":276935,"adult":false},{"id":85834,"adult":false},{"id":431843,"adult":null},{"id":94380,"adult":false},{"id":431844,"adult":false},{"id":431845,"adult":null},{"id":336663,"adult":false},{"id":334187,"adult":false},{"id":431846,"adult":false},{"id":375989,"adult":false},{"id":417877,"adult":false},{"id":257511,"adult":false},{"id":93775,"adult":false},{"id":174733,"adult":false},{"id":431847,"adult":null},{"id":431848,"adult":false},{"id":19403,"adult":false},{"id":431849,"adult":false},{"id":428355,"adult":false},{"id":216764,"adult":false},{"id":386043,"adult":false},{"id":61025,"adult":false},{"id":31939,"adult":false},{"id":335149,"adult":false},{"id":546,"adult":false},{"id":382384,"adult":false},{"id":430119,"adult":false},{"id":82485,"adult":false},{"id":86837,"adult":false},{"id":431851,"adult":false},{"id":289559,"adult":false},{"id":384683,"adult":false},{"id":383788,"adult":false},{"id":11954,"adult":false},{"id":429490,"adult":false},{"id":31692,"adult":false},{"id":48819,"adult":false},{"id":48913,"adult":false},{"id":431852,"adult":false},{"id":17979,"adult":false},{"id":389896,"adult":false},{"id":431853,"adult":false},{"id":431854,"adult":false},{"id":8268,"adult":false}],"page":105,"total_pages":114,"total_results":11339}