{"results":[{"id":22112,"adult":false},{"id":414941,"adult":null},{"id":381612,"adult":false},{"id":4938,"adult":false},{"id":414942,"adult":null},{"id":285426,"adult":false},{"id":128846,"adult":false},{"id":43022,"adult":false},{"id":414943,"adult":false},{"id":414944,"adult":false},{"id":393717,"adult":false},{"id":79117,"adult":false},{"id":301825,"adult":false},{"id":48319,"adult":false},{"id":20286,"adult":false},{"id":24173,"adult":false},{"id":50041,"adult":false},{"id":387898,"adult":false},{"id":1365,"adult":false},{"id":104083,"adult":false},{"id":279015,"adult":false},{"id":316447,"adult":false},{"id":74998,"adult":false},{"id":91926,"adult":false},{"id":23631,"adult":false},{"id":6978,"adult":false},{"id":61936,"adult":false},{"id":9618,"adult":false},{"id":85,"adult":false},{"id":24747,"adult":false},{"id":15137,"adult":false},{"id":9676,"adult":false},{"id":214014,"adult":false},{"id":147568,"adult":false},{"id":5335,"adult":false},{"id":277750,"adult":false},{"id":402335,"adult":false},{"id":354087,"adult":false},{"id":354081,"adult":false},{"id":19912,"adult":false},{"id":354084,"adult":false},{"id":354088,"adult":false},{"id":22843,"adult":false},{"id":1677,"adult":false},{"id":414945,"adult":false},{"id":77877,"adult":false},{"id":24418,"adult":false},{"id":414946,"adult":null},{"id":153,"adult":false},{"id":340215,"adult":false},{"id":412639,"adult":false},{"id":53197,"adult":false},{"id":338779,"adult":false},{"id":44833,"adult":false},{"id":80274,"adult":false},{"id":308465,"adult":false},{"id":218572,"adult":false},{"id":292105,"adult":false},{"id":265208,"adult":false},{"id":6435,"adult":false},{"id":11954,"adult":false},{"id":29482,"adult":false},{"id":24742,"adult":false},{"id":17057,"adult":false},{"id":343611,"adult":false},{"id":414947,"adult":false},{"id":414948,"adult":false},{"id":319352,"adult":false},{"id":362185,"adult":false},{"id":259695,"adult":false},{"id":414949,"adult":false},{"id":301325,"adult":false},{"id":14275,"adult":false},{"id":192161,"adult":false},{"id":414950,"adult":false},{"id":257346,"adult":false},{"id":414951,"adult":null},{"id":394109,"adult":false},{"id":88395,"adult":false},{"id":10158,"adult":false},{"id":414952,"adult":false},{"id":18352,"adult":false},{"id":414953,"adult":false},{"id":264356,"adult":false},{"id":39993,"adult":false},{"id":254198,"adult":true},{"id":341366,"adult":false},{"id":150,"adult":false},{"id":413171,"adult":false},{"id":130506,"adult":false},{"id":15449,"adult":false},{"id":403603,"adult":false},{"id":87101,"adult":false},{"id":102382,"adult":false},{"id":400823,"adult":false},{"id":156140,"adult":false},{"id":414954,"adult":false},{"id":29453,"adult":false},{"id":177572,"adult":false},{"id":63310,"adult":false}],"page":76,"total_pages":126,"total_results":12554}