{"results":[{"id":14204,"adult":false},{"id":23437,"adult":false},{"id":221661,"adult":false},{"id":15590,"adult":false},{"id":867,"adult":false},{"id":2671,"adult":false},{"id":17113,"adult":false},{"id":25006,"adult":false},{"id":108717,"adult":false},{"id":13320,"adult":false},{"id":9464,"adult":false},{"id":269144,"adult":false},{"id":138632,"adult":false},{"id":27725,"adult":false},{"id":153738,"adult":false},{"id":44245,"adult":false},{"id":16425,"adult":false},{"id":20513,"adult":false},{"id":1826,"adult":false},{"id":7290,"adult":false},{"id":34081,"adult":false},{"id":20391,"adult":false},{"id":51490,"adult":false},{"id":13170,"adult":false},{"id":6473,"adult":false},{"id":56370,"adult":false},{"id":31091,"adult":false},{"id":204484,"adult":false},{"id":38034,"adult":false},{"id":95524,"adult":false},{"id":19898,"adult":false},{"id":276636,"adult":false},{"id":79699,"adult":false},{"id":27300,"adult":false},{"id":77756,"adult":false},{"id":7547,"adult":false},{"id":12112,"adult":false},{"id":17277,"adult":false},{"id":58151,"adult":false},{"id":19508,"adult":false},{"id":13489,"adult":false},{"id":10327,"adult":false},{"id":49681,"adult":false},{"id":18763,"adult":false},{"id":25532,"adult":false},{"id":59075,"adult":false},{"id":9998,"adult":false},{"id":19829,"adult":false},{"id":11569,"adult":false},{"id":26847,"adult":false},{"id":13120,"adult":false},{"id":11968,"adult":false},{"id":34496,"adult":false},{"id":8583,"adult":false},{"id":4547,"adult":false},{"id":12766,"adult":false},{"id":13816,"adult":false},{"id":14546,"adult":false},{"id":11184,"adult":false},{"id":17965,"adult":false},{"id":13153,"adult":false},{"id":153188,"adult":false},{"id":113752,"adult":false},{"id":55054,"adult":false},{"id":15302,"adult":false},{"id":9037,"adult":false},{"id":14428,"adult":false},{"id":21616,"adult":false},{"id":10537,"adult":false},{"id":11137,"adult":false},{"id":294047,"adult":false},{"id":354445,"adult":false},{"id":147261,"adult":false},{"id":217326,"adult":false},{"id":45887,"adult":false},{"id":26684,"adult":false},{"id":169219,"adult":false},{"id":36676,"adult":false},{"id":25460,"adult":false},{"id":13209,"adult":false},{"id":12586,"adult":false},{"id":119117,"adult":false},{"id":60575,"adult":false},{"id":65513,"adult":false},{"id":54358,"adult":false},{"id":44499,"adult":false},{"id":63965,"adult":false},{"id":80280,"adult":false},{"id":17495,"adult":false},{"id":183437,"adult":false},{"id":10677,"adult":false},{"id":15049,"adult":false},{"id":23916,"adult":false},{"id":10710,"adult":false},{"id":28988,"adult":false},{"id":24016,"adult":false},{"id":61868,"adult":false},{"id":23976,"adult":false},{"id":104880,"adult":false},{"id":28761,"adult":false}],"page":123,"total_pages":226,"total_results":22514}