{"results":[{"id":389455,"adult":false},{"id":401456,"adult":true},{"id":46581,"adult":false},{"id":321202,"adult":false},{"id":305530,"adult":false},{"id":330104,"adult":false},{"id":42306,"adult":false},{"id":286482,"adult":false},{"id":427278,"adult":false},{"id":54653,"adult":false},{"id":401446,"adult":true},{"id":281677,"adult":false},{"id":121826,"adult":false},{"id":145247,"adult":false},{"id":332280,"adult":false},{"id":294116,"adult":false},{"id":88264,"adult":false},{"id":120386,"adult":false},{"id":85126,"adult":false},{"id":267378,"adult":false},{"id":374341,"adult":false},{"id":17465,"adult":false},{"id":266615,"adult":false},{"id":50013,"adult":false},{"id":264506,"adult":false},{"id":270038,"adult":false},{"id":429389,"adult":false},{"id":308955,"adult":false},{"id":371466,"adult":false},{"id":429392,"adult":false},{"id":429393,"adult":false},{"id":287539,"adult":false},{"id":75571,"adult":false},{"id":288001,"adult":false},{"id":402846,"adult":false},{"id":429394,"adult":false},{"id":346885,"adult":false},{"id":429395,"adult":false},{"id":351160,"adult":false},{"id":111233,"adult":false},{"id":339846,"adult":false},{"id":352197,"adult":false},{"id":64538,"adult":false},{"id":410117,"adult":false},{"id":292431,"adult":false},{"id":312100,"adult":false},{"id":255268,"adult":false},{"id":120862,"adult":false},{"id":339501,"adult":false},{"id":400804,"adult":false},{"id":14462,"adult":false},{"id":104221,"adult":false},{"id":246875,"adult":false},{"id":317419,"adult":true},{"id":81039,"adult":false},{"id":29866,"adult":false},{"id":11881,"adult":false},{"id":429396,"adult":false},{"id":351000,"adult":false},{"id":156339,"adult":false},{"id":407963,"adult":false},{"id":51329,"adult":false},{"id":39755,"adult":false},{"id":121357,"adult":false},{"id":30729,"adult":false},{"id":76211,"adult":false},{"id":31532,"adult":false},{"id":354563,"adult":false},{"id":268621,"adult":false},{"id":22029,"adult":false},{"id":114079,"adult":false},{"id":37662,"adult":false},{"id":293122,"adult":false},{"id":106867,"adult":false},{"id":70635,"adult":false},{"id":235,"adult":false},{"id":9536,"adult":false},{"id":13315,"adult":false},{"id":1480,"adult":false},{"id":405169,"adult":false},{"id":58628,"adult":false},{"id":28750,"adult":false},{"id":348323,"adult":true},{"id":12412,"adult":false},{"id":11008,"adult":false},{"id":60994,"adult":false},{"id":100463,"adult":false},{"id":32076,"adult":false},{"id":33671,"adult":false},{"id":204528,"adult":false},{"id":404677,"adult":false},{"id":12187,"adult":false},{"id":31582,"adult":false},{"id":223023,"adult":false},{"id":266520,"adult":false},{"id":429397,"adult":false},{"id":348442,"adult":null},{"id":35124,"adult":false},{"id":38362,"adult":false},{"id":70412,"adult":false}],"page":75,"total_pages":123,"total_results":12242}