{"results":[{"id":52660,"adult":false},{"id":269976,"adult":false},{"id":259624,"adult":false},{"id":10608,"adult":false},{"id":10529,"adult":false},{"id":274854,"adult":false},{"id":286565,"adult":false},{"id":60535,"adult":false},{"id":76897,"adult":false},{"id":377091,"adult":false},{"id":211541,"adult":false},{"id":11828,"adult":false},{"id":12146,"adult":false},{"id":377092,"adult":false},{"id":32600,"adult":false},{"id":377093,"adult":false},{"id":158111,"adult":null},{"id":70575,"adult":false},{"id":85496,"adult":false},{"id":18209,"adult":false},{"id":324726,"adult":false},{"id":359235,"adult":null},{"id":38043,"adult":false},{"id":63154,"adult":false},{"id":29907,"adult":false},{"id":302324,"adult":false},{"id":248561,"adult":false},{"id":19994,"adult":false},{"id":64,"adult":false},{"id":355964,"adult":false},{"id":40585,"adult":false},{"id":31773,"adult":false},{"id":346806,"adult":false},{"id":23001,"adult":false},{"id":285200,"adult":false},{"id":35983,"adult":false},{"id":285423,"adult":false},{"id":377095,"adult":null},{"id":96888,"adult":false},{"id":377096,"adult":false},{"id":24582,"adult":false},{"id":325766,"adult":false},{"id":312256,"adult":false},{"id":72660,"adult":false},{"id":5255,"adult":false},{"id":35451,"adult":false},{"id":153408,"adult":false},{"id":549,"adult":false},{"id":377097,"adult":true},{"id":94528,"adult":false},{"id":4171,"adult":false},{"id":290240,"adult":false},{"id":285564,"adult":false},{"id":329979,"adult":false},{"id":25,"adult":false},{"id":324345,"adult":false},{"id":377098,"adult":null},{"id":8744,"adult":false},{"id":99729,"adult":false},{"id":193688,"adult":false},{"id":254023,"adult":false},{"id":11648,"adult":false},{"id":365415,"adult":false},{"id":9782,"adult":false},{"id":52620,"adult":false},{"id":121197,"adult":false},{"id":221165,"adult":true},{"id":11834,"adult":false},{"id":262234,"adult":false},{"id":377099,"adult":false},{"id":81983,"adult":false},{"id":297708,"adult":false},{"id":14441,"adult":false},{"id":377100,"adult":false},{"id":13542,"adult":false},{"id":86818,"adult":false},{"id":89659,"adult":false},{"id":371828,"adult":false},{"id":11460,"adult":false},{"id":45162,"adult":false},{"id":319091,"adult":false},{"id":126960,"adult":false},{"id":82378,"adult":false},{"id":373130,"adult":false},{"id":10424,"adult":false},{"id":11938,"adult":false},{"id":377101,"adult":false},{"id":377102,"adult":false},{"id":17680,"adult":false},{"id":377103,"adult":false},{"id":123318,"adult":false},{"id":377104,"adult":false},{"id":48228,"adult":false},{"id":40603,"adult":false},{"id":377105,"adult":false},{"id":236594,"adult":false},{"id":46735,"adult":false},{"id":267861,"adult":false},{"id":57204,"adult":false},{"id":59934,"adult":false}],"page":105,"total_pages":121,"total_results":12060}