{"results":[{"id":15676,"adult":false},{"id":19300,"adult":false},{"id":76086,"adult":false},{"id":46757,"adult":false},{"id":63861,"adult":false},{"id":19725,"adult":false},{"id":377662,"adult":false},{"id":11543,"adult":false},{"id":12501,"adult":false},{"id":4964,"adult":false},{"id":272133,"adult":false},{"id":44946,"adult":false},{"id":9470,"adult":false},{"id":377663,"adult":false},{"id":11891,"adult":false},{"id":5039,"adult":false},{"id":44867,"adult":false},{"id":262551,"adult":false},{"id":374205,"adult":false},{"id":14621,"adult":false},{"id":362584,"adult":false},{"id":1834,"adult":false},{"id":316375,"adult":false},{"id":357786,"adult":false},{"id":319193,"adult":false},{"id":41402,"adult":false},{"id":92848,"adult":false},{"id":377664,"adult":false},{"id":23030,"adult":false},{"id":80271,"adult":false},{"id":61546,"adult":false},{"id":273224,"adult":false},{"id":153,"adult":false},{"id":377665,"adult":false},{"id":13043,"adult":false},{"id":286743,"adult":false},{"id":43347,"adult":false},{"id":12177,"adult":false},{"id":377666,"adult":false},{"id":23631,"adult":false},{"id":9942,"adult":false},{"id":8409,"adult":false},{"id":130090,"adult":false},{"id":13498,"adult":false},{"id":28284,"adult":false},{"id":19006,"adult":false},{"id":377668,"adult":false},{"id":95621,"adult":false},{"id":11591,"adult":false},{"id":250480,"adult":false},{"id":377669,"adult":false},{"id":312852,"adult":false},{"id":7278,"adult":false},{"id":13757,"adult":false},{"id":12096,"adult":false},{"id":190847,"adult":false},{"id":11949,"adult":false},{"id":377670,"adult":false},{"id":377671,"adult":false},{"id":10437,"adult":false},{"id":13596,"adult":false},{"id":18360,"adult":false},{"id":4474,"adult":false},{"id":9824,"adult":false},{"id":37136,"adult":false},{"id":36593,"adult":false},{"id":35019,"adult":false},{"id":81791,"adult":false},{"id":1593,"adult":false},{"id":10544,"adult":false},{"id":1738,"adult":false},{"id":10471,"adult":false},{"id":20075,"adult":false},{"id":14742,"adult":false},{"id":9757,"adult":false},{"id":16991,"adult":false},{"id":1542,"adult":false},{"id":22660,"adult":false},{"id":377672,"adult":null},{"id":311,"adult":false},{"id":27581,"adult":false},{"id":2112,"adult":false},{"id":676,"adult":false},{"id":171274,"adult":false},{"id":1817,"adult":false},{"id":18947,"adult":false},{"id":10765,"adult":false},{"id":11979,"adult":false},{"id":181533,"adult":false},{"id":14976,"adult":false},{"id":1578,"adult":false},{"id":45569,"adult":false},{"id":641,"adult":false},{"id":18632,"adult":false},{"id":220075,"adult":false},{"id":362230,"adult":false},{"id":4108,"adult":false},{"id":5549,"adult":false},{"id":5550,"adult":false},{"id":1375,"adult":false}],"page":12,"total_pages":226,"total_results":22514}