{"results":[{"id":382755,"adult":false},{"id":17667,"adult":false},{"id":419455,"adult":false},{"id":337023,"adult":false},{"id":30923,"adult":false},{"id":193756,"adult":false},{"id":399170,"adult":false},{"id":101176,"adult":false},{"id":419456,"adult":true},{"id":378850,"adult":false},{"id":247634,"adult":false},{"id":419457,"adult":true},{"id":286567,"adult":false},{"id":56083,"adult":false},{"id":260296,"adult":false},{"id":419458,"adult":false},{"id":419459,"adult":false},{"id":418672,"adult":false},{"id":10997,"adult":false},{"id":419460,"adult":false},{"id":87091,"adult":false},{"id":23655,"adult":false},{"id":5916,"adult":false},{"id":419461,"adult":false},{"id":85938,"adult":false},{"id":207699,"adult":false},{"id":419462,"adult":false},{"id":374853,"adult":false},{"id":419463,"adult":false},{"id":419464,"adult":false},{"id":419465,"adult":false},{"id":419466,"adult":false},{"id":391710,"adult":false},{"id":369800,"adult":false},{"id":419467,"adult":false},{"id":324849,"adult":false},{"id":416877,"adult":false},{"id":419468,"adult":false},{"id":248774,"adult":false},{"id":296917,"adult":false},{"id":295490,"adult":false},{"id":419469,"adult":true},{"id":419470,"adult":false},{"id":284051,"adult":false},{"id":419471,"adult":false},{"id":419472,"adult":false},{"id":387733,"adult":false},{"id":84907,"adult":false},{"id":419473,"adult":false},{"id":77561,"adult":false},{"id":198553,"adult":false},{"id":419474,"adult":false},{"id":129269,"adult":false},{"id":419475,"adult":false},{"id":60098,"adult":false},{"id":200774,"adult":false},{"id":285394,"adult":false},{"id":4258,"adult":false},{"id":23609,"adult":false},{"id":43922,"adult":false},{"id":419476,"adult":false},{"id":119518,"adult":false},{"id":345928,"adult":false},{"id":18376,"adult":false},{"id":210486,"adult":false},{"id":51359,"adult":false},{"id":291984,"adult":false},{"id":419477,"adult":false},{"id":419478,"adult":false},{"id":401239,"adult":false},{"id":419479,"adult":false},{"id":419480,"adult":false},{"id":1213,"adult":false},{"id":419481,"adult":false},{"id":392044,"adult":false},{"id":1809,"adult":false},{"id":381719,"adult":false},{"id":338926,"adult":false},{"id":376530,"adult":false},{"id":1127,"adult":false},{"id":40158,"adult":false},{"id":59578,"adult":false},{"id":363088,"adult":false},{"id":335360,"adult":false},{"id":97481,"adult":false},{"id":27494,"adult":false},{"id":329590,"adult":false},{"id":123553,"adult":false},{"id":419482,"adult":false},{"id":87677,"adult":false},{"id":182502,"adult":false},{"id":108401,"adult":false},{"id":17795,"adult":false},{"id":419483,"adult":false},{"id":127711,"adult":false},{"id":241163,"adult":false},{"id":42284,"adult":false},{"id":383914,"adult":false},{"id":69480,"adult":false},{"id":13414,"adult":false}],"page":57,"total_pages":144,"total_results":14341}