{"results":[{"id":409742,"adult":false},{"id":409743,"adult":false},{"id":409744,"adult":false},{"id":409746,"adult":false},{"id":409747,"adult":false},{"id":409749,"adult":false},{"id":372297,"adult":false},{"id":409750,"adult":false},{"id":409751,"adult":false},{"id":409752,"adult":false},{"id":409754,"adult":false},{"id":409755,"adult":false},{"id":409756,"adult":false},{"id":409757,"adult":false},{"id":409758,"adult":false},{"id":409759,"adult":false},{"id":409762,"adult":false},{"id":409763,"adult":false},{"id":409770,"adult":false},{"id":409771,"adult":false},{"id":409772,"adult":false},{"id":409773,"adult":null},{"id":409774,"adult":false},{"id":409775,"adult":false},{"id":409776,"adult":false},{"id":410876,"adult":false},{"id":37309,"adult":false},{"id":143170,"adult":false},{"id":128350,"adult":false},{"id":120554,"adult":false},{"id":409777,"adult":false},{"id":409778,"adult":false},{"id":409783,"adult":false},{"id":409784,"adult":false},{"id":409785,"adult":false},{"id":409787,"adult":false},{"id":409789,"adult":false},{"id":409791,"adult":false},{"id":409792,"adult":false},{"id":409795,"adult":false},{"id":409796,"adult":false},{"id":409800,"adult":false},{"id":409801,"adult":false},{"id":174271,"adult":false},{"id":409802,"adult":false},{"id":409803,"adult":false},{"id":409806,"adult":false},{"id":409818,"adult":false},{"id":412116,"adult":false},{"id":409821,"adult":false},{"id":409822,"adult":false},{"id":409823,"adult":false},{"id":409824,"adult":null},{"id":409827,"adult":false},{"id":409828,"adult":false},{"id":409830,"adult":false},{"id":409831,"adult":false},{"id":409832,"adult":false},{"id":409833,"adult":false},{"id":409834,"adult":false},{"id":409836,"adult":false},{"id":409838,"adult":false},{"id":409840,"adult":false},{"id":409841,"adult":false},{"id":197175,"adult":false},{"id":409844,"adult":false},{"id":409847,"adult":false},{"id":409849,"adult":null},{"id":409851,"adult":false},{"id":409852,"adult":false},{"id":409854,"adult":false},{"id":409857,"adult":false},{"id":409858,"adult":false},{"id":409865,"adult":false},{"id":409867,"adult":false},{"id":409868,"adult":false},{"id":31503,"adult":false},{"id":409869,"adult":false},{"id":8093,"adult":false},{"id":409870,"adult":false},{"id":409876,"adult":false},{"id":409877,"adult":false},{"id":409878,"adult":null},{"id":409881,"adult":false},{"id":409882,"adult":false},{"id":409884,"adult":false},{"id":409885,"adult":false},{"id":409886,"adult":false},{"id":409887,"adult":null},{"id":409888,"adult":false},{"id":409890,"adult":false},{"id":409891,"adult":false},{"id":409892,"adult":false},{"id":409893,"adult":false},{"id":409897,"adult":false},{"id":409898,"adult":false},{"id":409901,"adult":false},{"id":409902,"adult":false},{"id":409903,"adult":false},{"id":409904,"adult":false}],"page":46,"total_pages":103,"total_results":10211}