{"results":[{"id":234974,"adult":false},{"id":178456,"adult":null},{"id":4208,"adult":false},{"id":190508,"adult":false},{"id":3169,"adult":false},{"id":375393,"adult":true},{"id":15417,"adult":false},{"id":375394,"adult":true},{"id":236386,"adult":false},{"id":12144,"adult":false},{"id":375395,"adult":null},{"id":90354,"adult":false},{"id":70146,"adult":false},{"id":375396,"adult":false},{"id":46810,"adult":false},{"id":375397,"adult":false},{"id":375398,"adult":false},{"id":26701,"adult":false},{"id":12582,"adult":false},{"id":75286,"adult":false},{"id":118684,"adult":false},{"id":235942,"adult":false},{"id":361744,"adult":false},{"id":375399,"adult":null},{"id":211855,"adult":false},{"id":375400,"adult":true},{"id":375401,"adult":false},{"id":235567,"adult":false},{"id":375402,"adult":null},{"id":111066,"adult":false},{"id":375403,"adult":false},{"id":360995,"adult":false},{"id":13001,"adult":false},{"id":375404,"adult":false},{"id":375405,"adult":false},{"id":39920,"adult":false},{"id":375406,"adult":false},{"id":40163,"adult":false},{"id":318846,"adult":false},{"id":40046,"adult":false},{"id":375407,"adult":null},{"id":375408,"adult":false},{"id":40349,"adult":false},{"id":375409,"adult":true},{"id":13387,"adult":false},{"id":375410,"adult":false},{"id":375411,"adult":true},{"id":339425,"adult":false},{"id":135397,"adult":false},{"id":157336,"adult":false},{"id":239395,"adult":false},{"id":219331,"adult":false},{"id":375412,"adult":false},{"id":375413,"adult":null},{"id":375414,"adult":false},{"id":10912,"adult":false},{"id":40374,"adult":false},{"id":375415,"adult":true},{"id":94139,"adult":false},{"id":301190,"adult":false},{"id":295668,"adult":false},{"id":375416,"adult":false},{"id":375417,"adult":false},{"id":43394,"adult":false},{"id":292066,"adult":false},{"id":356875,"adult":false},{"id":78101,"adult":false},{"id":369154,"adult":true},{"id":358918,"adult":false},{"id":375418,"adult":false},{"id":273972,"adult":false},{"id":362836,"adult":false},{"id":375419,"adult":false},{"id":8337,"adult":false},{"id":375420,"adult":false},{"id":375421,"adult":true},{"id":371832,"adult":false},{"id":15421,"adult":false},{"id":311106,"adult":false},{"id":375422,"adult":true},{"id":233482,"adult":false},{"id":375424,"adult":false},{"id":18210,"adult":false},{"id":375425,"adult":true},{"id":89059,"adult":false},{"id":52883,"adult":false},{"id":10135,"adult":false},{"id":102899,"adult":false},{"id":375426,"adult":true},{"id":46360,"adult":false},{"id":318325,"adult":false},{"id":27323,"adult":false},{"id":11815,"adult":false},{"id":31043,"adult":false},{"id":105864,"adult":false},{"id":329440,"adult":false},{"id":297335,"adult":false},{"id":226630,"adult":false},{"id":375427,"adult":true},{"id":41249,"adult":false}],"page":12,"total_pages":121,"total_results":12060}