{"results":[{"id":36557,"adult":false},{"id":8997,"adult":false},{"id":385816,"adult":false},{"id":10764,"adult":false},{"id":387788,"adult":false},{"id":387789,"adult":false},{"id":273481,"adult":false},{"id":321340,"adult":false},{"id":328199,"adult":false},{"id":328193,"adult":false},{"id":111693,"adult":false},{"id":111422,"adult":false},{"id":19959,"adult":false},{"id":384289,"adult":false},{"id":387790,"adult":false},{"id":8080,"adult":false},{"id":63749,"adult":false},{"id":31523,"adult":false},{"id":292631,"adult":false},{"id":387791,"adult":false},{"id":380719,"adult":false},{"id":345198,"adult":false},{"id":57529,"adult":false},{"id":9257,"adult":false},{"id":54445,"adult":false},{"id":387792,"adult":false},{"id":37924,"adult":false},{"id":265018,"adult":false},{"id":49092,"adult":false},{"id":387793,"adult":false},{"id":33484,"adult":false},{"id":387794,"adult":false},{"id":387795,"adult":false},{"id":13885,"adult":false},{"id":387796,"adult":false},{"id":75516,"adult":false},{"id":387797,"adult":false},{"id":105583,"adult":false},{"id":158450,"adult":false},{"id":60619,"adult":false},{"id":387798,"adult":false},{"id":334307,"adult":false},{"id":381031,"adult":false},{"id":190955,"adult":false},{"id":387799,"adult":false},{"id":301729,"adult":false},{"id":365839,"adult":false},{"id":289525,"adult":false},{"id":387800,"adult":false},{"id":387801,"adult":false},{"id":371918,"adult":false},{"id":386133,"adult":false},{"id":387802,"adult":false},{"id":369778,"adult":false},{"id":387803,"adult":false},{"id":294977,"adult":false},{"id":298454,"adult":false},{"id":246839,"adult":false},{"id":105352,"adult":false},{"id":387804,"adult":false},{"id":313522,"adult":false},{"id":383502,"adult":false},{"id":46743,"adult":false},{"id":387805,"adult":false},{"id":281555,"adult":false},{"id":103108,"adult":false},{"id":40466,"adult":false},{"id":47431,"adult":false},{"id":387806,"adult":false},{"id":229702,"adult":false},{"id":387807,"adult":null},{"id":1949,"adult":false},{"id":162514,"adult":false},{"id":387440,"adult":false},{"id":348067,"adult":false},{"id":65445,"adult":false},{"id":387808,"adult":false},{"id":387809,"adult":false},{"id":214027,"adult":false},{"id":37137,"adult":false},{"id":319001,"adult":false},{"id":29456,"adult":false},{"id":302346,"adult":false},{"id":276136,"adult":false},{"id":387810,"adult":false},{"id":8545,"adult":false},{"id":387811,"adult":false},{"id":38839,"adult":false},{"id":9030,"adult":false},{"id":276682,"adult":false},{"id":36593,"adult":false},{"id":27130,"adult":false},{"id":26592,"adult":false},{"id":305125,"adult":false},{"id":332355,"adult":false},{"id":335117,"adult":false},{"id":387812,"adult":false},{"id":13944,"adult":false},{"id":353979,"adult":false},{"id":123937,"adult":false}],"page":6,"total_pages":120,"total_results":11936}