{"results":[{"id":302944,"adult":false},{"id":356300,"adult":false},{"id":38765,"adult":false},{"id":124217,"adult":false},{"id":12490,"adult":false},{"id":382143,"adult":false},{"id":352458,"adult":false},{"id":342464,"adult":false},{"id":398265,"adult":false},{"id":89978,"adult":false},{"id":125217,"adult":false},{"id":10714,"adult":false},{"id":404711,"adult":false},{"id":229194,"adult":false},{"id":72993,"adult":false},{"id":65657,"adult":false},{"id":9368,"adult":false},{"id":15895,"adult":false},{"id":28218,"adult":false},{"id":47363,"adult":false},{"id":47360,"adult":false},{"id":8279,"adult":false},{"id":354743,"adult":false},{"id":404712,"adult":false},{"id":404208,"adult":false},{"id":393,"adult":false},{"id":22504,"adult":false},{"id":31270,"adult":false},{"id":371932,"adult":false},{"id":54525,"adult":false},{"id":14736,"adult":false},{"id":304357,"adult":false},{"id":32035,"adult":false},{"id":12157,"adult":false},{"id":9062,"adult":false},{"id":50854,"adult":false},{"id":388223,"adult":false},{"id":270665,"adult":false},{"id":56671,"adult":false},{"id":311667,"adult":false},{"id":223899,"adult":false},{"id":329805,"adult":false},{"id":207485,"adult":false},{"id":106169,"adult":false},{"id":12649,"adult":false},{"id":39714,"adult":true},{"id":47329,"adult":false},{"id":1724,"adult":false},{"id":185488,"adult":false},{"id":404713,"adult":false},{"id":280723,"adult":false},{"id":1895,"adult":false},{"id":42633,"adult":false},{"id":329820,"adult":false},{"id":147102,"adult":false},{"id":9053,"adult":false},{"id":340937,"adult":false},{"id":257159,"adult":false},{"id":105348,"adult":false},{"id":116185,"adult":false},{"id":404715,"adult":false},{"id":404716,"adult":false},{"id":391626,"adult":false},{"id":39716,"adult":true},{"id":39720,"adult":true},{"id":381480,"adult":false},{"id":204415,"adult":false},{"id":289906,"adult":false},{"id":36681,"adult":false},{"id":132890,"adult":false},{"id":404717,"adult":false},{"id":22414,"adult":false},{"id":380026,"adult":false},{"id":404718,"adult":false},{"id":242565,"adult":false},{"id":334104,"adult":false},{"id":11983,"adult":false},{"id":49494,"adult":false},{"id":30694,"adult":false},{"id":378221,"adult":false},{"id":227080,"adult":false},{"id":48303,"adult":false},{"id":13193,"adult":false},{"id":40885,"adult":false},{"id":71666,"adult":false},{"id":50198,"adult":false},{"id":160088,"adult":false},{"id":287426,"adult":false},{"id":44963,"adult":false},{"id":59852,"adult":false},{"id":66002,"adult":false},{"id":26522,"adult":false},{"id":268778,"adult":false},{"id":404719,"adult":false},{"id":10699,"adult":false},{"id":404236,"adult":false},{"id":188507,"adult":false},{"id":404720,"adult":false},{"id":404721,"adult":false},{"id":32528,"adult":false}],"page":23,"total_pages":112,"total_results":11190}