{"results":[{"id":34647,"adult":false},{"id":35712,"adult":false},{"id":392730,"adult":false},{"id":65296,"adult":false},{"id":390407,"adult":false},{"id":99642,"adult":false},{"id":111699,"adult":false},{"id":301804,"adult":false},{"id":559,"adult":false},{"id":558,"adult":false},{"id":376845,"adult":false},{"id":30194,"adult":false},{"id":116626,"adult":false},{"id":159121,"adult":false},{"id":194,"adult":false},{"id":18462,"adult":false},{"id":188222,"adult":false},{"id":90503,"adult":false},{"id":390448,"adult":false},{"id":18172,"adult":false},{"id":392731,"adult":false},{"id":259954,"adult":false},{"id":257211,"adult":false},{"id":163460,"adult":false},{"id":249688,"adult":false},{"id":232052,"adult":false},{"id":283415,"adult":false},{"id":131185,"adult":false},{"id":312221,"adult":false},{"id":350849,"adult":false},{"id":159315,"adult":false},{"id":108,"adult":false},{"id":110,"adult":false},{"id":310545,"adult":false},{"id":353066,"adult":false},{"id":392732,"adult":false},{"id":14459,"adult":false},{"id":85180,"adult":false},{"id":287947,"adult":false},{"id":296082,"adult":false},{"id":382512,"adult":false},{"id":353595,"adult":false},{"id":392733,"adult":false},{"id":358207,"adult":false},{"id":251519,"adult":false},{"id":392734,"adult":false},{"id":69735,"adult":false},{"id":22855,"adult":false},{"id":13851,"adult":false},{"id":17040,"adult":false},{"id":170452,"adult":false},{"id":350213,"adult":false},{"id":36209,"adult":false},{"id":18051,"adult":false},{"id":20077,"adult":false},{"id":382751,"adult":false},{"id":21683,"adult":false},{"id":16234,"adult":false},{"id":15805,"adult":false},{"id":14919,"adult":false},{"id":18307,"adult":false}],"page":118,"total_pages":118,"total_results":11761}