{"results":[{"id":349498,"adult":false},{"id":394361,"adult":false},{"id":162639,"adult":false},{"id":307100,"adult":false},{"id":394362,"adult":false},{"id":37490,"adult":false},{"id":394363,"adult":true},{"id":42079,"adult":false},{"id":394364,"adult":false},{"id":327081,"adult":false},{"id":34979,"adult":false},{"id":267550,"adult":false},{"id":327083,"adult":false},{"id":327077,"adult":false},{"id":14612,"adult":false},{"id":228108,"adult":false},{"id":65157,"adult":false},{"id":3426,"adult":false},{"id":394365,"adult":false},{"id":23908,"adult":false},{"id":242409,"adult":false},{"id":394366,"adult":false},{"id":26891,"adult":false},{"id":257899,"adult":false},{"id":394367,"adult":false},{"id":31713,"adult":false},{"id":24816,"adult":false},{"id":80590,"adult":false},{"id":218381,"adult":false},{"id":394368,"adult":false},{"id":16042,"adult":false},{"id":316873,"adult":false},{"id":331642,"adult":false},{"id":138974,"adult":false},{"id":394369,"adult":false},{"id":251597,"adult":false},{"id":394371,"adult":false},{"id":117965,"adult":false},{"id":370978,"adult":false},{"id":315595,"adult":false},{"id":394372,"adult":false},{"id":92775,"adult":false},{"id":39314,"adult":false},{"id":27203,"adult":false},{"id":217172,"adult":false},{"id":357541,"adult":false},{"id":256794,"adult":false},{"id":394373,"adult":false},{"id":226766,"adult":false},{"id":26533,"adult":false},{"id":215063,"adult":false},{"id":47352,"adult":false},{"id":62749,"adult":false},{"id":162110,"adult":false},{"id":252678,"adult":false},{"id":98493,"adult":false},{"id":99674,"adult":false},{"id":98260,"adult":false},{"id":385389,"adult":false},{"id":98262,"adult":false},{"id":190441,"adult":false},{"id":241288,"adult":false},{"id":86604,"adult":false},{"id":77744,"adult":false},{"id":340477,"adult":false},{"id":22121,"adult":false},{"id":279841,"adult":false},{"id":54527,"adult":false},{"id":33071,"adult":false},{"id":282478,"adult":false},{"id":394374,"adult":false},{"id":86469,"adult":false},{"id":282445,"adult":false},{"id":120998,"adult":false},{"id":199368,"adult":false},{"id":177436,"adult":false},{"id":21349,"adult":false},{"id":176908,"adult":false},{"id":332499,"adult":false},{"id":173456,"adult":false},{"id":272066,"adult":false},{"id":184322,"adult":false},{"id":301001,"adult":false},{"id":129098,"adult":false},{"id":394375,"adult":false},{"id":95557,"adult":false},{"id":21159,"adult":false},{"id":297504,"adult":false},{"id":133694,"adult":false},{"id":106032,"adult":false},{"id":340092,"adult":false},{"id":297503,"adult":false},{"id":29241,"adult":false},{"id":394376,"adult":false},{"id":85854,"adult":false},{"id":295920,"adult":false},{"id":277710,"adult":false},{"id":394378,"adult":false},{"id":263904,"adult":false},{"id":394379,"adult":false}],"page":95,"total_pages":127,"total_results":12659}