{"results":[{"id":394802,"adult":false},{"id":394803,"adult":false},{"id":394804,"adult":false},{"id":394805,"adult":false},{"id":394806,"adult":null},{"id":394807,"adult":false},{"id":394808,"adult":false},{"id":394809,"adult":null},{"id":63691,"adult":false},{"id":342573,"adult":false},{"id":244506,"adult":false},{"id":53116,"adult":false},{"id":277834,"adult":false},{"id":9947,"adult":false},{"id":104498,"adult":false},{"id":385657,"adult":false},{"id":256227,"adult":false},{"id":63284,"adult":false},{"id":394810,"adult":false},{"id":364594,"adult":false},{"id":394811,"adult":false},{"id":360606,"adult":false},{"id":297233,"adult":false},{"id":7229,"adult":false},{"id":365997,"adult":false},{"id":121743,"adult":false},{"id":101529,"adult":false},{"id":7131,"adult":false},{"id":394812,"adult":false},{"id":301215,"adult":false},{"id":277555,"adult":false},{"id":379305,"adult":false},{"id":301609,"adult":false},{"id":293238,"adult":false},{"id":358895,"adult":false},{"id":203226,"adult":false},{"id":38594,"adult":false},{"id":394813,"adult":false},{"id":394814,"adult":false},{"id":347238,"adult":false},{"id":360999,"adult":false},{"id":11323,"adult":false},{"id":546,"adult":false},{"id":19079,"adult":false},{"id":394815,"adult":null},{"id":390101,"adult":false},{"id":10148,"adult":false},{"id":375436,"adult":false},{"id":261770,"adult":false},{"id":394816,"adult":false},{"id":394817,"adult":null},{"id":304779,"adult":false},{"id":307766,"adult":false},{"id":77445,"adult":false},{"id":305851,"adult":false},{"id":8373,"adult":false},{"id":14869,"adult":false},{"id":307783,"adult":false},{"id":73958,"adult":false},{"id":152742,"adult":false},{"id":49009,"adult":false},{"id":394818,"adult":false},{"id":20526,"adult":false},{"id":257785,"adult":false},{"id":307814,"adult":false},{"id":394819,"adult":false},{"id":394820,"adult":false},{"id":55297,"adult":false},{"id":148039,"adult":false},{"id":73428,"adult":false},{"id":310806,"adult":false},{"id":317483,"adult":false},{"id":307230,"adult":false},{"id":338614,"adult":false},{"id":394821,"adult":false},{"id":134481,"adult":false},{"id":327509,"adult":false},{"id":277870,"adult":false},{"id":366441,"adult":false},{"id":124552,"adult":false},{"id":194993,"adult":false},{"id":194989,"adult":false},{"id":194991,"adult":false},{"id":289898,"adult":null},{"id":327512,"adult":false},{"id":217143,"adult":false},{"id":394822,"adult":false},{"id":278293,"adult":false},{"id":305238,"adult":false},{"id":358759,"adult":false},{"id":170882,"adult":false},{"id":830,"adult":false},{"id":81541,"adult":false},{"id":394823,"adult":false},{"id":394826,"adult":false},{"id":394827,"adult":false},{"id":394828,"adult":null},{"id":253153,"adult":false},{"id":392292,"adult":false},{"id":394829,"adult":false}],"page":122,"total_pages":127,"total_results":12659}