{"results":[{"id":277305,"adult":false},{"id":408220,"adult":false},{"id":378932,"adult":false},{"id":404748,"adult":false},{"id":15070,"adult":false},{"id":8587,"adult":false},{"id":52929,"adult":false},{"id":186481,"adult":false},{"id":9732,"adult":false},{"id":11430,"adult":false},{"id":82992,"adult":false},{"id":168259,"adult":false},{"id":182091,"adult":false},{"id":809,"adult":false},{"id":13436,"adult":false},{"id":810,"adult":false},{"id":10527,"adult":false},{"id":10137,"adult":false},{"id":10996,"adult":false},{"id":557,"adult":false},{"id":408221,"adult":false},{"id":370964,"adult":false},{"id":558,"adult":false},{"id":11642,"adult":false},{"id":10886,"adult":false},{"id":10519,"adult":false},{"id":11624,"adult":false},{"id":408222,"adult":false},{"id":336212,"adult":false},{"id":295421,"adult":false},{"id":408223,"adult":false},{"id":221732,"adult":false},{"id":34806,"adult":false},{"id":374050,"adult":false},{"id":120,"adult":false},{"id":121,"adult":false},{"id":122,"adult":false},{"id":408224,"adult":false},{"id":36576,"adult":false},{"id":195544,"adult":false},{"id":36557,"adult":false},{"id":196750,"adult":false},{"id":25571,"adult":false},{"id":408225,"adult":false},{"id":10764,"adult":false},{"id":187292,"adult":false},{"id":11636,"adult":false},{"id":343688,"adult":false},{"id":91256,"adult":false},{"id":23172,"adult":false},{"id":408226,"adult":false},{"id":8584,"adult":false},{"id":6038,"adult":false},{"id":182195,"adult":false},{"id":9486,"adult":false},{"id":30178,"adult":false},{"id":191381,"adult":false},{"id":408227,"adult":false},{"id":370010,"adult":false},{"id":584,"adult":false},{"id":9615,"adult":false},{"id":300681,"adult":false},{"id":408228,"adult":false},{"id":20352,"adult":false},{"id":330348,"adult":false},{"id":91534,"adult":false},{"id":42418,"adult":false},{"id":22794,"adult":false},{"id":109451,"adult":false},{"id":408229,"adult":false},{"id":425,"adult":false},{"id":354566,"adult":false},{"id":374003,"adult":false},{"id":950,"adult":false},{"id":99194,"adult":false},{"id":8355,"adult":false},{"id":40043,"adult":false},{"id":57800,"adult":false},{"id":316785,"adult":false},{"id":266102,"adult":false},{"id":303854,"adult":false},{"id":171842,"adult":false},{"id":384682,"adult":false},{"id":306939,"adult":false},{"id":63977,"adult":false},{"id":298618,"adult":false},{"id":408230,"adult":false},{"id":73781,"adult":false},{"id":381045,"adult":false},{"id":354565,"adult":false},{"id":58847,"adult":false},{"id":253143,"adult":false},{"id":408231,"adult":false},{"id":11477,"adult":false},{"id":10310,"adult":false},{"id":300803,"adult":false},{"id":379975,"adult":false},{"id":408232,"adult":false},{"id":226,"adult":false},{"id":12477,"adult":false}],"page":110,"total_pages":120,"total_results":11946}