{"results":[{"id":122289,"adult":false},{"id":392473,"adult":false},{"id":40732,"adult":false},{"id":42488,"adult":false},{"id":42454,"adult":false},{"id":392474,"adult":false},{"id":336201,"adult":false},{"id":27221,"adult":false},{"id":121972,"adult":false},{"id":366143,"adult":false},{"id":59733,"adult":false},{"id":177681,"adult":false},{"id":351725,"adult":false},{"id":21240,"adult":false},{"id":392475,"adult":false},{"id":91099,"adult":false},{"id":14851,"adult":false},{"id":282346,"adult":false},{"id":299,"adult":false},{"id":940,"adult":false},{"id":619,"adult":false},{"id":144616,"adult":false},{"id":109907,"adult":false},{"id":11816,"adult":false},{"id":11167,"adult":false},{"id":25431,"adult":false},{"id":15,"adult":false},{"id":1879,"adult":false},{"id":345775,"adult":false},{"id":304783,"adult":false},{"id":392476,"adult":false},{"id":392477,"adult":false},{"id":34898,"adult":false},{"id":392478,"adult":false},{"id":392479,"adult":false},{"id":178158,"adult":false},{"id":392480,"adult":false},{"id":380734,"adult":false},{"id":299691,"adult":false},{"id":5998,"adult":false},{"id":392481,"adult":false},{"id":263816,"adult":false},{"id":392482,"adult":false},{"id":146562,"adult":false},{"id":111276,"adult":false},{"id":347681,"adult":false},{"id":358987,"adult":false},{"id":37577,"adult":false},{"id":23112,"adult":false},{"id":158620,"adult":false},{"id":62840,"adult":false},{"id":43007,"adult":false},{"id":287590,"adult":false},{"id":267623,"adult":false},{"id":392483,"adult":false},{"id":359025,"adult":false},{"id":392484,"adult":false},{"id":111277,"adult":false},{"id":50737,"adult":false},{"id":392485,"adult":false},{"id":75233,"adult":false},{"id":140821,"adult":false},{"id":235935,"adult":false},{"id":392486,"adult":false},{"id":355066,"adult":false},{"id":131907,"adult":false},{"id":208163,"adult":false},{"id":127974,"adult":false},{"id":934,"adult":false},{"id":392487,"adult":false},{"id":2014,"adult":false},{"id":98016,"adult":false},{"id":213200,"adult":false},{"id":35795,"adult":false},{"id":76180,"adult":false},{"id":74849,"adult":false},{"id":131116,"adult":false},{"id":384407,"adult":false},{"id":211564,"adult":null},{"id":318042,"adult":false},{"id":389321,"adult":false},{"id":115725,"adult":false},{"id":378173,"adult":null},{"id":117263,"adult":false},{"id":168530,"adult":false},{"id":172944,"adult":false},{"id":157641,"adult":false},{"id":209944,"adult":false},{"id":171499,"adult":false},{"id":358804,"adult":false},{"id":122525,"adult":false},{"id":58431,"adult":false},{"id":392488,"adult":false},{"id":112527,"adult":false},{"id":331118,"adult":false},{"id":375946,"adult":false},{"id":18575,"adult":false},{"id":24769,"adult":false},{"id":89156,"adult":false},{"id":57721,"adult":false}],"page":102,"total_pages":118,"total_results":11761}