{"results":[{"id":6723,"adult":false},{"id":132930,"adult":false},{"id":341229,"adult":false},{"id":379365,"adult":false},{"id":270559,"adult":false},{"id":364419,"adult":false},{"id":379366,"adult":false},{"id":379367,"adult":false},{"id":269066,"adult":false},{"id":91390,"adult":false},{"id":293303,"adult":false},{"id":284289,"adult":false},{"id":379368,"adult":false},{"id":379369,"adult":false},{"id":336435,"adult":false},{"id":379370,"adult":false},{"id":379371,"adult":false},{"id":78803,"adult":false},{"id":379372,"adult":false},{"id":258489,"adult":false},{"id":379373,"adult":true},{"id":291580,"adult":false},{"id":355332,"adult":false},{"id":12526,"adult":false},{"id":308123,"adult":false},{"id":24236,"adult":false},{"id":28118,"adult":false},{"id":104274,"adult":false},{"id":283322,"adult":false},{"id":199278,"adult":false},{"id":259138,"adult":false},{"id":347106,"adult":false},{"id":233487,"adult":false},{"id":373451,"adult":false},{"id":379374,"adult":null},{"id":9414,"adult":false},{"id":18882,"adult":false},{"id":379375,"adult":false},{"id":24056,"adult":false},{"id":9271,"adult":false},{"id":344447,"adult":false},{"id":379376,"adult":null},{"id":26513,"adult":false},{"id":117317,"adult":false},{"id":325351,"adult":false},{"id":379377,"adult":false},{"id":343480,"adult":false},{"id":290555,"adult":false},{"id":379378,"adult":null},{"id":379379,"adult":false},{"id":10606,"adult":false},{"id":379380,"adult":false},{"id":330223,"adult":false},{"id":176655,"adult":false},{"id":379381,"adult":false},{"id":316942,"adult":false},{"id":379382,"adult":false},{"id":379383,"adult":null},{"id":180039,"adult":false},{"id":379384,"adult":false},{"id":345469,"adult":false},{"id":234004,"adult":false},{"id":379385,"adult":false},{"id":5916,"adult":false},{"id":128678,"adult":false},{"id":379386,"adult":false},{"id":87612,"adult":false},{"id":360605,"adult":false},{"id":95967,"adult":false},{"id":312734,"adult":false},{"id":100239,"adult":false},{"id":31918,"adult":false},{"id":313009,"adult":false},{"id":125157,"adult":false},{"id":322460,"adult":false},{"id":379387,"adult":false},{"id":156572,"adult":false},{"id":49853,"adult":false},{"id":179103,"adult":false},{"id":328099,"adult":false},{"id":52459,"adult":false},{"id":362207,"adult":false},{"id":38167,"adult":false},{"id":334307,"adult":false},{"id":379388,"adult":false},{"id":379389,"adult":false},{"id":315901,"adult":false},{"id":52951,"adult":false},{"id":379390,"adult":false},{"id":171823,"adult":false},{"id":13193,"adult":false},{"id":97780,"adult":false},{"id":301748,"adult":false},{"id":146309,"adult":false},{"id":81048,"adult":false},{"id":326988,"adult":false},{"id":379392,"adult":false},{"id":290950,"adult":false},{"id":128603,"adult":false},{"id":13040,"adult":false}],"page":102,"total_pages":226,"total_results":22514}