{"results":[{"id":320004,"adult":false},{"id":30973,"adult":false},{"id":416286,"adult":false},{"id":397640,"adult":false},{"id":416287,"adult":false},{"id":24657,"adult":false},{"id":397670,"adult":false},{"id":10742,"adult":false},{"id":416288,"adult":false},{"id":16442,"adult":false},{"id":34375,"adult":false},{"id":5486,"adult":false},{"id":11945,"adult":false},{"id":31283,"adult":false},{"id":25716,"adult":false},{"id":111697,"adult":false},{"id":183859,"adult":false},{"id":294963,"adult":false},{"id":412350,"adult":false},{"id":13975,"adult":false},{"id":230644,"adult":false},{"id":377285,"adult":false},{"id":9495,"adult":false},{"id":24921,"adult":false},{"id":301951,"adult":false},{"id":9436,"adult":false},{"id":2667,"adult":false},{"id":135046,"adult":false},{"id":50828,"adult":false},{"id":9456,"adult":false},{"id":111258,"adult":false},{"id":9644,"adult":false},{"id":681,"adult":false},{"id":243794,"adult":false},{"id":345121,"adult":false},{"id":16328,"adult":false},{"id":150675,"adult":false},{"id":415665,"adult":false},{"id":330459,"adult":false},{"id":24929,"adult":false},{"id":249688,"adult":false},{"id":368395,"adult":false},{"id":180856,"adult":false},{"id":200371,"adult":false},{"id":5927,"adult":false},{"id":5909,"adult":false},{"id":102653,"adult":false},{"id":416289,"adult":false},{"id":91606,"adult":false},{"id":416290,"adult":false},{"id":352161,"adult":false},{"id":24984,"adult":false},{"id":374205,"adult":false},{"id":55,"adult":false},{"id":65674,"adult":false},{"id":388165,"adult":false},{"id":37718,"adult":false},{"id":333339,"adult":false},{"id":379477,"adult":false},{"id":264656,"adult":false},{"id":28260,"adult":false},{"id":416291,"adult":false},{"id":91225,"adult":false},{"id":336313,"adult":false},{"id":17771,"adult":false},{"id":54178,"adult":false},{"id":94376,"adult":false},{"id":413736,"adult":false},{"id":15495,"adult":false},{"id":264339,"adult":false},{"id":416292,"adult":false},{"id":96617,"adult":false},{"id":416293,"adult":false},{"id":267188,"adult":false},{"id":128841,"adult":false},{"id":35118,"adult":false},{"id":140354,"adult":false},{"id":524,"adult":false},{"id":27459,"adult":false},{"id":19143,"adult":false},{"id":238258,"adult":false},{"id":361159,"adult":false},{"id":276591,"adult":false},{"id":466,"adult":false},{"id":416294,"adult":false},{"id":61669,"adult":false},{"id":310843,"adult":false},{"id":301351,"adult":false},{"id":80631,"adult":false},{"id":60062,"adult":false},{"id":324308,"adult":false},{"id":4537,"adult":false},{"id":416295,"adult":false},{"id":177851,"adult":false},{"id":150035,"adult":false},{"id":3122,"adult":false},{"id":62437,"adult":false},{"id":151186,"adult":false},{"id":42500,"adult":false},{"id":50653,"adult":false}],"page":23,"total_pages":141,"total_results":14019}