{"results":[{"id":358350,"adult":false},{"id":390173,"adult":false},{"id":430134,"adult":false},{"id":405089,"adult":false},{"id":983,"adult":false},{"id":430135,"adult":false},{"id":356932,"adult":false},{"id":965,"adult":false},{"id":214552,"adult":false},{"id":25037,"adult":false},{"id":13963,"adult":false},{"id":430136,"adult":false},{"id":940,"adult":false},{"id":3086,"adult":false},{"id":16372,"adult":false},{"id":962,"adult":false},{"id":430137,"adult":false},{"id":353716,"adult":false},{"id":385763,"adult":false},{"id":430138,"adult":false},{"id":430139,"adult":false},{"id":118491,"adult":false},{"id":430140,"adult":false},{"id":430141,"adult":false},{"id":185050,"adult":false},{"id":26638,"adult":false},{"id":43950,"adult":false},{"id":13199,"adult":false},{"id":13690,"adult":false},{"id":26928,"adult":false},{"id":288799,"adult":false},{"id":11022,"adult":false},{"id":25913,"adult":false},{"id":421467,"adult":false},{"id":372526,"adult":false},{"id":373876,"adult":false},{"id":39435,"adult":false},{"id":388500,"adult":false},{"id":293925,"adult":false},{"id":33256,"adult":false},{"id":44251,"adult":false},{"id":39107,"adult":false},{"id":17277,"adult":false},{"id":125943,"adult":false},{"id":2075,"adult":false},{"id":295017,"adult":false},{"id":430142,"adult":false},{"id":298996,"adult":false},{"id":411023,"adult":false},{"id":384562,"adult":false},{"id":119242,"adult":false},{"id":430143,"adult":false},{"id":163312,"adult":false},{"id":10394,"adult":false},{"id":113128,"adult":false},{"id":18394,"adult":false},{"id":2099,"adult":false},{"id":21309,"adult":false},{"id":294951,"adult":false},{"id":10637,"adult":false},{"id":334517,"adult":false},{"id":265685,"adult":false},{"id":292859,"adult":false},{"id":11071,"adult":false},{"id":25069,"adult":false},{"id":287750,"adult":false},{"id":298109,"adult":false},{"id":53356,"adult":false},{"id":36301,"adult":false},{"id":8941,"adult":false},{"id":13526,"adult":false},{"id":364842,"adult":false},{"id":118759,"adult":false},{"id":293870,"adult":false},{"id":9995,"adult":false},{"id":430144,"adult":false},{"id":18050,"adult":false},{"id":75707,"adult":false},{"id":283675,"adult":false},{"id":301451,"adult":false},{"id":296658,"adult":false},{"id":190062,"adult":false},{"id":289572,"adult":false},{"id":283120,"adult":false},{"id":19348,"adult":false},{"id":43197,"adult":false},{"id":294948,"adult":false},{"id":4967,"adult":false},{"id":10647,"adult":false},{"id":430145,"adult":false},{"id":430146,"adult":false},{"id":129215,"adult":false},{"id":430147,"adult":false},{"id":411739,"adult":false},{"id":257475,"adult":false},{"id":430148,"adult":false},{"id":330828,"adult":false},{"id":126527,"adult":false},{"id":2204,"adult":false},{"id":29946,"adult":false}],"page":122,"total_pages":123,"total_results":12242}