{"results":[{"id":336121,"adult":false},{"id":392327,"adult":false},{"id":392328,"adult":false},{"id":392329,"adult":false},{"id":75793,"adult":false},{"id":81030,"adult":false},{"id":107011,"adult":false},{"id":78215,"adult":false},{"id":207353,"adult":false},{"id":346515,"adult":false},{"id":232011,"adult":false},{"id":76140,"adult":false},{"id":120216,"adult":false},{"id":392330,"adult":false},{"id":258296,"adult":false},{"id":355487,"adult":false},{"id":64820,"adult":false},{"id":333033,"adult":false},{"id":162307,"adult":false},{"id":162305,"adult":false},{"id":356307,"adult":false},{"id":352395,"adult":false},{"id":392331,"adult":false},{"id":122081,"adult":false},{"id":157336,"adult":false},{"id":388959,"adult":false},{"id":365790,"adult":false},{"id":392332,"adult":false},{"id":14034,"adult":false},{"id":14926,"adult":false},{"id":20379,"adult":false},{"id":392333,"adult":false},{"id":286600,"adult":false},{"id":105235,"adult":false},{"id":246503,"adult":false},{"id":243444,"adult":false},{"id":392334,"adult":false},{"id":96279,"adult":false},{"id":173884,"adult":false},{"id":38625,"adult":false},{"id":144713,"adult":false},{"id":34000,"adult":false},{"id":392336,"adult":false},{"id":392337,"adult":false},{"id":16121,"adult":false},{"id":392338,"adult":false},{"id":364088,"adult":false},{"id":102144,"adult":false},{"id":392339,"adult":false},{"id":10339,"adult":false},{"id":85044,"adult":false},{"id":36983,"adult":false},{"id":392340,"adult":false},{"id":6077,"adult":false},{"id":57572,"adult":false},{"id":758,"adult":false},{"id":8816,"adult":false},{"id":10559,"adult":false},{"id":333414,"adult":false},{"id":2054,"adult":false},{"id":92597,"adult":false},{"id":44980,"adult":false},{"id":107041,"adult":false},{"id":10204,"adult":false},{"id":392341,"adult":false},{"id":43535,"adult":false},{"id":215585,"adult":false},{"id":198501,"adult":false},{"id":136226,"adult":false},{"id":337730,"adult":false},{"id":25050,"adult":false},{"id":288763,"adult":false},{"id":1428,"adult":false},{"id":139486,"adult":false},{"id":392342,"adult":false},{"id":242310,"adult":false},{"id":177343,"adult":false},{"id":363604,"adult":false},{"id":369014,"adult":false},{"id":9562,"adult":false},{"id":206069,"adult":false},{"id":9665,"adult":false},{"id":9691,"adult":false},{"id":195654,"adult":false},{"id":10348,"adult":false},{"id":9829,"adult":false},{"id":11379,"adult":false},{"id":10212,"adult":false},{"id":10350,"adult":false},{"id":153859,"adult":false},{"id":10511,"adult":false},{"id":9404,"adult":false},{"id":10601,"adult":false},{"id":10609,"adult":false},{"id":11088,"adult":false},{"id":11322,"adult":false},{"id":11324,"adult":false},{"id":11463,"adult":false},{"id":11551,"adult":false},{"id":11866,"adult":false}],"page":93,"total_pages":118,"total_results":11761}