{"results":[{"id":23750,"adult":false},{"id":42169,"adult":false},{"id":42150,"adult":false},{"id":377461,"adult":false},{"id":2750,"adult":false},{"id":59230,"adult":false},{"id":43195,"adult":false},{"id":43445,"adult":false},{"id":36739,"adult":false},{"id":406788,"adult":false},{"id":317584,"adult":false},{"id":3478,"adult":false},{"id":43372,"adult":false},{"id":43231,"adult":false},{"id":38887,"adult":false},{"id":123781,"adult":false},{"id":237844,"adult":false},{"id":1589,"adult":false},{"id":371332,"adult":false},{"id":406789,"adult":false},{"id":302156,"adult":false},{"id":56669,"adult":false},{"id":406790,"adult":false},{"id":45162,"adult":false},{"id":396289,"adult":false},{"id":380808,"adult":false},{"id":48119,"adult":false},{"id":15805,"adult":false},{"id":270926,"adult":false},{"id":406791,"adult":null},{"id":20235,"adult":false},{"id":163473,"adult":false},{"id":265964,"adult":false},{"id":406792,"adult":false},{"id":1829,"adult":false},{"id":192862,"adult":false},{"id":11103,"adult":false},{"id":36209,"adult":false},{"id":41515,"adult":false},{"id":406793,"adult":null},{"id":163460,"adult":false},{"id":76035,"adult":false},{"id":356103,"adult":false},{"id":163472,"adult":false},{"id":174337,"adult":false},{"id":392703,"adult":false},{"id":84235,"adult":false},{"id":9084,"adult":false},{"id":146751,"adult":false},{"id":16266,"adult":false},{"id":406794,"adult":false},{"id":406795,"adult":null},{"id":163476,"adult":false},{"id":37924,"adult":false},{"id":406796,"adult":false},{"id":406797,"adult":false},{"id":406798,"adult":null},{"id":296356,"adult":false},{"id":5393,"adult":false},{"id":268395,"adult":false},{"id":406799,"adult":null},{"id":333156,"adult":false},{"id":273121,"adult":false},{"id":406800,"adult":null},{"id":406801,"adult":true},{"id":290250,"adult":false},{"id":37023,"adult":false},{"id":366510,"adult":false},{"id":57759,"adult":false},{"id":406802,"adult":false},{"id":192189,"adult":false},{"id":394275,"adult":false},{"id":100871,"adult":false},{"id":405282,"adult":false},{"id":41004,"adult":false},{"id":154234,"adult":false},{"id":405257,"adult":false},{"id":48466,"adult":false},{"id":406803,"adult":false},{"id":56798,"adult":false},{"id":124541,"adult":false},{"id":66180,"adult":false},{"id":31742,"adult":false},{"id":105697,"adult":false},{"id":20239,"adult":false},{"id":251449,"adult":false},{"id":251453,"adult":false},{"id":125355,"adult":false},{"id":251487,"adult":false},{"id":87818,"adult":false},{"id":68163,"adult":false},{"id":397758,"adult":false},{"id":136933,"adult":false},{"id":6524,"adult":false},{"id":292824,"adult":false},{"id":37425,"adult":false},{"id":50337,"adult":false},{"id":12550,"adult":false},{"id":274551,"adult":false},{"id":406804,"adult":false}],"page":19,"total_pages":120,"total_results":11946}