{"results":[{"id":378208,"adult":false},{"id":392097,"adult":false},{"id":52651,"adult":false},{"id":406898,"adult":true},{"id":406899,"adult":false},{"id":403840,"adult":false},{"id":398042,"adult":false},{"id":406900,"adult":false},{"id":403834,"adult":false},{"id":1958,"adult":false},{"id":403831,"adult":false},{"id":403825,"adult":false},{"id":403823,"adult":false},{"id":345456,"adult":false},{"id":306625,"adult":false},{"id":41480,"adult":false},{"id":299424,"adult":false},{"id":299425,"adult":false},{"id":336581,"adult":false},{"id":281223,"adult":false},{"id":402013,"adult":false},{"id":402007,"adult":false},{"id":157427,"adult":false},{"id":406901,"adult":false},{"id":336579,"adult":false},{"id":336580,"adult":false},{"id":193742,"adult":false},{"id":336582,"adult":false},{"id":314029,"adult":false},{"id":402022,"adult":false},{"id":402021,"adult":false},{"id":402020,"adult":false},{"id":266917,"adult":false},{"id":266920,"adult":false},{"id":266922,"adult":false},{"id":399493,"adult":false},{"id":266925,"adult":false},{"id":266927,"adult":false},{"id":347647,"adult":false},{"id":266928,"adult":false},{"id":183364,"adult":true},{"id":193842,"adult":false},{"id":183254,"adult":false},{"id":157426,"adult":false},{"id":402015,"adult":false},{"id":351722,"adult":false},{"id":385082,"adult":false},{"id":371647,"adult":false},{"id":402018,"adult":false},{"id":406902,"adult":false},{"id":362095,"adult":false},{"id":402017,"adult":false},{"id":402009,"adult":false},{"id":402004,"adult":false},{"id":402016,"adult":false},{"id":314384,"adult":false},{"id":402014,"adult":false},{"id":164107,"adult":false},{"id":406903,"adult":false},{"id":95771,"adult":false},{"id":336584,"adult":false},{"id":243803,"adult":false},{"id":343290,"adult":false},{"id":402005,"adult":false},{"id":406904,"adult":false},{"id":356800,"adult":false},{"id":17785,"adult":false},{"id":158616,"adult":false},{"id":376290,"adult":false},{"id":397427,"adult":false},{"id":47885,"adult":false},{"id":2698,"adult":false},{"id":371367,"adult":false},{"id":238378,"adult":false},{"id":264898,"adult":false},{"id":17791,"adult":false},{"id":19078,"adult":false},{"id":406905,"adult":false},{"id":283948,"adult":false},{"id":238958,"adult":false},{"id":17525,"adult":false},{"id":342560,"adult":false},{"id":13149,"adult":false},{"id":275018,"adult":false},{"id":24516,"adult":false},{"id":50935,"adult":false},{"id":61002,"adult":false},{"id":17545,"adult":false},{"id":13114,"adult":false},{"id":44115,"adult":false},{"id":157353,"adult":false},{"id":406906,"adult":false},{"id":165366,"adult":false},{"id":293457,"adult":false},{"id":355542,"adult":false},{"id":253582,"adult":false},{"id":12770,"adult":false},{"id":24554,"adult":false},{"id":326100,"adult":false},{"id":406907,"adult":false}],"page":25,"total_pages":120,"total_results":11946}