{"results":[{"id":410627,"adult":false},{"id":8982,"adult":false},{"id":77668,"adult":false},{"id":11630,"adult":false},{"id":293506,"adult":false},{"id":12154,"adult":false},{"id":410628,"adult":false},{"id":410629,"adult":false},{"id":410630,"adult":false},{"id":453,"adult":false},{"id":33386,"adult":false},{"id":14704,"adult":false},{"id":15398,"adult":false},{"id":256719,"adult":false},{"id":5651,"adult":false},{"id":410631,"adult":false},{"id":109421,"adult":false},{"id":90337,"adult":true},{"id":389020,"adult":false},{"id":410632,"adult":false},{"id":410633,"adult":false},{"id":410634,"adult":false},{"id":358820,"adult":false},{"id":356480,"adult":false},{"id":57714,"adult":false},{"id":78406,"adult":false},{"id":291813,"adult":false},{"id":410635,"adult":false},{"id":268977,"adult":false},{"id":233198,"adult":false},{"id":4347,"adult":false},{"id":41263,"adult":false},{"id":253318,"adult":false},{"id":129701,"adult":false},{"id":1262,"adult":false},{"id":28436,"adult":false},{"id":410636,"adult":false},{"id":215938,"adult":false},{"id":376440,"adult":false},{"id":86817,"adult":false},{"id":201119,"adult":false},{"id":410637,"adult":false},{"id":52062,"adult":false},{"id":323020,"adult":false},{"id":137532,"adult":false},{"id":410638,"adult":false},{"id":5741,"adult":false},{"id":410639,"adult":false},{"id":14097,"adult":false},{"id":135241,"adult":false},{"id":13334,"adult":false},{"id":342206,"adult":false},{"id":410640,"adult":false},{"id":102857,"adult":false},{"id":123631,"adult":false},{"id":356745,"adult":false},{"id":356746,"adult":false},{"id":139750,"adult":false},{"id":49982,"adult":false},{"id":320967,"adult":false},{"id":347783,"adult":false},{"id":236226,"adult":false},{"id":198878,"adult":false},{"id":199780,"adult":false},{"id":197769,"adult":false},{"id":202343,"adult":false},{"id":139828,"adult":false},{"id":29235,"adult":false},{"id":317283,"adult":false},{"id":266170,"adult":false},{"id":42995,"adult":false},{"id":342204,"adult":false},{"id":1162,"adult":false},{"id":198090,"adult":false},{"id":291224,"adult":false},{"id":21135,"adult":false},{"id":239422,"adult":false},{"id":282441,"adult":false},{"id":154908,"adult":false},{"id":147393,"adult":false},{"id":4903,"adult":false},{"id":43004,"adult":false},{"id":157308,"adult":false},{"id":345959,"adult":false},{"id":76833,"adult":false},{"id":262978,"adult":false},{"id":370977,"adult":false},{"id":410641,"adult":false},{"id":47796,"adult":false},{"id":11697,"adult":false},{"id":86240,"adult":false},{"id":43006,"adult":false},{"id":11502,"adult":false},{"id":11085,"adult":false},{"id":56694,"adult":false},{"id":32688,"adult":false},{"id":341231,"adult":false},{"id":352820,"adult":false},{"id":33708,"adult":false},{"id":410642,"adult":false}],"page":83,"total_pages":117,"total_results":11641}