{"results":[{"id":323660,"adult":false},{"id":255446,"adult":false},{"id":36819,"adult":false},{"id":10785,"adult":false},{"id":408541,"adult":false},{"id":414069,"adult":false},{"id":1213,"adult":false},{"id":272792,"adult":false},{"id":10849,"adult":false},{"id":329833,"adult":false},{"id":14462,"adult":false},{"id":40698,"adult":false},{"id":408537,"adult":false},{"id":340422,"adult":null},{"id":212933,"adult":false},{"id":93582,"adult":false},{"id":412634,"adult":false},{"id":1847,"adult":false},{"id":414070,"adult":false},{"id":55178,"adult":false},{"id":347762,"adult":false},{"id":414071,"adult":false},{"id":45094,"adult":false},{"id":409675,"adult":null},{"id":329842,"adult":null},{"id":74954,"adult":null},{"id":391243,"adult":null},{"id":414072,"adult":false},{"id":411929,"adult":null},{"id":256046,"adult":null},{"id":414073,"adult":false},{"id":414074,"adult":false},{"id":411915,"adult":null},{"id":414075,"adult":false},{"id":414076,"adult":false},{"id":269149,"adult":false},{"id":413274,"adult":null},{"id":31339,"adult":false},{"id":64622,"adult":false},{"id":414077,"adult":false},{"id":128224,"adult":false},{"id":6477,"adult":false},{"id":228231,"adult":false},{"id":228275,"adult":false},{"id":414078,"adult":null},{"id":152757,"adult":false},{"id":293095,"adult":false},{"id":17687,"adult":false},{"id":414079,"adult":false},{"id":309792,"adult":false},{"id":353501,"adult":false},{"id":345151,"adult":false},{"id":79029,"adult":false},{"id":37632,"adult":false},{"id":15303,"adult":false},{"id":2310,"adult":false},{"id":15815,"adult":false},{"id":14830,"adult":false},{"id":352364,"adult":false},{"id":323599,"adult":false},{"id":414080,"adult":false},{"id":592,"adult":false},{"id":360877,"adult":false},{"id":58946,"adult":false},{"id":78781,"adult":false},{"id":1265,"adult":false},{"id":27348,"adult":false},{"id":74961,"adult":false},{"id":390512,"adult":false},{"id":376810,"adult":false},{"id":81168,"adult":false},{"id":317,"adult":false},{"id":10344,"adult":false},{"id":414081,"adult":true},{"id":207649,"adult":false},{"id":55631,"adult":false},{"id":5279,"adult":false},{"id":15184,"adult":false},{"id":198570,"adult":false},{"id":56546,"adult":false},{"id":188858,"adult":false},{"id":33932,"adult":false},{"id":414082,"adult":false},{"id":414083,"adult":true},{"id":393505,"adult":false},{"id":347989,"adult":false},{"id":359575,"adult":false},{"id":349197,"adult":false},{"id":414084,"adult":false},{"id":31472,"adult":false},{"id":31767,"adult":false},{"id":260528,"adult":false},{"id":377445,"adult":false},{"id":351155,"adult":false},{"id":8779,"adult":false},{"id":20319,"adult":false},{"id":2062,"adult":false},{"id":2690,"adult":false},{"id":286532,"adult":false},{"id":91095,"adult":false}],"page":33,"total_pages":126,"total_results":12554}