{"results":[{"id":388309,"adult":false},{"id":16173,"adult":false},{"id":9711,"adult":false},{"id":375084,"adult":false},{"id":12921,"adult":false},{"id":78694,"adult":false},{"id":314652,"adult":false},{"id":45154,"adult":false},{"id":150653,"adult":false},{"id":18998,"adult":false},{"id":369764,"adult":false},{"id":144789,"adult":false},{"id":369776,"adult":false},{"id":388310,"adult":false},{"id":361069,"adult":false},{"id":43417,"adult":false},{"id":291870,"adult":false},{"id":385878,"adult":null},{"id":388312,"adult":false},{"id":370024,"adult":false},{"id":10536,"adult":false},{"id":385890,"adult":null},{"id":321041,"adult":true},{"id":254007,"adult":false},{"id":286239,"adult":false},{"id":106658,"adult":false},{"id":329882,"adult":false},{"id":53932,"adult":false},{"id":70929,"adult":false},{"id":302699,"adult":false},{"id":61404,"adult":false},{"id":230714,"adult":false},{"id":61726,"adult":false},{"id":125659,"adult":false},{"id":71854,"adult":false},{"id":9992,"adult":false},{"id":39415,"adult":false},{"id":16076,"adult":false},{"id":162708,"adult":false},{"id":238561,"adult":false},{"id":388313,"adult":false},{"id":386213,"adult":false},{"id":373855,"adult":false},{"id":14849,"adult":false},{"id":170522,"adult":false},{"id":293771,"adult":false},{"id":374336,"adult":null},{"id":275385,"adult":false},{"id":56005,"adult":false},{"id":55215,"adult":false},{"id":247782,"adult":false},{"id":29429,"adult":false},{"id":43170,"adult":false},{"id":385628,"adult":null},{"id":222224,"adult":false},{"id":388314,"adult":false},{"id":385112,"adult":null},{"id":388315,"adult":false},{"id":335346,"adult":false},{"id":379291,"adult":false},{"id":387083,"adult":false},{"id":385145,"adult":null},{"id":388316,"adult":false},{"id":385470,"adult":null},{"id":21683,"adult":false},{"id":290326,"adult":null},{"id":16237,"adult":false},{"id":177271,"adult":false},{"id":388317,"adult":false},{"id":322456,"adult":false},{"id":385465,"adult":null},{"id":321528,"adult":false},{"id":386041,"adult":false},{"id":385427,"adult":false},{"id":327418,"adult":false},{"id":385429,"adult":false},{"id":386916,"adult":false},{"id":342917,"adult":false},{"id":17702,"adult":false},{"id":353595,"adult":false},{"id":366924,"adult":false},{"id":290328,"adult":null},{"id":386922,"adult":false},{"id":290321,"adult":null},{"id":23617,"adult":false},{"id":385475,"adult":null},{"id":331836,"adult":false},{"id":84924,"adult":false},{"id":387568,"adult":null},{"id":388318,"adult":false},{"id":102019,"adult":false},{"id":16140,"adult":false},{"id":271159,"adult":false},{"id":189595,"adult":false},{"id":385616,"adult":null},{"id":298473,"adult":null},{"id":56744,"adult":false},{"id":290329,"adult":null},{"id":327651,"adult":false},{"id":25571,"adult":false}],"page":34,"total_pages":120,"total_results":11936}