{"results":[{"id":184585,"adult":false},{"id":227594,"adult":false},{"id":26736,"adult":false},{"id":124581,"adult":false},{"id":105879,"adult":false},{"id":243619,"adult":false},{"id":254438,"adult":false},{"id":373376,"adult":false},{"id":54553,"adult":false},{"id":229407,"adult":false},{"id":54551,"adult":false},{"id":229408,"adult":false},{"id":54559,"adult":false},{"id":229405,"adult":false},{"id":392189,"adult":false},{"id":392192,"adult":false},{"id":55906,"adult":false},{"id":110716,"adult":false},{"id":77453,"adult":false},{"id":384977,"adult":false},{"id":77454,"adult":false},{"id":296990,"adult":false},{"id":392193,"adult":false},{"id":392194,"adult":false},{"id":158366,"adult":false},{"id":392195,"adult":false},{"id":392196,"adult":false},{"id":39545,"adult":false},{"id":395,"adult":false},{"id":31863,"adult":false},{"id":81298,"adult":false},{"id":171764,"adult":false},{"id":361249,"adult":false},{"id":392197,"adult":false},{"id":392199,"adult":false},{"id":208872,"adult":false},{"id":10045,"adult":false},{"id":392200,"adult":false},{"id":15357,"adult":false},{"id":140250,"adult":false},{"id":81011,"adult":false},{"id":116311,"adult":false},{"id":61054,"adult":false},{"id":4512,"adult":false},{"id":45971,"adult":false},{"id":210258,"adult":false},{"id":4679,"adult":false},{"id":260099,"adult":false},{"id":392201,"adult":false},{"id":387480,"adult":false},{"id":18262,"adult":false},{"id":7873,"adult":false},{"id":363103,"adult":false},{"id":120,"adult":false},{"id":372821,"adult":false},{"id":392202,"adult":false},{"id":392203,"adult":false},{"id":392204,"adult":false},{"id":19001,"adult":false},{"id":11175,"adult":false},{"id":881,"adult":false},{"id":310134,"adult":false},{"id":392205,"adult":false},{"id":392206,"adult":false},{"id":349453,"adult":false},{"id":392207,"adult":false},{"id":34544,"adult":false},{"id":8653,"adult":false},{"id":392208,"adult":false},{"id":392210,"adult":false},{"id":392211,"adult":false},{"id":111479,"adult":false},{"id":4267,"adult":false},{"id":8007,"adult":false},{"id":197900,"adult":false},{"id":5061,"adult":false},{"id":114488,"adult":false},{"id":392212,"adult":false},{"id":281432,"adult":false},{"id":281434,"adult":false},{"id":13127,"adult":false},{"id":281437,"adult":false},{"id":115033,"adult":false},{"id":214113,"adult":false},{"id":392213,"adult":null},{"id":214119,"adult":false},{"id":145247,"adult":false},{"id":15472,"adult":false},{"id":1586,"adult":false},{"id":52556,"adult":false},{"id":1683,"adult":false},{"id":193756,"adult":false},{"id":19912,"adult":false},{"id":8077,"adult":false},{"id":216282,"adult":false},{"id":162903,"adult":false},{"id":423,"adult":false},{"id":392214,"adult":false},{"id":72331,"adult":false},{"id":282984,"adult":false}],"page":83,"total_pages":118,"total_results":11761}