{"results":[{"id":379009,"adult":true},{"id":19200,"adult":false},{"id":43976,"adult":false},{"id":37061,"adult":false},{"id":337608,"adult":false},{"id":59399,"adult":false},{"id":146094,"adult":false},{"id":379010,"adult":false},{"id":337405,"adult":false},{"id":301265,"adult":false},{"id":290062,"adult":false},{"id":115104,"adult":false},{"id":146095,"adult":false},{"id":25553,"adult":false},{"id":146097,"adult":false},{"id":15244,"adult":false},{"id":146093,"adult":false},{"id":146084,"adult":false},{"id":2290,"adult":false},{"id":11906,"adult":false},{"id":287896,"adult":false},{"id":290981,"adult":false},{"id":347689,"adult":false},{"id":146090,"adult":false},{"id":247813,"adult":false},{"id":146092,"adult":false},{"id":1610,"adult":false},{"id":373450,"adult":false},{"id":259946,"adult":false},{"id":379011,"adult":false},{"id":379012,"adult":false},{"id":379013,"adult":false},{"id":366374,"adult":false},{"id":379014,"adult":false},{"id":347264,"adult":false},{"id":31016,"adult":false},{"id":319373,"adult":false},{"id":71076,"adult":false},{"id":155465,"adult":false},{"id":10708,"adult":false},{"id":6520,"adult":false},{"id":227783,"adult":false},{"id":379015,"adult":false},{"id":369851,"adult":false},{"id":711,"adult":false},{"id":192692,"adult":false},{"id":11387,"adult":false},{"id":379016,"adult":false},{"id":109451,"adult":false},{"id":9614,"adult":false},{"id":317093,"adult":false},{"id":634,"adult":false},{"id":12609,"adult":false},{"id":379017,"adult":false},{"id":81188,"adult":false},{"id":379018,"adult":false},{"id":290671,"adult":false},{"id":10693,"adult":false},{"id":166392,"adult":false},{"id":379019,"adult":false},{"id":379020,"adult":false},{"id":379021,"adult":false},{"id":379022,"adult":true},{"id":379023,"adult":false},{"id":361240,"adult":false},{"id":320385,"adult":false},{"id":166655,"adult":false},{"id":11821,"adult":false},{"id":10501,"adult":false},{"id":379024,"adult":false},{"id":379025,"adult":false},{"id":294034,"adult":false},{"id":258577,"adult":false},{"id":330007,"adult":false},{"id":379026,"adult":false},{"id":234700,"adult":false},{"id":38779,"adult":false},{"id":379027,"adult":false},{"id":136842,"adult":false},{"id":205491,"adult":false},{"id":174598,"adult":false},{"id":125772,"adult":false},{"id":225763,"adult":false},{"id":116173,"adult":false},{"id":193009,"adult":false},{"id":152464,"adult":false},{"id":10097,"adult":false},{"id":163195,"adult":false},{"id":194210,"adult":false},{"id":379028,"adult":false},{"id":193849,"adult":false},{"id":151003,"adult":false},{"id":193957,"adult":false},{"id":193959,"adult":false},{"id":191444,"adult":false},{"id":200503,"adult":false},{"id":191910,"adult":false},{"id":245706,"adult":false},{"id":193848,"adult":false},{"id":174946,"adult":false}],"page":85,"total_pages":226,"total_results":22514}