{"results":[{"id":26323,"adult":false},{"id":80196,"adult":false},{"id":312209,"adult":false},{"id":384012,"adult":false},{"id":31460,"adult":false},{"id":89144,"adult":false},{"id":385556,"adult":false},{"id":66113,"adult":false},{"id":202986,"adult":false},{"id":218389,"adult":false},{"id":105657,"adult":false},{"id":22309,"adult":false},{"id":311219,"adult":true},{"id":246080,"adult":false},{"id":8914,"adult":false},{"id":12150,"adult":false},{"id":31148,"adult":false},{"id":324437,"adult":false},{"id":385557,"adult":false},{"id":206197,"adult":false},{"id":385558,"adult":false},{"id":359364,"adult":false},{"id":2062,"adult":false},{"id":385559,"adult":false},{"id":55381,"adult":false},{"id":328425,"adult":false},{"id":117772,"adult":false},{"id":35780,"adult":false},{"id":145629,"adult":false},{"id":12165,"adult":false},{"id":241257,"adult":false},{"id":272138,"adult":false},{"id":317003,"adult":false},{"id":264419,"adult":false},{"id":82708,"adult":false},{"id":286595,"adult":false},{"id":18111,"adult":false},{"id":1694,"adult":false},{"id":267860,"adult":false},{"id":385560,"adult":false},{"id":189225,"adult":false},{"id":353433,"adult":false},{"id":3573,"adult":false},{"id":233574,"adult":false},{"id":385561,"adult":false},{"id":385111,"adult":false},{"id":247838,"adult":false},{"id":385562,"adult":false},{"id":163104,"adult":false},{"id":385563,"adult":false},{"id":384574,"adult":false},{"id":385564,"adult":false},{"id":138199,"adult":false},{"id":385565,"adult":false},{"id":255289,"adult":false},{"id":383317,"adult":null},{"id":385566,"adult":false},{"id":10212,"adult":false},{"id":385567,"adult":false},{"id":385568,"adult":false},{"id":10868,"adult":false},{"id":11087,"adult":false},{"id":230408,"adult":false},{"id":385569,"adult":false},{"id":37707,"adult":false},{"id":384790,"adult":false},{"id":19344,"adult":false},{"id":385570,"adult":false},{"id":966,"adult":false},{"id":1544,"adult":false},{"id":12639,"adult":false},{"id":324025,"adult":false},{"id":86739,"adult":false},{"id":381003,"adult":false},{"id":385571,"adult":false},{"id":270303,"adult":false},{"id":385572,"adult":null},{"id":385573,"adult":false},{"id":161761,"adult":false},{"id":385574,"adult":false},{"id":202278,"adult":false},{"id":385575,"adult":false},{"id":132171,"adult":false},{"id":712,"adult":false},{"id":346134,"adult":false},{"id":291224,"adult":false},{"id":169842,"adult":false},{"id":381020,"adult":false},{"id":385576,"adult":false},{"id":174797,"adult":false},{"id":11975,"adult":false},{"id":385577,"adult":false},{"id":381023,"adult":false},{"id":27578,"adult":false},{"id":52888,"adult":false},{"id":23168,"adult":false},{"id":385578,"adult":false},{"id":76163,"adult":false},{"id":138103,"adult":false},{"id":385579,"adult":false}],"page":24,"total_pages":123,"total_results":12230}