{"results":[{"id":366656,"adult":false},{"id":4627,"adult":false},{"id":11636,"adult":false},{"id":67345,"adult":false},{"id":269098,"adult":false},{"id":37909,"adult":false},{"id":429009,"adult":false},{"id":1939,"adult":false},{"id":6474,"adult":false},{"id":14239,"adult":false},{"id":117,"adult":false},{"id":359222,"adult":false},{"id":58090,"adult":false},{"id":11520,"adult":false},{"id":15602,"adult":false},{"id":429010,"adult":false},{"id":30694,"adult":false},{"id":82545,"adult":false},{"id":21518,"adult":false},{"id":429011,"adult":false},{"id":219572,"adult":false},{"id":1575,"adult":false},{"id":1366,"adult":false},{"id":65140,"adult":false},{"id":1367,"adult":false},{"id":18575,"adult":false},{"id":1371,"adult":false},{"id":49076,"adult":false},{"id":210691,"adult":false},{"id":159100,"adult":false},{"id":1374,"adult":false},{"id":429015,"adult":false},{"id":429016,"adult":false},{"id":316785,"adult":false},{"id":1375,"adult":false},{"id":81570,"adult":false},{"id":38955,"adult":false},{"id":1246,"adult":false},{"id":429017,"adult":false},{"id":19065,"adult":false},{"id":50652,"adult":false},{"id":95647,"adult":false},{"id":9799,"adult":false},{"id":429018,"adult":false},{"id":584,"adult":false},{"id":120870,"adult":true},{"id":9615,"adult":false},{"id":14111,"adult":false},{"id":429019,"adult":false},{"id":13804,"adult":false},{"id":6283,"adult":false},{"id":51497,"adult":false},{"id":3146,"adult":false},{"id":284270,"adult":false},{"id":381182,"adult":false},{"id":429020,"adult":false},{"id":429021,"adult":false},{"id":212365,"adult":false},{"id":14582,"adult":false},{"id":429022,"adult":false},{"id":50475,"adult":false},{"id":44132,"adult":false},{"id":429023,"adult":false},{"id":429024,"adult":false},{"id":429025,"adult":false},{"id":29909,"adult":false},{"id":94737,"adult":false},{"id":335370,"adult":false},{"id":429026,"adult":false},{"id":327833,"adult":false},{"id":429027,"adult":false},{"id":130043,"adult":false},{"id":429028,"adult":false},{"id":429029,"adult":false},{"id":26895,"adult":false},{"id":2268,"adult":false},{"id":72311,"adult":false},{"id":165672,"adult":false},{"id":332567,"adult":false},{"id":153561,"adult":false},{"id":196324,"adult":false},{"id":217713,"adult":false},{"id":392740,"adult":false},{"id":27644,"adult":false},{"id":249170,"adult":false},{"id":429030,"adult":null},{"id":47366,"adult":false},{"id":264728,"adult":false},{"id":429031,"adult":false},{"id":219933,"adult":false},{"id":429032,"adult":false},{"id":6637,"adult":false},{"id":341744,"adult":false},{"id":41876,"adult":false},{"id":426134,"adult":false},{"id":91273,"adult":false},{"id":310131,"adult":false},{"id":140420,"adult":false},{"id":114446,"adult":false},{"id":429033,"adult":false}],"page":51,"total_pages":123,"total_results":12242}