{"results":[{"id":81827,"adult":false},{"id":354110,"adult":false},{"id":312408,"adult":false},{"id":257385,"adult":false},{"id":18511,"adult":false},{"id":257953,"adult":false},{"id":120894,"adult":false},{"id":33157,"adult":false},{"id":400722,"adult":false},{"id":400723,"adult":false},{"id":400724,"adult":false},{"id":286367,"adult":false},{"id":90299,"adult":false},{"id":314208,"adult":false},{"id":196685,"adult":false},{"id":21877,"adult":false},{"id":116684,"adult":false},{"id":149286,"adult":false},{"id":281945,"adult":false},{"id":360742,"adult":false},{"id":56977,"adult":false},{"id":400725,"adult":false},{"id":47206,"adult":false},{"id":33431,"adult":false},{"id":287495,"adult":false},{"id":357411,"adult":false},{"id":101753,"adult":false},{"id":56793,"adult":false},{"id":342588,"adult":false},{"id":96355,"adult":false},{"id":276584,"adult":false},{"id":20886,"adult":false},{"id":278857,"adult":false},{"id":368631,"adult":false},{"id":386063,"adult":false},{"id":231622,"adult":false},{"id":199415,"adult":false},{"id":54265,"adult":false},{"id":388561,"adult":false},{"id":222887,"adult":false},{"id":54266,"adult":false},{"id":63326,"adult":false},{"id":361746,"adult":false},{"id":54272,"adult":false},{"id":244761,"adult":false},{"id":365222,"adult":false},{"id":108864,"adult":false},{"id":266601,"adult":false},{"id":57165,"adult":false},{"id":400726,"adult":false},{"id":32064,"adult":false},{"id":46982,"adult":false},{"id":36487,"adult":false},{"id":173873,"adult":false},{"id":23739,"adult":false},{"id":23721,"adult":false},{"id":335940,"adult":false},{"id":162536,"adult":false},{"id":91288,"adult":false},{"id":377565,"adult":false},{"id":147566,"adult":false},{"id":254302,"adult":false},{"id":285505,"adult":false},{"id":112922,"adult":false},{"id":21878,"adult":false},{"id":194853,"adult":false},{"id":374919,"adult":false},{"id":400727,"adult":false},{"id":369902,"adult":false},{"id":319888,"adult":false},{"id":257314,"adult":false},{"id":9804,"adult":false},{"id":133667,"adult":false},{"id":400728,"adult":false},{"id":267557,"adult":false},{"id":45970,"adult":false},{"id":226936,"adult":false},{"id":400729,"adult":false},{"id":78398,"adult":false},{"id":199653,"adult":false},{"id":338729,"adult":false},{"id":26588,"adult":false},{"id":185,"adult":false},{"id":285112,"adult":false},{"id":10216,"adult":false},{"id":9711,"adult":false},{"id":304030,"adult":false},{"id":15212,"adult":false},{"id":285468,"adult":false},{"id":309040,"adult":false},{"id":20246,"adult":false},{"id":400730,"adult":false},{"id":160722,"adult":false},{"id":400731,"adult":false},{"id":41490,"adult":false},{"id":9753,"adult":false},{"id":389201,"adult":false},{"id":337219,"adult":false},{"id":171872,"adult":false},{"id":367233,"adult":false}],"page":33,"total_pages":116,"total_results":11568}