{"results":[{"id":15347,"adult":false},{"id":259695,"adult":false},{"id":380763,"adult":false},{"id":236218,"adult":false},{"id":201979,"adult":false},{"id":42611,"adult":false},{"id":310131,"adult":false},{"id":378569,"adult":false},{"id":599,"adult":false},{"id":294123,"adult":null},{"id":236686,"adult":false},{"id":236659,"adult":false},{"id":330474,"adult":null},{"id":11016,"adult":false},{"id":86066,"adult":false},{"id":13187,"adult":false},{"id":315595,"adult":false},{"id":316277,"adult":null},{"id":380093,"adult":null},{"id":380103,"adult":null},{"id":380094,"adult":null},{"id":380092,"adult":null},{"id":376047,"adult":false},{"id":380091,"adult":null},{"id":380085,"adult":null},{"id":294254,"adult":false},{"id":380006,"adult":false},{"id":241251,"adult":false},{"id":283995,"adult":false},{"id":326690,"adult":false},{"id":11222,"adult":false},{"id":380218,"adult":null},{"id":276905,"adult":false},{"id":371000,"adult":false},{"id":291805,"adult":false},{"id":333371,"adult":false},{"id":378482,"adult":false},{"id":380764,"adult":false},{"id":378489,"adult":false},{"id":85350,"adult":false},{"id":377431,"adult":false},{"id":207932,"adult":false},{"id":380765,"adult":false},{"id":380766,"adult":false},{"id":165345,"adult":null},{"id":6114,"adult":false},{"id":339422,"adult":false},{"id":198663,"adult":false},{"id":372711,"adult":false},{"id":176049,"adult":false},{"id":348320,"adult":false},{"id":325019,"adult":false},{"id":325035,"adult":false},{"id":367882,"adult":false},{"id":378417,"adult":false},{"id":297558,"adult":false},{"id":380767,"adult":false},{"id":11305,"adult":false},{"id":52415,"adult":false},{"id":52120,"adult":false},{"id":82477,"adult":false},{"id":151316,"adult":false},{"id":81242,"adult":false},{"id":128111,"adult":false},{"id":189150,"adult":false},{"id":380768,"adult":false},{"id":189081,"adult":false},{"id":242458,"adult":false},{"id":380769,"adult":false},{"id":363929,"adult":false},{"id":245597,"adult":false},{"id":259129,"adult":false},{"id":269955,"adult":false},{"id":320150,"adult":false},{"id":303967,"adult":false},{"id":314327,"adult":false},{"id":318541,"adult":false},{"id":338729,"adult":false},{"id":336055,"adult":false},{"id":362974,"adult":false},{"id":371234,"adult":false},{"id":370984,"adult":false},{"id":293413,"adult":false},{"id":376847,"adult":false},{"id":380770,"adult":false},{"id":8063,"adult":false},{"id":32031,"adult":false},{"id":254128,"adult":false},{"id":855,"adult":false},{"id":353070,"adult":false},{"id":296879,"adult":false},{"id":306317,"adult":false},{"id":31690,"adult":false},{"id":31671,"adult":false},{"id":321697,"adult":false},{"id":380771,"adult":false},{"id":64597,"adult":false},{"id":6621,"adult":false},{"id":347246,"adult":false},{"id":111878,"adult":false}],"page":15,"total_pages":119,"total_results":11854}