{"results":[{"id":425785,"adult":false},{"id":9785,"adult":false},{"id":50613,"adult":false},{"id":191128,"adult":false},{"id":165300,"adult":false},{"id":140554,"adult":false},{"id":347123,"adult":false},{"id":43252,"adult":false},{"id":357623,"adult":false},{"id":21614,"adult":false},{"id":108237,"adult":false},{"id":285840,"adult":false},{"id":19703,"adult":false},{"id":425786,"adult":false},{"id":76987,"adult":false},{"id":134665,"adult":false},{"id":151366,"adult":false},{"id":98328,"adult":false},{"id":72473,"adult":false},{"id":77245,"adult":false},{"id":65332,"adult":false},{"id":85286,"adult":false},{"id":24221,"adult":false},{"id":425787,"adult":false},{"id":420793,"adult":false},{"id":282294,"adult":false},{"id":12569,"adult":false},{"id":16520,"adult":false},{"id":67729,"adult":false},{"id":425788,"adult":false},{"id":418461,"adult":false},{"id":269998,"adult":false},{"id":50382,"adult":false},{"id":41651,"adult":false},{"id":323396,"adult":false},{"id":317280,"adult":false},{"id":425789,"adult":false},{"id":339405,"adult":false},{"id":256947,"adult":false},{"id":359761,"adult":false},{"id":423056,"adult":false},{"id":425790,"adult":true},{"id":425791,"adult":false},{"id":425792,"adult":false},{"id":425793,"adult":null},{"id":249258,"adult":false},{"id":27040,"adult":false},{"id":285527,"adult":false},{"id":110661,"adult":false},{"id":422028,"adult":false},{"id":360184,"adult":false},{"id":257346,"adult":false},{"id":425794,"adult":false},{"id":342917,"adult":false},{"id":14168,"adult":false},{"id":421750,"adult":false},{"id":15403,"adult":false},{"id":287628,"adult":false},{"id":9813,"adult":false},{"id":425795,"adult":false},{"id":16541,"adult":false},{"id":425796,"adult":false},{"id":425797,"adult":false},{"id":425798,"adult":false},{"id":62648,"adult":false},{"id":45657,"adult":false},{"id":425799,"adult":false},{"id":45348,"adult":false},{"id":425800,"adult":false},{"id":425801,"adult":false},{"id":27408,"adult":false},{"id":58194,"adult":false},{"id":14609,"adult":false},{"id":12521,"adult":false},{"id":422460,"adult":false},{"id":339145,"adult":false},{"id":9289,"adult":false},{"id":425802,"adult":false},{"id":425803,"adult":false},{"id":38321,"adult":false},{"id":425804,"adult":false},{"id":422563,"adult":false},{"id":55186,"adult":false},{"id":425805,"adult":false},{"id":383889,"adult":null},{"id":13019,"adult":false},{"id":425806,"adult":false},{"id":58029,"adult":false},{"id":401987,"adult":false},{"id":14624,"adult":false},{"id":191805,"adult":false},{"id":425807,"adult":false},{"id":425811,"adult":null},{"id":13156,"adult":false},{"id":425818,"adult":false},{"id":408992,"adult":false},{"id":391274,"adult":false},{"id":271776,"adult":false},{"id":425819,"adult":null},{"id":373526,"adult":false}],"page":114,"total_pages":120,"total_results":11922}