{"results":[{"id":131916,"adult":false},{"id":242642,"adult":false},{"id":57089,"adult":false},{"id":108812,"adult":false},{"id":281950,"adult":false},{"id":75948,"adult":false},{"id":11674,"adult":false},{"id":2105,"adult":false},{"id":390852,"adult":false},{"id":92287,"adult":false},{"id":4978,"adult":false},{"id":398289,"adult":false},{"id":79990,"adult":false},{"id":406053,"adult":false},{"id":25642,"adult":false},{"id":26567,"adult":false},{"id":97975,"adult":false},{"id":182916,"adult":null},{"id":2383,"adult":false},{"id":242024,"adult":false},{"id":9994,"adult":false},{"id":73686,"adult":false},{"id":77459,"adult":false},{"id":86272,"adult":false},{"id":15039,"adult":false},{"id":157919,"adult":false},{"id":42472,"adult":false},{"id":58595,"adult":false},{"id":47953,"adult":false},{"id":10437,"adult":false},{"id":5961,"adult":false},{"id":229357,"adult":false},{"id":50838,"adult":false},{"id":406054,"adult":false},{"id":24832,"adult":false},{"id":19543,"adult":false},{"id":99998,"adult":false},{"id":10579,"adult":false},{"id":406055,"adult":false},{"id":163614,"adult":false},{"id":135483,"adult":false},{"id":330636,"adult":false},{"id":115276,"adult":false},{"id":83147,"adult":false},{"id":44132,"adult":false},{"id":42897,"adult":false},{"id":81949,"adult":false},{"id":247602,"adult":false},{"id":33665,"adult":false},{"id":285471,"adult":false},{"id":406056,"adult":true},{"id":52134,"adult":false},{"id":399132,"adult":false},{"id":290825,"adult":false},{"id":47103,"adult":false},{"id":300208,"adult":false},{"id":116475,"adult":false},{"id":331126,"adult":false},{"id":406057,"adult":null},{"id":406058,"adult":false},{"id":406059,"adult":null},{"id":30618,"adult":false},{"id":30359,"adult":false},{"id":406060,"adult":null},{"id":387455,"adult":false},{"id":177146,"adult":false},{"id":341220,"adult":false},{"id":302429,"adult":false},{"id":51036,"adult":false},{"id":39412,"adult":false},{"id":226252,"adult":false},{"id":208495,"adult":false},{"id":12900,"adult":false},{"id":235511,"adult":false},{"id":406061,"adult":false},{"id":86817,"adult":false},{"id":74747,"adult":false},{"id":628,"adult":false},{"id":119199,"adult":false},{"id":83125,"adult":false},{"id":406062,"adult":false},{"id":11704,"adult":false},{"id":35402,"adult":false},{"id":32059,"adult":false},{"id":8065,"adult":false},{"id":178240,"adult":true},{"id":403930,"adult":false},{"id":23963,"adult":false},{"id":406063,"adult":false},{"id":206284,"adult":false},{"id":19580,"adult":false},{"id":334064,"adult":false},{"id":199584,"adult":false},{"id":258052,"adult":false},{"id":62206,"adult":false},{"id":334063,"adult":false},{"id":139715,"adult":false},{"id":12773,"adult":null},{"id":77844,"adult":false},{"id":339403,"adult":false}],"page":103,"total_pages":112,"total_results":11190}