{"results":[{"id":419538,"adult":false},{"id":346672,"adult":false},{"id":419539,"adult":false},{"id":9671,"adult":false},{"id":419540,"adult":false},{"id":359871,"adult":false},{"id":167614,"adult":false},{"id":339638,"adult":false},{"id":16228,"adult":false},{"id":286217,"adult":false},{"id":50785,"adult":false},{"id":262982,"adult":false},{"id":2786,"adult":false},{"id":160564,"adult":false},{"id":132818,"adult":false},{"id":398896,"adult":false},{"id":347026,"adult":false},{"id":42688,"adult":false},{"id":29627,"adult":false},{"id":263,"adult":false},{"id":14053,"adult":false},{"id":276536,"adult":false},{"id":410830,"adult":false},{"id":419541,"adult":false},{"id":18874,"adult":false},{"id":369233,"adult":false},{"id":252520,"adult":false},{"id":356304,"adult":false},{"id":43933,"adult":false},{"id":84284,"adult":false},{"id":419542,"adult":false},{"id":340402,"adult":false},{"id":24740,"adult":false},{"id":31522,"adult":false},{"id":310569,"adult":false},{"id":8672,"adult":false},{"id":11513,"adult":false},{"id":9343,"adult":false},{"id":9549,"adult":false},{"id":263115,"adult":false},{"id":115889,"adult":false},{"id":2000,"adult":false},{"id":68730,"adult":false},{"id":84614,"adult":false},{"id":42694,"adult":false},{"id":261046,"adult":false},{"id":118013,"adult":false},{"id":414456,"adult":null},{"id":20620,"adult":false},{"id":369769,"adult":false},{"id":877,"adult":false},{"id":203,"adult":false},{"id":48890,"adult":false},{"id":378882,"adult":false},{"id":43639,"adult":false},{"id":362579,"adult":false},{"id":419543,"adult":false},{"id":21847,"adult":false},{"id":20329,"adult":false},{"id":197364,"adult":false},{"id":27899,"adult":false},{"id":419544,"adult":false},{"id":419545,"adult":false},{"id":371303,"adult":false},{"id":419546,"adult":false},{"id":75173,"adult":false},{"id":81760,"adult":false},{"id":41454,"adult":false},{"id":419547,"adult":false},{"id":17687,"adult":false},{"id":412734,"adult":false},{"id":410211,"adult":false},{"id":93,"adult":false},{"id":79379,"adult":false},{"id":16180,"adult":false},{"id":419548,"adult":false},{"id":333480,"adult":false},{"id":389357,"adult":false},{"id":222,"adult":false},{"id":15845,"adult":false},{"id":23964,"adult":false},{"id":26317,"adult":false},{"id":36686,"adult":false},{"id":419549,"adult":null},{"id":90063,"adult":false},{"id":45272,"adult":false},{"id":297,"adult":false},{"id":1911,"adult":false},{"id":419550,"adult":false},{"id":58448,"adult":false},{"id":58194,"adult":false},{"id":378291,"adult":false},{"id":380139,"adult":false},{"id":1535,"adult":false},{"id":60951,"adult":false},{"id":338374,"adult":false},{"id":11315,"adult":false},{"id":7085,"adult":false},{"id":39750,"adult":false},{"id":19599,"adult":false}],"page":61,"total_pages":144,"total_results":14341}