{"results":[{"id":15969,"adult":false},{"id":1542,"adult":false},{"id":38018,"adult":false},{"id":414557,"adult":null},{"id":325439,"adult":false},{"id":414558,"adult":false},{"id":328848,"adult":false},{"id":361751,"adult":false},{"id":19997,"adult":false},{"id":401689,"adult":false},{"id":38526,"adult":false},{"id":5137,"adult":false},{"id":34647,"adult":false},{"id":7006,"adult":false},{"id":8461,"adult":false},{"id":2119,"adult":false},{"id":399685,"adult":false},{"id":412205,"adult":false},{"id":414559,"adult":false},{"id":414560,"adult":false},{"id":390669,"adult":false},{"id":367613,"adult":false},{"id":255837,"adult":false},{"id":413393,"adult":false},{"id":73448,"adult":false},{"id":43089,"adult":false},{"id":375290,"adult":false},{"id":48415,"adult":false},{"id":85038,"adult":false},{"id":20794,"adult":false},{"id":263115,"adult":false},{"id":407342,"adult":false},{"id":101731,"adult":false},{"id":13491,"adult":false},{"id":5157,"adult":false},{"id":746,"adult":false},{"id":347969,"adult":false},{"id":808,"adult":false},{"id":233063,"adult":false},{"id":272602,"adult":false},{"id":1259,"adult":false},{"id":802,"adult":false},{"id":1903,"adult":false},{"id":9904,"adult":false},{"id":414561,"adult":false},{"id":86276,"adult":false},{"id":11479,"adult":false},{"id":414562,"adult":false},{"id":414563,"adult":false},{"id":414564,"adult":false},{"id":412431,"adult":false},{"id":146198,"adult":false},{"id":53984,"adult":false},{"id":314420,"adult":false},{"id":14566,"adult":false},{"id":79402,"adult":false},{"id":173897,"adult":false},{"id":380036,"adult":false},{"id":128340,"adult":false},{"id":358895,"adult":false},{"id":414565,"adult":false},{"id":4147,"adult":false},{"id":56309,"adult":false},{"id":414566,"adult":false},{"id":241346,"adult":false},{"id":76338,"adult":false},{"id":400319,"adult":false},{"id":216015,"adult":false},{"id":403586,"adult":false},{"id":290597,"adult":false},{"id":59678,"adult":false},{"id":3131,"adult":false},{"id":255160,"adult":false},{"id":278540,"adult":false},{"id":323315,"adult":false},{"id":338189,"adult":false},{"id":266871,"adult":false},{"id":41020,"adult":false},{"id":14574,"adult":false},{"id":392629,"adult":false},{"id":393457,"adult":false},{"id":168705,"adult":false},{"id":392788,"adult":false},{"id":254450,"adult":false},{"id":34943,"adult":false},{"id":412524,"adult":false},{"id":374470,"adult":false},{"id":406841,"adult":false},{"id":412698,"adult":false},{"id":414567,"adult":false},{"id":409960,"adult":null},{"id":166214,"adult":false},{"id":1788,"adult":false},{"id":414568,"adult":false},{"id":191943,"adult":false},{"id":60047,"adult":false},{"id":414569,"adult":false},{"id":402907,"adult":false},{"id":387725,"adult":false},{"id":414570,"adult":false}],"page":57,"total_pages":126,"total_results":12554}