{"results":[{"id":117890,"adult":false},{"id":261766,"adult":false},{"id":32856,"adult":false},{"id":27844,"adult":false},{"id":80241,"adult":false},{"id":119185,"adult":false},{"id":407378,"adult":false},{"id":407379,"adult":false},{"id":298584,"adult":false},{"id":77621,"adult":false},{"id":281676,"adult":false},{"id":199154,"adult":true},{"id":407380,"adult":false},{"id":30036,"adult":false},{"id":16410,"adult":false},{"id":150399,"adult":false},{"id":119321,"adult":false},{"id":5998,"adult":false},{"id":244316,"adult":false},{"id":128326,"adult":false},{"id":292237,"adult":false},{"id":206199,"adult":false},{"id":296215,"adult":false},{"id":130630,"adult":false},{"id":43336,"adult":false},{"id":85356,"adult":false},{"id":258363,"adult":false},{"id":407381,"adult":false},{"id":382173,"adult":false},{"id":23020,"adult":false},{"id":407382,"adult":false},{"id":701,"adult":false},{"id":212952,"adult":false},{"id":43776,"adult":false},{"id":407383,"adult":false},{"id":407384,"adult":false},{"id":152601,"adult":false},{"id":130149,"adult":false},{"id":401015,"adult":false},{"id":63378,"adult":false},{"id":1912,"adult":false},{"id":121703,"adult":false},{"id":43775,"adult":false},{"id":117046,"adult":false},{"id":55859,"adult":false},{"id":407385,"adult":null},{"id":400835,"adult":null},{"id":3114,"adult":false},{"id":113606,"adult":false},{"id":58700,"adult":false},{"id":21564,"adult":false},{"id":365709,"adult":false},{"id":942,"adult":false},{"id":57991,"adult":false},{"id":615,"adult":false},{"id":66435,"adult":false},{"id":207703,"adult":false},{"id":299717,"adult":false},{"id":46363,"adult":false},{"id":105139,"adult":false},{"id":49797,"adult":false},{"id":242095,"adult":false},{"id":401551,"adult":false},{"id":150164,"adult":false},{"id":374475,"adult":false},{"id":367584,"adult":false},{"id":407386,"adult":false},{"id":287134,"adult":false},{"id":11230,"adult":false},{"id":302628,"adult":false},{"id":50356,"adult":false},{"id":43320,"adult":false},{"id":65994,"adult":false},{"id":291805,"adult":false},{"id":398268,"adult":false},{"id":21468,"adult":false},{"id":262903,"adult":false},{"id":50394,"adult":false},{"id":123186,"adult":false},{"id":54979,"adult":false},{"id":407388,"adult":null},{"id":141052,"adult":false},{"id":98969,"adult":false},{"id":283707,"adult":false},{"id":993,"adult":false},{"id":407389,"adult":false},{"id":211587,"adult":false},{"id":311029,"adult":false},{"id":407390,"adult":false},{"id":407391,"adult":false},{"id":287171,"adult":false},{"id":239573,"adult":false},{"id":347200,"adult":false},{"id":297556,"adult":false},{"id":29851,"adult":false},{"id":328874,"adult":false},{"id":266396,"adult":false},{"id":135935,"adult":false},{"id":190859,"adult":false},{"id":347187,"adult":false}],"page":65,"total_pages":120,"total_results":11946}