{"results":[{"id":345460,"adult":false},{"id":413198,"adult":false},{"id":214622,"adult":false},{"id":2295,"adult":false},{"id":200201,"adult":false},{"id":387219,"adult":false},{"id":8580,"adult":false},{"id":109141,"adult":false},{"id":68833,"adult":false},{"id":256082,"adult":false},{"id":141292,"adult":false},{"id":385639,"adult":false},{"id":285027,"adult":false},{"id":151661,"adult":false},{"id":275402,"adult":false},{"id":330605,"adult":false},{"id":378373,"adult":false},{"id":271668,"adult":false},{"id":120149,"adult":false},{"id":45815,"adult":false},{"id":130371,"adult":false},{"id":20148,"adult":false},{"id":377545,"adult":false},{"id":415189,"adult":null},{"id":224141,"adult":false},{"id":385719,"adult":false},{"id":105504,"adult":false},{"id":103577,"adult":false},{"id":415190,"adult":false},{"id":85992,"adult":false},{"id":301888,"adult":null},{"id":415191,"adult":false},{"id":47293,"adult":false},{"id":385717,"adult":false},{"id":309300,"adult":false},{"id":529,"adult":false},{"id":268098,"adult":false},{"id":225713,"adult":false},{"id":15577,"adult":false},{"id":216529,"adult":false},{"id":313735,"adult":false},{"id":181475,"adult":false},{"id":152808,"adult":false},{"id":415192,"adult":null},{"id":256049,"adult":false},{"id":373922,"adult":false},{"id":380118,"adult":false},{"id":266060,"adult":false},{"id":378479,"adult":false},{"id":10111,"adult":false},{"id":382384,"adult":false},{"id":282605,"adult":false},{"id":348150,"adult":false},{"id":404825,"adult":false},{"id":343140,"adult":false},{"id":252579,"adult":false},{"id":385721,"adult":false},{"id":293646,"adult":false},{"id":86027,"adult":false},{"id":232679,"adult":false},{"id":256729,"adult":false},{"id":403699,"adult":false},{"id":304378,"adult":false},{"id":112251,"adult":false},{"id":361042,"adult":false},{"id":407375,"adult":false},{"id":122952,"adult":false},{"id":8374,"adult":false},{"id":309259,"adult":false},{"id":264338,"adult":false},{"id":43064,"adult":false},{"id":97456,"adult":false},{"id":261590,"adult":false},{"id":281882,"adult":false},{"id":57971,"adult":false},{"id":239011,"adult":false},{"id":98894,"adult":false},{"id":369856,"adult":null},{"id":923,"adult":false},{"id":415193,"adult":false},{"id":382223,"adult":false},{"id":411687,"adult":false},{"id":169337,"adult":false},{"id":22,"adult":false},{"id":280565,"adult":false},{"id":415194,"adult":false},{"id":415195,"adult":false},{"id":78642,"adult":false},{"id":8408,"adult":false},{"id":59127,"adult":false},{"id":217933,"adult":false},{"id":32089,"adult":false},{"id":19185,"adult":false},{"id":162247,"adult":false},{"id":162911,"adult":false},{"id":415196,"adult":false},{"id":318332,"adult":false},{"id":10331,"adult":false},{"id":415197,"adult":false},{"id":703,"adult":false}],"page":96,"total_pages":126,"total_results":12554}