{"results":[{"id":99306,"adult":false},{"id":13956,"adult":false},{"id":12609,"adult":false},{"id":361854,"adult":false},{"id":17009,"adult":false},{"id":36868,"adult":false},{"id":40010,"adult":false},{"id":12589,"adult":false},{"id":66475,"adult":false},{"id":339526,"adult":false},{"id":39890,"adult":false},{"id":10150,"adult":false},{"id":17278,"adult":false},{"id":155507,"adult":false},{"id":140870,"adult":false},{"id":33539,"adult":false},{"id":20421,"adult":false},{"id":37211,"adult":false},{"id":45752,"adult":false},{"id":404750,"adult":false},{"id":67900,"adult":false},{"id":81900,"adult":false},{"id":20756,"adult":false},{"id":386637,"adult":false},{"id":44833,"adult":false},{"id":402880,"adult":false},{"id":218778,"adult":false},{"id":90715,"adult":false},{"id":5425,"adult":false},{"id":99069,"adult":false},{"id":26582,"adult":false},{"id":11463,"adult":false},{"id":78570,"adult":false},{"id":45851,"adult":false},{"id":267053,"adult":false},{"id":360055,"adult":false},{"id":48677,"adult":false},{"id":404751,"adult":false},{"id":11387,"adult":false},{"id":38055,"adult":false},{"id":404752,"adult":false},{"id":404753,"adult":false},{"id":2898,"adult":false},{"id":351863,"adult":false},{"id":33670,"adult":false},{"id":374915,"adult":false},{"id":61393,"adult":false},{"id":112446,"adult":false},{"id":336206,"adult":false},{"id":334979,"adult":false},{"id":39230,"adult":false},{"id":404754,"adult":null},{"id":396776,"adult":false},{"id":404755,"adult":false},{"id":318121,"adult":false},{"id":4291,"adult":false},{"id":159773,"adult":false},{"id":336886,"adult":false},{"id":41609,"adult":false},{"id":420,"adult":false},{"id":386534,"adult":false},{"id":26432,"adult":false},{"id":324289,"adult":false},{"id":13005,"adult":false},{"id":362343,"adult":false},{"id":168922,"adult":false},{"id":392812,"adult":false},{"id":294272,"adult":false},{"id":404756,"adult":false},{"id":66540,"adult":false},{"id":139308,"adult":false},{"id":27401,"adult":false},{"id":277095,"adult":false},{"id":380718,"adult":false},{"id":396330,"adult":false},{"id":323242,"adult":true},{"id":316023,"adult":false},{"id":362046,"adult":false},{"id":403214,"adult":false},{"id":73799,"adult":false},{"id":402519,"adult":false},{"id":404757,"adult":false},{"id":135915,"adult":false},{"id":57849,"adult":false},{"id":11377,"adult":false},{"id":347945,"adult":false},{"id":263995,"adult":false},{"id":103164,"adult":false},{"id":404758,"adult":false},{"id":156062,"adult":false},{"id":219390,"adult":false},{"id":404759,"adult":null},{"id":296340,"adult":false},{"id":404760,"adult":null},{"id":366015,"adult":false},{"id":10878,"adult":false},{"id":274854,"adult":false},{"id":279326,"adult":false},{"id":181283,"adult":false},{"id":20009,"adult":false}],"page":26,"total_pages":112,"total_results":11190}