{"results":[{"id":255948,"adult":false},{"id":36177,"adult":false},{"id":272270,"adult":false},{"id":83299,"adult":false},{"id":376417,"adult":false},{"id":16029,"adult":false},{"id":33908,"adult":false},{"id":222936,"adult":false},{"id":291851,"adult":false},{"id":376418,"adult":false},{"id":295576,"adult":false},{"id":14361,"adult":false},{"id":362439,"adult":false},{"id":60281,"adult":false},{"id":353172,"adult":false},{"id":376419,"adult":false},{"id":211721,"adult":false},{"id":4561,"adult":false},{"id":3489,"adult":false},{"id":376420,"adult":false},{"id":365025,"adult":true},{"id":135521,"adult":false},{"id":9922,"adult":false},{"id":14105,"adult":false},{"id":64335,"adult":false},{"id":342878,"adult":false},{"id":169347,"adult":false},{"id":16996,"adult":false},{"id":218032,"adult":false},{"id":329949,"adult":false},{"id":17941,"adult":false},{"id":224039,"adult":false},{"id":252845,"adult":false},{"id":234883,"adult":false},{"id":376421,"adult":false},{"id":53441,"adult":false},{"id":376422,"adult":false},{"id":162683,"adult":false},{"id":334,"adult":false},{"id":39015,"adult":false},{"id":151564,"adult":false},{"id":376423,"adult":false},{"id":344619,"adult":false},{"id":364135,"adult":false},{"id":11093,"adult":false},{"id":333167,"adult":false},{"id":340804,"adult":false},{"id":376424,"adult":false},{"id":2055,"adult":false},{"id":376425,"adult":null},{"id":16617,"adult":false},{"id":376426,"adult":false},{"id":376427,"adult":false},{"id":43738,"adult":false},{"id":376428,"adult":false},{"id":227355,"adult":false},{"id":60015,"adult":false},{"id":376429,"adult":false},{"id":110978,"adult":false},{"id":90306,"adult":false},{"id":376430,"adult":false},{"id":128358,"adult":false},{"id":150117,"adult":false},{"id":235564,"adult":false},{"id":376431,"adult":false},{"id":205127,"adult":false},{"id":35056,"adult":false},{"id":234422,"adult":false},{"id":39072,"adult":false},{"id":376432,"adult":false},{"id":234520,"adult":false},{"id":9893,"adult":false},{"id":249798,"adult":false},{"id":234743,"adult":false},{"id":376433,"adult":false},{"id":322639,"adult":false},{"id":235101,"adult":false},{"id":234388,"adult":false},{"id":376434,"adult":false},{"id":376435,"adult":false},{"id":222630,"adult":false},{"id":163050,"adult":false},{"id":235146,"adult":false},{"id":234679,"adult":false},{"id":357191,"adult":false},{"id":223657,"adult":false},{"id":235145,"adult":false},{"id":334683,"adult":false},{"id":234453,"adult":false},{"id":376436,"adult":false},{"id":174633,"adult":false},{"id":20662,"adult":false},{"id":234965,"adult":false},{"id":173390,"adult":false},{"id":235151,"adult":false},{"id":131378,"adult":false},{"id":192299,"adult":false},{"id":148478,"adult":false},{"id":370893,"adult":false},{"id":234688,"adult":false}],"page":69,"total_pages":121,"total_results":12060}