{"results":[{"id":404468,"adult":false},{"id":9725,"adult":false},{"id":175606,"adult":false},{"id":9806,"adult":false},{"id":10681,"adult":false},{"id":14160,"adult":false},{"id":404469,"adult":false},{"id":24480,"adult":false},{"id":18069,"adult":false},{"id":146953,"adult":false},{"id":17443,"adult":false},{"id":109747,"adult":false},{"id":86777,"adult":false},{"id":45273,"adult":false},{"id":159019,"adult":false},{"id":43489,"adult":false},{"id":11683,"adult":false},{"id":29874,"adult":false},{"id":386632,"adult":false},{"id":404470,"adult":false},{"id":146198,"adult":false},{"id":165188,"adult":false},{"id":254473,"adult":false},{"id":404471,"adult":false},{"id":795,"adult":false},{"id":400590,"adult":false},{"id":276844,"adult":false},{"id":267870,"adult":false},{"id":319999,"adult":false},{"id":190663,"adult":false},{"id":42258,"adult":false},{"id":404472,"adult":null},{"id":404473,"adult":false},{"id":28264,"adult":false},{"id":404141,"adult":false},{"id":253344,"adult":false},{"id":84598,"adult":false},{"id":261767,"adult":false},{"id":403066,"adult":false},{"id":404474,"adult":false},{"id":404475,"adult":false},{"id":30379,"adult":false},{"id":123158,"adult":false},{"id":197999,"adult":false},{"id":587,"adult":false},{"id":254320,"adult":false},{"id":24418,"adult":false},{"id":1790,"adult":false},{"id":14168,"adult":false},{"id":95053,"adult":false},{"id":1255,"adult":false},{"id":15639,"adult":false},{"id":355784,"adult":false},{"id":380622,"adult":false},{"id":46314,"adult":false},{"id":57158,"adult":false},{"id":290595,"adult":false},{"id":392418,"adult":false},{"id":81005,"adult":false},{"id":254,"adult":false},{"id":46542,"adult":false},{"id":9294,"adult":false},{"id":11980,"adult":false},{"id":185526,"adult":false},{"id":112160,"adult":false},{"id":121507,"adult":false},{"id":24021,"adult":false},{"id":144288,"adult":false},{"id":118412,"adult":false},{"id":54132,"adult":false},{"id":384737,"adult":false},{"id":257087,"adult":false},{"id":20162,"adult":false},{"id":323389,"adult":false},{"id":47892,"adult":false},{"id":314102,"adult":false},{"id":18274,"adult":false},{"id":299584,"adult":false},{"id":387929,"adult":false},{"id":10845,"adult":false},{"id":341753,"adult":false},{"id":250546,"adult":false},{"id":306422,"adult":false},{"id":35977,"adult":false},{"id":16281,"adult":false},{"id":11513,"adult":false},{"id":19044,"adult":false},{"id":404476,"adult":false},{"id":259945,"adult":false},{"id":404477,"adult":false},{"id":379284,"adult":false},{"id":272222,"adult":false},{"id":3980,"adult":false},{"id":10127,"adult":false},{"id":12702,"adult":false},{"id":12525,"adult":false},{"id":45225,"adult":false},{"id":404478,"adult":false},{"id":324786,"adult":false},{"id":346354,"adult":false}],"page":7,"total_pages":112,"total_results":11190}