{"results":[{"id":339853,"adult":false},{"id":266030,"adult":false},{"id":365452,"adult":false},{"id":351067,"adult":false},{"id":359573,"adult":false},{"id":34478,"adult":false},{"id":323922,"adult":false},{"id":400605,"adult":false},{"id":72814,"adult":false},{"id":43053,"adult":false},{"id":10855,"adult":false},{"id":2320,"adult":false},{"id":81975,"adult":false},{"id":403283,"adult":false},{"id":403284,"adult":null},{"id":403285,"adult":false},{"id":137443,"adult":false},{"id":370720,"adult":false},{"id":385735,"adult":false},{"id":43092,"adult":false},{"id":353398,"adult":false},{"id":82088,"adult":false},{"id":403286,"adult":false},{"id":97461,"adult":false},{"id":84318,"adult":false},{"id":1572,"adult":false},{"id":59406,"adult":false},{"id":47365,"adult":false},{"id":403287,"adult":null},{"id":24135,"adult":false},{"id":117122,"adult":false},{"id":85715,"adult":false},{"id":80278,"adult":false},{"id":46576,"adult":false},{"id":338065,"adult":false},{"id":149,"adult":false},{"id":5188,"adult":false},{"id":15092,"adult":false},{"id":315465,"adult":false},{"id":372106,"adult":null},{"id":60680,"adult":false},{"id":403288,"adult":false},{"id":403289,"adult":false},{"id":403290,"adult":false},{"id":242301,"adult":false},{"id":397967,"adult":false},{"id":339408,"adult":false},{"id":403291,"adult":false},{"id":36994,"adult":false},{"id":403292,"adult":false},{"id":339547,"adult":false},{"id":403293,"adult":false},{"id":403294,"adult":false},{"id":66150,"adult":false},{"id":340684,"adult":false},{"id":41822,"adult":false},{"id":146015,"adult":false},{"id":344708,"adult":false},{"id":294047,"adult":false},{"id":403295,"adult":false},{"id":362065,"adult":false},{"id":144789,"adult":false},{"id":341442,"adult":false},{"id":344302,"adult":false},{"id":330751,"adult":false},{"id":253172,"adult":false},{"id":25313,"adult":false},{"id":403296,"adult":false},{"id":372710,"adult":false},{"id":297806,"adult":false},{"id":343022,"adult":false},{"id":396923,"adult":false},{"id":229007,"adult":false},{"id":381519,"adult":false},{"id":403297,"adult":false},{"id":403298,"adult":false},{"id":403299,"adult":false},{"id":390512,"adult":false},{"id":85198,"adult":false},{"id":403300,"adult":false},{"id":9474,"adult":false},{"id":403301,"adult":false},{"id":103156,"adult":false},{"id":295699,"adult":false},{"id":36602,"adult":false},{"id":403302,"adult":false},{"id":10681,"adult":false},{"id":148408,"adult":false},{"id":24743,"adult":false},{"id":403303,"adult":false},{"id":146238,"adult":false},{"id":403304,"adult":false},{"id":14291,"adult":false},{"id":403305,"adult":null},{"id":358993,"adult":false},{"id":94794,"adult":false},{"id":87503,"adult":false},{"id":2779,"adult":false},{"id":82450,"adult":false},{"id":32053,"adult":false}],"page":76,"total_pages":116,"total_results":11526}