{"results":[{"id":234684,"adult":false},{"id":234686,"adult":false},{"id":234672,"adult":false},{"id":209979,"adult":false},{"id":234667,"adult":false},{"id":317353,"adult":false},{"id":234661,"adult":false},{"id":205127,"adult":false},{"id":232573,"adult":false},{"id":234668,"adult":false},{"id":234688,"adult":false},{"id":234670,"adult":false},{"id":110110,"adult":false},{"id":195675,"adult":false},{"id":38231,"adult":false},{"id":317355,"adult":false},{"id":396415,"adult":false},{"id":61109,"adult":false},{"id":60817,"adult":false},{"id":366220,"adult":null},{"id":372282,"adult":false},{"id":42678,"adult":false},{"id":396416,"adult":false},{"id":150793,"adult":false},{"id":43797,"adult":false},{"id":318224,"adult":false},{"id":337739,"adult":false},{"id":37036,"adult":false},{"id":289978,"adult":false},{"id":96139,"adult":false},{"id":183632,"adult":false},{"id":396417,"adult":false},{"id":301984,"adult":false},{"id":65323,"adult":false},{"id":251387,"adult":false},{"id":392795,"adult":false},{"id":396419,"adult":false},{"id":302268,"adult":false},{"id":134451,"adult":false},{"id":51661,"adult":false},{"id":3022,"adult":false},{"id":177041,"adult":false},{"id":308167,"adult":false},{"id":338766,"adult":false},{"id":273912,"adult":false},{"id":27461,"adult":false},{"id":257785,"adult":false},{"id":392809,"adult":false},{"id":157293,"adult":false},{"id":114214,"adult":false},{"id":200402,"adult":false},{"id":208417,"adult":false},{"id":23398,"adult":false},{"id":226073,"adult":false},{"id":45926,"adult":false},{"id":28333,"adult":false},{"id":272270,"adult":false},{"id":212994,"adult":false},{"id":1093,"adult":false},{"id":72477,"adult":false},{"id":340488,"adult":false},{"id":84427,"adult":false},{"id":27719,"adult":false},{"id":77925,"adult":false},{"id":59861,"adult":false},{"id":211722,"adult":false},{"id":48564,"adult":false},{"id":195818,"adult":true},{"id":110093,"adult":false},{"id":781,"adult":false},{"id":10836,"adult":false},{"id":67628,"adult":false},{"id":88424,"adult":false},{"id":18642,"adult":false},{"id":283498,"adult":false},{"id":9393,"adult":false},{"id":81066,"adult":false},{"id":176799,"adult":false},{"id":275871,"adult":false},{"id":396420,"adult":false},{"id":37360,"adult":false},{"id":396421,"adult":false},{"id":313922,"adult":false},{"id":324794,"adult":false},{"id":1376,"adult":false},{"id":47634,"adult":false},{"id":44490,"adult":false},{"id":396422,"adult":false},{"id":4488,"adult":false},{"id":9725,"adult":false},{"id":336050,"adult":false},{"id":190091,"adult":false},{"id":20367,"adult":false},{"id":396423,"adult":false},{"id":71465,"adult":false},{"id":28293,"adult":false},{"id":396424,"adult":false},{"id":103686,"adult":false},{"id":184929,"adult":false},{"id":132785,"adult":false}],"page":67,"total_pages":130,"total_results":12927}