{"results":[{"id":18650,"adult":false},{"id":54931,"adult":false},{"id":163335,"adult":false},{"id":405144,"adult":null},{"id":46192,"adult":false},{"id":22968,"adult":false},{"id":405145,"adult":false},{"id":51389,"adult":false},{"id":68822,"adult":false},{"id":115111,"adult":false},{"id":405146,"adult":false},{"id":251850,"adult":false},{"id":405147,"adult":false},{"id":405148,"adult":false},{"id":124592,"adult":false},{"id":265108,"adult":false},{"id":46258,"adult":false},{"id":109514,"adult":false},{"id":405149,"adult":false},{"id":114081,"adult":false},{"id":11343,"adult":false},{"id":405150,"adult":false},{"id":39409,"adult":false},{"id":146856,"adult":false},{"id":105866,"adult":false},{"id":405151,"adult":false},{"id":405152,"adult":false},{"id":46872,"adult":false},{"id":28434,"adult":false},{"id":405153,"adult":false},{"id":79514,"adult":false},{"id":169058,"adult":false},{"id":403133,"adult":false},{"id":225723,"adult":false},{"id":72687,"adult":false},{"id":16380,"adult":false},{"id":382319,"adult":false},{"id":108245,"adult":false},{"id":135644,"adult":false},{"id":1576,"adult":false},{"id":405154,"adult":false},{"id":18646,"adult":false},{"id":61855,"adult":false},{"id":302496,"adult":false},{"id":405155,"adult":false},{"id":70106,"adult":false},{"id":24002,"adult":false},{"id":180948,"adult":false},{"id":42297,"adult":false},{"id":46875,"adult":false},{"id":5259,"adult":false},{"id":36373,"adult":false},{"id":32568,"adult":false},{"id":83664,"adult":false},{"id":206081,"adult":false},{"id":292495,"adult":false},{"id":429,"adult":false},{"id":44128,"adult":false},{"id":17820,"adult":false},{"id":102719,"adult":false},{"id":405156,"adult":false},{"id":405157,"adult":false},{"id":1960,"adult":false},{"id":13696,"adult":false},{"id":359108,"adult":false},{"id":396207,"adult":false},{"id":54328,"adult":false},{"id":263256,"adult":false},{"id":38688,"adult":false},{"id":25673,"adult":false},{"id":829,"adult":false},{"id":26255,"adult":false},{"id":85867,"adult":false},{"id":319075,"adult":false},{"id":405158,"adult":false},{"id":207703,"adult":false},{"id":298702,"adult":false},{"id":405159,"adult":false},{"id":769,"adult":false},{"id":4782,"adult":false},{"id":20915,"adult":false},{"id":143734,"adult":false},{"id":76069,"adult":false},{"id":51648,"adult":false},{"id":116447,"adult":false},{"id":51661,"adult":false},{"id":405160,"adult":false},{"id":363092,"adult":false},{"id":621,"adult":false},{"id":51662,"adult":false},{"id":29451,"adult":false},{"id":341077,"adult":false},{"id":27221,"adult":false},{"id":8426,"adult":false},{"id":405161,"adult":null},{"id":223402,"adult":false},{"id":67,"adult":false},{"id":265228,"adult":false},{"id":394139,"adult":false},{"id":371865,"adult":false}],"page":51,"total_pages":112,"total_results":11190}