{"results":[{"id":14443,"adult":false},{"id":241626,"adult":false},{"id":342000,"adult":false},{"id":332340,"adult":false},{"id":371758,"adult":false},{"id":393499,"adult":false},{"id":9280,"adult":false},{"id":348931,"adult":false},{"id":393500,"adult":false},{"id":14689,"adult":false},{"id":267222,"adult":false},{"id":301337,"adult":false},{"id":393501,"adult":true},{"id":384487,"adult":false},{"id":42471,"adult":false},{"id":283579,"adult":false},{"id":393502,"adult":null},{"id":368010,"adult":false},{"id":393503,"adult":false},{"id":393504,"adult":false},{"id":261643,"adult":false},{"id":27717,"adult":false},{"id":392144,"adult":false},{"id":665,"adult":false},{"id":393505,"adult":false},{"id":167613,"adult":false},{"id":203217,"adult":false},{"id":393506,"adult":false},{"id":393507,"adult":false},{"id":137696,"adult":false},{"id":132221,"adult":true},{"id":229932,"adult":false},{"id":100459,"adult":false},{"id":393508,"adult":false},{"id":13475,"adult":false},{"id":119581,"adult":false},{"id":9485,"adult":false},{"id":372640,"adult":false},{"id":86506,"adult":false},{"id":393509,"adult":true},{"id":393510,"adult":false},{"id":12278,"adult":false},{"id":3077,"adult":false},{"id":393511,"adult":false},{"id":342786,"adult":false},{"id":322378,"adult":false},{"id":393512,"adult":false},{"id":29663,"adult":true},{"id":38542,"adult":false},{"id":334362,"adult":false},{"id":393513,"adult":false},{"id":1949,"adult":false},{"id":19971,"adult":false},{"id":356353,"adult":false},{"id":62742,"adult":false},{"id":20391,"adult":false},{"id":113939,"adult":false},{"id":11916,"adult":false},{"id":130134,"adult":false},{"id":31906,"adult":false},{"id":393514,"adult":false},{"id":55950,"adult":false},{"id":226136,"adult":false},{"id":158024,"adult":false},{"id":14881,"adult":false},{"id":393515,"adult":false},{"id":310,"adult":false},{"id":128073,"adult":false},{"id":338189,"adult":false},{"id":392145,"adult":false},{"id":278705,"adult":false},{"id":393516,"adult":false},{"id":322333,"adult":false},{"id":393517,"adult":false},{"id":393518,"adult":false},{"id":393519,"adult":false},{"id":393520,"adult":false},{"id":393521,"adult":false},{"id":289261,"adult":false},{"id":393522,"adult":false},{"id":360908,"adult":false},{"id":311617,"adult":false},{"id":393523,"adult":false},{"id":384482,"adult":false},{"id":72936,"adult":false},{"id":163280,"adult":false},{"id":174353,"adult":false},{"id":393524,"adult":false},{"id":15745,"adult":false},{"id":393525,"adult":false},{"id":300386,"adult":false},{"id":393526,"adult":false},{"id":13757,"adult":false},{"id":392377,"adult":false},{"id":393527,"adult":true},{"id":216983,"adult":false},{"id":4528,"adult":false},{"id":15789,"adult":false},{"id":120753,"adult":false},{"id":271602,"adult":false}],"page":41,"total_pages":127,"total_results":12659}