{"results":[{"id":414867,"adult":false},{"id":313074,"adult":false},{"id":409028,"adult":false},{"id":8011,"adult":false},{"id":74576,"adult":false},{"id":12211,"adult":false},{"id":414868,"adult":false},{"id":43420,"adult":false},{"id":13360,"adult":false},{"id":412075,"adult":false},{"id":81722,"adult":false},{"id":414870,"adult":false},{"id":224233,"adult":false},{"id":137221,"adult":false},{"id":195423,"adult":false},{"id":581,"adult":false},{"id":41520,"adult":false},{"id":233470,"adult":false},{"id":71196,"adult":false},{"id":414871,"adult":false},{"id":69885,"adult":false},{"id":88853,"adult":false},{"id":296317,"adult":false},{"id":207932,"adult":false},{"id":232498,"adult":false},{"id":133776,"adult":false},{"id":229882,"adult":false},{"id":224931,"adult":false},{"id":144050,"adult":false},{"id":139519,"adult":false},{"id":414872,"adult":false},{"id":232474,"adult":false},{"id":376007,"adult":false},{"id":414873,"adult":false},{"id":8358,"adult":false},{"id":414874,"adult":false},{"id":398892,"adult":false},{"id":13078,"adult":false},{"id":277353,"adult":false},{"id":36647,"adult":false},{"id":414875,"adult":false},{"id":51991,"adult":false},{"id":189533,"adult":false},{"id":414876,"adult":false},{"id":410780,"adult":false},{"id":47352,"adult":false},{"id":414877,"adult":false},{"id":55846,"adult":false},{"id":279896,"adult":false},{"id":304693,"adult":false},{"id":414878,"adult":false},{"id":72784,"adult":false},{"id":414879,"adult":false},{"id":777,"adult":false},{"id":133840,"adult":false},{"id":167073,"adult":false},{"id":347102,"adult":false},{"id":5521,"adult":false},{"id":47933,"adult":false},{"id":54177,"adult":false},{"id":84038,"adult":false},{"id":414880,"adult":false},{"id":414881,"adult":false},{"id":185746,"adult":false},{"id":36163,"adult":false},{"id":410876,"adult":false},{"id":18060,"adult":false},{"id":414882,"adult":false},{"id":414883,"adult":null},{"id":414884,"adult":null},{"id":28118,"adult":false},{"id":414885,"adult":false},{"id":72441,"adult":false},{"id":73272,"adult":false},{"id":168094,"adult":false},{"id":51276,"adult":false},{"id":44554,"adult":false},{"id":404665,"adult":false},{"id":96721,"adult":false},{"id":259302,"adult":false},{"id":412781,"adult":false},{"id":412223,"adult":false},{"id":413370,"adult":false},{"id":244049,"adult":false},{"id":414886,"adult":false},{"id":412780,"adult":false},{"id":240160,"adult":false},{"id":193932,"adult":false},{"id":280197,"adult":false},{"id":151639,"adult":false},{"id":280192,"adult":false},{"id":228749,"adult":false},{"id":414887,"adult":false},{"id":414888,"adult":false},{"id":340666,"adult":false},{"id":414889,"adult":false},{"id":412959,"adult":false},{"id":412964,"adult":false},{"id":284278,"adult":false},{"id":389370,"adult":false}],"page":72,"total_pages":126,"total_results":12554}