{"results":[{"id":27940,"adult":false},{"id":301889,"adult":false},{"id":398135,"adult":false},{"id":8332,"adult":false},{"id":269588,"adult":false},{"id":384529,"adult":false},{"id":284628,"adult":false},{"id":357911,"adult":false},{"id":61711,"adult":false},{"id":44912,"adult":false},{"id":424386,"adult":false},{"id":20271,"adult":false},{"id":45556,"adult":false},{"id":424387,"adult":false},{"id":199017,"adult":false},{"id":17610,"adult":false},{"id":81122,"adult":false},{"id":358090,"adult":false},{"id":1645,"adult":false},{"id":386679,"adult":false},{"id":355749,"adult":false},{"id":385649,"adult":false},{"id":328812,"adult":false},{"id":118889,"adult":false},{"id":386466,"adult":false},{"id":343974,"adult":false},{"id":157394,"adult":false},{"id":9308,"adult":false},{"id":74738,"adult":false},{"id":84372,"adult":false},{"id":424388,"adult":false},{"id":424389,"adult":false},{"id":49804,"adult":false},{"id":27297,"adult":false},{"id":107985,"adult":false},{"id":421727,"adult":true},{"id":417928,"adult":null},{"id":5852,"adult":false},{"id":421715,"adult":true},{"id":424390,"adult":false},{"id":424391,"adult":false},{"id":39957,"adult":false},{"id":1439,"adult":false},{"id":256920,"adult":false},{"id":198581,"adult":false},{"id":424392,"adult":null},{"id":28811,"adult":false},{"id":282982,"adult":false},{"id":402693,"adult":false},{"id":421593,"adult":true},{"id":421571,"adult":true},{"id":62444,"adult":false},{"id":85983,"adult":false},{"id":424393,"adult":false},{"id":424394,"adult":false},{"id":424395,"adult":false},{"id":29944,"adult":false},{"id":421570,"adult":true},{"id":229407,"adult":false},{"id":416562,"adult":false},{"id":269051,"adult":false},{"id":252520,"adult":false},{"id":97787,"adult":false},{"id":62450,"adult":false},{"id":1494,"adult":false},{"id":37971,"adult":false},{"id":40339,"adult":false},{"id":424396,"adult":false},{"id":8997,"adult":false},{"id":58428,"adult":false},{"id":182207,"adult":false},{"id":352179,"adult":false},{"id":289127,"adult":false},{"id":94656,"adult":false},{"id":36562,"adult":false},{"id":36609,"adult":false},{"id":35053,"adult":false},{"id":334179,"adult":false},{"id":232708,"adult":false},{"id":185471,"adult":false},{"id":424397,"adult":false},{"id":6473,"adult":false},{"id":237311,"adult":null},{"id":20413,"adult":false},{"id":30395,"adult":false},{"id":281197,"adult":false},{"id":313068,"adult":false},{"id":150794,"adult":false},{"id":166013,"adult":false},{"id":327127,"adult":false},{"id":337260,"adult":false},{"id":424398,"adult":false},{"id":20347,"adult":false},{"id":360029,"adult":false},{"id":112971,"adult":false},{"id":296280,"adult":false},{"id":162903,"adult":false},{"id":421554,"adult":false},{"id":378779,"adult":false},{"id":20092,"adult":false}],"page":37,"total_pages":120,"total_results":11922}