{"results":[{"id":50715,"adult":false},{"id":359156,"adult":false},{"id":102837,"adult":false},{"id":430489,"adult":false},{"id":374671,"adult":false},{"id":102839,"adult":false},{"id":430490,"adult":false},{"id":144330,"adult":false},{"id":430491,"adult":null},{"id":430492,"adult":false},{"id":26234,"adult":false},{"id":370657,"adult":false},{"id":370653,"adult":false},{"id":397722,"adult":false},{"id":141974,"adult":false},{"id":430493,"adult":false},{"id":398818,"adult":false},{"id":390056,"adult":false},{"id":395814,"adult":false},{"id":294644,"adult":false},{"id":14118,"adult":false},{"id":395834,"adult":false},{"id":405377,"adult":false},{"id":430494,"adult":false},{"id":112195,"adult":false},{"id":14626,"adult":false},{"id":430495,"adult":null},{"id":429527,"adult":false},{"id":423380,"adult":false},{"id":430497,"adult":false},{"id":423497,"adult":false},{"id":430498,"adult":false},{"id":430093,"adult":false},{"id":430499,"adult":false},{"id":420406,"adult":false},{"id":414146,"adult":false},{"id":415502,"adult":false},{"id":411930,"adult":false},{"id":317601,"adult":false},{"id":417438,"adult":false},{"id":417436,"adult":false},{"id":417434,"adult":false},{"id":417432,"adult":false},{"id":429751,"adult":false},{"id":21635,"adult":false},{"id":15018,"adult":false},{"id":371743,"adult":false},{"id":334533,"adult":false},{"id":430036,"adult":false},{"id":14268,"adult":false},{"id":10132,"adult":false},{"id":430500,"adult":false},{"id":74707,"adult":false},{"id":426870,"adult":false},{"id":229638,"adult":false},{"id":125464,"adult":false},{"id":122559,"adult":false},{"id":430502,"adult":false},{"id":430503,"adult":false},{"id":430504,"adult":false},{"id":417064,"adult":false},{"id":14237,"adult":false},{"id":356427,"adult":false},{"id":425318,"adult":false},{"id":396330,"adult":false},{"id":79835,"adult":false},{"id":430505,"adult":false},{"id":418063,"adult":false},{"id":382602,"adult":false},{"id":430506,"adult":false},{"id":348293,"adult":false},{"id":292834,"adult":false},{"id":9475,"adult":false},{"id":430507,"adult":false},{"id":430508,"adult":false},{"id":274181,"adult":false},{"id":345489,"adult":false},{"id":198112,"adult":false},{"id":134746,"adult":false},{"id":44396,"adult":false},{"id":415749,"adult":false},{"id":157083,"adult":false},{"id":167073,"adult":false},{"id":258480,"adult":false},{"id":430509,"adult":false},{"id":430510,"adult":false},{"id":321741,"adult":false},{"id":375188,"adult":false},{"id":291181,"adult":false},{"id":374251,"adult":false},{"id":302156,"adult":false},{"id":430511,"adult":false},{"id":300669,"adult":false},{"id":430513,"adult":false},{"id":259760,"adult":false},{"id":267762,"adult":false},{"id":209131,"adult":false},{"id":265961,"adult":false},{"id":430514,"adult":false},{"id":251206,"adult":false}],"page":21,"total_pages":114,"total_results":11339}