{"results":[{"id":63072,"adult":false},{"id":395877,"adult":false},{"id":395878,"adult":false},{"id":258295,"adult":false},{"id":395879,"adult":false},{"id":35583,"adult":false},{"id":298747,"adult":false},{"id":395880,"adult":false},{"id":262746,"adult":false},{"id":122211,"adult":false},{"id":375200,"adult":null},{"id":174582,"adult":false},{"id":283235,"adult":false},{"id":395881,"adult":false},{"id":375419,"adult":false},{"id":353378,"adult":false},{"id":321612,"adult":false},{"id":40429,"adult":false},{"id":81958,"adult":false},{"id":9573,"adult":false},{"id":339444,"adult":false},{"id":6936,"adult":false},{"id":345742,"adult":false},{"id":6183,"adult":false},{"id":147641,"adult":false},{"id":1402,"adult":false},{"id":7942,"adult":false},{"id":265020,"adult":false},{"id":455,"adult":false},{"id":13092,"adult":false},{"id":14181,"adult":false},{"id":135960,"adult":false},{"id":395882,"adult":false},{"id":279917,"adult":false},{"id":244562,"adult":false},{"id":9588,"adult":false},{"id":272878,"adult":false},{"id":395883,"adult":false},{"id":106852,"adult":false},{"id":360994,"adult":false},{"id":41804,"adult":false},{"id":138131,"adult":false},{"id":395884,"adult":false},{"id":74053,"adult":false},{"id":102915,"adult":false},{"id":46885,"adult":false},{"id":268523,"adult":false},{"id":363106,"adult":false},{"id":11650,"adult":false},{"id":167123,"adult":false},{"id":312000,"adult":false},{"id":395885,"adult":false},{"id":278089,"adult":false},{"id":23827,"adult":false},{"id":337154,"adult":false},{"id":52885,"adult":false},{"id":309886,"adult":false},{"id":895,"adult":false},{"id":330112,"adult":false},{"id":105150,"adult":false},{"id":175496,"adult":false},{"id":365227,"adult":false},{"id":319888,"adult":false},{"id":6038,"adult":false},{"id":8584,"adult":false},{"id":15068,"adult":false},{"id":12797,"adult":false},{"id":110670,"adult":false},{"id":181550,"adult":false},{"id":65320,"adult":false},{"id":135884,"adult":false},{"id":381707,"adult":false},{"id":298582,"adult":false},{"id":348357,"adult":false},{"id":167262,"adult":false},{"id":189148,"adult":false},{"id":107002,"adult":false},{"id":13813,"adult":false},{"id":59210,"adult":false},{"id":56217,"adult":false},{"id":346927,"adult":false},{"id":30250,"adult":false},{"id":340385,"adult":false},{"id":30082,"adult":false},{"id":33657,"adult":false},{"id":302156,"adult":false},{"id":394568,"adult":false},{"id":395886,"adult":false},{"id":127380,"adult":false},{"id":395887,"adult":false},{"id":325133,"adult":false},{"id":941,"adult":false},{"id":166822,"adult":false},{"id":26036,"adult":false},{"id":133390,"adult":false},{"id":63,"adult":false},{"id":143442,"adult":false},{"id":260346,"adult":false},{"id":82675,"adult":false},{"id":394790,"adult":false}],"page":30,"total_pages":130,"total_results":12927}