{"results":[{"id":356560,"adult":false},{"id":12834,"adult":false},{"id":110415,"adult":false},{"id":370559,"adult":false},{"id":364902,"adult":false},{"id":390693,"adult":false},{"id":401141,"adult":false},{"id":350547,"adult":false},{"id":13559,"adult":false},{"id":24829,"adult":false},{"id":87903,"adult":false},{"id":306874,"adult":null},{"id":81168,"adult":false},{"id":108920,"adult":false},{"id":349440,"adult":null},{"id":343725,"adult":false},{"id":401142,"adult":false},{"id":219940,"adult":false},{"id":401143,"adult":false},{"id":48844,"adult":false},{"id":209061,"adult":false},{"id":41215,"adult":false},{"id":401144,"adult":false},{"id":38138,"adult":false},{"id":133470,"adult":false},{"id":221014,"adult":false},{"id":52386,"adult":null},{"id":249129,"adult":false},{"id":345775,"adult":false},{"id":52616,"adult":false},{"id":333903,"adult":false},{"id":396405,"adult":false},{"id":401145,"adult":false},{"id":388885,"adult":false},{"id":342169,"adult":false},{"id":293940,"adult":false},{"id":9475,"adult":false},{"id":348025,"adult":false},{"id":308776,"adult":false},{"id":289378,"adult":false},{"id":61536,"adult":false},{"id":11038,"adult":false},{"id":1779,"adult":false},{"id":298871,"adult":false},{"id":219646,"adult":false},{"id":246276,"adult":false},{"id":348811,"adult":false},{"id":401146,"adult":false},{"id":89662,"adult":false},{"id":110369,"adult":false},{"id":182132,"adult":false},{"id":288741,"adult":false},{"id":114171,"adult":false},{"id":155505,"adult":false},{"id":398938,"adult":false},{"id":234467,"adult":false},{"id":401147,"adult":null},{"id":207774,"adult":false},{"id":395452,"adult":false},{"id":341268,"adult":false},{"id":401148,"adult":false},{"id":53106,"adult":false},{"id":359096,"adult":false},{"id":182754,"adult":false},{"id":12155,"adult":false},{"id":46145,"adult":false},{"id":70738,"adult":false},{"id":177290,"adult":false},{"id":46997,"adult":false},{"id":89280,"adult":false},{"id":264422,"adult":false},{"id":135539,"adult":false},{"id":26270,"adult":false},{"id":342948,"adult":false},{"id":6792,"adult":false},{"id":43353,"adult":false},{"id":89998,"adult":false},{"id":232083,"adult":false},{"id":212162,"adult":false},{"id":68815,"adult":false},{"id":187862,"adult":false},{"id":384127,"adult":false},{"id":295417,"adult":false},{"id":382517,"adult":false},{"id":92591,"adult":false},{"id":401149,"adult":false},{"id":189457,"adult":false},{"id":262,"adult":false},{"id":401150,"adult":false},{"id":63555,"adult":false},{"id":175806,"adult":false},{"id":80714,"adult":false},{"id":283377,"adult":false},{"id":10898,"adult":false},{"id":25353,"adult":false},{"id":2020,"adult":false},{"id":66600,"adult":false},{"id":36489,"adult":false},{"id":397022,"adult":false},{"id":28590,"adult":false}],"page":65,"total_pages":116,"total_results":11568}