{"results":[{"id":224250,"adult":false},{"id":42305,"adult":false},{"id":384546,"adult":false},{"id":280205,"adult":false},{"id":53581,"adult":false},{"id":232612,"adult":false},{"id":35188,"adult":false},{"id":24062,"adult":false},{"id":325848,"adult":false},{"id":251872,"adult":false},{"id":15788,"adult":false},{"id":102195,"adult":false},{"id":341012,"adult":false},{"id":96061,"adult":false},{"id":39016,"adult":false},{"id":398022,"adult":false},{"id":22390,"adult":false},{"id":365729,"adult":false},{"id":394496,"adult":false},{"id":356900,"adult":false},{"id":287689,"adult":false},{"id":171208,"adult":false},{"id":239845,"adult":false},{"id":286239,"adult":false},{"id":17761,"adult":false},{"id":340485,"adult":false},{"id":91644,"adult":false},{"id":398023,"adult":false},{"id":104246,"adult":false},{"id":296717,"adult":false},{"id":251309,"adult":false},{"id":24381,"adult":false},{"id":238735,"adult":false},{"id":108813,"adult":false},{"id":207489,"adult":false},{"id":85765,"adult":false},{"id":82819,"adult":false},{"id":151691,"adult":false},{"id":47026,"adult":false},{"id":12232,"adult":false},{"id":398024,"adult":false},{"id":398025,"adult":false},{"id":260127,"adult":false},{"id":108481,"adult":false},{"id":245032,"adult":false},{"id":398026,"adult":false},{"id":398027,"adult":false},{"id":119450,"adult":false},{"id":221872,"adult":false},{"id":197329,"adult":false},{"id":390547,"adult":false},{"id":76757,"adult":false},{"id":49644,"adult":false},{"id":90306,"adult":false},{"id":71676,"adult":false},{"id":291319,"adult":false},{"id":227973,"adult":false},{"id":296811,"adult":false},{"id":9763,"adult":false},{"id":243688,"adult":false},{"id":286565,"adult":false},{"id":272420,"adult":false},{"id":101887,"adult":false},{"id":10661,"adult":false},{"id":350,"adult":false},{"id":398028,"adult":null},{"id":267045,"adult":false},{"id":72483,"adult":false},{"id":245168,"adult":false},{"id":77128,"adult":false},{"id":202358,"adult":false},{"id":114478,"adult":false},{"id":32654,"adult":false},{"id":202336,"adult":false},{"id":164004,"adult":false},{"id":130088,"adult":false},{"id":362736,"adult":false},{"id":202328,"adult":false},{"id":42472,"adult":false},{"id":202321,"adult":false},{"id":202311,"adult":false},{"id":317725,"adult":false},{"id":317728,"adult":false},{"id":202307,"adult":false},{"id":317244,"adult":false},{"id":398029,"adult":false},{"id":202317,"adult":false},{"id":202308,"adult":false},{"id":395722,"adult":false},{"id":398030,"adult":false},{"id":202312,"adult":false},{"id":342896,"adult":false},{"id":88509,"adult":false},{"id":202310,"adult":false},{"id":202316,"adult":false},{"id":234747,"adult":false},{"id":235783,"adult":false},{"id":13460,"adult":false},{"id":234734,"adult":false},{"id":36465,"adult":false}],"page":36,"total_pages":128,"total_results":12797}