{"results":[{"id":209293,"adult":false},{"id":146847,"adult":false},{"id":26610,"adult":false},{"id":19425,"adult":false},{"id":252720,"adult":false},{"id":1367,"adult":false},{"id":414503,"adult":null},{"id":414504,"adult":false},{"id":60579,"adult":false},{"id":18438,"adult":false},{"id":143847,"adult":false},{"id":414505,"adult":false},{"id":414506,"adult":false},{"id":52606,"adult":false},{"id":33454,"adult":false},{"id":8330,"adult":false},{"id":414507,"adult":false},{"id":85355,"adult":false},{"id":414508,"adult":false},{"id":28354,"adult":false},{"id":23330,"adult":false},{"id":414509,"adult":false},{"id":2094,"adult":false},{"id":278225,"adult":false},{"id":117672,"adult":false},{"id":330492,"adult":false},{"id":280165,"adult":false},{"id":414510,"adult":null},{"id":414511,"adult":null},{"id":414512,"adult":false},{"id":414513,"adult":null},{"id":414514,"adult":false},{"id":85163,"adult":false},{"id":57394,"adult":false},{"id":414515,"adult":false},{"id":414516,"adult":false},{"id":408428,"adult":false},{"id":414517,"adult":false},{"id":414518,"adult":false},{"id":414519,"adult":false},{"id":106775,"adult":false},{"id":414520,"adult":false},{"id":341444,"adult":false},{"id":414521,"adult":false},{"id":350722,"adult":false},{"id":18839,"adult":false},{"id":414522,"adult":false},{"id":414523,"adult":false},{"id":41466,"adult":false},{"id":414524,"adult":false},{"id":390777,"adult":false},{"id":414525,"adult":false},{"id":414526,"adult":false},{"id":389457,"adult":false},{"id":414527,"adult":false},{"id":301722,"adult":false},{"id":387704,"adult":false},{"id":313370,"adult":false},{"id":97915,"adult":false},{"id":160977,"adult":false},{"id":101777,"adult":false},{"id":39307,"adult":false},{"id":414528,"adult":false},{"id":414529,"adult":false},{"id":37889,"adult":true},{"id":414530,"adult":false},{"id":414531,"adult":false},{"id":190750,"adult":false},{"id":123562,"adult":false},{"id":414532,"adult":false},{"id":414533,"adult":false},{"id":55921,"adult":false},{"id":13979,"adult":false},{"id":310043,"adult":false},{"id":414534,"adult":false},{"id":414535,"adult":false},{"id":120535,"adult":false},{"id":414536,"adult":false},{"id":414537,"adult":false},{"id":414538,"adult":false},{"id":414539,"adult":false},{"id":322203,"adult":false},{"id":414540,"adult":false},{"id":24929,"adult":false},{"id":198215,"adult":false},{"id":323271,"adult":false},{"id":362268,"adult":false},{"id":376549,"adult":false},{"id":340584,"adult":false},{"id":413536,"adult":false},{"id":108019,"adult":false},{"id":408033,"adult":false},{"id":393559,"adult":false},{"id":263801,"adult":false},{"id":402045,"adult":false},{"id":359117,"adult":false},{"id":77061,"adult":false},{"id":414541,"adult":false},{"id":392572,"adult":false},{"id":401043,"adult":false}],"page":55,"total_pages":126,"total_results":12554}