{"results":[{"id":257852,"adult":false},{"id":65057,"adult":false},{"id":328592,"adult":false},{"id":149170,"adult":false},{"id":343173,"adult":false},{"id":387731,"adult":false},{"id":391572,"adult":false},{"id":11377,"adult":false},{"id":325173,"adult":false},{"id":322729,"adult":false},{"id":27637,"adult":false},{"id":186935,"adult":false},{"id":79934,"adult":false},{"id":16336,"adult":false},{"id":212513,"adult":false},{"id":55273,"adult":false},{"id":315570,"adult":false},{"id":76737,"adult":false},{"id":160566,"adult":false},{"id":285581,"adult":false},{"id":157354,"adult":false},{"id":391574,"adult":null},{"id":79850,"adult":false},{"id":108561,"adult":false},{"id":253426,"adult":null},{"id":225713,"adult":false},{"id":391575,"adult":false},{"id":78345,"adult":false},{"id":372085,"adult":null},{"id":391576,"adult":false},{"id":312998,"adult":false},{"id":53581,"adult":false},{"id":360284,"adult":false},{"id":8420,"adult":false},{"id":4798,"adult":false},{"id":391577,"adult":false},{"id":364085,"adult":false},{"id":74088,"adult":false},{"id":386363,"adult":false},{"id":386839,"adult":false},{"id":79518,"adult":false},{"id":339760,"adult":false},{"id":339756,"adult":false},{"id":162859,"adult":false},{"id":146631,"adult":false},{"id":288291,"adult":false},{"id":356469,"adult":false},{"id":381092,"adult":false},{"id":345874,"adult":false},{"id":328180,"adult":false},{"id":391578,"adult":false},{"id":391579,"adult":false},{"id":301608,"adult":false},{"id":378385,"adult":false},{"id":28656,"adult":false},{"id":343795,"adult":false},{"id":755,"adult":false},{"id":391580,"adult":false},{"id":388732,"adult":false},{"id":391581,"adult":false},{"id":391582,"adult":false},{"id":361149,"adult":false},{"id":391583,"adult":false},{"id":17604,"adult":false},{"id":379012,"adult":false},{"id":391584,"adult":false},{"id":352823,"adult":false},{"id":391585,"adult":false},{"id":104634,"adult":false},{"id":48534,"adult":false},{"id":324774,"adult":false},{"id":19204,"adult":false},{"id":171823,"adult":false},{"id":291081,"adult":false},{"id":304336,"adult":false},{"id":24920,"adult":false},{"id":63607,"adult":false},{"id":287743,"adult":false},{"id":109841,"adult":false},{"id":48303,"adult":false},{"id":82327,"adult":false},{"id":153518,"adult":false},{"id":344170,"adult":false},{"id":336255,"adult":false},{"id":342521,"adult":false},{"id":941,"adult":false},{"id":942,"adult":false},{"id":943,"adult":false},{"id":327418,"adult":false},{"id":944,"adult":false},{"id":166317,"adult":false},{"id":391586,"adult":null},{"id":1578,"adult":false},{"id":391587,"adult":false},{"id":27576,"adult":false},{"id":302699,"adult":false},{"id":148836,"adult":false},{"id":353415,"adult":false},{"id":236475,"adult":false},{"id":32352,"adult":false}],"page":48,"total_pages":118,"total_results":11761}