{"results":[{"id":77066,"adult":false},{"id":79931,"adult":false},{"id":11379,"adult":false},{"id":405423,"adult":false},{"id":10206,"adult":false},{"id":15877,"adult":false},{"id":383739,"adult":false},{"id":283366,"adult":false},{"id":405424,"adult":false},{"id":15700,"adult":false},{"id":53673,"adult":false},{"id":11329,"adult":false},{"id":405425,"adult":false},{"id":106060,"adult":false},{"id":94352,"adult":false},{"id":99234,"adult":false},{"id":43510,"adult":false},{"id":405426,"adult":false},{"id":26789,"adult":false},{"id":322441,"adult":false},{"id":43513,"adult":false},{"id":56719,"adult":false},{"id":67967,"adult":false},{"id":109258,"adult":false},{"id":43504,"adult":false},{"id":30025,"adult":false},{"id":405427,"adult":false},{"id":30177,"adult":false},{"id":25728,"adult":false},{"id":188116,"adult":false},{"id":47555,"adult":false},{"id":149414,"adult":false},{"id":3088,"adult":false},{"id":314388,"adult":false},{"id":18926,"adult":false},{"id":45218,"adult":false},{"id":106825,"adult":false},{"id":21454,"adult":false},{"id":405428,"adult":false},{"id":87667,"adult":false},{"id":4467,"adult":false},{"id":148493,"adult":false},{"id":20362,"adult":false},{"id":294677,"adult":false},{"id":218212,"adult":false},{"id":62727,"adult":false},{"id":41800,"adult":false},{"id":108231,"adult":false},{"id":828,"adult":false},{"id":28433,"adult":false},{"id":43376,"adult":false},{"id":76011,"adult":false},{"id":98912,"adult":false},{"id":217948,"adult":false},{"id":61391,"adult":false},{"id":26712,"adult":false},{"id":183045,"adult":false},{"id":288073,"adult":false},{"id":68754,"adult":false},{"id":199512,"adult":false},{"id":405429,"adult":null},{"id":394910,"adult":true},{"id":87349,"adult":false},{"id":88176,"adult":false},{"id":162339,"adult":false},{"id":106109,"adult":false},{"id":54139,"adult":false},{"id":70044,"adult":false},{"id":13188,"adult":false},{"id":306226,"adult":false},{"id":124589,"adult":false},{"id":43379,"adult":false},{"id":69458,"adult":true},{"id":405430,"adult":false},{"id":80596,"adult":false},{"id":199089,"adult":false},{"id":214523,"adult":false},{"id":10280,"adult":false},{"id":51687,"adult":false},{"id":284262,"adult":false},{"id":51671,"adult":false},{"id":315836,"adult":false},{"id":51677,"adult":false},{"id":300366,"adult":false},{"id":346580,"adult":false},{"id":405431,"adult":false},{"id":282072,"adult":false},{"id":90041,"adult":false},{"id":29601,"adult":false},{"id":369033,"adult":false},{"id":405432,"adult":true},{"id":33523,"adult":false},{"id":11688,"adult":false},{"id":14604,"adult":false},{"id":23339,"adult":false},{"id":9905,"adult":false},{"id":352431,"adult":false},{"id":256469,"adult":false},{"id":260539,"adult":false},{"id":405433,"adult":false}],"page":67,"total_pages":112,"total_results":11190}