{"results":[{"id":232625,"adult":false},{"id":404538,"adult":false},{"id":13836,"adult":false},{"id":127380,"adult":false},{"id":346863,"adult":false},{"id":312914,"adult":false},{"id":26910,"adult":false},{"id":337696,"adult":false},{"id":402537,"adult":false},{"id":378200,"adult":false},{"id":404539,"adult":false},{"id":362150,"adult":false},{"id":234567,"adult":false},{"id":287171,"adult":false},{"id":50466,"adult":false},{"id":5121,"adult":false},{"id":52072,"adult":false},{"id":404540,"adult":false},{"id":152954,"adult":false},{"id":320588,"adult":false},{"id":26961,"adult":false},{"id":70878,"adult":false},{"id":15914,"adult":false},{"id":61633,"adult":false},{"id":18633,"adult":false},{"id":133382,"adult":false},{"id":45110,"adult":false},{"id":26962,"adult":false},{"id":312186,"adult":false},{"id":296604,"adult":false},{"id":329815,"adult":false},{"id":213,"adult":false},{"id":373453,"adult":false},{"id":404541,"adult":false},{"id":403130,"adult":false},{"id":11571,"adult":false},{"id":333669,"adult":false},{"id":320736,"adult":false},{"id":80427,"adult":false},{"id":404542,"adult":false},{"id":260269,"adult":false},{"id":242088,"adult":false},{"id":404374,"adult":false},{"id":58062,"adult":false},{"id":10585,"adult":false},{"id":391757,"adult":false},{"id":229839,"adult":false},{"id":328445,"adult":false},{"id":71287,"adult":false},{"id":14805,"adult":false},{"id":32110,"adult":false},{"id":306969,"adult":false},{"id":376292,"adult":false},{"id":11186,"adult":false},{"id":225750,"adult":false},{"id":116979,"adult":false},{"id":340131,"adult":false},{"id":399073,"adult":false},{"id":404543,"adult":false},{"id":375898,"adult":false},{"id":10218,"adult":false},{"id":122712,"adult":false},{"id":11053,"adult":false},{"id":32107,"adult":false},{"id":333371,"adult":false},{"id":19065,"adult":false},{"id":10734,"adult":false},{"id":32113,"adult":false},{"id":404544,"adult":false},{"id":21240,"adult":false},{"id":32115,"adult":false},{"id":404545,"adult":false},{"id":9960,"adult":false},{"id":26190,"adult":false},{"id":14240,"adult":false},{"id":404546,"adult":false},{"id":9090,"adult":false},{"id":334307,"adult":false},{"id":19254,"adult":false},{"id":32105,"adult":false},{"id":32109,"adult":false},{"id":82222,"adult":false},{"id":104830,"adult":false},{"id":5066,"adult":false},{"id":308566,"adult":false},{"id":9755,"adult":false},{"id":135812,"adult":false},{"id":10577,"adult":false},{"id":49017,"adult":false},{"id":11474,"adult":false},{"id":225728,"adult":false},{"id":5065,"adult":false},{"id":404547,"adult":false},{"id":5061,"adult":false},{"id":24568,"adult":false},{"id":5064,"adult":false},{"id":26603,"adult":false},{"id":98162,"adult":false},{"id":127847,"adult":false},{"id":19307,"adult":false}],"page":12,"total_pages":112,"total_results":11190}