{"results":[{"id":9460,"adult":false},{"id":9431,"adult":false},{"id":20721,"adult":false},{"id":81870,"adult":false},{"id":10617,"adult":false},{"id":93560,"adult":false},{"id":10618,"adult":false},{"id":45795,"adult":false},{"id":399624,"adult":false},{"id":60908,"adult":false},{"id":190879,"adult":false},{"id":37085,"adult":false},{"id":24188,"adult":false},{"id":328252,"adult":false},{"id":370661,"adult":false},{"id":13368,"adult":false},{"id":340485,"adult":false},{"id":10796,"adult":false},{"id":251271,"adult":false},{"id":11948,"adult":false},{"id":268197,"adult":null},{"id":209999,"adult":false},{"id":430342,"adult":false},{"id":430343,"adult":false},{"id":49375,"adult":false},{"id":360800,"adult":false},{"id":10620,"adult":false},{"id":26189,"adult":false},{"id":279,"adult":false},{"id":52561,"adult":false},{"id":346672,"adult":false},{"id":430100,"adult":false},{"id":76936,"adult":false},{"id":17809,"adult":false},{"id":18670,"adult":false},{"id":25626,"adult":false},{"id":430344,"adult":false},{"id":10275,"adult":false},{"id":37030,"adult":false},{"id":37032,"adult":false},{"id":344607,"adult":false},{"id":287500,"adult":false},{"id":50608,"adult":false},{"id":416786,"adult":false},{"id":396810,"adult":false},{"id":430345,"adult":false},{"id":418437,"adult":false},{"id":31979,"adult":false},{"id":430347,"adult":false},{"id":23606,"adult":false},{"id":270393,"adult":false},{"id":378502,"adult":false},{"id":260916,"adult":false},{"id":392820,"adult":false},{"id":71642,"adult":false},{"id":1817,"adult":false},{"id":3513,"adult":false},{"id":430004,"adult":null},{"id":48915,"adult":false},{"id":241144,"adult":false},{"id":57924,"adult":false},{"id":10619,"adult":false},{"id":373842,"adult":false},{"id":10998,"adult":false},{"id":892,"adult":false},{"id":430348,"adult":false},{"id":430349,"adult":false},{"id":44249,"adult":false},{"id":430350,"adult":true},{"id":25602,"adult":false},{"id":32160,"adult":false},{"id":3178,"adult":false},{"id":1279,"adult":false},{"id":497,"adult":false},{"id":16318,"adult":false},{"id":304452,"adult":false},{"id":61461,"adult":false},{"id":32654,"adult":false},{"id":45682,"adult":false},{"id":25780,"adult":false},{"id":19601,"adult":false},{"id":8653,"adult":false},{"id":48958,"adult":false},{"id":6977,"adult":false},{"id":86815,"adult":false},{"id":12182,"adult":false},{"id":13641,"adult":false},{"id":41613,"adult":false},{"id":12994,"adult":false},{"id":108008,"adult":false},{"id":430351,"adult":true},{"id":19644,"adult":false},{"id":42190,"adult":false},{"id":391719,"adult":false},{"id":59866,"adult":false},{"id":417243,"adult":null},{"id":161337,"adult":false},{"id":10404,"adult":false},{"id":2318,"adult":false},{"id":11104,"adult":false}],"page":9,"total_pages":114,"total_results":11339}