{"results":[{"id":73475,"adult":false},{"id":262504,"adult":false},{"id":118,"adult":false},{"id":367756,"adult":false},{"id":71617,"adult":false},{"id":705,"adult":false},{"id":2565,"adult":false},{"id":261,"adult":false},{"id":409144,"adult":false},{"id":409145,"adult":false},{"id":409146,"adult":false},{"id":369029,"adult":false},{"id":114730,"adult":false},{"id":409147,"adult":false},{"id":409148,"adult":false},{"id":223682,"adult":false},{"id":127808,"adult":false},{"id":10802,"adult":false},{"id":308004,"adult":false},{"id":74392,"adult":false},{"id":273548,"adult":false},{"id":121632,"adult":false},{"id":241208,"adult":false},{"id":383850,"adult":false},{"id":409045,"adult":false},{"id":393441,"adult":false},{"id":37036,"adult":false},{"id":35404,"adult":false},{"id":292834,"adult":false},{"id":146238,"adult":false},{"id":194638,"adult":false},{"id":5961,"adult":false},{"id":366080,"adult":false},{"id":275039,"adult":false},{"id":393122,"adult":false},{"id":407627,"adult":false},{"id":390989,"adult":false},{"id":46898,"adult":false},{"id":40226,"adult":false},{"id":290595,"adult":false},{"id":277839,"adult":false},{"id":140607,"adult":false},{"id":388794,"adult":false},{"id":140300,"adult":false},{"id":409149,"adult":false},{"id":336954,"adult":false},{"id":324786,"adult":false},{"id":348747,"adult":false},{"id":409150,"adult":false},{"id":29159,"adult":false},{"id":49964,"adult":false},{"id":391757,"adult":false},{"id":318819,"adult":false},{"id":318818,"adult":false},{"id":302516,"adult":false},{"id":302517,"adult":false},{"id":318027,"adult":false},{"id":947,"adult":false},{"id":45788,"adult":false},{"id":409015,"adult":false},{"id":36686,"adult":false},{"id":3093,"adult":false},{"id":105864,"adult":false},{"id":10494,"adult":false},{"id":11539,"adult":false},{"id":360799,"adult":false},{"id":409151,"adult":false},{"id":46436,"adult":false},{"id":26914,"adult":false},{"id":54164,"adult":false},{"id":214007,"adult":false},{"id":44699,"adult":false},{"id":54149,"adult":false},{"id":349194,"adult":false},{"id":46446,"adult":false},{"id":409152,"adult":false},{"id":11333,"adult":false},{"id":46568,"adult":false},{"id":41608,"adult":false},{"id":11144,"adult":false},{"id":11813,"adult":false},{"id":46445,"adult":false},{"id":377922,"adult":false},{"id":12758,"adult":false},{"id":42692,"adult":false},{"id":38670,"adult":false},{"id":368940,"adult":false},{"id":10770,"adult":false},{"id":46570,"adult":false},{"id":11719,"adult":false},{"id":46448,"adult":false},{"id":11613,"adult":false},{"id":9807,"adult":false},{"id":44249,"adult":false},{"id":93708,"adult":false},{"id":32657,"adult":false},{"id":36593,"adult":false},{"id":37136,"adult":false},{"id":73881,"adult":false},{"id":22317,"adult":false}],"page":3,"total_pages":117,"total_results":11641}