{"results":[{"id":336114,"adult":false},{"id":392556,"adult":false},{"id":326088,"adult":false},{"id":237363,"adult":false},{"id":11190,"adult":false},{"id":162941,"adult":false},{"id":59324,"adult":false},{"id":67630,"adult":false},{"id":392557,"adult":false},{"id":179988,"adult":false},{"id":110455,"adult":false},{"id":67540,"adult":false},{"id":190376,"adult":false},{"id":392558,"adult":false},{"id":69287,"adult":false},{"id":21778,"adult":false},{"id":392559,"adult":false},{"id":190385,"adult":false},{"id":392560,"adult":false},{"id":45267,"adult":false},{"id":201677,"adult":false},{"id":381525,"adult":false},{"id":392561,"adult":false},{"id":660,"adult":false},{"id":392562,"adult":false},{"id":381590,"adult":false},{"id":378462,"adult":false},{"id":262780,"adult":false},{"id":385371,"adult":false},{"id":385031,"adult":false},{"id":384687,"adult":false},{"id":118626,"adult":false},{"id":392563,"adult":false},{"id":335854,"adult":false},{"id":356488,"adult":false},{"id":383860,"adult":false},{"id":266425,"adult":false},{"id":373878,"adult":false},{"id":382725,"adult":false},{"id":382717,"adult":false},{"id":388655,"adult":null},{"id":287674,"adult":false},{"id":392564,"adult":false},{"id":342672,"adult":false},{"id":370234,"adult":false},{"id":381298,"adult":false},{"id":380285,"adult":false},{"id":392565,"adult":false},{"id":392566,"adult":false},{"id":9762,"adult":false},{"id":360799,"adult":false},{"id":351186,"adult":false},{"id":371107,"adult":false},{"id":340243,"adult":false},{"id":378613,"adult":false},{"id":378291,"adult":false},{"id":356057,"adult":false},{"id":378092,"adult":false},{"id":378192,"adult":false},{"id":372174,"adult":false},{"id":5693,"adult":false},{"id":376681,"adult":false},{"id":311916,"adult":false},{"id":392567,"adult":false},{"id":279662,"adult":false},{"id":387911,"adult":false},{"id":392568,"adult":false},{"id":392569,"adult":false},{"id":347924,"adult":false},{"id":372713,"adult":false},{"id":365754,"adult":false},{"id":369245,"adult":false},{"id":365806,"adult":false},{"id":381341,"adult":false},{"id":365973,"adult":true},{"id":99513,"adult":false},{"id":392570,"adult":false},{"id":392571,"adult":true},{"id":392572,"adult":false},{"id":369230,"adult":false},{"id":392573,"adult":true},{"id":268937,"adult":false},{"id":290521,"adult":false},{"id":5127,"adult":false},{"id":102381,"adult":false},{"id":50363,"adult":false},{"id":262789,"adult":false},{"id":85889,"adult":false},{"id":112891,"adult":false},{"id":63,"adult":false},{"id":286301,"adult":false},{"id":18,"adult":false},{"id":22156,"adult":false},{"id":157266,"adult":false},{"id":389193,"adult":null},{"id":321686,"adult":false},{"id":356845,"adult":null},{"id":335511,"adult":null},{"id":185412,"adult":false},{"id":348067,"adult":false}],"page":106,"total_pages":118,"total_results":11761}