{"results":[{"id":421369,"adult":false},{"id":114630,"adult":false},{"id":31608,"adult":false},{"id":7012,"adult":false},{"id":28828,"adult":false},{"id":10650,"adult":false},{"id":296096,"adult":false},{"id":421370,"adult":false},{"id":316031,"adult":false},{"id":116055,"adult":false},{"id":11609,"adult":false},{"id":292748,"adult":false},{"id":23096,"adult":false},{"id":109279,"adult":false},{"id":27439,"adult":false},{"id":229669,"adult":false},{"id":421371,"adult":false},{"id":421372,"adult":false},{"id":414779,"adult":false},{"id":421373,"adult":false},{"id":421374,"adult":false},{"id":87497,"adult":false},{"id":12445,"adult":false},{"id":421375,"adult":false},{"id":221321,"adult":false},{"id":258230,"adult":false},{"id":421376,"adult":false},{"id":225449,"adult":false},{"id":275328,"adult":false},{"id":158185,"adult":false},{"id":421377,"adult":false},{"id":646,"adult":false},{"id":657,"adult":false},{"id":667,"adult":false},{"id":668,"adult":false},{"id":378029,"adult":false},{"id":681,"adult":false},{"id":253,"adult":false},{"id":421378,"adult":false},{"id":682,"adult":false},{"id":691,"adult":false},{"id":239,"adult":false},{"id":421379,"adult":false},{"id":363093,"adult":false},{"id":421380,"adult":false},{"id":68730,"adult":false},{"id":417859,"adult":false},{"id":313369,"adult":false},{"id":50030,"adult":false},{"id":421381,"adult":false},{"id":362262,"adult":false},{"id":340934,"adult":false},{"id":261470,"adult":false},{"id":184772,"adult":false},{"id":406121,"adult":true},{"id":421382,"adult":false},{"id":421219,"adult":false},{"id":255798,"adult":false},{"id":284052,"adult":false},{"id":84226,"adult":false},{"id":295660,"adult":false},{"id":247251,"adult":false},{"id":220295,"adult":false},{"id":115986,"adult":false},{"id":123935,"adult":false},{"id":115930,"adult":false},{"id":108,"adult":false},{"id":393966,"adult":false},{"id":17350,"adult":false},{"id":421383,"adult":false},{"id":224064,"adult":false},{"id":421384,"adult":false},{"id":105539,"adult":false},{"id":421385,"adult":false},{"id":421386,"adult":false},{"id":9276,"adult":false},{"id":86081,"adult":false},{"id":213680,"adult":false},{"id":261244,"adult":false},{"id":179696,"adult":false},{"id":42346,"adult":false},{"id":26378,"adult":false},{"id":57270,"adult":false},{"id":413788,"adult":false},{"id":71720,"adult":false},{"id":8413,"adult":false},{"id":355600,"adult":false},{"id":191421,"adult":false},{"id":129116,"adult":false},{"id":182859,"adult":false},{"id":107775,"adult":false},{"id":332706,"adult":false},{"id":43738,"adult":false},{"id":128111,"adult":false},{"id":366514,"adult":false},{"id":421387,"adult":false},{"id":27181,"adult":false},{"id":38728,"adult":false},{"id":362165,"adult":false},{"id":421388,"adult":false}],"page":6,"total_pages":123,"total_results":12202}