{"results":[{"id":225460,"adult":false},{"id":383903,"adult":false},{"id":315044,"adult":false},{"id":173800,"adult":false},{"id":175177,"adult":false},{"id":211672,"adult":false},{"id":13813,"adult":false},{"id":3941,"adult":false},{"id":353725,"adult":false},{"id":345257,"adult":false},{"id":390889,"adult":false},{"id":166886,"adult":false},{"id":37062,"adult":false},{"id":242628,"adult":false},{"id":51959,"adult":false},{"id":100834,"adult":false},{"id":147105,"adult":false},{"id":61644,"adult":false},{"id":56277,"adult":false},{"id":317,"adult":false},{"id":310343,"adult":false},{"id":2157,"adult":false},{"id":333026,"adult":false},{"id":272606,"adult":false},{"id":332445,"adult":false},{"id":205493,"adult":false},{"id":1956,"adult":false},{"id":105864,"adult":false},{"id":383256,"adult":false},{"id":370785,"adult":false},{"id":106771,"adult":false},{"id":278154,"adult":false},{"id":323676,"adult":false},{"id":298915,"adult":false},{"id":390890,"adult":false},{"id":347126,"adult":false},{"id":271110,"adult":false},{"id":378689,"adult":false},{"id":341876,"adult":false},{"id":107,"adult":false},{"id":326423,"adult":false},{"id":390891,"adult":false},{"id":278927,"adult":false},{"id":290595,"adult":false},{"id":390892,"adult":false},{"id":101289,"adult":false},{"id":6692,"adult":false},{"id":390893,"adult":false},{"id":25496,"adult":false},{"id":44363,"adult":false},{"id":390894,"adult":false},{"id":294912,"adult":false},{"id":390895,"adult":false},{"id":289253,"adult":false},{"id":327707,"adult":false},{"id":390896,"adult":false},{"id":8648,"adult":false},{"id":8329,"adult":false},{"id":390897,"adult":false},{"id":390898,"adult":false},{"id":265919,"adult":false},{"id":11708,"adult":false},{"id":390899,"adult":false},{"id":67748,"adult":false},{"id":23945,"adult":false},{"id":21208,"adult":false},{"id":383732,"adult":false},{"id":390900,"adult":false},{"id":137662,"adult":false},{"id":390901,"adult":false},{"id":788,"adult":false},{"id":41897,"adult":false},{"id":348437,"adult":false},{"id":14839,"adult":false},{"id":390902,"adult":false},{"id":330764,"adult":false},{"id":322447,"adult":false},{"id":339161,"adult":false},{"id":320736,"adult":false},{"id":252963,"adult":false},{"id":348432,"adult":false},{"id":4882,"adult":false},{"id":52357,"adult":false},{"id":116445,"adult":false},{"id":390903,"adult":false},{"id":235016,"adult":false},{"id":235015,"adult":false},{"id":381693,"adult":false},{"id":176813,"adult":false},{"id":40514,"adult":false},{"id":235004,"adult":false},{"id":235018,"adult":false},{"id":281563,"adult":false},{"id":239568,"adult":false},{"id":40602,"adult":false},{"id":372077,"adult":false},{"id":190824,"adult":false},{"id":13457,"adult":false},{"id":234988,"adult":false},{"id":11321,"adult":false}],"page":5,"total_pages":118,"total_results":11761}