{"results":[{"id":49950,"adult":false},{"id":9837,"adult":false},{"id":193756,"adult":false},{"id":11619,"adult":false},{"id":82485,"adult":false},{"id":11688,"adult":false},{"id":10581,"adult":false},{"id":10582,"adult":false},{"id":10583,"adult":false},{"id":1428,"adult":false},{"id":650,"adult":false},{"id":205,"adult":false},{"id":31914,"adult":false},{"id":275136,"adult":false},{"id":207768,"adult":false},{"id":38172,"adult":false},{"id":38173,"adult":false},{"id":10584,"adult":false},{"id":12585,"adult":false},{"id":378955,"adult":false},{"id":176,"adult":false},{"id":9735,"adult":false},{"id":276614,"adult":false},{"id":16617,"adult":false},{"id":409,"adult":false},{"id":10843,"adult":false},{"id":11969,"adult":false},{"id":41439,"adult":false},{"id":51646,"adult":false},{"id":71,"adult":false},{"id":24958,"adult":false},{"id":345167,"adult":false},{"id":24933,"adult":true},{"id":378956,"adult":false},{"id":79,"adult":false},{"id":47931,"adult":false},{"id":347945,"adult":false},{"id":18785,"adult":false},{"id":370393,"adult":false},{"id":378957,"adult":false},{"id":625,"adult":false},{"id":273282,"adult":false},{"id":9912,"adult":false},{"id":378958,"adult":false},{"id":378959,"adult":false},{"id":11238,"adult":false},{"id":23742,"adult":false},{"id":9444,"adult":false},{"id":1933,"adult":false},{"id":10986,"adult":false},{"id":378960,"adult":false},{"id":131291,"adult":null},{"id":216902,"adult":false},{"id":378961,"adult":false},{"id":378962,"adult":false},{"id":334527,"adult":false},{"id":154380,"adult":false},{"id":1495,"adult":false},{"id":1904,"adult":false},{"id":155993,"adult":false},{"id":314614,"adult":false},{"id":167679,"adult":false},{"id":1429,"adult":false},{"id":11044,"adult":false},{"id":174354,"adult":false},{"id":309581,"adult":false},{"id":214724,"adult":false},{"id":331394,"adult":false},{"id":378964,"adult":false},{"id":127707,"adult":false},{"id":340837,"adult":false},{"id":293500,"adult":true},{"id":292362,"adult":false},{"id":331466,"adult":false},{"id":90234,"adult":true},{"id":336250,"adult":null},{"id":290762,"adult":false},{"id":378965,"adult":false},{"id":24163,"adult":false},{"id":378966,"adult":null},{"id":10684,"adult":false},{"id":261617,"adult":false},{"id":680,"adult":false},{"id":218736,"adult":false},{"id":2612,"adult":false},{"id":285616,"adult":false},{"id":47952,"adult":false},{"id":63712,"adult":false},{"id":89591,"adult":false},{"id":229659,"adult":false},{"id":265640,"adult":false},{"id":26300,"adult":false},{"id":378967,"adult":false},{"id":378968,"adult":false},{"id":114150,"adult":false},{"id":252512,"adult":false},{"id":271714,"adult":false},{"id":378969,"adult":false},{"id":368588,"adult":true},{"id":25391,"adult":false}],"page":83,"total_pages":226,"total_results":22514}