{"results":[{"id":165729,"adult":false},{"id":242239,"adult":false},{"id":399278,"adult":null},{"id":5156,"adult":false},{"id":388749,"adult":false},{"id":399279,"adult":false},{"id":274482,"adult":false},{"id":135536,"adult":false},{"id":399280,"adult":false},{"id":262786,"adult":false},{"id":11297,"adult":false},{"id":57201,"adult":false},{"id":399281,"adult":null},{"id":9969,"adult":false},{"id":253081,"adult":false},{"id":234228,"adult":null},{"id":399282,"adult":false},{"id":399284,"adult":true},{"id":399286,"adult":false},{"id":399287,"adult":true},{"id":399288,"adult":true},{"id":133146,"adult":false},{"id":399289,"adult":true},{"id":399290,"adult":null},{"id":399291,"adult":true},{"id":6723,"adult":false},{"id":399292,"adult":true},{"id":390066,"adult":false},{"id":150761,"adult":false},{"id":66599,"adult":false},{"id":294943,"adult":false},{"id":16664,"adult":false},{"id":181043,"adult":false},{"id":10025,"adult":false},{"id":239214,"adult":false},{"id":90644,"adult":false},{"id":399293,"adult":false},{"id":210774,"adult":false},{"id":200861,"adult":false},{"id":223548,"adult":false},{"id":113899,"adult":false},{"id":194485,"adult":false},{"id":196421,"adult":false},{"id":101553,"adult":false},{"id":324194,"adult":false},{"id":145472,"adult":false},{"id":256966,"adult":false},{"id":12805,"adult":false},{"id":40713,"adult":false},{"id":104368,"adult":false},{"id":195387,"adult":false},{"id":267056,"adult":false},{"id":1732,"adult":false},{"id":313367,"adult":false},{"id":160041,"adult":false},{"id":73376,"adult":false},{"id":48561,"adult":false},{"id":230821,"adult":false},{"id":42224,"adult":false},{"id":118802,"adult":false},{"id":105529,"adult":false},{"id":26356,"adult":false},{"id":58188,"adult":false},{"id":359656,"adult":false},{"id":228293,"adult":false},{"id":206837,"adult":false},{"id":193563,"adult":false},{"id":35056,"adult":false},{"id":924,"adult":false},{"id":24274,"adult":false},{"id":35738,"adult":false},{"id":26444,"adult":false},{"id":270463,"adult":false},{"id":8814,"adult":false},{"id":16871,"adult":false},{"id":47423,"adult":false},{"id":9614,"adult":false},{"id":81210,"adult":false},{"id":394252,"adult":false},{"id":54859,"adult":false},{"id":360411,"adult":false},{"id":38955,"adult":false},{"id":399294,"adult":false},{"id":37340,"adult":false},{"id":148430,"adult":false},{"id":360425,"adult":false},{"id":399295,"adult":false},{"id":399296,"adult":false},{"id":75835,"adult":false},{"id":119675,"adult":false},{"id":399297,"adult":false},{"id":144934,"adult":false},{"id":399298,"adult":false},{"id":399299,"adult":false},{"id":399300,"adult":false},{"id":399301,"adult":false},{"id":399302,"adult":false},{"id":161460,"adult":false},{"id":343814,"adult":false},{"id":399303,"adult":false}],"page":108,"total_pages":128,"total_results":12797}