{"results":[{"id":388440,"adult":false},{"id":291187,"adult":false},{"id":318781,"adult":false},{"id":108842,"adult":false},{"id":391709,"adult":false},{"id":392788,"adult":false},{"id":58431,"adult":false},{"id":213517,"adult":false},{"id":13455,"adult":false},{"id":15942,"adult":false},{"id":325836,"adult":false},{"id":389958,"adult":null},{"id":396170,"adult":false},{"id":110412,"adult":false},{"id":32061,"adult":false},{"id":19222,"adult":false},{"id":65872,"adult":false},{"id":44979,"adult":false},{"id":11565,"adult":false},{"id":65967,"adult":false},{"id":58945,"adult":false},{"id":318846,"adult":false},{"id":54211,"adult":false},{"id":38757,"adult":false},{"id":396171,"adult":false},{"id":35078,"adult":false},{"id":80527,"adult":false},{"id":228205,"adult":false},{"id":80988,"adult":false},{"id":396172,"adult":false},{"id":396173,"adult":false},{"id":396174,"adult":false},{"id":73634,"adult":false},{"id":48180,"adult":false},{"id":396175,"adult":false},{"id":92096,"adult":false},{"id":9659,"adult":false},{"id":62067,"adult":false},{"id":328044,"adult":false},{"id":8810,"adult":false},{"id":9355,"adult":false},{"id":16266,"adult":false},{"id":350037,"adult":false},{"id":45974,"adult":false},{"id":30778,"adult":false},{"id":11337,"adult":false},{"id":9450,"adult":false},{"id":9688,"adult":false},{"id":34376,"adult":false},{"id":51778,"adult":false},{"id":345353,"adult":false},{"id":283822,"adult":false},{"id":8068,"adult":false},{"id":193267,"adult":false},{"id":176901,"adult":false},{"id":10013,"adult":false},{"id":47899,"adult":false},{"id":17707,"adult":false},{"id":5729,"adult":false},{"id":94336,"adult":false},{"id":202324,"adult":false},{"id":202326,"adult":false},{"id":394412,"adult":false},{"id":396176,"adult":false},{"id":396177,"adult":false},{"id":87295,"adult":false},{"id":2970,"adult":false},{"id":17661,"adult":false},{"id":202115,"adult":false},{"id":127846,"adult":false},{"id":28356,"adult":false},{"id":31542,"adult":false},{"id":2967,"adult":false},{"id":110541,"adult":false},{"id":370589,"adult":false},{"id":4560,"adult":false},{"id":48193,"adult":false},{"id":9665,"adult":false},{"id":34106,"adult":false},{"id":306650,"adult":false},{"id":298077,"adult":false},{"id":789,"adult":false},{"id":126406,"adult":false},{"id":220638,"adult":false},{"id":48194,"adult":false},{"id":113997,"adult":false},{"id":389044,"adult":false},{"id":58701,"adult":false},{"id":387893,"adult":false},{"id":1610,"adult":false},{"id":2969,"adult":false},{"id":116518,"adult":false},{"id":207655,"adult":false},{"id":27270,"adult":false},{"id":356344,"adult":false},{"id":353882,"adult":false},{"id":129434,"adult":false},{"id":253287,"adult":false},{"id":303428,"adult":false},{"id":396178,"adult":false}],"page":50,"total_pages":130,"total_results":12927}