{"results":[{"id":415078,"adult":false},{"id":405309,"adult":false},{"id":32513,"adult":false},{"id":289153,"adult":false},{"id":387805,"adult":false},{"id":259920,"adult":false},{"id":12530,"adult":false},{"id":353340,"adult":false},{"id":292125,"adult":false},{"id":91470,"adult":false},{"id":34449,"adult":false},{"id":226701,"adult":false},{"id":255900,"adult":false},{"id":5742,"adult":false},{"id":313598,"adult":false},{"id":422176,"adult":false},{"id":336056,"adult":false},{"id":65,"adult":false},{"id":393457,"adult":false},{"id":342521,"adult":false},{"id":29906,"adult":false},{"id":254631,"adult":false},{"id":18229,"adult":false},{"id":422177,"adult":false},{"id":22947,"adult":false},{"id":17657,"adult":false},{"id":10597,"adult":false},{"id":422178,"adult":false},{"id":417368,"adult":false},{"id":29165,"adult":false},{"id":4942,"adult":false},{"id":422179,"adult":false},{"id":87917,"adult":false},{"id":12120,"adult":false},{"id":29790,"adult":false},{"id":48686,"adult":false},{"id":182,"adult":false},{"id":231,"adult":false},{"id":29562,"adult":false},{"id":321612,"adult":false},{"id":397526,"adult":false},{"id":29566,"adult":false},{"id":422180,"adult":false},{"id":3291,"adult":false},{"id":293926,"adult":false},{"id":41154,"adult":false},{"id":291413,"adult":false},{"id":608,"adult":false},{"id":80788,"adult":false},{"id":422181,"adult":false},{"id":59189,"adult":false},{"id":322059,"adult":false},{"id":9529,"adult":false},{"id":414028,"adult":false},{"id":126372,"adult":false},{"id":422182,"adult":false},{"id":148232,"adult":false},{"id":319458,"adult":true},{"id":30025,"adult":false},{"id":422183,"adult":false},{"id":383395,"adult":false},{"id":422184,"adult":false},{"id":422185,"adult":null},{"id":118167,"adult":false},{"id":403582,"adult":false},{"id":19204,"adult":false},{"id":48524,"adult":false},{"id":300681,"adult":false},{"id":422186,"adult":false},{"id":422187,"adult":false},{"id":70113,"adult":false},{"id":558,"adult":false},{"id":374853,"adult":false},{"id":40983,"adult":false},{"id":350669,"adult":false},{"id":422188,"adult":false},{"id":290088,"adult":false},{"id":422189,"adult":false},{"id":422190,"adult":false},{"id":422191,"adult":false},{"id":408068,"adult":null},{"id":21717,"adult":false},{"id":46980,"adult":false},{"id":422192,"adult":false},{"id":52463,"adult":false},{"id":422193,"adult":false},{"id":256599,"adult":false},{"id":422194,"adult":false},{"id":422195,"adult":false},{"id":294087,"adult":false},{"id":346443,"adult":false},{"id":177091,"adult":false},{"id":249347,"adult":false},{"id":56378,"adult":false},{"id":410790,"adult":false},{"id":422196,"adult":false},{"id":352613,"adult":false},{"id":422197,"adult":false},{"id":240179,"adult":false},{"id":334392,"adult":false}],"page":66,"total_pages":123,"total_results":12202}