{"results":[{"id":382295,"adult":true},{"id":382296,"adult":false},{"id":58103,"adult":false},{"id":335994,"adult":null},{"id":37144,"adult":false},{"id":362478,"adult":false},{"id":382297,"adult":false},{"id":66121,"adult":false},{"id":97936,"adult":false},{"id":96677,"adult":false},{"id":294993,"adult":false},{"id":352157,"adult":false},{"id":317954,"adult":false},{"id":8282,"adult":false},{"id":336001,"adult":null},{"id":106703,"adult":false},{"id":382298,"adult":false},{"id":382299,"adult":false},{"id":44594,"adult":false},{"id":289891,"adult":false},{"id":382300,"adult":false},{"id":65337,"adult":false},{"id":382301,"adult":false},{"id":382302,"adult":false},{"id":382303,"adult":false},{"id":382304,"adult":false},{"id":10960,"adult":false},{"id":382305,"adult":false},{"id":382306,"adult":false},{"id":382307,"adult":false},{"id":9322,"adult":false},{"id":382308,"adult":false},{"id":207,"adult":false},{"id":377937,"adult":false},{"id":59108,"adult":false},{"id":165612,"adult":false},{"id":360387,"adult":false},{"id":176633,"adult":false},{"id":339975,"adult":null},{"id":10731,"adult":false},{"id":382309,"adult":false},{"id":176671,"adult":false},{"id":211207,"adult":false},{"id":176655,"adult":false},{"id":9481,"adult":false},{"id":339974,"adult":null},{"id":382310,"adult":null},{"id":382311,"adult":false},{"id":382312,"adult":false},{"id":322115,"adult":false},{"id":339972,"adult":null},{"id":287584,"adult":false},{"id":36718,"adult":false},{"id":334338,"adult":false},{"id":382313,"adult":false},{"id":294656,"adult":false},{"id":382314,"adult":false},{"id":382315,"adult":false},{"id":250650,"adult":false},{"id":171298,"adult":false},{"id":382316,"adult":false},{"id":382317,"adult":false},{"id":366502,"adult":false},{"id":382318,"adult":false},{"id":285445,"adult":false},{"id":1577,"adult":false},{"id":382319,"adult":false},{"id":7737,"adult":false},{"id":370978,"adult":false},{"id":10707,"adult":false},{"id":34158,"adult":false},{"id":35791,"adult":false},{"id":382320,"adult":false},{"id":382321,"adult":false},{"id":48213,"adult":false},{"id":198605,"adult":false},{"id":382322,"adult":false},{"id":382323,"adult":false},{"id":382324,"adult":false},{"id":14832,"adult":false},{"id":215279,"adult":false},{"id":382325,"adult":false},{"id":63206,"adult":false},{"id":382326,"adult":false},{"id":297343,"adult":false},{"id":36108,"adult":false},{"id":382327,"adult":false},{"id":8618,"adult":false},{"id":81167,"adult":false},{"id":344041,"adult":false},{"id":293404,"adult":false},{"id":33152,"adult":false},{"id":39327,"adult":false},{"id":382328,"adult":false},{"id":382329,"adult":false},{"id":13571,"adult":false},{"id":257345,"adult":false},{"id":9401,"adult":false},{"id":382330,"adult":null},{"id":382331,"adult":false}],"page":102,"total_pages":119,"total_results":11854}