{"results":[{"id":397663,"adult":false},{"id":54306,"adult":false},{"id":71840,"adult":false},{"id":54307,"adult":false},{"id":38438,"adult":false},{"id":270487,"adult":false},{"id":203,"adult":false},{"id":119010,"adult":false},{"id":252933,"adult":false},{"id":13791,"adult":false},{"id":30671,"adult":false},{"id":84375,"adult":false},{"id":396557,"adult":false},{"id":131966,"adult":false},{"id":48584,"adult":false},{"id":1557,"adult":false},{"id":397664,"adult":false},{"id":397666,"adult":false},{"id":74208,"adult":false},{"id":397297,"adult":false},{"id":383545,"adult":false},{"id":397667,"adult":false},{"id":37415,"adult":false},{"id":233760,"adult":false},{"id":10537,"adult":false},{"id":117258,"adult":false},{"id":106430,"adult":false},{"id":65294,"adult":false},{"id":86938,"adult":false},{"id":23692,"adult":false},{"id":79989,"adult":false},{"id":383748,"adult":false},{"id":61689,"adult":false},{"id":79785,"adult":false},{"id":366502,"adult":false},{"id":151141,"adult":false},{"id":47716,"adult":false},{"id":40041,"adult":false},{"id":397668,"adult":false},{"id":691,"adult":false},{"id":31643,"adult":false},{"id":58595,"adult":false},{"id":149149,"adult":false},{"id":27997,"adult":false},{"id":54498,"adult":false},{"id":98012,"adult":false},{"id":359720,"adult":false},{"id":75986,"adult":false},{"id":212706,"adult":false},{"id":109428,"adult":false},{"id":198508,"adult":false},{"id":20604,"adult":false},{"id":276578,"adult":false},{"id":378573,"adult":false},{"id":40122,"adult":false},{"id":39850,"adult":false},{"id":159518,"adult":false},{"id":397669,"adult":false},{"id":9289,"adult":false},{"id":384185,"adult":false},{"id":390391,"adult":false},{"id":318973,"adult":false},{"id":262820,"adult":null},{"id":339642,"adult":false},{"id":157353,"adult":false},{"id":367587,"adult":false},{"id":397670,"adult":false},{"id":397671,"adult":false},{"id":164721,"adult":null},{"id":87148,"adult":false},{"id":1250,"adult":false},{"id":397672,"adult":false},{"id":26688,"adult":false},{"id":8490,"adult":false},{"id":9644,"adult":false},{"id":9801,"adult":false},{"id":74534,"adult":false},{"id":47535,"adult":false},{"id":12254,"adult":false},{"id":375921,"adult":false},{"id":47332,"adult":false},{"id":15142,"adult":false},{"id":281475,"adult":false},{"id":338021,"adult":false},{"id":138212,"adult":false},{"id":397673,"adult":false},{"id":21629,"adult":false},{"id":338766,"adult":false},{"id":283552,"adult":false},{"id":944,"adult":false},{"id":340611,"adult":false},{"id":300669,"adult":false},{"id":166659,"adult":false},{"id":397674,"adult":false},{"id":189390,"adult":false},{"id":15477,"adult":false},{"id":43634,"adult":false},{"id":254375,"adult":false},{"id":70559,"adult":false},{"id":54790,"adult":false}],"page":9,"total_pages":128,"total_results":12797}