{"results":[{"id":16560,"adult":false},{"id":8989,"adult":false},{"id":395821,"adult":false},{"id":24086,"adult":false},{"id":26578,"adult":false},{"id":87,"adult":false},{"id":77074,"adult":false},{"id":601,"adult":false},{"id":308504,"adult":false},{"id":71864,"adult":false},{"id":19317,"adult":false},{"id":138052,"adult":false},{"id":66668,"adult":false},{"id":395822,"adult":false},{"id":311370,"adult":false},{"id":369855,"adult":false},{"id":150689,"adult":false},{"id":395823,"adult":false},{"id":206644,"adult":false},{"id":395824,"adult":false},{"id":385261,"adult":false},{"id":258666,"adult":false},{"id":395825,"adult":false},{"id":11281,"adult":false},{"id":378779,"adult":false},{"id":113294,"adult":false},{"id":51678,"adult":false},{"id":395826,"adult":false},{"id":10139,"adult":false},{"id":266644,"adult":false},{"id":332146,"adult":false},{"id":1830,"adult":false},{"id":62,"adult":false},{"id":277687,"adult":false},{"id":395827,"adult":false},{"id":47120,"adult":false},{"id":11955,"adult":false},{"id":395828,"adult":false},{"id":365997,"adult":false},{"id":395829,"adult":false},{"id":108931,"adult":false},{"id":35705,"adult":false},{"id":1559,"adult":false},{"id":249224,"adult":false},{"id":267331,"adult":false},{"id":59072,"adult":true},{"id":52975,"adult":false},{"id":17600,"adult":false},{"id":11845,"adult":false},{"id":135483,"adult":false},{"id":27103,"adult":false},{"id":2003,"adult":false},{"id":133521,"adult":false},{"id":382139,"adult":true},{"id":145014,"adult":false},{"id":395830,"adult":false},{"id":14478,"adult":false},{"id":394496,"adult":false},{"id":395831,"adult":false},{"id":261103,"adult":false},{"id":258032,"adult":false},{"id":395832,"adult":false},{"id":395833,"adult":false},{"id":193976,"adult":false},{"id":276166,"adult":false},{"id":295964,"adult":false},{"id":1954,"adult":false},{"id":14620,"adult":false},{"id":16258,"adult":false},{"id":395834,"adult":false},{"id":241843,"adult":false},{"id":26388,"adult":false},{"id":137113,"adult":false},{"id":9357,"adult":false},{"id":364902,"adult":false},{"id":54111,"adult":false},{"id":193314,"adult":false},{"id":10605,"adult":false},{"id":395835,"adult":false},{"id":244539,"adult":false},{"id":30266,"adult":false},{"id":369594,"adult":false},{"id":18817,"adult":false},{"id":395836,"adult":false},{"id":297400,"adult":false},{"id":25384,"adult":false},{"id":3059,"adult":false},{"id":191446,"adult":false},{"id":43969,"adult":false},{"id":314,"adult":false},{"id":130425,"adult":false},{"id":26928,"adult":false},{"id":59201,"adult":false},{"id":395837,"adult":false},{"id":232223,"adult":false},{"id":198549,"adult":false},{"id":232236,"adult":false},{"id":360304,"adult":false},{"id":360913,"adult":false},{"id":395838,"adult":null}],"page":27,"total_pages":130,"total_results":12927}