{"results":[{"id":421829,"adult":false},{"id":211729,"adult":false},{"id":27,"adult":false},{"id":363535,"adult":false},{"id":14337,"adult":false},{"id":411502,"adult":false},{"id":5528,"adult":false},{"id":87395,"adult":false},{"id":2023,"adult":false},{"id":8849,"adult":false},{"id":94525,"adult":false},{"id":3290,"adult":false},{"id":419971,"adult":true},{"id":306966,"adult":false},{"id":76170,"adult":false},{"id":110556,"adult":false},{"id":396228,"adult":false},{"id":8833,"adult":false},{"id":209355,"adult":false},{"id":26444,"adult":false},{"id":2080,"adult":false},{"id":257482,"adult":false},{"id":9384,"adult":false},{"id":61943,"adult":false},{"id":29174,"adult":false},{"id":14292,"adult":false},{"id":29173,"adult":false},{"id":421831,"adult":false},{"id":421832,"adult":null},{"id":110001,"adult":false},{"id":36801,"adult":false},{"id":7278,"adult":false},{"id":6477,"adult":false},{"id":104577,"adult":false},{"id":28665,"adult":false},{"id":421833,"adult":false},{"id":68718,"adult":false},{"id":10857,"adult":false},{"id":11595,"adult":false},{"id":27548,"adult":false},{"id":316654,"adult":false},{"id":39538,"adult":false},{"id":94634,"adult":false},{"id":85207,"adult":false},{"id":286347,"adult":false},{"id":421834,"adult":false},{"id":33,"adult":false},{"id":221364,"adult":false},{"id":338964,"adult":false},{"id":421835,"adult":false},{"id":421836,"adult":false},{"id":100420,"adult":false},{"id":64682,"adult":false},{"id":121856,"adult":false},{"id":203793,"adult":false},{"id":124210,"adult":false},{"id":107336,"adult":false},{"id":11143,"adult":false},{"id":402446,"adult":false},{"id":143687,"adult":false},{"id":202220,"adult":false},{"id":321303,"adult":false},{"id":301758,"adult":true},{"id":11904,"adult":false},{"id":17632,"adult":false},{"id":31168,"adult":false},{"id":28761,"adult":false},{"id":372358,"adult":false},{"id":243352,"adult":false},{"id":312082,"adult":false},{"id":421837,"adult":false},{"id":341397,"adult":false},{"id":197359,"adult":false},{"id":107287,"adult":false},{"id":278,"adult":false},{"id":1265,"adult":false},{"id":107288,"adult":false},{"id":9600,"adult":false},{"id":10528,"adult":false},{"id":320538,"adult":false},{"id":10192,"adult":false},{"id":121828,"adult":false},{"id":249391,"adult":false},{"id":11565,"adult":false},{"id":274,"adult":false},{"id":14365,"adult":false},{"id":64584,"adult":false},{"id":5137,"adult":false},{"id":219314,"adult":false},{"id":421838,"adult":null},{"id":79740,"adult":false},{"id":10246,"adult":false},{"id":15877,"adult":false},{"id":421839,"adult":false},{"id":421840,"adult":false},{"id":83201,"adult":false},{"id":230779,"adult":false},{"id":421841,"adult":false},{"id":414768,"adult":false},{"id":19698,"adult":false}],"page":40,"total_pages":123,"total_results":12202}