{"results":[{"id":422803,"adult":false},{"id":146381,"adult":false},{"id":286382,"adult":false},{"id":90474,"adult":false},{"id":327089,"adult":false},{"id":327090,"adult":false},{"id":386791,"adult":false},{"id":28672,"adult":false},{"id":327091,"adult":false},{"id":415259,"adult":false},{"id":9922,"adult":false},{"id":327093,"adult":false},{"id":362957,"adult":false},{"id":24502,"adult":false},{"id":327094,"adult":false},{"id":149427,"adult":false},{"id":111481,"adult":false},{"id":85025,"adult":false},{"id":35068,"adult":false},{"id":47342,"adult":false},{"id":25438,"adult":false},{"id":377399,"adult":false},{"id":48312,"adult":false},{"id":422804,"adult":false},{"id":10974,"adult":false},{"id":414449,"adult":false},{"id":13597,"adult":false},{"id":30653,"adult":false},{"id":104374,"adult":false},{"id":6106,"adult":false},{"id":328422,"adult":false},{"id":277236,"adult":false},{"id":114174,"adult":false},{"id":63691,"adult":false},{"id":10515,"adult":false},{"id":220133,"adult":false},{"id":422805,"adult":false},{"id":59843,"adult":false},{"id":4901,"adult":false},{"id":58048,"adult":false},{"id":27995,"adult":false},{"id":284760,"adult":false},{"id":13818,"adult":false},{"id":354306,"adult":false},{"id":36677,"adult":false},{"id":12278,"adult":false},{"id":169760,"adult":false},{"id":9930,"adult":false},{"id":52327,"adult":false},{"id":422806,"adult":false},{"id":422807,"adult":false},{"id":235,"adult":false},{"id":422808,"adult":null},{"id":419772,"adult":false},{"id":51743,"adult":false},{"id":22172,"adult":false},{"id":42026,"adult":false},{"id":29016,"adult":false},{"id":41110,"adult":false},{"id":66600,"adult":false},{"id":422809,"adult":false},{"id":35705,"adult":false},{"id":16337,"adult":false},{"id":52961,"adult":false},{"id":392140,"adult":false},{"id":148278,"adult":false},{"id":323914,"adult":false},{"id":63972,"adult":false},{"id":392699,"adult":false},{"id":382593,"adult":false},{"id":337422,"adult":false},{"id":206521,"adult":false},{"id":314865,"adult":false},{"id":116315,"adult":false},{"id":224067,"adult":false},{"id":81122,"adult":false},{"id":105754,"adult":false},{"id":50382,"adult":false},{"id":104313,"adult":false},{"id":414372,"adult":false},{"id":14670,"adult":false},{"id":105753,"adult":false},{"id":173018,"adult":false},{"id":12151,"adult":false},{"id":141390,"adult":false},{"id":34186,"adult":false},{"id":111374,"adult":false},{"id":18499,"adult":false},{"id":35019,"adult":false},{"id":34223,"adult":false},{"id":105755,"adult":false},{"id":48259,"adult":false},{"id":124637,"adult":false},{"id":133959,"adult":false},{"id":168157,"adult":false},{"id":9033,"adult":false},{"id":422810,"adult":false},{"id":422811,"adult":false},{"id":104241,"adult":false},{"id":55785,"adult":false}],"page":103,"total_pages":123,"total_results":12202}