{"results":[{"id":305749,"adult":false},{"id":301795,"adult":false},{"id":296128,"adult":false},{"id":296129,"adult":false},{"id":334377,"adult":false},{"id":332102,"adult":false},{"id":11454,"adult":false},{"id":321038,"adult":false},{"id":194538,"adult":false},{"id":325580,"adult":false},{"id":312860,"adult":false},{"id":292718,"adult":false},{"id":264240,"adult":false},{"id":293993,"adult":false},{"id":308801,"adult":false},{"id":68582,"adult":false},{"id":219008,"adult":false},{"id":73064,"adult":false},{"id":352613,"adult":false},{"id":37735,"adult":false},{"id":14047,"adult":false},{"id":406985,"adult":false},{"id":29397,"adult":false},{"id":327175,"adult":false},{"id":406986,"adult":false},{"id":53283,"adult":false},{"id":8202,"adult":false},{"id":86373,"adult":false},{"id":406987,"adult":false},{"id":33613,"adult":false},{"id":71432,"adult":false},{"id":94751,"adult":false},{"id":406989,"adult":false},{"id":190955,"adult":false},{"id":139718,"adult":false},{"id":379282,"adult":false},{"id":299084,"adult":false},{"id":406990,"adult":false},{"id":178364,"adult":false},{"id":273435,"adult":false},{"id":226970,"adult":false},{"id":406991,"adult":false},{"id":264242,"adult":false},{"id":108220,"adult":false},{"id":288462,"adult":false},{"id":282461,"adult":false},{"id":230614,"adult":false},{"id":255902,"adult":false},{"id":25458,"adult":false},{"id":117404,"adult":false},{"id":356486,"adult":false},{"id":31739,"adult":false},{"id":265317,"adult":false},{"id":273269,"adult":false},{"id":220040,"adult":false},{"id":406992,"adult":false},{"id":150278,"adult":false},{"id":281954,"adult":false},{"id":265678,"adult":false},{"id":191256,"adult":false},{"id":234892,"adult":false},{"id":136373,"adult":false},{"id":406993,"adult":false},{"id":252478,"adult":false},{"id":406994,"adult":false},{"id":69774,"adult":false},{"id":385305,"adult":false},{"id":41477,"adult":false},{"id":403173,"adult":false},{"id":390215,"adult":false},{"id":2161,"adult":false},{"id":400711,"adult":false},{"id":18486,"adult":false},{"id":406995,"adult":false},{"id":406996,"adult":false},{"id":41482,"adult":false},{"id":334878,"adult":false},{"id":406997,"adult":false},{"id":404983,"adult":false},{"id":25078,"adult":false},{"id":406998,"adult":false},{"id":406999,"adult":false},{"id":44999,"adult":false},{"id":182584,"adult":false},{"id":319373,"adult":false},{"id":31364,"adult":false},{"id":304755,"adult":false},{"id":21502,"adult":false},{"id":384683,"adult":false},{"id":21570,"adult":false},{"id":43296,"adult":false},{"id":389161,"adult":null},{"id":253714,"adult":false},{"id":250561,"adult":false},{"id":421,"adult":false},{"id":248185,"adult":false},{"id":218360,"adult":false},{"id":240991,"adult":false},{"id":267935,"adult":false},{"id":124160,"adult":false}],"page":31,"total_pages":120,"total_results":11946}