{"results":[{"id":72648,"adult":false},{"id":216708,"adult":null},{"id":254844,"adult":false},{"id":376805,"adult":false},{"id":388399,"adult":false},{"id":405097,"adult":false},{"id":356901,"adult":false},{"id":172008,"adult":false},{"id":374272,"adult":false},{"id":405098,"adult":false},{"id":294800,"adult":false},{"id":405099,"adult":null},{"id":405100,"adult":false},{"id":405101,"adult":false},{"id":405102,"adult":false},{"id":580,"adult":false},{"id":405103,"adult":false},{"id":320849,"adult":false},{"id":178554,"adult":false},{"id":109383,"adult":false},{"id":253065,"adult":false},{"id":359403,"adult":null},{"id":90803,"adult":false},{"id":389371,"adult":false},{"id":345924,"adult":false},{"id":33018,"adult":false},{"id":68528,"adult":false},{"id":1908,"adult":false},{"id":31031,"adult":false},{"id":197010,"adult":false},{"id":275419,"adult":false},{"id":397242,"adult":false},{"id":362945,"adult":false},{"id":6068,"adult":false},{"id":405104,"adult":false},{"id":44866,"adult":false},{"id":405105,"adult":false},{"id":405106,"adult":false},{"id":137683,"adult":false},{"id":405107,"adult":false},{"id":398368,"adult":false},{"id":44826,"adult":false},{"id":71551,"adult":false},{"id":405110,"adult":false},{"id":374341,"adult":false},{"id":21029,"adult":false},{"id":405111,"adult":false},{"id":405112,"adult":false},{"id":11943,"adult":false},{"id":2610,"adult":false},{"id":10074,"adult":false},{"id":45179,"adult":false},{"id":405113,"adult":false},{"id":405114,"adult":false},{"id":405115,"adult":false},{"id":39754,"adult":false},{"id":353345,"adult":false},{"id":405119,"adult":false},{"id":5236,"adult":false},{"id":405120,"adult":false},{"id":11089,"adult":false},{"id":405121,"adult":null},{"id":265266,"adult":false},{"id":47559,"adult":false},{"id":405122,"adult":null},{"id":1245,"adult":false},{"id":45201,"adult":false},{"id":7984,"adult":false},{"id":14940,"adult":false},{"id":405123,"adult":false},{"id":301759,"adult":true},{"id":405124,"adult":null},{"id":363152,"adult":false},{"id":85654,"adult":false},{"id":405125,"adult":null},{"id":239217,"adult":true},{"id":405126,"adult":null},{"id":197,"adult":false},{"id":405127,"adult":null},{"id":29077,"adult":false},{"id":265769,"adult":false},{"id":9693,"adult":false},{"id":247378,"adult":false},{"id":278604,"adult":false},{"id":5920,"adult":false},{"id":129943,"adult":false},{"id":10075,"adult":false},{"id":947,"adult":false},{"id":405128,"adult":false},{"id":59117,"adult":false},{"id":20794,"adult":false},{"id":381663,"adult":false},{"id":134209,"adult":false},{"id":652,"adult":false},{"id":205980,"adult":false},{"id":129942,"adult":false},{"id":392189,"adult":false},{"id":54001,"adult":false},{"id":285768,"adult":false},{"id":405129,"adult":false}],"page":49,"total_pages":112,"total_results":11190}