{"results":[{"id":154300,"adult":false},{"id":822,"adult":false},{"id":42501,"adult":false},{"id":43139,"adult":false},{"id":8367,"adult":false},{"id":199415,"adult":false},{"id":391985,"adult":false},{"id":104237,"adult":false},{"id":148847,"adult":false},{"id":15438,"adult":false},{"id":14651,"adult":false},{"id":59085,"adult":false},{"id":344492,"adult":false},{"id":26830,"adult":false},{"id":391986,"adult":false},{"id":12205,"adult":false},{"id":391987,"adult":false},{"id":74693,"adult":false},{"id":191874,"adult":false},{"id":190817,"adult":false},{"id":391988,"adult":false},{"id":26744,"adult":false},{"id":11925,"adult":false},{"id":92424,"adult":false},{"id":296292,"adult":false},{"id":387473,"adult":false},{"id":45061,"adult":false},{"id":391989,"adult":false},{"id":57302,"adult":false},{"id":391990,"adult":false},{"id":362834,"adult":null},{"id":56008,"adult":false},{"id":141635,"adult":false},{"id":29427,"adult":false},{"id":72564,"adult":false},{"id":77057,"adult":false},{"id":84080,"adult":false},{"id":391991,"adult":false},{"id":391992,"adult":false},{"id":58765,"adult":false},{"id":344494,"adult":false},{"id":124058,"adult":false},{"id":391993,"adult":false},{"id":359444,"adult":false},{"id":137074,"adult":false},{"id":107020,"adult":false},{"id":232296,"adult":false},{"id":18975,"adult":false},{"id":290519,"adult":false},{"id":228444,"adult":false},{"id":186643,"adult":false},{"id":391994,"adult":false},{"id":318043,"adult":false},{"id":27994,"adult":false},{"id":13197,"adult":false},{"id":339547,"adult":false},{"id":389620,"adult":false},{"id":43980,"adult":false},{"id":2662,"adult":false},{"id":377587,"adult":false},{"id":4909,"adult":false},{"id":96438,"adult":false},{"id":350725,"adult":false},{"id":391995,"adult":false},{"id":2071,"adult":false},{"id":159389,"adult":false},{"id":20533,"adult":false},{"id":23437,"adult":false},{"id":9030,"adult":false},{"id":3563,"adult":false},{"id":391996,"adult":false},{"id":9621,"adult":false},{"id":10040,"adult":false},{"id":13673,"adult":false},{"id":296,"adult":false},{"id":2141,"adult":false},{"id":8871,"adult":false},{"id":165023,"adult":false},{"id":3536,"adult":false},{"id":10394,"adult":false},{"id":321883,"adult":false},{"id":391997,"adult":false},{"id":43939,"adult":false},{"id":22267,"adult":false},{"id":9447,"adult":false},{"id":686,"adult":false},{"id":11412,"adult":false},{"id":288285,"adult":false},{"id":291264,"adult":false},{"id":233510,"adult":false},{"id":1408,"adult":false},{"id":45188,"adult":false},{"id":64576,"adult":false},{"id":391998,"adult":false},{"id":340712,"adult":false},{"id":357655,"adult":false},{"id":267776,"adult":false},{"id":390254,"adult":false},{"id":839,"adult":false},{"id":118662,"adult":false}],"page":72,"total_pages":118,"total_results":11761}