{"results":[{"id":55248,"adult":false},{"id":287306,"adult":false},{"id":340825,"adult":false},{"id":254095,"adult":null},{"id":142123,"adult":false},{"id":335003,"adult":false},{"id":59678,"adult":false},{"id":265666,"adult":false},{"id":47038,"adult":false},{"id":12257,"adult":false},{"id":214681,"adult":false},{"id":94585,"adult":false},{"id":77117,"adult":false},{"id":428930,"adult":false},{"id":165863,"adult":false},{"id":76857,"adult":false},{"id":408310,"adult":null},{"id":351414,"adult":false},{"id":46889,"adult":false},{"id":10663,"adult":false},{"id":43239,"adult":false},{"id":1448,"adult":false},{"id":31353,"adult":false},{"id":220731,"adult":false},{"id":18283,"adult":false},{"id":77816,"adult":false},{"id":17640,"adult":false},{"id":95964,"adult":false},{"id":228066,"adult":false},{"id":43976,"adult":false},{"id":45247,"adult":false},{"id":43029,"adult":false},{"id":284190,"adult":null},{"id":43366,"adult":false},{"id":46702,"adult":false},{"id":17820,"adult":false},{"id":336313,"adult":false},{"id":18646,"adult":false},{"id":48645,"adult":false},{"id":32911,"adult":false},{"id":52364,"adult":false},{"id":30814,"adult":false},{"id":284481,"adult":false},{"id":25209,"adult":false},{"id":617,"adult":false},{"id":118209,"adult":false},{"id":121074,"adult":false},{"id":12549,"adult":false},{"id":29885,"adult":false},{"id":428931,"adult":false},{"id":58680,"adult":false},{"id":33738,"adult":false},{"id":43458,"adult":false},{"id":32144,"adult":false},{"id":8354,"adult":false},{"id":17037,"adult":false},{"id":43451,"adult":false},{"id":31513,"adult":false},{"id":28907,"adult":false},{"id":77338,"adult":false},{"id":54028,"adult":false},{"id":18422,"adult":false},{"id":43508,"adult":false},{"id":42886,"adult":false},{"id":18088,"adult":false},{"id":59964,"adult":false},{"id":27017,"adult":false},{"id":57165,"adult":false},{"id":99236,"adult":false},{"id":43792,"adult":false},{"id":43815,"adult":false},{"id":11533,"adult":false},{"id":10353,"adult":false},{"id":16148,"adult":false},{"id":23483,"adult":false},{"id":60662,"adult":false},{"id":428932,"adult":false},{"id":342521,"adult":false},{"id":13,"adult":false},{"id":59859,"adult":false},{"id":427167,"adult":false},{"id":428933,"adult":false},{"id":96677,"adult":false},{"id":9502,"adult":false},{"id":341034,"adult":false},{"id":143678,"adult":false},{"id":369522,"adult":false},{"id":264525,"adult":false},{"id":238615,"adult":false},{"id":258933,"adult":false},{"id":428934,"adult":false},{"id":84936,"adult":false},{"id":79745,"adult":false},{"id":55626,"adult":false},{"id":155016,"adult":false},{"id":8056,"adult":false},{"id":316710,"adult":false},{"id":9715,"adult":false},{"id":209167,"adult":false},{"id":114562,"adult":false}],"page":42,"total_pages":123,"total_results":12242}