{"results":[{"id":342281,"adult":false},{"id":410353,"adult":false},{"id":410354,"adult":false},{"id":186868,"adult":false},{"id":37653,"adult":false},{"id":38050,"adult":false},{"id":266249,"adult":false},{"id":410355,"adult":false},{"id":8392,"adult":false},{"id":321678,"adult":false},{"id":234241,"adult":false},{"id":10889,"adult":false},{"id":149431,"adult":false},{"id":20132,"adult":false},{"id":410356,"adult":false},{"id":404830,"adult":false},{"id":410357,"adult":false},{"id":294413,"adult":false},{"id":149430,"adult":false},{"id":32577,"adult":false},{"id":65707,"adult":false},{"id":410358,"adult":false},{"id":32048,"adult":false},{"id":956,"adult":false},{"id":955,"adult":false},{"id":954,"adult":false},{"id":315112,"adult":false},{"id":410359,"adult":false},{"id":404628,"adult":false},{"id":410363,"adult":false},{"id":410364,"adult":false},{"id":54160,"adult":false},{"id":410365,"adult":false},{"id":410366,"adult":false},{"id":318898,"adult":false},{"id":405446,"adult":false},{"id":182954,"adult":false},{"id":86712,"adult":false},{"id":66491,"adult":false},{"id":54969,"adult":false},{"id":238531,"adult":false},{"id":73110,"adult":false},{"id":170998,"adult":false},{"id":404713,"adult":false},{"id":410367,"adult":false},{"id":106634,"adult":false},{"id":10720,"adult":false},{"id":284135,"adult":false},{"id":9614,"adult":false},{"id":364912,"adult":false},{"id":410368,"adult":false},{"id":106876,"adult":false},{"id":341548,"adult":false},{"id":387501,"adult":false},{"id":392298,"adult":false},{"id":82115,"adult":false},{"id":57310,"adult":false},{"id":322488,"adult":false},{"id":135380,"adult":false},{"id":389136,"adult":false},{"id":14210,"adult":false},{"id":307699,"adult":false},{"id":15080,"adult":false},{"id":43191,"adult":false},{"id":16036,"adult":false},{"id":98322,"adult":false},{"id":27364,"adult":false},{"id":294105,"adult":false},{"id":104360,"adult":false},{"id":410369,"adult":false},{"id":9543,"adult":false},{"id":410371,"adult":false},{"id":410372,"adult":false},{"id":32093,"adult":false},{"id":410373,"adult":false},{"id":93447,"adult":false},{"id":39817,"adult":false},{"id":245,"adult":false},{"id":74241,"adult":false},{"id":25650,"adult":false},{"id":400544,"adult":null},{"id":12689,"adult":false},{"id":43121,"adult":false},{"id":410374,"adult":false},{"id":88,"adult":false},{"id":407887,"adult":false},{"id":112601,"adult":false},{"id":223895,"adult":false},{"id":39514,"adult":false},{"id":4966,"adult":false},{"id":48138,"adult":false},{"id":392973,"adult":false},{"id":148245,"adult":false},{"id":20862,"adult":false},{"id":9846,"adult":false},{"id":198015,"adult":false},{"id":97618,"adult":false},{"id":167769,"adult":false},{"id":1825,"adult":false},{"id":56441,"adult":false}],"page":65,"total_pages":117,"total_results":11641}