{"results":[{"id":63484,"adult":false},{"id":287538,"adult":false},{"id":376394,"adult":false},{"id":250798,"adult":false},{"id":376395,"adult":false},{"id":376396,"adult":false},{"id":38322,"adult":false},{"id":69449,"adult":false},{"id":303542,"adult":false},{"id":48844,"adult":false},{"id":88005,"adult":false},{"id":376397,"adult":null},{"id":376398,"adult":false},{"id":376399,"adult":false},{"id":315096,"adult":false},{"id":336197,"adult":false},{"id":285960,"adult":false},{"id":182172,"adult":false},{"id":9806,"adult":false},{"id":233564,"adult":false},{"id":392,"adult":false},{"id":376400,"adult":false},{"id":1985,"adult":false},{"id":80591,"adult":false},{"id":362230,"adult":false},{"id":8279,"adult":false},{"id":69928,"adult":false},{"id":304169,"adult":false},{"id":246086,"adult":false},{"id":14603,"adult":false},{"id":293714,"adult":false},{"id":176253,"adult":false},{"id":246344,"adult":false},{"id":305146,"adult":false},{"id":309539,"adult":false},{"id":128288,"adult":false},{"id":323190,"adult":true},{"id":49575,"adult":false},{"id":376401,"adult":true},{"id":376402,"adult":false},{"id":285185,"adult":null},{"id":44839,"adult":false},{"id":30973,"adult":false},{"id":337987,"adult":false},{"id":48329,"adult":false},{"id":376403,"adult":false},{"id":10414,"adult":false},{"id":365806,"adult":false},{"id":370492,"adult":null},{"id":210316,"adult":null},{"id":102195,"adult":false},{"id":376404,"adult":false},{"id":22777,"adult":false},{"id":171608,"adult":false},{"id":84333,"adult":false},{"id":13811,"adult":false},{"id":376405,"adult":false},{"id":22096,"adult":null},{"id":64233,"adult":false},{"id":61489,"adult":false},{"id":64231,"adult":false},{"id":114133,"adult":false},{"id":27919,"adult":false},{"id":376407,"adult":false},{"id":328999,"adult":false},{"id":376408,"adult":false},{"id":376409,"adult":false},{"id":376410,"adult":null},{"id":176146,"adult":false},{"id":254341,"adult":false},{"id":38360,"adult":false},{"id":338351,"adult":false},{"id":128191,"adult":false},{"id":23691,"adult":false},{"id":1607,"adult":false},{"id":38832,"adult":false},{"id":333982,"adult":false},{"id":376411,"adult":false},{"id":376412,"adult":false},{"id":94419,"adult":false},{"id":337720,"adult":false},{"id":289720,"adult":false},{"id":92297,"adult":false},{"id":376413,"adult":false},{"id":376414,"adult":false},{"id":93266,"adult":false},{"id":93619,"adult":false},{"id":93628,"adult":false},{"id":93653,"adult":false},{"id":216178,"adult":false},{"id":99102,"adult":false},{"id":310454,"adult":false},{"id":155217,"adult":false},{"id":115232,"adult":false},{"id":376415,"adult":false},{"id":62267,"adult":false},{"id":229644,"adult":false},{"id":27944,"adult":false},{"id":376416,"adult":false},{"id":211090,"adult":false}],"page":68,"total_pages":121,"total_results":12060}