{"results":[{"id":13948,"adult":false},{"id":248977,"adult":false},{"id":377436,"adult":false},{"id":420006,"adult":false},{"id":89269,"adult":false},{"id":420007,"adult":false},{"id":301255,"adult":false},{"id":360095,"adult":false},{"id":420009,"adult":false},{"id":420010,"adult":true},{"id":28942,"adult":false},{"id":420011,"adult":false},{"id":201478,"adult":false},{"id":12235,"adult":false},{"id":289565,"adult":false},{"id":250608,"adult":false},{"id":420012,"adult":true},{"id":59961,"adult":false},{"id":35837,"adult":false},{"id":420013,"adult":false},{"id":282346,"adult":false},{"id":81146,"adult":false},{"id":64880,"adult":false},{"id":44546,"adult":false},{"id":12994,"adult":false},{"id":106904,"adult":false},{"id":323626,"adult":false},{"id":420014,"adult":false},{"id":63183,"adult":false},{"id":597,"adult":false},{"id":381707,"adult":false},{"id":304988,"adult":false},{"id":420015,"adult":false},{"id":420016,"adult":false},{"id":420017,"adult":true},{"id":420018,"adult":true},{"id":394822,"adult":false},{"id":187655,"adult":true},{"id":179109,"adult":false},{"id":322151,"adult":false},{"id":79776,"adult":false},{"id":48739,"adult":false},{"id":85625,"adult":false},{"id":420019,"adult":true},{"id":412466,"adult":false},{"id":41598,"adult":false},{"id":52726,"adult":false},{"id":420020,"adult":false},{"id":420021,"adult":true},{"id":420022,"adult":false},{"id":420023,"adult":false},{"id":420024,"adult":true},{"id":9334,"adult":false},{"id":20453,"adult":false},{"id":412258,"adult":false},{"id":212685,"adult":false},{"id":420025,"adult":false},{"id":420026,"adult":true},{"id":420027,"adult":false},{"id":408159,"adult":false},{"id":297222,"adult":false},{"id":238215,"adult":false},{"id":420028,"adult":false},{"id":39626,"adult":true},{"id":60843,"adult":false},{"id":39627,"adult":true},{"id":62450,"adult":false},{"id":10226,"adult":false},{"id":420029,"adult":false},{"id":418598,"adult":null},{"id":418595,"adult":null},{"id":418593,"adult":null},{"id":418591,"adult":null},{"id":418590,"adult":null},{"id":11337,"adult":false},{"id":420030,"adult":false},{"id":418610,"adult":null},{"id":22705,"adult":false},{"id":418618,"adult":null},{"id":418615,"adult":null},{"id":418614,"adult":null},{"id":418617,"adult":null},{"id":418613,"adult":null},{"id":418612,"adult":null},{"id":5,"adult":false},{"id":354913,"adult":null},{"id":420031,"adult":false},{"id":116613,"adult":false},{"id":420032,"adult":true},{"id":420033,"adult":false},{"id":254343,"adult":true},{"id":46118,"adult":true},{"id":420034,"adult":false},{"id":420035,"adult":true},{"id":420036,"adult":false},{"id":410694,"adult":false},{"id":37193,"adult":false},{"id":420037,"adult":false},{"id":420038,"adult":true},{"id":807,"adult":false}],"page":87,"total_pages":144,"total_results":14341}