{"results":[{"id":401415,"adult":null},{"id":407970,"adult":null},{"id":410220,"adult":false},{"id":392878,"adult":false},{"id":410221,"adult":false},{"id":64798,"adult":false},{"id":55283,"adult":false},{"id":407080,"adult":null},{"id":14103,"adult":false},{"id":410222,"adult":false},{"id":66135,"adult":false},{"id":88297,"adult":false},{"id":410223,"adult":false},{"id":124902,"adult":false},{"id":102331,"adult":false},{"id":24079,"adult":false},{"id":17019,"adult":false},{"id":14911,"adult":false},{"id":410224,"adult":false},{"id":121837,"adult":false},{"id":410225,"adult":false},{"id":20264,"adult":false},{"id":253582,"adult":false},{"id":32831,"adult":false},{"id":410226,"adult":false},{"id":112473,"adult":false},{"id":54433,"adult":false},{"id":148265,"adult":false},{"id":59480,"adult":false},{"id":26540,"adult":false},{"id":410227,"adult":false},{"id":60159,"adult":false},{"id":13369,"adult":false},{"id":336776,"adult":false},{"id":174526,"adult":false},{"id":11142,"adult":false},{"id":94955,"adult":false},{"id":45482,"adult":false},{"id":12261,"adult":false},{"id":11598,"adult":false},{"id":141618,"adult":false},{"id":149405,"adult":false},{"id":17639,"adult":false},{"id":92393,"adult":false},{"id":137426,"adult":false},{"id":52626,"adult":false},{"id":136523,"adult":false},{"id":410228,"adult":false},{"id":430,"adult":false},{"id":43017,"adult":false},{"id":128960,"adult":false},{"id":244864,"adult":false},{"id":235245,"adult":false},{"id":49172,"adult":false},{"id":92193,"adult":false},{"id":398410,"adult":false},{"id":205409,"adult":false},{"id":248469,"adult":false},{"id":361486,"adult":false},{"id":244858,"adult":false},{"id":28569,"adult":false},{"id":46065,"adult":false},{"id":14805,"adult":false},{"id":315024,"adult":false},{"id":29478,"adult":false},{"id":179915,"adult":false},{"id":38425,"adult":false},{"id":221987,"adult":null},{"id":175643,"adult":false},{"id":277230,"adult":false},{"id":284995,"adult":false},{"id":15034,"adult":false},{"id":167857,"adult":false},{"id":11782,"adult":false},{"id":93767,"adult":false},{"id":106294,"adult":false},{"id":183061,"adult":false},{"id":98010,"adult":false},{"id":15008,"adult":false},{"id":184055,"adult":false},{"id":368927,"adult":false},{"id":71752,"adult":false},{"id":7219,"adult":false},{"id":220672,"adult":false},{"id":347807,"adult":false},{"id":258783,"adult":false},{"id":410229,"adult":false},{"id":357434,"adult":false},{"id":35588,"adult":false},{"id":17332,"adult":false},{"id":50839,"adult":false},{"id":51017,"adult":false},{"id":370962,"adult":false},{"id":1771,"adult":false},{"id":100402,"adult":false},{"id":410230,"adult":false},{"id":118340,"adult":false},{"id":99861,"adult":false},{"id":340829,"adult":false},{"id":349197,"adult":false}],"page":55,"total_pages":117,"total_results":11641}