{"results":[{"id":44475,"adult":false},{"id":27329,"adult":false},{"id":42401,"adult":false},{"id":11943,"adult":false},{"id":39561,"adult":false},{"id":157829,"adult":false},{"id":75552,"adult":false},{"id":276401,"adult":false},{"id":163050,"adult":false},{"id":55240,"adult":false},{"id":33806,"adult":false},{"id":275060,"adult":false},{"id":174311,"adult":false},{"id":20558,"adult":false},{"id":218090,"adult":false},{"id":72160,"adult":false},{"id":375211,"adult":false},{"id":15696,"adult":false},{"id":106222,"adult":false},{"id":377260,"adult":false},{"id":152846,"adult":false},{"id":190586,"adult":false},{"id":106355,"adult":false},{"id":24787,"adult":false},{"id":28436,"adult":false},{"id":398279,"adult":false},{"id":74764,"adult":false},{"id":398280,"adult":false},{"id":398281,"adult":true},{"id":235168,"adult":false},{"id":398282,"adult":false},{"id":24751,"adult":false},{"id":92399,"adult":false},{"id":398283,"adult":false},{"id":15947,"adult":false},{"id":136676,"adult":false},{"id":376512,"adult":false},{"id":131753,"adult":false},{"id":53906,"adult":false},{"id":43257,"adult":false},{"id":235563,"adult":false},{"id":235552,"adult":false},{"id":89018,"adult":false},{"id":235555,"adult":false},{"id":58075,"adult":false},{"id":235550,"adult":false},{"id":19051,"adult":false},{"id":9280,"adult":false},{"id":122159,"adult":false},{"id":356905,"adult":false},{"id":235164,"adult":false},{"id":43325,"adult":false},{"id":45202,"adult":false},{"id":18770,"adult":false},{"id":35956,"adult":false},{"id":4807,"adult":false},{"id":376513,"adult":false},{"id":102295,"adult":false},{"id":50356,"adult":false},{"id":112710,"adult":false},{"id":118947,"adult":false},{"id":37306,"adult":false},{"id":151207,"adult":false},{"id":52843,"adult":false},{"id":20621,"adult":false},{"id":121053,"adult":false},{"id":264521,"adult":false},{"id":310131,"adult":false},{"id":41462,"adult":false},{"id":21622,"adult":false},{"id":41291,"adult":false},{"id":18229,"adult":false},{"id":398284,"adult":false},{"id":120509,"adult":false},{"id":1938,"adult":false},{"id":878,"adult":false},{"id":86120,"adult":false},{"id":384727,"adult":false},{"id":48646,"adult":false},{"id":317707,"adult":false},{"id":43370,"adult":false},{"id":27628,"adult":false},{"id":43191,"adult":false},{"id":43367,"adult":false},{"id":24003,"adult":false},{"id":13355,"adult":false},{"id":3103,"adult":false},{"id":81640,"adult":false},{"id":244569,"adult":false},{"id":996,"adult":false},{"id":17136,"adult":false},{"id":19463,"adult":false},{"id":301520,"adult":false},{"id":10574,"adult":false},{"id":72370,"adult":false},{"id":207589,"adult":false},{"id":129105,"adult":false},{"id":26282,"adult":false},{"id":55244,"adult":false},{"id":36498,"adult":false}],"page":51,"total_pages":128,"total_results":12797}