{"results":[{"id":4839,"adult":false},{"id":21156,"adult":false},{"id":290550,"adult":false},{"id":115544,"adult":false},{"id":2067,"adult":false},{"id":26116,"adult":false},{"id":18897,"adult":false},{"id":377153,"adult":false},{"id":400994,"adult":false},{"id":10758,"adult":false},{"id":104301,"adult":false},{"id":302613,"adult":false},{"id":70841,"adult":false},{"id":4034,"adult":false},{"id":9374,"adult":false},{"id":215698,"adult":false},{"id":193324,"adult":false},{"id":40508,"adult":false},{"id":233355,"adult":false},{"id":29488,"adult":false},{"id":44877,"adult":false},{"id":370202,"adult":false},{"id":167928,"adult":false},{"id":10484,"adult":false},{"id":292210,"adult":false},{"id":239530,"adult":false},{"id":335753,"adult":false},{"id":85495,"adult":false},{"id":49849,"adult":false},{"id":63686,"adult":false},{"id":111971,"adult":false},{"id":29917,"adult":false},{"id":319498,"adult":false},{"id":263467,"adult":false},{"id":11986,"adult":false},{"id":392519,"adult":false},{"id":66920,"adult":false},{"id":400995,"adult":false},{"id":400996,"adult":false},{"id":25050,"adult":false},{"id":149103,"adult":false},{"id":400997,"adult":false},{"id":216365,"adult":false},{"id":111663,"adult":false},{"id":29954,"adult":false},{"id":400998,"adult":false},{"id":3291,"adult":false},{"id":13156,"adult":false},{"id":216370,"adult":false},{"id":2072,"adult":false},{"id":11243,"adult":false},{"id":267196,"adult":false},{"id":28758,"adult":false},{"id":296523,"adult":false},{"id":320048,"adult":false},{"id":309581,"adult":false},{"id":288717,"adult":false},{"id":97051,"adult":false},{"id":11592,"adult":false},{"id":35460,"adult":false},{"id":177677,"adult":false},{"id":263147,"adult":false},{"id":314405,"adult":false},{"id":277546,"adult":false},{"id":364635,"adult":false},{"id":359989,"adult":false},{"id":136405,"adult":false},{"id":288338,"adult":false},{"id":224990,"adult":false},{"id":398200,"adult":false},{"id":54763,"adult":false},{"id":346494,"adult":false},{"id":309503,"adult":false},{"id":84119,"adult":false},{"id":70423,"adult":false},{"id":108061,"adult":false},{"id":39982,"adult":false},{"id":11308,"adult":false},{"id":241689,"adult":false},{"id":2189,"adult":false},{"id":400999,"adult":false},{"id":290373,"adult":false},{"id":364322,"adult":false},{"id":31080,"adult":false},{"id":261621,"adult":false},{"id":14776,"adult":false},{"id":70707,"adult":false},{"id":163,"adult":false},{"id":287284,"adult":false},{"id":242065,"adult":false},{"id":347563,"adult":false},{"id":69406,"adult":false},{"id":24037,"adult":false},{"id":204823,"adult":false},{"id":9906,"adult":false},{"id":16384,"adult":false},{"id":267795,"adult":false},{"id":271704,"adult":false},{"id":252328,"adult":false},{"id":401000,"adult":false}],"page":53,"total_pages":116,"total_results":11568}