{"results":[{"id":414346,"adult":true},{"id":200145,"adult":false},{"id":243916,"adult":false},{"id":356286,"adult":false},{"id":72660,"adult":false},{"id":223381,"adult":false},{"id":60308,"adult":false},{"id":1986,"adult":false},{"id":257053,"adult":false},{"id":73624,"adult":false},{"id":173443,"adult":false},{"id":338039,"adult":false},{"id":286256,"adult":false},{"id":296415,"adult":false},{"id":221241,"adult":false},{"id":214135,"adult":false},{"id":363103,"adult":false},{"id":8338,"adult":false},{"id":348128,"adult":false},{"id":402291,"adult":false},{"id":402423,"adult":false},{"id":89984,"adult":false},{"id":402271,"adult":false},{"id":228167,"adult":false},{"id":46689,"adult":false},{"id":296096,"adult":false},{"id":332456,"adult":false},{"id":30239,"adult":false},{"id":36093,"adult":false},{"id":332459,"adult":false},{"id":8440,"adult":false},{"id":224979,"adult":false},{"id":60279,"adult":false},{"id":366033,"adult":false},{"id":215063,"adult":false},{"id":252924,"adult":false},{"id":414347,"adult":false},{"id":322977,"adult":false},{"id":1895,"adult":false},{"id":414348,"adult":false},{"id":74053,"adult":false},{"id":302955,"adult":false},{"id":228202,"adult":false},{"id":347188,"adult":false},{"id":160859,"adult":false},{"id":375739,"adult":false},{"id":363969,"adult":false},{"id":191034,"adult":false},{"id":157417,"adult":false},{"id":324465,"adult":false},{"id":154441,"adult":false},{"id":350155,"adult":null},{"id":228177,"adult":false},{"id":258529,"adult":false},{"id":34671,"adult":false},{"id":130652,"adult":false},{"id":412626,"adult":false},{"id":183538,"adult":false},{"id":176857,"adult":false},{"id":297278,"adult":false},{"id":308234,"adult":false},{"id":59474,"adult":false},{"id":288678,"adult":false},{"id":196750,"adult":false},{"id":69335,"adult":false},{"id":167983,"adult":false},{"id":129697,"adult":false},{"id":50717,"adult":false},{"id":173499,"adult":false},{"id":227970,"adult":false},{"id":414349,"adult":false},{"id":129414,"adult":false},{"id":147587,"adult":false},{"id":308720,"adult":false},{"id":62156,"adult":false},{"id":243807,"adult":false},{"id":201683,"adult":false},{"id":409067,"adult":null},{"id":414350,"adult":true},{"id":53961,"adult":false},{"id":414351,"adult":false},{"id":211816,"adult":false},{"id":288286,"adult":false},{"id":414352,"adult":false},{"id":21253,"adult":false},{"id":40823,"adult":false},{"id":414353,"adult":false},{"id":409050,"adult":null},{"id":414354,"adult":true},{"id":64397,"adult":false},{"id":414355,"adult":false},{"id":60141,"adult":false},{"id":66485,"adult":false},{"id":409079,"adult":null},{"id":79934,"adult":false},{"id":414356,"adult":false},{"id":42779,"adult":false},{"id":82480,"adult":false},{"id":396616,"adult":false},{"id":14421,"adult":false}],"page":49,"total_pages":126,"total_results":12554}