{"results":[{"id":406179,"adult":false},{"id":406180,"adult":false},{"id":24006,"adult":false},{"id":406181,"adult":false},{"id":25934,"adult":false},{"id":338107,"adult":false},{"id":1936,"adult":false},{"id":46720,"adult":false},{"id":406182,"adult":false},{"id":400689,"adult":false},{"id":21468,"adult":false},{"id":132635,"adult":false},{"id":392147,"adult":false},{"id":15008,"adult":false},{"id":16346,"adult":false},{"id":1610,"adult":false},{"id":406183,"adult":false},{"id":35113,"adult":false},{"id":11800,"adult":false},{"id":406184,"adult":false},{"id":9421,"adult":false},{"id":406185,"adult":null},{"id":255735,"adult":false},{"id":393654,"adult":false},{"id":33253,"adult":false},{"id":406186,"adult":null},{"id":406187,"adult":false},{"id":406188,"adult":null},{"id":406189,"adult":false},{"id":406190,"adult":null},{"id":23954,"adult":false},{"id":250660,"adult":false},{"id":406191,"adult":false},{"id":406192,"adult":false},{"id":406193,"adult":false},{"id":406194,"adult":false},{"id":406195,"adult":false},{"id":208542,"adult":false},{"id":326359,"adult":false},{"id":9982,"adult":false},{"id":406196,"adult":false},{"id":406197,"adult":false},{"id":11706,"adult":false},{"id":6643,"adult":false},{"id":10175,"adult":false},{"id":406198,"adult":false},{"id":264264,"adult":false},{"id":154098,"adult":false},{"id":406199,"adult":false},{"id":10196,"adult":false},{"id":406200,"adult":false},{"id":135832,"adult":false},{"id":221717,"adult":false},{"id":9837,"adult":false},{"id":406201,"adult":false},{"id":27029,"adult":false},{"id":2046,"adult":false},{"id":11352,"adult":false},{"id":260645,"adult":false},{"id":220946,"adult":false},{"id":164,"adult":false},{"id":99494,"adult":false},{"id":253161,"adult":false},{"id":326285,"adult":false},{"id":31921,"adult":false},{"id":96592,"adult":false},{"id":81724,"adult":false},{"id":406203,"adult":null},{"id":327021,"adult":false},{"id":406204,"adult":false},{"id":20139,"adult":false},{"id":240643,"adult":false},{"id":117874,"adult":false},{"id":11113,"adult":false},{"id":265147,"adult":false},{"id":310592,"adult":false},{"id":87499,"adult":false},{"id":406205,"adult":false},{"id":13368,"adult":false},{"id":250749,"adult":false},{"id":100,"adult":false},{"id":45296,"adult":false},{"id":87111,"adult":false},{"id":300508,"adult":false},{"id":406206,"adult":false},{"id":346364,"adult":false},{"id":399106,"adult":false},{"id":5767,"adult":false},{"id":406207,"adult":false},{"id":2575,"adult":false},{"id":284674,"adult":false},{"id":310292,"adult":false},{"id":25658,"adult":false},{"id":406208,"adult":false},{"id":114658,"adult":false},{"id":406209,"adult":false},{"id":1570,"adult":false},{"id":13641,"adult":false},{"id":406210,"adult":false},{"id":406211,"adult":false}],"page":110,"total_pages":112,"total_results":11190}