{"results":[{"id":46526,"adult":false},{"id":64862,"adult":false},{"id":368105,"adult":false},{"id":402719,"adult":false},{"id":366527,"adult":false},{"id":399372,"adult":false},{"id":301804,"adult":false},{"id":331,"adult":false},{"id":360994,"adult":false},{"id":104297,"adult":false},{"id":254191,"adult":false},{"id":402720,"adult":false},{"id":267860,"adult":false},{"id":402721,"adult":false},{"id":4011,"adult":false},{"id":259694,"adult":false},{"id":315134,"adult":false},{"id":396377,"adult":false},{"id":361093,"adult":false},{"id":206637,"adult":false},{"id":402722,"adult":false},{"id":391383,"adult":null},{"id":402723,"adult":null},{"id":402724,"adult":true},{"id":32304,"adult":false},{"id":373057,"adult":false},{"id":52003,"adult":false},{"id":16129,"adult":false},{"id":327735,"adult":false},{"id":402725,"adult":false},{"id":66974,"adult":false},{"id":187682,"adult":false},{"id":146373,"adult":false},{"id":402726,"adult":false},{"id":402727,"adult":false},{"id":225935,"adult":false},{"id":278236,"adult":false},{"id":361751,"adult":false},{"id":371181,"adult":false},{"id":180638,"adult":false},{"id":227783,"adult":false},{"id":402728,"adult":false},{"id":392629,"adult":false},{"id":55720,"adult":false},{"id":35203,"adult":false},{"id":16820,"adult":false},{"id":364344,"adult":false},{"id":279317,"adult":false},{"id":279333,"adult":false},{"id":279290,"adult":false},{"id":278182,"adult":false},{"id":104150,"adult":false},{"id":279128,"adult":false},{"id":279338,"adult":false},{"id":279359,"adult":false},{"id":75839,"adult":false},{"id":66342,"adult":false},{"id":55306,"adult":false},{"id":267687,"adult":false},{"id":402729,"adult":false},{"id":279316,"adult":false},{"id":13552,"adult":false},{"id":11134,"adult":false},{"id":3586,"adult":false},{"id":206647,"adult":false},{"id":286521,"adult":false},{"id":402730,"adult":false},{"id":61648,"adult":false},{"id":161716,"adult":false},{"id":38751,"adult":false},{"id":8358,"adult":false},{"id":148233,"adult":false},{"id":10427,"adult":false},{"id":395479,"adult":false},{"id":43261,"adult":false},{"id":27380,"adult":false},{"id":37487,"adult":false},{"id":398791,"adult":false},{"id":3054,"adult":false},{"id":253412,"adult":false},{"id":27526,"adult":false},{"id":194833,"adult":false},{"id":85827,"adult":false},{"id":86945,"adult":false},{"id":42522,"adult":false},{"id":62376,"adult":false},{"id":198521,"adult":false},{"id":42178,"adult":false},{"id":358861,"adult":false},{"id":79008,"adult":false},{"id":266331,"adult":false},{"id":38557,"adult":false},{"id":135531,"adult":false},{"id":103673,"adult":false},{"id":56448,"adult":false},{"id":16767,"adult":false},{"id":164944,"adult":false},{"id":134318,"adult":false},{"id":38031,"adult":false},{"id":198065,"adult":false}],"page":40,"total_pages":116,"total_results":11526}