{"results":[{"id":383907,"adult":false},{"id":5876,"adult":false},{"id":91799,"adult":false},{"id":17255,"adult":false},{"id":63721,"adult":false},{"id":383908,"adult":false},{"id":8438,"adult":false},{"id":383909,"adult":false},{"id":163802,"adult":false},{"id":102322,"adult":false},{"id":383910,"adult":null},{"id":383911,"adult":false},{"id":2150,"adult":false},{"id":1637,"adult":false},{"id":383912,"adult":false},{"id":383913,"adult":false},{"id":52783,"adult":false},{"id":315846,"adult":false},{"id":72547,"adult":false},{"id":24525,"adult":false},{"id":4824,"adult":false},{"id":9482,"adult":false},{"id":1657,"adult":false},{"id":14979,"adult":false},{"id":254,"adult":false},{"id":37710,"adult":false},{"id":11969,"adult":false},{"id":45267,"adult":false},{"id":389,"adult":false},{"id":364830,"adult":false},{"id":369834,"adult":false},{"id":383914,"adult":false},{"id":11236,"adult":false},{"id":383915,"adult":false},{"id":184346,"adult":false},{"id":380286,"adult":false},{"id":16084,"adult":false},{"id":383916,"adult":false},{"id":383917,"adult":null},{"id":333210,"adult":false},{"id":383918,"adult":false},{"id":383919,"adult":false},{"id":383920,"adult":false},{"id":42023,"adult":false},{"id":42017,"adult":false},{"id":254291,"adult":false},{"id":348795,"adult":false},{"id":348800,"adult":false},{"id":239529,"adult":false},{"id":348684,"adult":false},{"id":59297,"adult":false},{"id":11936,"adult":false},{"id":348797,"adult":false},{"id":9888,"adult":false},{"id":383921,"adult":false},{"id":356201,"adult":false},{"id":226443,"adult":false},{"id":383922,"adult":false},{"id":383923,"adult":false},{"id":98851,"adult":false},{"id":346,"adult":false},{"id":133601,"adult":false},{"id":29967,"adult":false},{"id":133558,"adult":false},{"id":344255,"adult":false},{"id":383924,"adult":false},{"id":383925,"adult":false},{"id":348130,"adult":false},{"id":383926,"adult":false},{"id":383927,"adult":false},{"id":383928,"adult":null},{"id":28214,"adult":false},{"id":28426,"adult":false},{"id":356306,"adult":false},{"id":29242,"adult":false},{"id":28423,"adult":false},{"id":28425,"adult":false},{"id":44482,"adult":false},{"id":88357,"adult":false},{"id":383929,"adult":false},{"id":365094,"adult":false},{"id":383930,"adult":null},{"id":347250,"adult":false},{"id":383931,"adult":false},{"id":363845,"adult":false},{"id":53313,"adult":false},{"id":383932,"adult":false},{"id":305638,"adult":false},{"id":329063,"adult":false},{"id":10466,"adult":false},{"id":383933,"adult":null},{"id":77174,"adult":false},{"id":373430,"adult":false},{"id":383934,"adult":false},{"id":9894,"adult":false},{"id":383935,"adult":false},{"id":107843,"adult":false},{"id":383936,"adult":false},{"id":93754,"adult":false},{"id":152251,"adult":false}],"page":65,"total_pages":123,"total_results":12205}