{"results":[{"id":422741,"adult":false},{"id":422742,"adult":false},{"id":219423,"adult":false},{"id":422743,"adult":false},{"id":181342,"adult":false},{"id":101898,"adult":false},{"id":12662,"adult":false},{"id":422744,"adult":false},{"id":105156,"adult":false},{"id":413784,"adult":false},{"id":385710,"adult":false},{"id":422745,"adult":false},{"id":195589,"adult":false},{"id":422746,"adult":false},{"id":308024,"adult":false},{"id":9339,"adult":false},{"id":11549,"adult":false},{"id":422747,"adult":false},{"id":422748,"adult":false},{"id":3403,"adult":false},{"id":422749,"adult":false},{"id":60309,"adult":false},{"id":33337,"adult":false},{"id":55309,"adult":false},{"id":404503,"adult":false},{"id":6535,"adult":false},{"id":422750,"adult":false},{"id":422751,"adult":false},{"id":67785,"adult":false},{"id":197089,"adult":false},{"id":406586,"adult":null},{"id":36007,"adult":false},{"id":310583,"adult":false},{"id":422752,"adult":false},{"id":233133,"adult":false},{"id":51930,"adult":false},{"id":385825,"adult":false},{"id":361142,"adult":false},{"id":422753,"adult":false},{"id":110393,"adult":false},{"id":422754,"adult":false},{"id":422755,"adult":false},{"id":160115,"adult":false},{"id":422756,"adult":false},{"id":422757,"adult":false},{"id":422758,"adult":false},{"id":175606,"adult":false},{"id":422759,"adult":false},{"id":10596,"adult":false},{"id":422760,"adult":false},{"id":104840,"adult":false},{"id":134083,"adult":false},{"id":379666,"adult":false},{"id":25389,"adult":false},{"id":422761,"adult":false},{"id":422762,"adult":false},{"id":366356,"adult":false},{"id":186991,"adult":false},{"id":153419,"adult":false},{"id":20694,"adult":false},{"id":401434,"adult":false},{"id":363111,"adult":false},{"id":145824,"adult":false},{"id":252674,"adult":false},{"id":37400,"adult":null},{"id":422763,"adult":false},{"id":151564,"adult":false},{"id":345918,"adult":false},{"id":60421,"adult":false},{"id":68873,"adult":false},{"id":84586,"adult":false},{"id":50725,"adult":false},{"id":125087,"adult":false},{"id":422764,"adult":false},{"id":70793,"adult":false},{"id":422765,"adult":false},{"id":129431,"adult":false},{"id":19959,"adult":false},{"id":345546,"adult":false},{"id":422766,"adult":false},{"id":36593,"adult":false},{"id":30789,"adult":false},{"id":256654,"adult":false},{"id":365045,"adult":false},{"id":417794,"adult":false},{"id":198301,"adult":false},{"id":128115,"adult":false},{"id":125143,"adult":false},{"id":37904,"adult":false},{"id":422767,"adult":false},{"id":58559,"adult":false},{"id":63578,"adult":false},{"id":422768,"adult":false},{"id":422769,"adult":false},{"id":331962,"adult":false},{"id":47261,"adult":false},{"id":416094,"adult":false},{"id":57395,"adult":false},{"id":422770,"adult":false},{"id":422771,"adult":false}],"page":100,"total_pages":123,"total_results":12202}