{"results":[{"id":269222,"adult":false},{"id":401399,"adult":false},{"id":43017,"adult":false},{"id":355506,"adult":false},{"id":353074,"adult":false},{"id":428728,"adult":false},{"id":426446,"adult":null},{"id":305943,"adult":false},{"id":388276,"adult":false},{"id":422114,"adult":false},{"id":427156,"adult":false},{"id":259846,"adult":false},{"id":428729,"adult":false},{"id":340413,"adult":false},{"id":31604,"adult":false},{"id":576,"adult":false},{"id":209131,"adult":false},{"id":428730,"adult":false},{"id":408706,"adult":false},{"id":52013,"adult":false},{"id":253684,"adult":false},{"id":339111,"adult":false},{"id":337730,"adult":false},{"id":428731,"adult":false},{"id":645,"adult":false},{"id":428732,"adult":false},{"id":100288,"adult":false},{"id":428733,"adult":false},{"id":10770,"adult":false},{"id":49139,"adult":false},{"id":428734,"adult":false},{"id":296933,"adult":false},{"id":418427,"adult":false},{"id":428735,"adult":null},{"id":52885,"adult":false},{"id":98498,"adult":false},{"id":428736,"adult":false},{"id":421578,"adult":null},{"id":165966,"adult":false},{"id":137116,"adult":false},{"id":583,"adult":false},{"id":363297,"adult":false},{"id":344854,"adult":false},{"id":408842,"adult":false},{"id":7305,"adult":false},{"id":301846,"adult":false},{"id":283587,"adult":false},{"id":295830,"adult":false},{"id":428737,"adult":false},{"id":37935,"adult":false},{"id":311539,"adult":false},{"id":81738,"adult":false},{"id":8963,"adult":false},{"id":428738,"adult":false},{"id":93399,"adult":false},{"id":428739,"adult":true},{"id":421624,"adult":false},{"id":46570,"adult":false},{"id":421625,"adult":false},{"id":421626,"adult":false},{"id":421627,"adult":false},{"id":416102,"adult":false},{"id":421628,"adult":false},{"id":423891,"adult":false},{"id":423893,"adult":false},{"id":317981,"adult":false},{"id":428740,"adult":false},{"id":37813,"adult":false},{"id":75344,"adult":false},{"id":369458,"adult":false},{"id":267185,"adult":false},{"id":353326,"adult":false},{"id":264239,"adult":false},{"id":72587,"adult":false},{"id":161869,"adult":false},{"id":166694,"adult":false},{"id":128396,"adult":false},{"id":353610,"adult":false},{"id":143569,"adult":false},{"id":422603,"adult":false},{"id":316880,"adult":false},{"id":296902,"adult":false},{"id":134770,"adult":false},{"id":417199,"adult":false},{"id":52313,"adult":false},{"id":428741,"adult":false},{"id":14204,"adult":false},{"id":14425,"adult":false},{"id":428742,"adult":false},{"id":191714,"adult":false},{"id":428395,"adult":false},{"id":320004,"adult":false},{"id":15144,"adult":false},{"id":56444,"adult":false},{"id":202579,"adult":false},{"id":54897,"adult":false},{"id":216893,"adult":false},{"id":287239,"adult":false},{"id":400059,"adult":false},{"id":415712,"adult":false}],"page":23,"total_pages":123,"total_results":12242}