{"results":[{"id":187596,"adult":false},{"id":94365,"adult":false},{"id":11152,"adult":false},{"id":336882,"adult":false},{"id":223,"adult":false},{"id":2704,"adult":false},{"id":383846,"adult":false},{"id":898,"adult":false},{"id":52196,"adult":false},{"id":199423,"adult":false},{"id":206455,"adult":false},{"id":190076,"adult":false},{"id":1124,"adult":false},{"id":253450,"adult":false},{"id":189344,"adult":false},{"id":29710,"adult":false},{"id":107841,"adult":false},{"id":1619,"adult":false},{"id":28415,"adult":false},{"id":328105,"adult":false},{"id":574,"adult":false},{"id":382101,"adult":null},{"id":187494,"adult":false},{"id":312761,"adult":false},{"id":9081,"adult":false},{"id":6470,"adult":false},{"id":107010,"adult":false},{"id":11975,"adult":false},{"id":9434,"adult":false},{"id":274031,"adult":null},{"id":291,"adult":false},{"id":383847,"adult":false},{"id":187490,"adult":false},{"id":9529,"adult":false},{"id":383848,"adult":null},{"id":66979,"adult":false},{"id":251859,"adult":false},{"id":3093,"adult":false},{"id":383850,"adult":false},{"id":3132,"adult":false},{"id":383851,"adult":null},{"id":383852,"adult":false},{"id":365115,"adult":false},{"id":39451,"adult":false},{"id":244557,"adult":false},{"id":383853,"adult":null},{"id":152811,"adult":false},{"id":107881,"adult":false},{"id":179181,"adult":null},{"id":275596,"adult":false},{"id":383854,"adult":false},{"id":48238,"adult":false},{"id":366323,"adult":false},{"id":357503,"adult":false},{"id":260910,"adult":false},{"id":323660,"adult":false},{"id":383855,"adult":false},{"id":17175,"adult":false},{"id":262536,"adult":false},{"id":371367,"adult":false},{"id":383856,"adult":false},{"id":368251,"adult":false},{"id":47904,"adult":false},{"id":361618,"adult":false},{"id":370334,"adult":false},{"id":165057,"adult":false},{"id":326503,"adult":null},{"id":383857,"adult":false},{"id":383858,"adult":false},{"id":378208,"adult":false},{"id":372115,"adult":false},{"id":381789,"adult":false},{"id":73900,"adult":false},{"id":383859,"adult":false},{"id":343196,"adult":false},{"id":77057,"adult":false},{"id":114146,"adult":false},{"id":81652,"adult":false},{"id":376869,"adult":false},{"id":91417,"adult":false},{"id":282461,"adult":false},{"id":282333,"adult":null},{"id":383860,"adult":false},{"id":10514,"adult":false},{"id":278877,"adult":null},{"id":336961,"adult":false},{"id":118328,"adult":false},{"id":120921,"adult":false},{"id":18569,"adult":false},{"id":383861,"adult":false},{"id":348602,"adult":false},{"id":29617,"adult":false},{"id":242743,"adult":false},{"id":287895,"adult":false},{"id":383865,"adult":false},{"id":9339,"adult":false},{"id":175012,"adult":false},{"id":321903,"adult":false},{"id":3086,"adult":false},{"id":173429,"adult":false}],"page":62,"total_pages":123,"total_results":12205}