{"results":[{"id":299951,"adult":false},{"id":3077,"adult":false},{"id":91913,"adult":false},{"id":31264,"adult":false},{"id":28365,"adult":false},{"id":421132,"adult":false},{"id":119779,"adult":false},{"id":48193,"adult":false},{"id":33688,"adult":false},{"id":247464,"adult":false},{"id":29286,"adult":false},{"id":29270,"adult":false},{"id":62329,"adult":false},{"id":47459,"adult":false},{"id":42230,"adult":false},{"id":70586,"adult":false},{"id":309193,"adult":false},{"id":42151,"adult":false},{"id":39840,"adult":false},{"id":394284,"adult":null},{"id":12444,"adult":false},{"id":421353,"adult":false},{"id":76406,"adult":false},{"id":47184,"adult":false},{"id":14968,"adult":false},{"id":226033,"adult":false},{"id":332833,"adult":false},{"id":416233,"adult":false},{"id":397062,"adult":false},{"id":79706,"adult":false},{"id":9815,"adult":false},{"id":56256,"adult":false},{"id":58391,"adult":false},{"id":421354,"adult":false},{"id":32628,"adult":false},{"id":1718,"adult":false},{"id":315,"adult":false},{"id":215656,"adult":false},{"id":95043,"adult":false},{"id":142208,"adult":false},{"id":290385,"adult":false},{"id":421355,"adult":false},{"id":55544,"adult":false},{"id":279968,"adult":false},{"id":115168,"adult":false},{"id":272821,"adult":false},{"id":231912,"adult":true},{"id":190742,"adult":false},{"id":17836,"adult":false},{"id":115804,"adult":false},{"id":49133,"adult":false},{"id":9774,"adult":false},{"id":60011,"adult":false},{"id":52638,"adult":false},{"id":8224,"adult":false},{"id":16938,"adult":false},{"id":9599,"adult":false},{"id":19898,"adult":false},{"id":421356,"adult":false},{"id":7295,"adult":false},{"id":115988,"adult":false},{"id":421357,"adult":false},{"id":11935,"adult":false},{"id":421358,"adult":false},{"id":412514,"adult":null},{"id":253535,"adult":false},{"id":421359,"adult":false},{"id":26516,"adult":false},{"id":107397,"adult":false},{"id":129441,"adult":false},{"id":1654,"adult":false},{"id":13945,"adult":false},{"id":4023,"adult":false},{"id":270465,"adult":false},{"id":4193,"adult":false},{"id":333484,"adult":false},{"id":200098,"adult":false},{"id":29702,"adult":false},{"id":417928,"adult":null},{"id":32014,"adult":false},{"id":9576,"adult":false},{"id":343066,"adult":false},{"id":9442,"adult":false},{"id":370530,"adult":false},{"id":278410,"adult":false},{"id":41597,"adult":false},{"id":421306,"adult":null},{"id":278190,"adult":false},{"id":278399,"adult":false},{"id":278402,"adult":false},{"id":47410,"adult":false},{"id":116078,"adult":false},{"id":97,"adult":false},{"id":374617,"adult":false},{"id":193586,"adult":false},{"id":280185,"adult":false},{"id":127374,"adult":false},{"id":18900,"adult":false},{"id":24226,"adult":false},{"id":305642,"adult":false}],"page":4,"total_pages":123,"total_results":12202}