{"results":[{"id":293105,"adult":false},{"id":321130,"adult":false},{"id":81087,"adult":false},{"id":331378,"adult":false},{"id":412095,"adult":false},{"id":63644,"adult":false},{"id":196482,"adult":false},{"id":5936,"adult":false},{"id":23437,"adult":false},{"id":41373,"adult":false},{"id":220882,"adult":false},{"id":8415,"adult":false},{"id":36167,"adult":false},{"id":412096,"adult":false},{"id":18874,"adult":false},{"id":37909,"adult":false},{"id":55188,"adult":false},{"id":305920,"adult":false},{"id":333384,"adult":false},{"id":407720,"adult":false},{"id":322548,"adult":false},{"id":412097,"adult":false},{"id":412098,"adult":false},{"id":404439,"adult":false},{"id":336000,"adult":false},{"id":85601,"adult":false},{"id":400877,"adult":false},{"id":369192,"adult":false},{"id":393962,"adult":false},{"id":10577,"adult":false},{"id":347296,"adult":false},{"id":37137,"adult":false},{"id":356901,"adult":false},{"id":314833,"adult":false},{"id":412099,"adult":false},{"id":319236,"adult":false},{"id":347301,"adult":false},{"id":16295,"adult":false},{"id":412100,"adult":false},{"id":340897,"adult":false},{"id":64802,"adult":false},{"id":99132,"adult":false},{"id":158999,"adult":false},{"id":379345,"adult":false},{"id":267612,"adult":false},{"id":307002,"adult":false},{"id":236287,"adult":false},{"id":49119,"adult":false},{"id":398786,"adult":false},{"id":372226,"adult":false},{"id":21791,"adult":false},{"id":10171,"adult":false},{"id":142074,"adult":false},{"id":250222,"adult":false},{"id":9462,"adult":false},{"id":348410,"adult":false},{"id":280168,"adult":false},{"id":12508,"adult":false},{"id":395442,"adult":false},{"id":412101,"adult":false},{"id":37779,"adult":false},{"id":410508,"adult":false},{"id":284280,"adult":false},{"id":11713,"adult":false},{"id":205237,"adult":false},{"id":9461,"adult":false},{"id":246750,"adult":false},{"id":12481,"adult":false},{"id":405795,"adult":false},{"id":412102,"adult":false},{"id":34467,"adult":false},{"id":407227,"adult":false},{"id":412103,"adult":false},{"id":80742,"adult":false},{"id":105781,"adult":false},{"id":10703,"adult":false},{"id":406781,"adult":false},{"id":681,"adult":false},{"id":13665,"adult":false},{"id":412104,"adult":false},{"id":250696,"adult":false},{"id":157386,"adult":false},{"id":387046,"adult":false},{"id":352809,"adult":false},{"id":412105,"adult":false},{"id":408248,"adult":false},{"id":295385,"adult":false},{"id":298122,"adult":null},{"id":146091,"adult":false},{"id":64866,"adult":false},{"id":100688,"adult":false},{"id":5172,"adult":false},{"id":411279,"adult":false},{"id":9619,"adult":false},{"id":38850,"adult":false},{"id":206275,"adult":false},{"id":358143,"adult":false},{"id":412106,"adult":false},{"id":157293,"adult":false},{"id":107353,"adult":false}],"page":44,"total_pages":103,"total_results":10211}