{"results":[{"id":69510,"adult":false},{"id":10435,"adult":false},{"id":178569,"adult":false},{"id":1924,"adult":false},{"id":15493,"adult":false},{"id":9806,"adult":false},{"id":414360,"adult":false},{"id":16958,"adult":false},{"id":414361,"adult":false},{"id":375547,"adult":false},{"id":414362,"adult":false},{"id":414358,"adult":false},{"id":414357,"adult":false},{"id":414371,"adult":false},{"id":414373,"adult":false},{"id":414364,"adult":false},{"id":414367,"adult":false},{"id":392690,"adult":false},{"id":414744,"adult":false},{"id":408203,"adult":false},{"id":407757,"adult":false},{"id":144852,"adult":false},{"id":298025,"adult":false},{"id":390062,"adult":false},{"id":416244,"adult":false},{"id":299536,"adult":false},{"id":86822,"adult":false},{"id":376228,"adult":false},{"id":299827,"adult":false},{"id":371446,"adult":false},{"id":340677,"adult":false},{"id":227935,"adult":false},{"id":378597,"adult":false},{"id":318224,"adult":false},{"id":336890,"adult":false},{"id":317557,"adult":false},{"id":376929,"adult":false},{"id":267544,"adult":false},{"id":179269,"adult":false},{"id":230182,"adult":false},{"id":327978,"adult":false},{"id":412720,"adult":false},{"id":227738,"adult":false},{"id":329174,"adult":false},{"id":180812,"adult":false},{"id":172385,"adult":false},{"id":269494,"adult":false},{"id":177211,"adult":false},{"id":407755,"adult":false},{"id":45890,"adult":false},{"id":85109,"adult":false},{"id":416245,"adult":false},{"id":416246,"adult":null},{"id":129,"adult":false},{"id":286085,"adult":false},{"id":177454,"adult":false},{"id":367889,"adult":false},{"id":76976,"adult":false},{"id":416247,"adult":false},{"id":391698,"adult":false},{"id":320804,"adult":false},{"id":416248,"adult":false},{"id":405986,"adult":false},{"id":220468,"adult":false},{"id":32173,"adult":false},{"id":401730,"adult":false},{"id":416249,"adult":false},{"id":82977,"adult":false},{"id":408093,"adult":false},{"id":416250,"adult":false},{"id":81446,"adult":false},{"id":142313,"adult":false},{"id":11513,"adult":false},{"id":27221,"adult":false},{"id":401134,"adult":false},{"id":407928,"adult":false},{"id":11698,"adult":false},{"id":10319,"adult":false},{"id":294959,"adult":false},{"id":172814,"adult":false},{"id":405970,"adult":false},{"id":296367,"adult":false},{"id":407893,"adult":false},{"id":40633,"adult":false},{"id":407886,"adult":false},{"id":416251,"adult":false},{"id":234004,"adult":false},{"id":407891,"adult":false},{"id":108016,"adult":false},{"id":407726,"adult":false},{"id":407707,"adult":false},{"id":416252,"adult":false},{"id":31992,"adult":false},{"id":416253,"adult":false},{"id":296695,"adult":false},{"id":357405,"adult":false},{"id":24748,"adult":false},{"id":409576,"adult":false},{"id":416254,"adult":false},{"id":396443,"adult":false}],"page":20,"total_pages":141,"total_results":14019}