{"results":[{"id":41954,"adult":false},{"id":21484,"adult":false},{"id":12806,"adult":false},{"id":65686,"adult":false},{"id":84023,"adult":false},{"id":42539,"adult":false},{"id":407326,"adult":false},{"id":292795,"adult":false},{"id":10534,"adult":false},{"id":11901,"adult":false},{"id":137344,"adult":false},{"id":10747,"adult":false},{"id":24657,"adult":false},{"id":154575,"adult":false},{"id":133919,"adult":false},{"id":1398,"adult":false},{"id":43322,"adult":false},{"id":29933,"adult":false},{"id":12579,"adult":false},{"id":2000,"adult":false},{"id":362244,"adult":false},{"id":407327,"adult":false},{"id":31410,"adult":false},{"id":12078,"adult":false},{"id":327868,"adult":false},{"id":103448,"adult":false},{"id":614,"adult":false},{"id":407328,"adult":false},{"id":379,"adult":false},{"id":2112,"adult":false},{"id":5991,"adult":false},{"id":308833,"adult":null},{"id":407329,"adult":false},{"id":201749,"adult":false},{"id":124,"adult":false},{"id":250480,"adult":false},{"id":330882,"adult":false},{"id":330849,"adult":false},{"id":115054,"adult":false},{"id":389396,"adult":false},{"id":407330,"adult":false},{"id":40085,"adult":false},{"id":401325,"adult":false},{"id":339790,"adult":false},{"id":291264,"adult":false},{"id":14830,"adult":false},{"id":407331,"adult":false},{"id":28302,"adult":false},{"id":11663,"adult":false},{"id":353430,"adult":false},{"id":294512,"adult":false},{"id":75141,"adult":false},{"id":407332,"adult":false},{"id":324670,"adult":false},{"id":402692,"adult":false},{"id":407333,"adult":false},{"id":347757,"adult":false},{"id":407334,"adult":false},{"id":407335,"adult":false},{"id":407336,"adult":false},{"id":407337,"adult":null},{"id":64085,"adult":false},{"id":105506,"adult":false},{"id":407338,"adult":false},{"id":407339,"adult":true},{"id":85992,"adult":false},{"id":378108,"adult":false},{"id":407340,"adult":false},{"id":407341,"adult":false},{"id":388094,"adult":false},{"id":272690,"adult":false},{"id":257435,"adult":false},{"id":407342,"adult":false},{"id":354015,"adult":false},{"id":407343,"adult":false},{"id":387943,"adult":false},{"id":309328,"adult":false},{"id":292370,"adult":false},{"id":361259,"adult":false},{"id":321492,"adult":false},{"id":339892,"adult":false},{"id":370987,"adult":false},{"id":62408,"adult":true},{"id":12690,"adult":false},{"id":92994,"adult":false},{"id":53199,"adult":false},{"id":53193,"adult":false},{"id":58599,"adult":false},{"id":229298,"adult":false},{"id":405925,"adult":false},{"id":36143,"adult":false},{"id":185154,"adult":false},{"id":306854,"adult":false},{"id":79620,"adult":true},{"id":347751,"adult":false},{"id":18925,"adult":false},{"id":356998,"adult":false},{"id":261067,"adult":null},{"id":76701,"adult":false},{"id":358952,"adult":false}],"page":58,"total_pages":120,"total_results":11946}