{"results":[{"id":358807,"adult":false},{"id":328233,"adult":false},{"id":402930,"adult":false},{"id":393348,"adult":false},{"id":984,"adult":false},{"id":4441,"adult":false},{"id":402931,"adult":false},{"id":402932,"adult":false},{"id":381035,"adult":false},{"id":402933,"adult":false},{"id":381025,"adult":false},{"id":402934,"adult":false},{"id":395988,"adult":false},{"id":381096,"adult":false},{"id":376234,"adult":false},{"id":340627,"adult":false},{"id":137,"adult":false},{"id":295273,"adult":false},{"id":402935,"adult":false},{"id":7973,"adult":false},{"id":244316,"adult":false},{"id":381008,"adult":false},{"id":7249,"adult":false},{"id":402936,"adult":false},{"id":120670,"adult":false},{"id":394277,"adult":false},{"id":167408,"adult":false},{"id":402937,"adult":false},{"id":402938,"adult":false},{"id":402939,"adult":null},{"id":394856,"adult":false},{"id":402940,"adult":false},{"id":497,"adult":false},{"id":402941,"adult":false},{"id":402942,"adult":false},{"id":639,"adult":false},{"id":402943,"adult":false},{"id":398276,"adult":false},{"id":5176,"adult":false},{"id":214418,"adult":false},{"id":26891,"adult":false},{"id":402944,"adult":false},{"id":402945,"adult":false},{"id":15370,"adult":false},{"id":396383,"adult":false},{"id":402946,"adult":null},{"id":57586,"adult":false},{"id":396061,"adult":false},{"id":402947,"adult":false},{"id":106645,"adult":false},{"id":388223,"adult":false},{"id":402948,"adult":false},{"id":174792,"adult":false},{"id":159042,"adult":false},{"id":106637,"adult":false},{"id":402951,"adult":false},{"id":402952,"adult":false},{"id":402953,"adult":false},{"id":402954,"adult":false},{"id":217086,"adult":false},{"id":197796,"adult":false},{"id":402955,"adult":false},{"id":84661,"adult":false},{"id":280483,"adult":false},{"id":402956,"adult":false},{"id":292613,"adult":false},{"id":402957,"adult":false},{"id":400820,"adult":false},{"id":105007,"adult":false},{"id":334736,"adult":false},{"id":402958,"adult":false},{"id":402959,"adult":false},{"id":177007,"adult":false},{"id":59558,"adult":false},{"id":341057,"adult":false},{"id":249660,"adult":false},{"id":402960,"adult":false},{"id":402961,"adult":false},{"id":18493,"adult":false},{"id":402962,"adult":true},{"id":402963,"adult":false},{"id":21925,"adult":false},{"id":402964,"adult":false},{"id":212156,"adult":false},{"id":42214,"adult":false},{"id":402965,"adult":false},{"id":269306,"adult":false},{"id":347031,"adult":false},{"id":387656,"adult":false},{"id":253987,"adult":false},{"id":22521,"adult":false},{"id":46570,"adult":false},{"id":402967,"adult":false},{"id":240403,"adult":false},{"id":295551,"adult":false},{"id":89126,"adult":false},{"id":65105,"adult":false},{"id":395990,"adult":false},{"id":402968,"adult":false},{"id":402969,"adult":false}],"page":57,"total_pages":116,"total_results":11526}