{"results":[{"id":399134,"adult":false},{"id":14160,"adult":false},{"id":20003,"adult":false},{"id":280,"adult":false},{"id":25503,"adult":false},{"id":25807,"adult":false},{"id":25900,"adult":false},{"id":12,"adult":false},{"id":9057,"adult":false},{"id":27036,"adult":false},{"id":398753,"adult":false},{"id":10547,"adult":false},{"id":127380,"adult":false},{"id":37482,"adult":false},{"id":389393,"adult":false},{"id":77012,"adult":false},{"id":35852,"adult":false},{"id":77546,"adult":false},{"id":400436,"adult":false},{"id":4247,"adult":false},{"id":102580,"adult":false},{"id":4248,"adult":false},{"id":315113,"adult":true},{"id":4256,"adult":false},{"id":202509,"adult":false},{"id":4257,"adult":false},{"id":259032,"adult":false},{"id":11867,"adult":false},{"id":79596,"adult":false},{"id":332721,"adult":false},{"id":11237,"adult":false},{"id":80595,"adult":false},{"id":30195,"adult":false},{"id":174751,"adult":false},{"id":38751,"adult":false},{"id":62661,"adult":false},{"id":29159,"adult":false},{"id":36664,"adult":false},{"id":47745,"adult":false},{"id":59165,"adult":false},{"id":27543,"adult":false},{"id":399945,"adult":false},{"id":400177,"adult":false},{"id":210653,"adult":false},{"id":400186,"adult":false},{"id":64456,"adult":false},{"id":11933,"adult":false},{"id":46045,"adult":false},{"id":79401,"adult":false},{"id":85293,"adult":false},{"id":11557,"adult":false},{"id":179057,"adult":false},{"id":47628,"adult":false},{"id":81981,"adult":false},{"id":30689,"adult":false},{"id":45802,"adult":false},{"id":4977,"adult":false},{"id":114498,"adult":false},{"id":96500,"adult":false},{"id":26893,"adult":false},{"id":168317,"adult":false},{"id":46043,"adult":false},{"id":29835,"adult":false},{"id":21338,"adult":false},{"id":95949,"adult":false},{"id":68976,"adult":false},{"id":258054,"adult":false},{"id":72412,"adult":false},{"id":28434,"adult":false},{"id":14362,"adult":false},{"id":83664,"adult":false},{"id":108232,"adult":false},{"id":185147,"adult":false},{"id":77066,"adult":false},{"id":29112,"adult":false},{"id":154718,"adult":false},{"id":179182,"adult":false},{"id":521,"adult":false},{"id":72529,"adult":false},{"id":230179,"adult":false},{"id":41173,"adult":false},{"id":30801,"adult":false},{"id":175074,"adult":false},{"id":263341,"adult":false},{"id":263910,"adult":false},{"id":300693,"adult":false},{"id":179184,"adult":false},{"id":290370,"adult":false},{"id":139357,"adult":false},{"id":43880,"adult":false},{"id":210908,"adult":false},{"id":398394,"adult":false},{"id":258852,"adult":false},{"id":61722,"adult":false},{"id":10885,"adult":false},{"id":396629,"adult":null},{"id":396547,"adult":false},{"id":109481,"adult":false},{"id":17111,"adult":false},{"id":333562,"adult":false}],"page":10,"total_pages":116,"total_results":11568}