{"results":[{"id":70160,"adult":false},{"id":399327,"adult":false},{"id":399326,"adult":false},{"id":4708,"adult":false},{"id":236,"adult":false},{"id":206173,"adult":false},{"id":349228,"adult":false},{"id":335988,"adult":false},{"id":27889,"adult":false},{"id":349285,"adult":false},{"id":10409,"adult":false},{"id":190847,"adult":false},{"id":12664,"adult":false},{"id":12684,"adult":false},{"id":403127,"adult":false},{"id":398472,"adult":false},{"id":12105,"adult":false},{"id":14831,"adult":false},{"id":16346,"adult":false},{"id":99044,"adult":false},{"id":220095,"adult":false},{"id":382033,"adult":false},{"id":403128,"adult":false},{"id":195830,"adult":false},{"id":15764,"adult":false},{"id":389460,"adult":false},{"id":403129,"adult":false},{"id":149261,"adult":false},{"id":43415,"adult":false},{"id":255585,"adult":false},{"id":242197,"adult":false},{"id":49013,"adult":false},{"id":31696,"adult":false},{"id":403130,"adult":false},{"id":252841,"adult":false},{"id":179443,"adult":false},{"id":403131,"adult":false},{"id":341671,"adult":false},{"id":22638,"adult":false},{"id":403132,"adult":false},{"id":53712,"adult":false},{"id":222628,"adult":false},{"id":392835,"adult":false},{"id":403133,"adult":false},{"id":394048,"adult":false},{"id":56152,"adult":false},{"id":341043,"adult":false},{"id":108222,"adult":false},{"id":403134,"adult":false},{"id":121992,"adult":false},{"id":223704,"adult":false},{"id":161172,"adult":false},{"id":111344,"adult":false},{"id":22803,"adult":false},{"id":403135,"adult":false},{"id":170568,"adult":false},{"id":403136,"adult":false},{"id":534,"adult":false},{"id":126601,"adult":false},{"id":403138,"adult":false},{"id":57158,"adult":false},{"id":403139,"adult":false},{"id":75612,"adult":false},{"id":21309,"adult":false},{"id":403140,"adult":true},{"id":9411,"adult":false},{"id":280191,"adult":false},{"id":388,"adult":false},{"id":81396,"adult":false},{"id":403141,"adult":false},{"id":1965,"adult":false},{"id":403142,"adult":true},{"id":207185,"adult":false},{"id":26652,"adult":false},{"id":403143,"adult":true},{"id":187591,"adult":false},{"id":81774,"adult":false},{"id":155765,"adult":false},{"id":403144,"adult":true},{"id":114790,"adult":false},{"id":403145,"adult":false},{"id":163772,"adult":false},{"id":163754,"adult":false},{"id":28638,"adult":false},{"id":103124,"adult":false},{"id":89458,"adult":false},{"id":86794,"adult":false},{"id":932,"adult":false},{"id":104154,"adult":false},{"id":147672,"adult":false},{"id":403146,"adult":true},{"id":310172,"adult":false},{"id":305723,"adult":false},{"id":403147,"adult":true},{"id":403148,"adult":false},{"id":62798,"adult":false},{"id":403149,"adult":true},{"id":143830,"adult":false},{"id":381034,"adult":false},{"id":325071,"adult":false}],"page":69,"total_pages":116,"total_results":11526}