{"results":[{"id":389882,"adult":false},{"id":368714,"adult":null},{"id":389883,"adult":false},{"id":25635,"adult":false},{"id":332945,"adult":false},{"id":79218,"adult":false},{"id":129800,"adult":false},{"id":389884,"adult":false},{"id":165344,"adult":false},{"id":164372,"adult":false},{"id":389885,"adult":false},{"id":86780,"adult":false},{"id":389886,"adult":false},{"id":20884,"adult":false},{"id":364210,"adult":null},{"id":69817,"adult":false},{"id":63715,"adult":false},{"id":142810,"adult":false},{"id":147376,"adult":false},{"id":70918,"adult":false},{"id":77841,"adult":false},{"id":34592,"adult":false},{"id":389887,"adult":false},{"id":64387,"adult":false},{"id":240832,"adult":false},{"id":245891,"adult":false},{"id":202575,"adult":false},{"id":389889,"adult":false},{"id":380896,"adult":null},{"id":198184,"adult":false},{"id":45662,"adult":false},{"id":376831,"adult":false},{"id":389890,"adult":false},{"id":141009,"adult":false},{"id":298225,"adult":false},{"id":402,"adult":false},{"id":48236,"adult":false},{"id":389891,"adult":false},{"id":43956,"adult":false},{"id":389892,"adult":false},{"id":389893,"adult":false},{"id":24381,"adult":false},{"id":389894,"adult":false},{"id":389895,"adult":false},{"id":28176,"adult":false},{"id":339909,"adult":false},{"id":389896,"adult":false},{"id":389897,"adult":false},{"id":289305,"adult":false},{"id":298555,"adult":false},{"id":214030,"adult":false},{"id":389898,"adult":false},{"id":162807,"adult":false},{"id":389899,"adult":false},{"id":268171,"adult":false},{"id":96606,"adult":false},{"id":389900,"adult":null},{"id":389901,"adult":false},{"id":389902,"adult":false},{"id":389903,"adult":false},{"id":157690,"adult":false},{"id":132279,"adult":false},{"id":389904,"adult":false},{"id":389905,"adult":false},{"id":389906,"adult":null},{"id":231576,"adult":false},{"id":284537,"adult":false},{"id":277685,"adult":false},{"id":286554,"adult":false},{"id":48879,"adult":false},{"id":180296,"adult":false},{"id":336207,"adult":false},{"id":389907,"adult":false},{"id":389908,"adult":false},{"id":286654,"adult":false},{"id":389909,"adult":false},{"id":329984,"adult":false},{"id":603,"adult":false},{"id":389910,"adult":false},{"id":604,"adult":false},{"id":81005,"adult":false},{"id":605,"adult":false},{"id":50839,"adult":false},{"id":278460,"adult":false},{"id":389911,"adult":false},{"id":61591,"adult":false},{"id":252351,"adult":false},{"id":48484,"adult":false},{"id":38811,"adult":false},{"id":43338,"adult":false},{"id":96288,"adult":false},{"id":73990,"adult":false},{"id":382295,"adult":true},{"id":389912,"adult":false},{"id":389913,"adult":false},{"id":26908,"adult":false},{"id":73541,"adult":false},{"id":173042,"adult":false},{"id":60160,"adult":false},{"id":266139,"adult":false}],"page":112,"total_pages":120,"total_results":11936}