{"results":[{"id":281524,"adult":false},{"id":339908,"adult":false},{"id":128177,"adult":false},{"id":379393,"adult":false},{"id":152748,"adult":false},{"id":285319,"adult":false},{"id":86361,"adult":false},{"id":379394,"adult":false},{"id":280696,"adult":false},{"id":327829,"adult":false},{"id":379395,"adult":false},{"id":949,"adult":false},{"id":379396,"adult":false},{"id":330652,"adult":false},{"id":35711,"adult":false},{"id":277623,"adult":false},{"id":379397,"adult":null},{"id":331372,"adult":false},{"id":62764,"adult":false},{"id":44147,"adult":false},{"id":331454,"adult":false},{"id":62211,"adult":false},{"id":164395,"adult":false},{"id":35125,"adult":false},{"id":379398,"adult":false},{"id":278,"adult":false},{"id":332243,"adult":false},{"id":1647,"adult":false},{"id":332706,"adult":false},{"id":318954,"adult":false},{"id":311446,"adult":false},{"id":333170,"adult":false},{"id":175398,"adult":false},{"id":45797,"adult":false},{"id":379399,"adult":false},{"id":373476,"adult":false},{"id":173952,"adult":false},{"id":81796,"adult":false},{"id":80161,"adult":false},{"id":12614,"adult":false},{"id":297654,"adult":false},{"id":379400,"adult":false},{"id":72756,"adult":false},{"id":7512,"adult":false},{"id":5689,"adult":false},{"id":170428,"adult":false},{"id":212898,"adult":false},{"id":379401,"adult":false},{"id":342820,"adult":false},{"id":129713,"adult":false},{"id":200148,"adult":false},{"id":254578,"adult":false},{"id":379402,"adult":null},{"id":1417,"adult":false},{"id":355957,"adult":false},{"id":379403,"adult":false},{"id":362541,"adult":false},{"id":296440,"adult":false},{"id":379404,"adult":false},{"id":370169,"adult":false},{"id":379405,"adult":false},{"id":361122,"adult":false},{"id":354813,"adult":false},{"id":18513,"adult":false},{"id":373379,"adult":false},{"id":363618,"adult":false},{"id":4256,"adult":false},{"id":379406,"adult":false},{"id":379407,"adult":false},{"id":191720,"adult":false},{"id":65538,"adult":false},{"id":375700,"adult":false},{"id":28751,"adult":false},{"id":379408,"adult":false},{"id":333099,"adult":false},{"id":379409,"adult":false},{"id":329650,"adult":false},{"id":379410,"adult":false},{"id":1426,"adult":false},{"id":266604,"adult":false},{"id":11547,"adult":false},{"id":379411,"adult":false},{"id":15804,"adult":false},{"id":16249,"adult":false},{"id":299353,"adult":false},{"id":9563,"adult":false},{"id":57598,"adult":false},{"id":346525,"adult":false},{"id":295998,"adult":false},{"id":314280,"adult":false},{"id":379412,"adult":null},{"id":313688,"adult":false},{"id":323792,"adult":false},{"id":264503,"adult":false},{"id":10528,"adult":false},{"id":356300,"adult":false},{"id":379413,"adult":false},{"id":263240,"adult":false},{"id":321098,"adult":null},{"id":379414,"adult":false}],"page":103,"total_pages":226,"total_results":22514}