{"results":[{"id":396552,"adult":false},{"id":10030,"adult":false},{"id":126876,"adult":false},{"id":104159,"adult":false},{"id":260994,"adult":false},{"id":25234,"adult":false},{"id":91923,"adult":false},{"id":299822,"adult":false},{"id":396553,"adult":false},{"id":10472,"adult":false},{"id":65503,"adult":false},{"id":241151,"adult":false},{"id":291136,"adult":false},{"id":38155,"adult":false},{"id":16321,"adult":false},{"id":15598,"adult":false},{"id":238298,"adult":false},{"id":76608,"adult":false},{"id":367323,"adult":false},{"id":384689,"adult":false},{"id":26263,"adult":false},{"id":366091,"adult":false},{"id":49017,"adult":false},{"id":396554,"adult":false},{"id":377847,"adult":false},{"id":10577,"adult":false},{"id":135812,"adult":false},{"id":10838,"adult":false},{"id":190901,"adult":false},{"id":267831,"adult":false},{"id":9755,"adult":false},{"id":49640,"adult":false},{"id":134673,"adult":false},{"id":338789,"adult":false},{"id":25848,"adult":false},{"id":84426,"adult":false},{"id":41946,"adult":false},{"id":263124,"adult":false},{"id":339788,"adult":false},{"id":345661,"adult":false},{"id":33388,"adult":false},{"id":351848,"adult":false},{"id":394650,"adult":false},{"id":396555,"adult":false},{"id":53719,"adult":false},{"id":67375,"adult":false},{"id":204683,"adult":false},{"id":43829,"adult":false},{"id":218784,"adult":false},{"id":192631,"adult":false},{"id":372411,"adult":false},{"id":396556,"adult":false},{"id":220882,"adult":false},{"id":396557,"adult":false},{"id":70345,"adult":false},{"id":48686,"adult":false},{"id":286192,"adult":false},{"id":21490,"adult":false},{"id":8281,"adult":false},{"id":186296,"adult":false},{"id":31911,"adult":false},{"id":127194,"adult":false},{"id":195098,"adult":false},{"id":396558,"adult":false},{"id":99749,"adult":false},{"id":20424,"adult":false},{"id":354220,"adult":false},{"id":53426,"adult":false},{"id":396559,"adult":false},{"id":288798,"adult":false},{"id":367139,"adult":false},{"id":2666,"adult":false},{"id":396560,"adult":false},{"id":134797,"adult":false},{"id":393815,"adult":false},{"id":198663,"adult":false},{"id":395202,"adult":false},{"id":392125,"adult":false},{"id":313654,"adult":false},{"id":116545,"adult":false},{"id":392794,"adult":false},{"id":145713,"adult":false},{"id":292169,"adult":false},{"id":396561,"adult":false},{"id":15498,"adult":false},{"id":12231,"adult":false},{"id":50295,"adult":false},{"id":12269,"adult":false},{"id":14415,"adult":false},{"id":12592,"adult":false},{"id":12712,"adult":false},{"id":351511,"adult":false},{"id":351507,"adult":false},{"id":15539,"adult":false},{"id":317423,"adult":false},{"id":15537,"adult":false},{"id":288346,"adult":false},{"id":12549,"adult":false},{"id":351584,"adult":false},{"id":11389,"adult":false}],"page":76,"total_pages":130,"total_results":12927}