{"results":[{"id":52260,"adult":false},{"id":373841,"adult":false},{"id":382413,"adult":false},{"id":256958,"adult":false},{"id":382414,"adult":false},{"id":26722,"adult":false},{"id":44009,"adult":false},{"id":293982,"adult":false},{"id":382415,"adult":false},{"id":218730,"adult":false},{"id":382416,"adult":false},{"id":382417,"adult":false},{"id":279171,"adult":false},{"id":13680,"adult":false},{"id":382418,"adult":false},{"id":258480,"adult":false},{"id":382419,"adult":false},{"id":136611,"adult":false},{"id":382420,"adult":false},{"id":306610,"adult":false},{"id":27906,"adult":false},{"id":284294,"adult":false},{"id":382421,"adult":false},{"id":322061,"adult":false},{"id":322127,"adult":false},{"id":289187,"adult":false},{"id":149113,"adult":false},{"id":371833,"adult":false},{"id":379697,"adult":false},{"id":346388,"adult":false},{"id":359624,"adult":false},{"id":21380,"adult":false},{"id":8945,"adult":false},{"id":31696,"adult":false},{"id":102362,"adult":false},{"id":45317,"adult":false},{"id":197336,"adult":false},{"id":23168,"adult":false},{"id":169720,"adult":false},{"id":321140,"adult":false},{"id":395,"adult":false},{"id":85699,"adult":false},{"id":329307,"adult":false},{"id":122307,"adult":false},{"id":12143,"adult":false},{"id":278777,"adult":false},{"id":129530,"adult":false},{"id":360482,"adult":false},{"id":335722,"adult":true},{"id":202158,"adult":false},{"id":382422,"adult":false},{"id":382423,"adult":false},{"id":21174,"adult":false},{"id":382424,"adult":false},{"id":98339,"adult":false},{"id":382425,"adult":false},{"id":358322,"adult":false},{"id":382426,"adult":false},{"id":382427,"adult":false},{"id":1538,"adult":false},{"id":300803,"adult":false},{"id":5708,"adult":false},{"id":10473,"adult":false},{"id":35694,"adult":false},{"id":8840,"adult":false},{"id":11386,"adult":false},{"id":382428,"adult":false},{"id":382431,"adult":false},{"id":335572,"adult":false},{"id":382432,"adult":false},{"id":227348,"adult":false},{"id":56651,"adult":false},{"id":380427,"adult":null},{"id":364504,"adult":false},{"id":316246,"adult":false},{"id":382433,"adult":false},{"id":95906,"adult":true},{"id":229088,"adult":false},{"id":620,"adult":false},{"id":2978,"adult":false},{"id":62543,"adult":false},{"id":27845,"adult":false},{"id":24671,"adult":false},{"id":382434,"adult":false},{"id":291819,"adult":true},{"id":179144,"adult":false},{"id":10935,"adult":false},{"id":14831,"adult":false},{"id":324064,"adult":false},{"id":2604,"adult":false},{"id":109949,"adult":false},{"id":12162,"adult":false},{"id":338776,"adult":true},{"id":43939,"adult":false},{"id":792,"adult":false},{"id":76934,"adult":false},{"id":328884,"adult":false},{"id":43260,"adult":false},{"id":46870,"adult":false},{"id":847,"adult":false}],"page":107,"total_pages":119,"total_results":11854}