{"results":[{"id":14666,"adult":false},{"id":288933,"adult":false},{"id":292431,"adult":false},{"id":16060,"adult":false},{"id":43814,"adult":false},{"id":317422,"adult":false},{"id":339739,"adult":false},{"id":345689,"adult":false},{"id":372513,"adult":false},{"id":11870,"adult":false},{"id":14711,"adult":false},{"id":26728,"adult":false},{"id":385374,"adult":false},{"id":300503,"adult":false},{"id":221707,"adult":false},{"id":293319,"adult":false},{"id":19760,"adult":false},{"id":319644,"adult":false},{"id":312520,"adult":false},{"id":33273,"adult":false},{"id":19848,"adult":false},{"id":381843,"adult":false},{"id":48620,"adult":false},{"id":48601,"adult":false},{"id":363185,"adult":false},{"id":10066,"adult":false},{"id":157354,"adult":false},{"id":44635,"adult":false},{"id":61415,"adult":false},{"id":150202,"adult":false},{"id":45261,"adult":false},{"id":175555,"adult":false},{"id":51055,"adult":false},{"id":192345,"adult":false},{"id":60666,"adult":false},{"id":69640,"adult":false},{"id":14171,"adult":false},{"id":85230,"adult":false},{"id":42777,"adult":false},{"id":385375,"adult":true},{"id":213529,"adult":false},{"id":221945,"adult":false},{"id":273907,"adult":false},{"id":385376,"adult":false},{"id":383502,"adult":false},{"id":190859,"adult":false},{"id":237211,"adult":false},{"id":223702,"adult":false},{"id":385377,"adult":false},{"id":384766,"adult":false},{"id":329004,"adult":false},{"id":377897,"adult":false},{"id":24754,"adult":false},{"id":20457,"adult":false},{"id":365498,"adult":false},{"id":105864,"adult":false},{"id":10361,"adult":false},{"id":11531,"adult":false},{"id":385378,"adult":false},{"id":385379,"adult":false},{"id":40886,"adult":false},{"id":2259,"adult":false},{"id":326857,"adult":false},{"id":581,"adult":false},{"id":385380,"adult":false},{"id":10431,"adult":false},{"id":321066,"adult":false},{"id":378059,"adult":false},{"id":292010,"adult":false},{"id":385381,"adult":false},{"id":215211,"adult":false},{"id":278927,"adult":false},{"id":246655,"adult":false},{"id":242310,"adult":false},{"id":385382,"adult":false},{"id":372851,"adult":false},{"id":241259,"adult":false},{"id":26743,"adult":false},{"id":209361,"adult":false},{"id":290595,"adult":false},{"id":269705,"adult":false},{"id":115348,"adult":false},{"id":159613,"adult":false},{"id":210777,"adult":false},{"id":28806,"adult":false},{"id":68735,"adult":false},{"id":47933,"adult":false},{"id":11163,"adult":false},{"id":258489,"adult":false},{"id":121873,"adult":false},{"id":216282,"adult":false},{"id":188927,"adult":false},{"id":297761,"adult":false},{"id":19422,"adult":false},{"id":210860,"adult":false},{"id":26123,"adult":false},{"id":385383,"adult":false},{"id":265208,"adult":false},{"id":242765,"adult":false},{"id":385384,"adult":false}],"page":12,"total_pages":123,"total_results":12230}