{"results":[{"id":252412,"adult":false},{"id":22969,"adult":false},{"id":56840,"adult":false},{"id":126019,"adult":false},{"id":111499,"adult":false},{"id":66473,"adult":false},{"id":111997,"adult":false},{"id":348668,"adult":false},{"id":372085,"adult":null},{"id":393801,"adult":false},{"id":270049,"adult":false},{"id":151914,"adult":false},{"id":393802,"adult":false},{"id":383829,"adult":false},{"id":264878,"adult":false},{"id":42683,"adult":false},{"id":10361,"adult":false},{"id":52758,"adult":false},{"id":218351,"adult":false},{"id":206548,"adult":false},{"id":393803,"adult":false},{"id":777,"adult":false},{"id":64311,"adult":false},{"id":179553,"adult":false},{"id":323874,"adult":null},{"id":327747,"adult":false},{"id":306131,"adult":null},{"id":393804,"adult":false},{"id":300063,"adult":null},{"id":28345,"adult":false},{"id":306130,"adult":null},{"id":253454,"adult":false},{"id":380231,"adult":false},{"id":303276,"adult":null},{"id":52432,"adult":false},{"id":133275,"adult":false},{"id":380221,"adult":false},{"id":77870,"adult":false},{"id":246887,"adult":false},{"id":48196,"adult":false},{"id":173605,"adult":false},{"id":5673,"adult":true},{"id":78734,"adult":false},{"id":106635,"adult":false},{"id":17169,"adult":false},{"id":14846,"adult":false},{"id":80087,"adult":false},{"id":393805,"adult":false},{"id":41059,"adult":false},{"id":52229,"adult":false},{"id":263261,"adult":false},{"id":58028,"adult":false},{"id":180004,"adult":false},{"id":50983,"adult":false},{"id":53857,"adult":false},{"id":166626,"adult":false},{"id":335984,"adult":false},{"id":36123,"adult":false},{"id":23724,"adult":false},{"id":25599,"adult":false},{"id":99917,"adult":false},{"id":43278,"adult":false},{"id":259110,"adult":false},{"id":393806,"adult":false},{"id":24103,"adult":false},{"id":119525,"adult":false},{"id":110128,"adult":false},{"id":393807,"adult":false},{"id":290149,"adult":false},{"id":39209,"adult":false},{"id":393808,"adult":false},{"id":32077,"adult":false},{"id":208759,"adult":false},{"id":139777,"adult":false},{"id":15916,"adult":false},{"id":307479,"adult":false},{"id":185191,"adult":false},{"id":209610,"adult":false},{"id":635,"adult":false},{"id":24643,"adult":false},{"id":10467,"adult":false},{"id":62836,"adult":false},{"id":365884,"adult":null},{"id":87584,"adult":false},{"id":393809,"adult":false},{"id":393810,"adult":false},{"id":162421,"adult":false},{"id":393811,"adult":false},{"id":40688,"adult":false},{"id":167032,"adult":false},{"id":310925,"adult":false},{"id":18215,"adult":false},{"id":393812,"adult":false},{"id":10120,"adult":false},{"id":1407,"adult":false},{"id":393813,"adult":null},{"id":199939,"adult":false},{"id":393814,"adult":false},{"id":276488,"adult":false},{"id":2204,"adult":false}],"page":61,"total_pages":127,"total_results":12659}