{"results":[{"id":258767,"adult":false},{"id":11599,"adult":false},{"id":51167,"adult":false},{"id":340677,"adult":false},{"id":428709,"adult":false},{"id":363093,"adult":false},{"id":4550,"adult":false},{"id":218142,"adult":false},{"id":428246,"adult":false},{"id":341035,"adult":false},{"id":252059,"adult":false},{"id":4689,"adult":false},{"id":38010,"adult":false},{"id":11237,"adult":false},{"id":130922,"adult":false},{"id":423187,"adult":null},{"id":33564,"adult":false},{"id":41213,"adult":false},{"id":51092,"adult":false},{"id":428710,"adult":null},{"id":99883,"adult":false},{"id":33253,"adult":false},{"id":339844,"adult":false},{"id":389272,"adult":false},{"id":135195,"adult":false},{"id":93496,"adult":false},{"id":428711,"adult":false},{"id":112447,"adult":false},{"id":428712,"adult":false},{"id":11019,"adult":false},{"id":378991,"adult":false},{"id":324670,"adult":false},{"id":337970,"adult":false},{"id":31417,"adult":false},{"id":428713,"adult":null},{"id":396102,"adult":null},{"id":428714,"adult":false},{"id":335507,"adult":false},{"id":2115,"adult":false},{"id":306963,"adult":false},{"id":181583,"adult":false},{"id":9835,"adult":false},{"id":18937,"adult":false},{"id":9313,"adult":false},{"id":241261,"adult":false},{"id":11454,"adult":false},{"id":60750,"adult":false},{"id":428715,"adult":false},{"id":98084,"adult":false},{"id":10209,"adult":false},{"id":290133,"adult":false},{"id":9342,"adult":false},{"id":8129,"adult":false},{"id":68730,"adult":false},{"id":281560,"adult":false},{"id":392820,"adult":false},{"id":298878,"adult":false},{"id":227604,"adult":false},{"id":96916,"adult":false},{"id":850,"adult":false},{"id":250726,"adult":false},{"id":176651,"adult":false},{"id":138832,"adult":false},{"id":13570,"adult":false},{"id":428716,"adult":null},{"id":55107,"adult":false},{"id":55705,"adult":false},{"id":325344,"adult":false},{"id":1567,"adult":false},{"id":39437,"adult":false},{"id":8838,"adult":false},{"id":364690,"adult":false},{"id":9943,"adult":false},{"id":30698,"adult":false},{"id":314451,"adult":false},{"id":80436,"adult":false},{"id":88752,"adult":false},{"id":42099,"adult":false},{"id":4415,"adult":false},{"id":96928,"adult":false},{"id":242951,"adult":false},{"id":9440,"adult":false},{"id":64920,"adult":false},{"id":31622,"adult":false},{"id":121036,"adult":false},{"id":21132,"adult":false},{"id":5902,"adult":false},{"id":369202,"adult":false},{"id":382653,"adult":false},{"id":10674,"adult":false},{"id":20225,"adult":false},{"id":9445,"adult":false},{"id":47881,"adult":false},{"id":62589,"adult":false},{"id":386882,"adult":false},{"id":368940,"adult":false},{"id":279946,"adult":false},{"id":36982,"adult":false},{"id":401441,"adult":false},{"id":42801,"adult":false}],"page":21,"total_pages":123,"total_results":12242}