{"results":[{"id":79362,"adult":false},{"id":11039,"adult":false},{"id":78553,"adult":false},{"id":81716,"adult":false},{"id":16869,"adult":false},{"id":37903,"adult":false},{"id":291718,"adult":false},{"id":12523,"adult":false},{"id":341273,"adult":false},{"id":404488,"adult":true},{"id":400646,"adult":null},{"id":12455,"adult":false},{"id":333386,"adult":false},{"id":404489,"adult":false},{"id":402370,"adult":false},{"id":329010,"adult":false},{"id":404490,"adult":false},{"id":32679,"adult":false},{"id":141423,"adult":false},{"id":404491,"adult":false},{"id":83564,"adult":false},{"id":401449,"adult":false},{"id":271668,"adult":false},{"id":384469,"adult":false},{"id":396611,"adult":false},{"id":382682,"adult":false},{"id":402743,"adult":false},{"id":15947,"adult":false},{"id":378192,"adult":false},{"id":380473,"adult":false},{"id":267192,"adult":false},{"id":388840,"adult":false},{"id":29584,"adult":false},{"id":392097,"adult":false},{"id":378208,"adult":false},{"id":393298,"adult":false},{"id":97296,"adult":false},{"id":662,"adult":false},{"id":283552,"adult":false},{"id":404492,"adult":true},{"id":321860,"adult":false},{"id":51642,"adult":false},{"id":172590,"adult":false},{"id":9510,"adult":false},{"id":404494,"adult":true},{"id":284427,"adult":false},{"id":404495,"adult":false},{"id":402643,"adult":false},{"id":404496,"adult":false},{"id":12610,"adult":false},{"id":268896,"adult":false},{"id":404497,"adult":true},{"id":1771,"adult":false},{"id":7347,"adult":false},{"id":404022,"adult":false},{"id":404498,"adult":true},{"id":404499,"adult":null},{"id":404500,"adult":false},{"id":280840,"adult":false},{"id":47931,"adult":false},{"id":228150,"adult":false},{"id":404501,"adult":true},{"id":29146,"adult":false},{"id":211528,"adult":false},{"id":28997,"adult":false},{"id":404502,"adult":true},{"id":28978,"adult":false},{"id":345235,"adult":false},{"id":404503,"adult":false},{"id":45874,"adult":false},{"id":404504,"adult":false},{"id":293166,"adult":false},{"id":266999,"adult":false},{"id":22109,"adult":false},{"id":136082,"adult":false},{"id":264591,"adult":false},{"id":210633,"adult":false},{"id":155445,"adult":false},{"id":292691,"adult":false},{"id":33613,"adult":false},{"id":19963,"adult":false},{"id":90093,"adult":false},{"id":15472,"adult":false},{"id":2443,"adult":false},{"id":404505,"adult":false},{"id":141077,"adult":false},{"id":318954,"adult":false},{"id":169340,"adult":false},{"id":42217,"adult":false},{"id":13885,"adult":false},{"id":404506,"adult":false},{"id":404508,"adult":false},{"id":49511,"adult":false},{"id":404510,"adult":false},{"id":404514,"adult":false},{"id":267880,"adult":false},{"id":39517,"adult":false},{"id":404515,"adult":false},{"id":241706,"adult":false},{"id":35217,"adult":false}],"page":9,"total_pages":112,"total_results":11190}