{"results":[{"id":224630,"adult":false},{"id":181764,"adult":false},{"id":205795,"adult":false},{"id":265463,"adult":false},{"id":265470,"adult":false},{"id":209182,"adult":false},{"id":296574,"adult":false},{"id":140820,"adult":false},{"id":22609,"adult":false},{"id":138567,"adult":false},{"id":124105,"adult":false},{"id":157421,"adult":false},{"id":86690,"adult":false},{"id":265472,"adult":false},{"id":190163,"adult":false},{"id":17832,"adult":false},{"id":129298,"adult":false},{"id":78180,"adult":false},{"id":85201,"adult":false},{"id":200671,"adult":false},{"id":183760,"adult":false},{"id":365096,"adult":false},{"id":188074,"adult":false},{"id":149744,"adult":false},{"id":413260,"adult":false},{"id":124118,"adult":false},{"id":362298,"adult":false},{"id":67354,"adult":false},{"id":180644,"adult":false},{"id":11901,"adult":false},{"id":76914,"adult":false},{"id":422016,"adult":false},{"id":178158,"adult":false},{"id":422017,"adult":false},{"id":161119,"adult":false},{"id":391051,"adult":false},{"id":32045,"adult":false},{"id":387893,"adult":false},{"id":415550,"adult":false},{"id":364426,"adult":false},{"id":422018,"adult":false},{"id":393985,"adult":false},{"id":38027,"adult":false},{"id":422019,"adult":false},{"id":422020,"adult":false},{"id":211998,"adult":false},{"id":101152,"adult":false},{"id":109086,"adult":false},{"id":224007,"adult":false},{"id":29814,"adult":false},{"id":138900,"adult":false},{"id":422021,"adult":false},{"id":88353,"adult":false},{"id":318288,"adult":false},{"id":89697,"adult":false},{"id":110152,"adult":false},{"id":422022,"adult":false},{"id":146138,"adult":false},{"id":422023,"adult":false},{"id":365936,"adult":false},{"id":334739,"adult":false},{"id":422025,"adult":false},{"id":422026,"adult":false},{"id":89325,"adult":false},{"id":422027,"adult":false},{"id":29445,"adult":false},{"id":281621,"adult":false},{"id":9065,"adult":false},{"id":132815,"adult":false},{"id":53988,"adult":false},{"id":14409,"adult":false},{"id":254318,"adult":false},{"id":422028,"adult":false},{"id":53252,"adult":false},{"id":422029,"adult":false},{"id":186997,"adult":false},{"id":365834,"adult":false},{"id":14506,"adult":false},{"id":422030,"adult":false},{"id":263115,"adult":false},{"id":243270,"adult":false},{"id":49264,"adult":false},{"id":422031,"adult":false},{"id":422032,"adult":false},{"id":422033,"adult":false},{"id":144428,"adult":false},{"id":422034,"adult":false},{"id":333,"adult":false},{"id":176747,"adult":false},{"id":43278,"adult":false},{"id":126016,"adult":false},{"id":17978,"adult":false},{"id":53229,"adult":false},{"id":315304,"adult":false},{"id":348514,"adult":false},{"id":422036,"adult":false},{"id":352161,"adult":false},{"id":148766,"adult":false},{"id":126802,"adult":false},{"id":13457,"adult":false}],"page":55,"total_pages":123,"total_results":12202}