{"results":[{"id":89481,"adult":false},{"id":13409,"adult":false},{"id":37932,"adult":false},{"id":253120,"adult":false},{"id":12639,"adult":false},{"id":44718,"adult":false},{"id":2056,"adult":false},{"id":38171,"adult":false},{"id":5156,"adult":false},{"id":14933,"adult":false},{"id":13922,"adult":false},{"id":55376,"adult":false},{"id":72253,"adult":false},{"id":261065,"adult":false},{"id":83900,"adult":false},{"id":30969,"adult":false},{"id":44500,"adult":false},{"id":20085,"adult":false},{"id":13967,"adult":false},{"id":78698,"adult":false},{"id":70859,"adult":false},{"id":48482,"adult":false},{"id":127548,"adult":false},{"id":85032,"adult":false},{"id":145668,"adult":false},{"id":38410,"adult":false},{"id":267,"adult":false},{"id":98932,"adult":false},{"id":10564,"adult":false},{"id":271567,"adult":false},{"id":23764,"adult":false},{"id":48612,"adult":false},{"id":11898,"adult":false},{"id":42723,"adult":false},{"id":198,"adult":false},{"id":1968,"adult":false},{"id":29445,"adult":false},{"id":138901,"adult":false},{"id":383,"adult":false},{"id":13728,"adult":false},{"id":199712,"adult":false},{"id":32091,"adult":false},{"id":20197,"adult":false},{"id":9056,"adult":false},{"id":25053,"adult":false},{"id":11837,"adult":false},{"id":44478,"adult":false},{"id":146223,"adult":false},{"id":12557,"adult":null},{"id":61346,"adult":false},{"id":12660,"adult":false},{"id":10436,"adult":false},{"id":22911,"adult":false},{"id":13723,"adult":false},{"id":11904,"adult":false},{"id":256040,"adult":false},{"id":902,"adult":false},{"id":15577,"adult":false},{"id":7182,"adult":false},{"id":25364,"adult":false},{"id":53882,"adult":false},{"id":93858,"adult":false},{"id":9727,"adult":false},{"id":10999,"adult":false},{"id":19956,"adult":false},{"id":1872,"adult":false},{"id":44899,"adult":false},{"id":68446,"adult":false},{"id":18899,"adult":false},{"id":42595,"adult":false},{"id":80390,"adult":false},{"id":26301,"adult":false},{"id":10113,"adult":false},{"id":13257,"adult":false},{"id":10404,"adult":false},{"id":34216,"adult":false},{"id":78307,"adult":false},{"id":75901,"adult":false},{"id":73614,"adult":false},{"id":24525,"adult":false},{"id":253079,"adult":false},{"id":12484,"adult":false},{"id":40682,"adult":false},{"id":8860,"adult":false},{"id":102179,"adult":false},{"id":19222,"adult":false},{"id":80215,"adult":false},{"id":37169,"adult":false},{"id":89593,"adult":false},{"id":51300,"adult":false},{"id":256687,"adult":false},{"id":277230,"adult":false},{"id":14112,"adult":false},{"id":42911,"adult":false},{"id":180565,"adult":false},{"id":18232,"adult":false},{"id":9047,"adult":false},{"id":270756,"adult":false},{"id":19997,"adult":false},{"id":41357,"adult":false}],"page":121,"total_pages":226,"total_results":22514}