{"results":[{"id":351398,"adult":false},{"id":392083,"adult":false},{"id":392353,"adult":false},{"id":159281,"adult":false},{"id":383505,"adult":false},{"id":400124,"adult":false},{"id":383967,"adult":false},{"id":384130,"adult":false},{"id":241843,"adult":false},{"id":384279,"adult":false},{"id":384454,"adult":false},{"id":384525,"adult":false},{"id":388943,"adult":false},{"id":383285,"adult":false},{"id":388984,"adult":false},{"id":392282,"adult":false},{"id":310131,"adult":false},{"id":400426,"adult":false},{"id":400427,"adult":false},{"id":163560,"adult":false},{"id":134,"adult":false},{"id":352160,"adult":false},{"id":400428,"adult":false},{"id":55420,"adult":false},{"id":356326,"adult":false},{"id":112454,"adult":false},{"id":400429,"adult":true},{"id":40156,"adult":false},{"id":94904,"adult":false},{"id":400430,"adult":false},{"id":351198,"adult":false},{"id":283355,"adult":false},{"id":294992,"adult":false},{"id":262841,"adult":false},{"id":133236,"adult":false},{"id":289,"adult":false},{"id":22584,"adult":false},{"id":160108,"adult":false},{"id":178577,"adult":false},{"id":5910,"adult":false},{"id":328956,"adult":false},{"id":12410,"adult":false},{"id":229166,"adult":false},{"id":251892,"adult":false},{"id":862,"adult":false},{"id":400431,"adult":null},{"id":105090,"adult":false},{"id":395745,"adult":false},{"id":395743,"adult":false},{"id":400208,"adult":false},{"id":400204,"adult":false},{"id":9336,"adult":false},{"id":45774,"adult":false},{"id":10157,"adult":false},{"id":220286,"adult":false},{"id":290135,"adult":false},{"id":274943,"adult":false},{"id":105401,"adult":false},{"id":400432,"adult":false},{"id":400203,"adult":false},{"id":259943,"adult":false},{"id":400433,"adult":false},{"id":400434,"adult":false},{"id":400125,"adult":false},{"id":90125,"adult":false},{"id":400117,"adult":false},{"id":400113,"adult":false},{"id":400118,"adult":false},{"id":124994,"adult":false},{"id":863,"adult":false},{"id":400105,"adult":false},{"id":400096,"adult":false},{"id":400095,"adult":false},{"id":400093,"adult":false},{"id":400163,"adult":false},{"id":400091,"adult":false},{"id":285304,"adult":false},{"id":400080,"adult":false},{"id":400435,"adult":null},{"id":394296,"adult":false},{"id":158823,"adult":false},{"id":807,"adult":false},{"id":399704,"adult":false},{"id":90675,"adult":false},{"id":949,"adult":false},{"id":399471,"adult":false},{"id":353430,"adult":false},{"id":399382,"adult":false},{"id":510,"adult":false},{"id":399463,"adult":false},{"id":30814,"adult":false},{"id":783,"adult":false},{"id":399454,"adult":false},{"id":9576,"adult":false},{"id":399450,"adult":false},{"id":399395,"adult":false},{"id":399244,"adult":false},{"id":10057,"adult":false},{"id":372076,"adult":false},{"id":33811,"adult":false}],"page":9,"total_pages":116,"total_results":11568}