{"results":[{"id":403672,"adult":false},{"id":39310,"adult":false},{"id":59967,"adult":false},{"id":147866,"adult":false},{"id":1830,"adult":false},{"id":253,"adult":false},{"id":301110,"adult":false},{"id":638,"adult":false},{"id":152591,"adult":false},{"id":403673,"adult":false},{"id":158068,"adult":false},{"id":47701,"adult":false},{"id":682,"adult":false},{"id":153,"adult":false},{"id":213706,"adult":false},{"id":367723,"adult":false},{"id":28422,"adult":false},{"id":72231,"adult":false},{"id":403674,"adult":false},{"id":10953,"adult":false},{"id":389694,"adult":false},{"id":33254,"adult":false},{"id":100697,"adult":false},{"id":158936,"adult":false},{"id":399437,"adult":false},{"id":400912,"adult":false},{"id":403675,"adult":false},{"id":691,"adult":false},{"id":313049,"adult":null},{"id":388222,"adult":false},{"id":698,"adult":false},{"id":8424,"adult":false},{"id":117856,"adult":false},{"id":25172,"adult":false},{"id":39387,"adult":false},{"id":403677,"adult":false},{"id":360142,"adult":false},{"id":4553,"adult":false},{"id":176263,"adult":false},{"id":120034,"adult":false},{"id":403678,"adult":false},{"id":699,"adult":false},{"id":83562,"adult":false},{"id":13363,"adult":false},{"id":51608,"adult":false},{"id":403679,"adult":false},{"id":700,"adult":false},{"id":403680,"adult":false},{"id":333387,"adult":false},{"id":56680,"adult":false},{"id":386381,"adult":null},{"id":386410,"adult":false},{"id":707,"adult":false},{"id":10747,"adult":false},{"id":708,"adult":false},{"id":10778,"adult":false},{"id":9539,"adult":false},{"id":84334,"adult":false},{"id":280127,"adult":false},{"id":403681,"adult":false},{"id":709,"adult":false},{"id":108868,"adult":false},{"id":11463,"adult":false},{"id":87847,"adult":false},{"id":86601,"adult":false},{"id":710,"adult":false},{"id":86586,"adult":false},{"id":86584,"adult":false},{"id":278632,"adult":false},{"id":86570,"adult":null},{"id":84775,"adult":false},{"id":81534,"adult":false},{"id":459,"adult":false},{"id":81206,"adult":false},{"id":75223,"adult":false},{"id":403682,"adult":false},{"id":74744,"adult":false},{"id":73267,"adult":false},{"id":10955,"adult":false},{"id":70800,"adult":false},{"id":58224,"adult":false},{"id":70470,"adult":false},{"id":68656,"adult":false},{"id":67804,"adult":false},{"id":64684,"adult":false},{"id":64523,"adult":false},{"id":26198,"adult":false},{"id":58296,"adult":false},{"id":24238,"adult":false},{"id":250124,"adult":false},{"id":8047,"adult":false},{"id":56302,"adult":false},{"id":52699,"adult":false},{"id":17921,"adult":false},{"id":47626,"adult":false},{"id":51588,"adult":false},{"id":403683,"adult":false},{"id":50081,"adult":false},{"id":403684,"adult":null},{"id":57138,"adult":false}],"page":98,"total_pages":116,"total_results":11526}