{"results":[{"id":256178,"adult":false},{"id":27714,"adult":false},{"id":15723,"adult":false},{"id":258172,"adult":false},{"id":4442,"adult":false},{"id":36283,"adult":false},{"id":332719,"adult":false},{"id":85798,"adult":false},{"id":14034,"adult":false},{"id":276288,"adult":false},{"id":276908,"adult":false},{"id":161,"adult":false},{"id":62762,"adult":false},{"id":42628,"adult":false},{"id":421650,"adult":false},{"id":304,"adult":false},{"id":186599,"adult":false},{"id":42712,"adult":false},{"id":421651,"adult":false},{"id":421652,"adult":false},{"id":161471,"adult":false},{"id":298,"adult":false},{"id":421215,"adult":true},{"id":11696,"adult":false},{"id":359806,"adult":false},{"id":105114,"adult":false},{"id":336281,"adult":false},{"id":44326,"adult":false},{"id":120713,"adult":false},{"id":80534,"adult":false},{"id":31941,"adult":false},{"id":250016,"adult":false},{"id":91586,"adult":false},{"id":57565,"adult":false},{"id":280092,"adult":false},{"id":228446,"adult":false},{"id":83562,"adult":false},{"id":416550,"adult":false},{"id":414542,"adult":false},{"id":49018,"adult":false},{"id":421653,"adult":false},{"id":335429,"adult":null},{"id":17255,"adult":false},{"id":413595,"adult":false},{"id":32022,"adult":false},{"id":47834,"adult":false},{"id":21422,"adult":false},{"id":86614,"adult":false},{"id":122583,"adult":false},{"id":316873,"adult":false},{"id":389322,"adult":false},{"id":77617,"adult":false},{"id":39207,"adult":false},{"id":28764,"adult":false},{"id":257512,"adult":false},{"id":414965,"adult":false},{"id":228805,"adult":false},{"id":39206,"adult":false},{"id":26662,"adult":false},{"id":361788,"adult":false},{"id":39204,"adult":false},{"id":39205,"adult":false},{"id":421654,"adult":false},{"id":97375,"adult":false},{"id":39203,"adult":false},{"id":39202,"adult":false},{"id":20677,"adult":false},{"id":421655,"adult":false},{"id":408428,"adult":false},{"id":421656,"adult":null},{"id":375302,"adult":false},{"id":375299,"adult":false},{"id":213055,"adult":false},{"id":223344,"adult":false},{"id":354766,"adult":false},{"id":131220,"adult":false},{"id":38617,"adult":false},{"id":251732,"adult":false},{"id":291881,"adult":false},{"id":12104,"adult":false},{"id":249071,"adult":false},{"id":1588,"adult":false},{"id":67411,"adult":false},{"id":404,"adult":false},{"id":364391,"adult":false},{"id":64428,"adult":false},{"id":26278,"adult":false},{"id":25468,"adult":false},{"id":883,"adult":false},{"id":421657,"adult":false},{"id":86597,"adult":false},{"id":44560,"adult":false},{"id":418426,"adult":false},{"id":420965,"adult":false},{"id":409019,"adult":false},{"id":205547,"adult":null},{"id":205735,"adult":null},{"id":137179,"adult":false},{"id":409091,"adult":false},{"id":369810,"adult":false}],"page":26,"total_pages":123,"total_results":12202}