{"results":[{"id":66973,"adult":false},{"id":39436,"adult":false},{"id":32593,"adult":false},{"id":390357,"adult":false},{"id":431227,"adult":false},{"id":11476,"adult":false},{"id":40040,"adult":false},{"id":431228,"adult":false},{"id":11847,"adult":false},{"id":296456,"adult":false},{"id":10054,"adult":false},{"id":38517,"adult":false},{"id":24113,"adult":false},{"id":329063,"adult":false},{"id":43503,"adult":false},{"id":30416,"adult":false},{"id":9989,"adult":false},{"id":250558,"adult":false},{"id":132422,"adult":false},{"id":71660,"adult":false},{"id":35176,"adult":false},{"id":11369,"adult":false},{"id":16723,"adult":false},{"id":26602,"adult":false},{"id":39939,"adult":false},{"id":149897,"adult":false},{"id":431229,"adult":false},{"id":18269,"adult":false},{"id":431230,"adult":false},{"id":11376,"adult":false},{"id":55009,"adult":false},{"id":16028,"adult":false},{"id":203158,"adult":false},{"id":414507,"adult":false},{"id":423950,"adult":false},{"id":149156,"adult":false},{"id":64689,"adult":false},{"id":77494,"adult":false},{"id":222159,"adult":false},{"id":431231,"adult":false},{"id":431232,"adult":false},{"id":275596,"adult":false},{"id":95516,"adult":false},{"id":332679,"adult":false},{"id":91408,"adult":false},{"id":431233,"adult":false},{"id":86441,"adult":false},{"id":238615,"adult":false},{"id":431234,"adult":false},{"id":57664,"adult":false},{"id":431235,"adult":false},{"id":389578,"adult":false},{"id":431236,"adult":false},{"id":19994,"adult":false},{"id":62630,"adult":false},{"id":431237,"adult":false},{"id":281215,"adult":false},{"id":73419,"adult":false},{"id":431238,"adult":false},{"id":431239,"adult":false},{"id":431240,"adult":false},{"id":43089,"adult":false},{"id":167252,"adult":false},{"id":33308,"adult":false},{"id":164301,"adult":false},{"id":376575,"adult":false},{"id":431241,"adult":false},{"id":425854,"adult":false},{"id":431242,"adult":false},{"id":351037,"adult":false},{"id":425853,"adult":false},{"id":319337,"adult":false},{"id":431243,"adult":false},{"id":431244,"adult":false},{"id":431245,"adult":false},{"id":425845,"adult":false},{"id":431246,"adult":false},{"id":151071,"adult":false},{"id":431247,"adult":true},{"id":403325,"adult":false},{"id":431248,"adult":false},{"id":296326,"adult":false},{"id":431249,"adult":false},{"id":220910,"adult":false},{"id":211343,"adult":false},{"id":431250,"adult":false},{"id":266244,"adult":false},{"id":44264,"adult":false},{"id":4566,"adult":false},{"id":431251,"adult":false},{"id":190299,"adult":false},{"id":400746,"adult":false},{"id":412921,"adult":false},{"id":431252,"adult":false},{"id":367459,"adult":false},{"id":431253,"adult":false},{"id":369497,"adult":false},{"id":11531,"adult":false},{"id":395889,"adult":false},{"id":431254,"adult":false}],"page":69,"total_pages":114,"total_results":11339}