{"results":[{"id":241855,"adult":false},{"id":298912,"adult":null},{"id":60457,"adult":false},{"id":193756,"adult":false},{"id":417830,"adult":false},{"id":2768,"adult":false},{"id":417831,"adult":false},{"id":70327,"adult":false},{"id":161766,"adult":false},{"id":385825,"adult":false},{"id":352513,"adult":false},{"id":413775,"adult":false},{"id":417832,"adult":false},{"id":46717,"adult":false},{"id":112135,"adult":false},{"id":255949,"adult":false},{"id":413886,"adult":null},{"id":170078,"adult":false},{"id":68849,"adult":false},{"id":89608,"adult":false},{"id":417833,"adult":false},{"id":53102,"adult":false},{"id":64538,"adult":false},{"id":314095,"adult":false},{"id":770,"adult":false},{"id":40742,"adult":false},{"id":205071,"adult":false},{"id":275775,"adult":false},{"id":123437,"adult":null},{"id":14277,"adult":false},{"id":240480,"adult":false},{"id":414223,"adult":false},{"id":79755,"adult":false},{"id":320972,"adult":false},{"id":274911,"adult":false},{"id":417834,"adult":false},{"id":263999,"adult":false},{"id":829,"adult":false},{"id":157718,"adult":false},{"id":417835,"adult":false},{"id":45149,"adult":false},{"id":294896,"adult":false},{"id":24671,"adult":false},{"id":157724,"adult":false},{"id":201969,"adult":false},{"id":31656,"adult":false},{"id":417836,"adult":false},{"id":67241,"adult":false},{"id":417837,"adult":false},{"id":3684,"adult":false},{"id":202198,"adult":false},{"id":47848,"adult":false},{"id":50254,"adult":false},{"id":24402,"adult":false},{"id":9319,"adult":false},{"id":77361,"adult":false},{"id":99919,"adult":false},{"id":351038,"adult":false},{"id":14267,"adult":false},{"id":49977,"adult":false},{"id":94529,"adult":false},{"id":46192,"adult":false},{"id":125262,"adult":false},{"id":404928,"adult":false},{"id":395992,"adult":false},{"id":339772,"adult":false},{"id":109238,"adult":false},{"id":112705,"adult":false},{"id":331987,"adult":false},{"id":240491,"adult":false},{"id":254138,"adult":false},{"id":261270,"adult":false},{"id":5919,"adult":false},{"id":84792,"adult":false},{"id":69324,"adult":false},{"id":3687,"adult":false},{"id":356191,"adult":false},{"id":388576,"adult":false},{"id":72639,"adult":false},{"id":166723,"adult":false},{"id":706,"adult":false},{"id":31036,"adult":false},{"id":3034,"adult":false},{"id":130647,"adult":false},{"id":390907,"adult":false},{"id":29845,"adult":false},{"id":18257,"adult":false},{"id":52625,"adult":false},{"id":255159,"adult":false},{"id":87068,"adult":false},{"id":346256,"adult":false},{"id":351097,"adult":false},{"id":370661,"adult":false},{"id":95320,"adult":false},{"id":417838,"adult":false},{"id":4396,"adult":false},{"id":52859,"adult":false},{"id":417839,"adult":false},{"id":411019,"adult":false},{"id":276573,"adult":false}],"page":105,"total_pages":141,"total_results":14019}