{"results":[{"id":276004,"adult":false},{"id":312639,"adult":false},{"id":146554,"adult":false},{"id":175114,"adult":false},{"id":379463,"adult":false},{"id":379464,"adult":false},{"id":5125,"adult":false},{"id":549,"adult":false},{"id":4477,"adult":false},{"id":379465,"adult":false},{"id":318636,"adult":false},{"id":12834,"adult":false},{"id":281311,"adult":false},{"id":379466,"adult":false},{"id":361859,"adult":false},{"id":283639,"adult":false},{"id":98069,"adult":false},{"id":9676,"adult":false},{"id":291832,"adult":false},{"id":379467,"adult":false},{"id":4597,"adult":false},{"id":355180,"adult":false},{"id":27053,"adult":false},{"id":45658,"adult":false},{"id":379468,"adult":false},{"id":379469,"adult":false},{"id":379470,"adult":false},{"id":379471,"adult":false},{"id":69898,"adult":false},{"id":10198,"adult":false},{"id":301965,"adult":false},{"id":360653,"adult":false},{"id":328891,"adult":false},{"id":123681,"adult":false},{"id":79471,"adult":false},{"id":363199,"adult":false},{"id":379472,"adult":null},{"id":19387,"adult":false},{"id":379473,"adult":false},{"id":243314,"adult":false},{"id":330081,"adult":false},{"id":337058,"adult":false},{"id":276621,"adult":false},{"id":331925,"adult":false},{"id":215147,"adult":false},{"id":8836,"adult":false},{"id":209176,"adult":false},{"id":313034,"adult":false},{"id":254461,"adult":false},{"id":16372,"adult":false},{"id":365995,"adult":false},{"id":379474,"adult":false},{"id":158711,"adult":false},{"id":293209,"adult":false},{"id":377198,"adult":false},{"id":194283,"adult":null},{"id":94602,"adult":false},{"id":264057,"adult":false},{"id":14446,"adult":false},{"id":275363,"adult":false},{"id":379475,"adult":false},{"id":323396,"adult":false},{"id":174885,"adult":false},{"id":174879,"adult":false},{"id":174884,"adult":false},{"id":352156,"adult":false},{"id":335705,"adult":false},{"id":175531,"adult":false},{"id":175596,"adult":false},{"id":184274,"adult":false},{"id":175863,"adult":false},{"id":175880,"adult":false},{"id":175760,"adult":false},{"id":175836,"adult":false},{"id":175834,"adult":false},{"id":175890,"adult":false},{"id":370605,"adult":false},{"id":5122,"adult":false},{"id":175882,"adult":false},{"id":175879,"adult":false},{"id":228291,"adult":false},{"id":228296,"adult":false},{"id":175757,"adult":false},{"id":175877,"adult":false},{"id":176434,"adult":false},{"id":310507,"adult":false},{"id":180693,"adult":false},{"id":176312,"adult":false},{"id":176446,"adult":false},{"id":176309,"adult":false},{"id":184476,"adult":false},{"id":184481,"adult":false},{"id":271396,"adult":false},{"id":376847,"adult":false},{"id":233657,"adult":false},{"id":189866,"adult":false},{"id":99570,"adult":false},{"id":189648,"adult":false},{"id":102482,"adult":false},{"id":258033,"adult":false}],"page":106,"total_pages":226,"total_results":22514}