{"results":[{"id":351107,"adult":false},{"id":351106,"adult":false},{"id":280784,"adult":false},{"id":252810,"adult":false},{"id":377799,"adult":false},{"id":351170,"adult":false},{"id":351167,"adult":false},{"id":351166,"adult":false},{"id":351149,"adult":false},{"id":351146,"adult":false},{"id":351144,"adult":false},{"id":333621,"adult":true},{"id":351150,"adult":false},{"id":330996,"adult":true},{"id":14983,"adult":false},{"id":21871,"adult":false},{"id":351128,"adult":false},{"id":351126,"adult":false},{"id":351125,"adult":false},{"id":351140,"adult":false},{"id":351124,"adult":false},{"id":351123,"adult":false},{"id":351119,"adult":false},{"id":351139,"adult":false},{"id":351158,"adult":false},{"id":351165,"adult":false},{"id":351115,"adult":false},{"id":351114,"adult":false},{"id":351109,"adult":false},{"id":351116,"adult":false},{"id":351169,"adult":false},{"id":351163,"adult":false},{"id":351137,"adult":false},{"id":351117,"adult":false},{"id":351161,"adult":false},{"id":351134,"adult":false},{"id":351129,"adult":false},{"id":334485,"adult":false},{"id":15449,"adult":false},{"id":61909,"adult":false},{"id":407059,"adult":false},{"id":389841,"adult":false},{"id":41411,"adult":false},{"id":328111,"adult":false},{"id":407060,"adult":false},{"id":1538,"adult":false},{"id":38199,"adult":false},{"id":2022,"adult":false},{"id":248705,"adult":false},{"id":285768,"adult":false},{"id":407061,"adult":false},{"id":407062,"adult":false},{"id":309886,"adult":false},{"id":406130,"adult":false},{"id":10204,"adult":false},{"id":377153,"adult":false},{"id":12133,"adult":false},{"id":401146,"adult":false},{"id":375872,"adult":false},{"id":1251,"adult":false},{"id":35692,"adult":false},{"id":405994,"adult":false},{"id":407063,"adult":false},{"id":10847,"adult":false},{"id":14784,"adult":false},{"id":373443,"adult":false},{"id":32713,"adult":false},{"id":95,"adult":false},{"id":616,"adult":false},{"id":1412,"adult":false},{"id":943,"adult":false},{"id":4352,"adult":false},{"id":9597,"adult":false},{"id":10316,"adult":false},{"id":10528,"adult":false},{"id":165784,"adult":false},{"id":407064,"adult":false},{"id":162137,"adult":false},{"id":10549,"adult":false},{"id":12092,"adult":false},{"id":12501,"adult":false},{"id":387587,"adult":false},{"id":16403,"adult":false},{"id":17909,"adult":false},{"id":20128,"adult":false},{"id":320004,"adult":false},{"id":27236,"adult":false},{"id":33580,"adult":false},{"id":42684,"adult":false},{"id":47517,"adult":false},{"id":51817,"adult":false},{"id":55131,"adult":false},{"id":55132,"adult":false},{"id":55133,"adult":false},{"id":56256,"adult":false},{"id":72105,"adult":false},{"id":76246,"adult":false},{"id":84188,"adult":false},{"id":97447,"adult":false},{"id":125794,"adult":false}],"page":39,"total_pages":120,"total_results":11946}