{"results":[{"id":273168,"adult":false},{"id":392536,"adult":false},{"id":302851,"adult":false},{"id":277202,"adult":false},{"id":40652,"adult":false},{"id":47106,"adult":false},{"id":355750,"adult":false},{"id":286217,"adult":false},{"id":94674,"adult":false},{"id":90503,"adult":false},{"id":280217,"adult":false},{"id":389381,"adult":false},{"id":6478,"adult":false},{"id":378840,"adult":false},{"id":274862,"adult":false},{"id":109295,"adult":false},{"id":191638,"adult":false},{"id":378841,"adult":false},{"id":393931,"adult":false},{"id":2486,"adult":false},{"id":260514,"adult":false},{"id":354912,"adult":false},{"id":277829,"adult":false},{"id":301528,"adult":false},{"id":70868,"adult":false},{"id":19265,"adult":false},{"id":149204,"adult":false},{"id":393932,"adult":false},{"id":9688,"adult":false},{"id":10739,"adult":false},{"id":367210,"adult":false},{"id":84607,"adult":false},{"id":9689,"adult":false},{"id":277197,"adult":false},{"id":2779,"adult":false},{"id":9684,"adult":false},{"id":273032,"adult":false},{"id":372883,"adult":false},{"id":393933,"adult":false},{"id":160085,"adult":false},{"id":1260,"adult":false},{"id":264679,"adult":false},{"id":183749,"adult":false},{"id":103457,"adult":false},{"id":80470,"adult":false},{"id":268401,"adult":false},{"id":82792,"adult":false},{"id":344078,"adult":false},{"id":83729,"adult":false},{"id":9466,"adult":false},{"id":9716,"adult":false},{"id":11382,"adult":false},{"id":185289,"adult":false},{"id":46281,"adult":false},{"id":393934,"adult":false},{"id":310307,"adult":false},{"id":26912,"adult":false},{"id":393935,"adult":false},{"id":16373,"adult":false},{"id":28155,"adult":false},{"id":209249,"adult":false},{"id":366500,"adult":false},{"id":19200,"adult":false},{"id":9686,"adult":false},{"id":22478,"adult":false},{"id":393936,"adult":false},{"id":87367,"adult":false},{"id":348537,"adult":false},{"id":8859,"adult":false},{"id":393937,"adult":false},{"id":183764,"adult":false},{"id":355913,"adult":false},{"id":234401,"adult":false},{"id":124830,"adult":false},{"id":22477,"adult":false},{"id":393938,"adult":false},{"id":30890,"adult":false},{"id":10591,"adult":false},{"id":393939,"adult":false},{"id":8130,"adult":false},{"id":393940,"adult":false},{"id":52744,"adult":false},{"id":309614,"adult":false},{"id":393941,"adult":false},{"id":84735,"adult":false},{"id":389,"adult":false},{"id":82654,"adult":false},{"id":40135,"adult":false},{"id":393942,"adult":false},{"id":332331,"adult":null},{"id":334957,"adult":null},{"id":301798,"adult":false},{"id":263182,"adult":null},{"id":15139,"adult":false},{"id":393943,"adult":false},{"id":300941,"adult":false},{"id":393944,"adult":false},{"id":111076,"adult":false},{"id":16771,"adult":false},{"id":393945,"adult":false}],"page":69,"total_pages":127,"total_results":12659}