{"results":[{"id":15,"adult":false},{"id":43801,"adult":false},{"id":200179,"adult":false},{"id":24197,"adult":false},{"id":129535,"adult":false},{"id":128411,"adult":false},{"id":74547,"adult":false},{"id":9273,"adult":false},{"id":73479,"adult":false},{"id":77744,"adult":false},{"id":95046,"adult":false},{"id":32196,"adult":false},{"id":29481,"adult":false},{"id":158439,"adult":false},{"id":115112,"adult":false},{"id":296251,"adult":true},{"id":118297,"adult":true},{"id":152269,"adult":true},{"id":54756,"adult":false},{"id":142247,"adult":true},{"id":288415,"adult":false},{"id":41463,"adult":false},{"id":200177,"adult":false},{"id":80054,"adult":false},{"id":198455,"adult":false},{"id":271311,"adult":false},{"id":82,"adult":false},{"id":49017,"adult":false},{"id":9798,"adult":false},{"id":58628,"adult":false},{"id":327356,"adult":false},{"id":279039,"adult":false},{"id":20034,"adult":false},{"id":398305,"adult":false},{"id":10878,"adult":false},{"id":294254,"adult":false},{"id":41154,"adult":false},{"id":296130,"adult":false},{"id":78155,"adult":false},{"id":381027,"adult":false},{"id":267428,"adult":false},{"id":377462,"adult":false},{"id":14916,"adult":false},{"id":16356,"adult":false},{"id":228028,"adult":false},{"id":398306,"adult":false},{"id":25012,"adult":false},{"id":398307,"adult":false},{"id":145161,"adult":false},{"id":2135,"adult":false},{"id":329682,"adult":false},{"id":338774,"adult":false},{"id":11827,"adult":false},{"id":346558,"adult":false},{"id":354275,"adult":false},{"id":76850,"adult":false},{"id":398309,"adult":false},{"id":398310,"adult":false},{"id":202051,"adult":false},{"id":202034,"adult":false},{"id":219480,"adult":false},{"id":219490,"adult":false},{"id":219497,"adult":false},{"id":219461,"adult":false},{"id":190352,"adult":false},{"id":11322,"adult":false},{"id":166581,"adult":false},{"id":233946,"adult":false},{"id":162685,"adult":false},{"id":162722,"adult":false},{"id":161582,"adult":false},{"id":161610,"adult":false},{"id":156481,"adult":false},{"id":161631,"adult":false},{"id":219485,"adult":false},{"id":219459,"adult":false},{"id":219483,"adult":false},{"id":236127,"adult":false},{"id":236130,"adult":false},{"id":236124,"adult":false},{"id":174485,"adult":false},{"id":321272,"adult":false},{"id":30547,"adult":false},{"id":331133,"adult":false},{"id":398311,"adult":false},{"id":252701,"adult":false},{"id":174435,"adult":false},{"id":161975,"adult":false},{"id":161560,"adult":false},{"id":174468,"adult":false},{"id":174497,"adult":false},{"id":174291,"adult":false},{"id":397542,"adult":false},{"id":184546,"adult":false},{"id":2440,"adult":false},{"id":197637,"adult":false},{"id":130925,"adult":false},{"id":275626,"adult":false},{"id":174437,"adult":false},{"id":174419,"adult":false}],"page":54,"total_pages":128,"total_results":12797}