{"results":[{"id":318913,"adult":false},{"id":15081,"adult":false},{"id":263362,"adult":false},{"id":256474,"adult":false},{"id":54970,"adult":false},{"id":354926,"adult":false},{"id":263376,"adult":false},{"id":110381,"adult":false},{"id":377831,"adult":false},{"id":309425,"adult":false},{"id":172263,"adult":false},{"id":7485,"adult":false},{"id":40087,"adult":false},{"id":41009,"adult":false},{"id":40512,"adult":false},{"id":377832,"adult":false},{"id":19794,"adult":false},{"id":377834,"adult":false},{"id":377835,"adult":false},{"id":377836,"adult":false},{"id":315955,"adult":false},{"id":234310,"adult":false},{"id":377837,"adult":false},{"id":377838,"adult":false},{"id":377839,"adult":false},{"id":373566,"adult":false},{"id":377840,"adult":false},{"id":234407,"adult":false},{"id":377841,"adult":false},{"id":345700,"adult":false},{"id":35942,"adult":false},{"id":377842,"adult":false},{"id":377843,"adult":false},{"id":344170,"adult":false},{"id":190859,"adult":false},{"id":7944,"adult":false},{"id":155666,"adult":false},{"id":53566,"adult":false},{"id":286257,"adult":false},{"id":377844,"adult":false},{"id":377845,"adult":false},{"id":377846,"adult":false},{"id":117813,"adult":false},{"id":12450,"adult":false},{"id":110797,"adult":true},{"id":289756,"adult":false},{"id":24546,"adult":false},{"id":25539,"adult":false},{"id":289198,"adult":false},{"id":377847,"adult":false},{"id":7269,"adult":false},{"id":301741,"adult":false},{"id":377848,"adult":false},{"id":26731,"adult":false},{"id":289760,"adult":false},{"id":70166,"adult":false},{"id":167080,"adult":false},{"id":47470,"adult":false},{"id":377849,"adult":false},{"id":257087,"adult":false},{"id":306479,"adult":false},{"id":31773,"adult":false},{"id":377850,"adult":null},{"id":10625,"adult":false},{"id":377851,"adult":false},{"id":13474,"adult":false},{"id":9610,"adult":false},{"id":182131,"adult":false},{"id":346355,"adult":false},{"id":10223,"adult":false},{"id":56037,"adult":false},{"id":206625,"adult":false},{"id":1683,"adult":false},{"id":11841,"adult":false},{"id":172385,"adult":false},{"id":243441,"adult":false},{"id":206910,"adult":false},{"id":374489,"adult":false},{"id":53344,"adult":false},{"id":377852,"adult":false},{"id":299687,"adult":false},{"id":84945,"adult":false},{"id":82622,"adult":false},{"id":377853,"adult":false},{"id":377854,"adult":null},{"id":106679,"adult":false},{"id":39984,"adult":false},{"id":94874,"adult":false},{"id":257864,"adult":false},{"id":377855,"adult":false},{"id":377856,"adult":false},{"id":126166,"adult":false},{"id":16113,"adult":false},{"id":37066,"adult":false},{"id":19086,"adult":false},{"id":369108,"adult":null},{"id":50348,"adult":false},{"id":24,"adult":false},{"id":71676,"adult":false},{"id":2657,"adult":false}],"page":23,"total_pages":226,"total_results":22514}