{"results":[{"id":85140,"adult":false},{"id":10858,"adult":false},{"id":289185,"adult":false},{"id":128472,"adult":false},{"id":389684,"adult":false},{"id":380572,"adult":false},{"id":377143,"adult":false},{"id":130150,"adult":false},{"id":389685,"adult":false},{"id":11837,"adult":false},{"id":241116,"adult":false},{"id":1535,"adult":false},{"id":34088,"adult":false},{"id":253300,"adult":false},{"id":2669,"adult":false},{"id":40851,"adult":false},{"id":24558,"adult":false},{"id":89579,"adult":false},{"id":298459,"adult":false},{"id":228245,"adult":false},{"id":95915,"adult":true},{"id":91745,"adult":false},{"id":4476,"adult":false},{"id":287415,"adult":false},{"id":389686,"adult":false},{"id":382812,"adult":false},{"id":389687,"adult":false},{"id":243531,"adult":false},{"id":358912,"adult":false},{"id":11544,"adult":false},{"id":6114,"adult":false},{"id":153180,"adult":false},{"id":389688,"adult":false},{"id":389689,"adult":false},{"id":264999,"adult":false},{"id":10999,"adult":false},{"id":389690,"adult":false},{"id":73414,"adult":false},{"id":83136,"adult":false},{"id":165864,"adult":false},{"id":389691,"adult":false},{"id":59059,"adult":false},{"id":128979,"adult":false},{"id":39852,"adult":false},{"id":110113,"adult":false},{"id":389692,"adult":false},{"id":44020,"adult":false},{"id":362595,"adult":null},{"id":362026,"adult":false},{"id":58946,"adult":false},{"id":180787,"adult":false},{"id":170,"adult":false},{"id":71040,"adult":false},{"id":3597,"adult":false},{"id":52906,"adult":false},{"id":22970,"adult":false},{"id":389693,"adult":null},{"id":9792,"adult":false},{"id":10761,"adult":false},{"id":9793,"adult":false},{"id":8285,"adult":false},{"id":205415,"adult":false},{"id":38358,"adult":false},{"id":389694,"adult":false},{"id":928,"adult":false},{"id":326891,"adult":false},{"id":377330,"adult":false},{"id":389695,"adult":false},{"id":305455,"adult":false},{"id":334530,"adult":false},{"id":164249,"adult":false},{"id":1933,"adult":false},{"id":77883,"adult":false},{"id":389696,"adult":false},{"id":315461,"adult":false},{"id":208090,"adult":false},{"id":1970,"adult":false},{"id":262642,"adult":false},{"id":1975,"adult":false},{"id":1977,"adult":false},{"id":389699,"adult":false},{"id":31203,"adult":false},{"id":254786,"adult":false},{"id":167517,"adult":false},{"id":694,"adult":false},{"id":389700,"adult":false},{"id":313734,"adult":false},{"id":271402,"adult":false},{"id":22824,"adult":false},{"id":238,"adult":false},{"id":62564,"adult":false},{"id":240,"adult":false},{"id":242,"adult":false},{"id":5896,"adult":false},{"id":76487,"adult":false},{"id":4043,"adult":false},{"id":104994,"adult":false},{"id":320554,"adult":false},{"id":181735,"adult":false},{"id":9902,"adult":false}],"page":104,"total_pages":120,"total_results":11936}