{"results":[{"id":388360,"adult":null},{"id":21035,"adult":false},{"id":336776,"adult":false},{"id":198663,"adult":false},{"id":265271,"adult":false},{"id":388361,"adult":false},{"id":374767,"adult":false},{"id":388362,"adult":false},{"id":9703,"adult":false},{"id":83321,"adult":false},{"id":387259,"adult":false},{"id":387260,"adult":false},{"id":388363,"adult":false},{"id":205127,"adult":false},{"id":248507,"adult":false},{"id":388364,"adult":false},{"id":34222,"adult":false},{"id":388365,"adult":false},{"id":227783,"adult":false},{"id":42620,"adult":false},{"id":2335,"adult":false},{"id":14750,"adult":false},{"id":38321,"adult":false},{"id":388366,"adult":false},{"id":366117,"adult":false},{"id":300442,"adult":false},{"id":23410,"adult":false},{"id":53408,"adult":false},{"id":50862,"adult":false},{"id":31941,"adult":false},{"id":11453,"adult":false},{"id":13938,"adult":false},{"id":48756,"adult":false},{"id":29638,"adult":false},{"id":388367,"adult":false},{"id":45769,"adult":false},{"id":1832,"adult":false},{"id":19268,"adult":false},{"id":356167,"adult":false},{"id":388368,"adult":false},{"id":21864,"adult":false},{"id":388369,"adult":null},{"id":388370,"adult":false},{"id":12819,"adult":false},{"id":9319,"adult":false},{"id":17824,"adult":false},{"id":259101,"adult":false},{"id":3564,"adult":false},{"id":18183,"adult":false},{"id":76289,"adult":false},{"id":277368,"adult":false},{"id":10075,"adult":false},{"id":388371,"adult":false},{"id":6949,"adult":false},{"id":76640,"adult":false},{"id":15080,"adult":false},{"id":383488,"adult":false},{"id":14330,"adult":false},{"id":305040,"adult":null},{"id":275257,"adult":false},{"id":580,"adult":false},{"id":10061,"adult":false},{"id":146381,"adult":false},{"id":168138,"adult":false},{"id":388372,"adult":false},{"id":171045,"adult":false},{"id":384256,"adult":false},{"id":381287,"adult":false},{"id":251571,"adult":false},{"id":388373,"adult":false},{"id":325844,"adult":false},{"id":85455,"adult":false},{"id":234004,"adult":false},{"id":388374,"adult":false},{"id":61393,"adult":false},{"id":294226,"adult":false},{"id":240483,"adult":false},{"id":375897,"adult":false},{"id":392,"adult":false},{"id":362478,"adult":false},{"id":104270,"adult":false},{"id":388375,"adult":false},{"id":378367,"adult":null},{"id":157829,"adult":false},{"id":276401,"adult":false},{"id":275060,"adult":false},{"id":388376,"adult":false},{"id":279641,"adult":false},{"id":51365,"adult":false},{"id":150056,"adult":false},{"id":376741,"adult":false},{"id":13027,"adult":false},{"id":238603,"adult":false},{"id":382561,"adult":false},{"id":292664,"adult":false},{"id":388377,"adult":false},{"id":47931,"adult":false},{"id":4592,"adult":false},{"id":68384,"adult":false},{"id":378200,"adult":false}],"page":37,"total_pages":120,"total_results":11936}