{"results":[{"id":239328,"adult":false},{"id":385978,"adult":false},{"id":263127,"adult":false},{"id":204139,"adult":false},{"id":65057,"adult":false},{"id":13389,"adult":false},{"id":206135,"adult":false},{"id":43878,"adult":false},{"id":35552,"adult":false},{"id":36221,"adult":false},{"id":35164,"adult":false},{"id":16973,"adult":false},{"id":208763,"adult":false},{"id":21575,"adult":false},{"id":66061,"adult":false},{"id":30432,"adult":false},{"id":104362,"adult":false},{"id":12782,"adult":false},{"id":73211,"adult":false},{"id":25566,"adult":false},{"id":11315,"adult":false},{"id":79896,"adult":false},{"id":49517,"adult":false},{"id":68820,"adult":false},{"id":32665,"adult":false},{"id":385979,"adult":false},{"id":385980,"adult":false},{"id":101344,"adult":false},{"id":277438,"adult":false},{"id":182057,"adult":false},{"id":81791,"adult":false},{"id":51239,"adult":false},{"id":286709,"adult":false},{"id":59578,"adult":false},{"id":12411,"adult":false},{"id":50845,"adult":false},{"id":385981,"adult":false},{"id":72710,"adult":false},{"id":108087,"adult":false},{"id":77812,"adult":false},{"id":60281,"adult":false},{"id":105133,"adult":false},{"id":169328,"adult":false},{"id":21513,"adult":false},{"id":170194,"adult":false},{"id":103126,"adult":false},{"id":99579,"adult":false},{"id":213447,"adult":false},{"id":312949,"adult":false},{"id":72248,"adult":false},{"id":39141,"adult":false},{"id":70454,"adult":false},{"id":59145,"adult":false},{"id":89250,"adult":false},{"id":146015,"adult":false},{"id":155136,"adult":false},{"id":137321,"adult":false},{"id":206904,"adult":false},{"id":314980,"adult":false},{"id":174702,"adult":false},{"id":95448,"adult":false},{"id":385982,"adult":null},{"id":41472,"adult":false},{"id":168138,"adult":false},{"id":111083,"adult":false},{"id":62338,"adult":false},{"id":157849,"adult":false},{"id":284536,"adult":false},{"id":52796,"adult":false},{"id":385983,"adult":false},{"id":206821,"adult":false},{"id":184869,"adult":false},{"id":174682,"adult":false},{"id":173980,"adult":false},{"id":245692,"adult":false},{"id":155890,"adult":false},{"id":218460,"adult":false},{"id":199643,"adult":false},{"id":212606,"adult":false},{"id":21636,"adult":false},{"id":221465,"adult":false},{"id":17689,"adult":false},{"id":10723,"adult":false},{"id":2069,"adult":false},{"id":279973,"adult":false},{"id":254904,"adult":false},{"id":258251,"adult":false},{"id":385984,"adult":false},{"id":271826,"adult":false},{"id":246596,"adult":false},{"id":218043,"adult":false},{"id":385985,"adult":false},{"id":181533,"adult":false},{"id":261511,"adult":false},{"id":385986,"adult":false},{"id":285575,"adult":false},{"id":18360,"adult":false},{"id":1593,"adult":false},{"id":266285,"adult":false},{"id":223261,"adult":false}],"page":49,"total_pages":123,"total_results":12230}