{"results":[{"id":70476,"adult":false},{"id":108251,"adult":false},{"id":41872,"adult":false},{"id":300187,"adult":false},{"id":382808,"adult":false},{"id":382809,"adult":false},{"id":252345,"adult":false},{"id":284456,"adult":false},{"id":58254,"adult":false},{"id":8054,"adult":false},{"id":26674,"adult":false},{"id":256593,"adult":false},{"id":265765,"adult":false},{"id":329815,"adult":false},{"id":49593,"adult":false},{"id":31610,"adult":false},{"id":85160,"adult":false},{"id":43303,"adult":false},{"id":255076,"adult":false},{"id":101539,"adult":false},{"id":30289,"adult":false},{"id":244954,"adult":false},{"id":71465,"adult":false},{"id":379887,"adult":false},{"id":299939,"adult":false},{"id":111611,"adult":false},{"id":380254,"adult":false},{"id":218784,"adult":false},{"id":382712,"adult":false},{"id":26953,"adult":false},{"id":247383,"adult":false},{"id":307103,"adult":false},{"id":382810,"adult":false},{"id":382811,"adult":false},{"id":64664,"adult":false},{"id":382190,"adult":false},{"id":238442,"adult":false},{"id":39144,"adult":false},{"id":67235,"adult":false},{"id":6010,"adult":false},{"id":379779,"adult":false},{"id":305728,"adult":false},{"id":30570,"adult":false},{"id":143730,"adult":false},{"id":382812,"adult":false},{"id":376659,"adult":false},{"id":319297,"adult":false},{"id":297213,"adult":false},{"id":359957,"adult":false},{"id":77246,"adult":false},{"id":52165,"adult":false},{"id":25973,"adult":false},{"id":100788,"adult":false},{"id":250572,"adult":false},{"id":300487,"adult":false},{"id":344659,"adult":null},{"id":338928,"adult":false},{"id":332211,"adult":null},{"id":55534,"adult":false},{"id":339822,"adult":null},{"id":315865,"adult":false},{"id":270676,"adult":false},{"id":315595,"adult":false},{"id":382141,"adult":false},{"id":382813,"adult":false},{"id":101673,"adult":false},{"id":45938,"adult":false},{"id":168259,"adult":false},{"id":303885,"adult":false},{"id":295698,"adult":false},{"id":351901,"adult":false},{"id":370261,"adult":null},{"id":33586,"adult":false},{"id":345875,"adult":false},{"id":233742,"adult":false},{"id":131314,"adult":false},{"id":237366,"adult":false},{"id":347754,"adult":false},{"id":91791,"adult":false},{"id":112016,"adult":false},{"id":14248,"adult":false},{"id":191502,"adult":false},{"id":369814,"adult":null},{"id":283447,"adult":false},{"id":87842,"adult":false},{"id":367876,"adult":null},{"id":262391,"adult":false},{"id":227973,"adult":false},{"id":21219,"adult":false},{"id":319071,"adult":false},{"id":85230,"adult":false},{"id":382814,"adult":false},{"id":238466,"adult":false},{"id":345323,"adult":false},{"id":370178,"adult":false},{"id":309809,"adult":false},{"id":16852,"adult":false},{"id":265647,"adult":false},{"id":134602,"adult":false},{"id":382815,"adult":null}],"page":5,"total_pages":123,"total_results":12205}