{"results":[{"id":15861,"adult":false},{"id":431679,"adult":false},{"id":16885,"adult":false},{"id":41407,"adult":false},{"id":57585,"adult":false},{"id":153444,"adult":false},{"id":81344,"adult":false},{"id":10083,"adult":false},{"id":21948,"adult":false},{"id":341209,"adult":false},{"id":287948,"adult":false},{"id":422727,"adult":false},{"id":249786,"adult":false},{"id":115108,"adult":false},{"id":16992,"adult":false},{"id":431681,"adult":false},{"id":341289,"adult":false},{"id":33319,"adult":false},{"id":22450,"adult":false},{"id":95103,"adult":false},{"id":32037,"adult":false},{"id":165481,"adult":false},{"id":14522,"adult":false},{"id":30870,"adult":false},{"id":64639,"adult":false},{"id":431682,"adult":false},{"id":43210,"adult":false},{"id":70530,"adult":false},{"id":426537,"adult":false},{"id":886,"adult":false},{"id":419771,"adult":false},{"id":48480,"adult":false},{"id":78842,"adult":false},{"id":129112,"adult":false},{"id":431686,"adult":false},{"id":431687,"adult":false},{"id":406343,"adult":false},{"id":16402,"adult":false},{"id":6068,"adult":false},{"id":279923,"adult":false},{"id":74004,"adult":false},{"id":8358,"adult":false},{"id":431688,"adult":false},{"id":97365,"adult":false},{"id":96963,"adult":false},{"id":62509,"adult":false},{"id":26510,"adult":false},{"id":346714,"adult":false},{"id":60699,"adult":false},{"id":129070,"adult":false},{"id":56180,"adult":false},{"id":15017,"adult":false},{"id":338261,"adult":false},{"id":85514,"adult":false},{"id":24053,"adult":false},{"id":322590,"adult":false},{"id":28333,"adult":false},{"id":760,"adult":false},{"id":71172,"adult":false},{"id":245917,"adult":false},{"id":9473,"adult":false},{"id":37975,"adult":false},{"id":10371,"adult":false},{"id":44091,"adult":false},{"id":234284,"adult":false},{"id":372751,"adult":false},{"id":55739,"adult":false},{"id":64816,"adult":false},{"id":24548,"adult":false},{"id":17227,"adult":false},{"id":421629,"adult":false},{"id":38432,"adult":false},{"id":300441,"adult":false},{"id":14857,"adult":false},{"id":1927,"adult":false},{"id":171417,"adult":false},{"id":431689,"adult":null},{"id":232679,"adult":false},{"id":367541,"adult":false},{"id":431692,"adult":false},{"id":288646,"adult":false},{"id":363057,"adult":false},{"id":421313,"adult":false},{"id":374339,"adult":false},{"id":49021,"adult":false},{"id":330298,"adult":false},{"id":371535,"adult":false},{"id":367537,"adult":false},{"id":27959,"adult":false},{"id":360603,"adult":false},{"id":25994,"adult":false},{"id":286647,"adult":false},{"id":417955,"adult":false},{"id":37835,"adult":false},{"id":431693,"adult":false},{"id":180607,"adult":false},{"id":1701,"adult":false},{"id":44932,"adult":false},{"id":13079,"adult":false},{"id":412296,"adult":false}],"page":95,"total_pages":114,"total_results":11339}