{"results":[{"id":42720,"adult":false},{"id":273224,"adult":false},{"id":74512,"adult":false},{"id":324734,"adult":null},{"id":389761,"adult":false},{"id":125063,"adult":false},{"id":389762,"adult":false},{"id":158360,"adult":false},{"id":361474,"adult":false},{"id":11674,"adult":false},{"id":10607,"adult":false},{"id":10681,"adult":false},{"id":389763,"adult":false},{"id":141974,"adult":false},{"id":389764,"adult":false},{"id":339877,"adult":false},{"id":198235,"adult":false},{"id":281393,"adult":false},{"id":158374,"adult":false},{"id":292748,"adult":false},{"id":389765,"adult":false},{"id":27612,"adult":false},{"id":158369,"adult":false},{"id":31067,"adult":false},{"id":337339,"adult":false},{"id":389766,"adult":false},{"id":384775,"adult":null},{"id":158379,"adult":false},{"id":49956,"adult":false},{"id":180627,"adult":false},{"id":158385,"adult":false},{"id":353313,"adult":null},{"id":279583,"adult":false},{"id":66565,"adult":false},{"id":326701,"adult":null},{"id":39994,"adult":false},{"id":389767,"adult":false},{"id":53034,"adult":false},{"id":254432,"adult":false},{"id":101936,"adult":false},{"id":10157,"adult":false},{"id":117629,"adult":false},{"id":12118,"adult":false},{"id":43083,"adult":false},{"id":204810,"adult":false},{"id":10587,"adult":false},{"id":168610,"adult":false},{"id":11825,"adult":false},{"id":210913,"adult":false},{"id":11895,"adult":false},{"id":287483,"adult":false},{"id":11546,"adult":false},{"id":44012,"adult":false},{"id":378480,"adult":false},{"id":389768,"adult":false},{"id":389769,"adult":false},{"id":389770,"adult":false},{"id":5871,"adult":false},{"id":389771,"adult":false},{"id":11458,"adult":false},{"id":218697,"adult":false},{"id":155052,"adult":false},{"id":40472,"adult":false},{"id":389772,"adult":false},{"id":389773,"adult":false},{"id":31451,"adult":false},{"id":127946,"adult":false},{"id":389774,"adult":false},{"id":389775,"adult":false},{"id":389776,"adult":false},{"id":280441,"adult":false},{"id":44275,"adult":false},{"id":344023,"adult":false},{"id":2270,"adult":false},{"id":389777,"adult":false},{"id":339574,"adult":false},{"id":44294,"adult":false},{"id":76275,"adult":false},{"id":389778,"adult":false},{"id":8346,"adult":false},{"id":389779,"adult":false},{"id":389780,"adult":false},{"id":40372,"adult":false},{"id":300601,"adult":false},{"id":359187,"adult":false},{"id":271691,"adult":false},{"id":389781,"adult":false},{"id":272383,"adult":false},{"id":18570,"adult":false},{"id":389782,"adult":false},{"id":389783,"adult":false},{"id":84404,"adult":false},{"id":389784,"adult":false},{"id":389785,"adult":false},{"id":107848,"adult":false},{"id":81716,"adult":false},{"id":72370,"adult":false},{"id":389786,"adult":false},{"id":2103,"adult":false},{"id":389787,"adult":false}],"page":107,"total_pages":120,"total_results":11936}