{"results":[{"id":351057,"adult":false},{"id":392025,"adult":false},{"id":392026,"adult":false},{"id":392027,"adult":false},{"id":244049,"adult":false},{"id":388019,"adult":false},{"id":316410,"adult":false},{"id":392028,"adult":false},{"id":333681,"adult":false},{"id":80797,"adult":false},{"id":11858,"adult":false},{"id":289732,"adult":false},{"id":392029,"adult":false},{"id":392030,"adult":false},{"id":352643,"adult":false},{"id":341540,"adult":false},{"id":8460,"adult":false},{"id":392031,"adult":false},{"id":392032,"adult":false},{"id":11794,"adult":false},{"id":392033,"adult":false},{"id":263115,"adult":false},{"id":298286,"adult":false},{"id":19312,"adult":false},{"id":388839,"adult":false},{"id":279503,"adult":false},{"id":392034,"adult":false},{"id":392035,"adult":false},{"id":392036,"adult":false},{"id":392037,"adult":false},{"id":34195,"adult":false},{"id":345654,"adult":false},{"id":392038,"adult":false},{"id":392039,"adult":false},{"id":392040,"adult":false},{"id":21606,"adult":false},{"id":392041,"adult":false},{"id":392042,"adult":false},{"id":392043,"adult":false},{"id":274861,"adult":false},{"id":286180,"adult":false},{"id":392044,"adult":false},{"id":392045,"adult":false},{"id":75170,"adult":false},{"id":218043,"adult":false},{"id":392046,"adult":false},{"id":270292,"adult":false},{"id":276778,"adult":false},{"id":44682,"adult":false},{"id":302869,"adult":false},{"id":392047,"adult":false},{"id":339813,"adult":false},{"id":254193,"adult":false},{"id":365841,"adult":false},{"id":370925,"adult":false},{"id":392048,"adult":false},{"id":258574,"adult":false},{"id":334629,"adult":false},{"id":83989,"adult":false},{"id":392049,"adult":false},{"id":62455,"adult":false},{"id":46011,"adult":false},{"id":337338,"adult":false},{"id":308063,"adult":false},{"id":362449,"adult":false},{"id":754,"adult":false},{"id":315465,"adult":false},{"id":99935,"adult":false},{"id":392050,"adult":false},{"id":1911,"adult":false},{"id":7916,"adult":false},{"id":337751,"adult":false},{"id":370952,"adult":false},{"id":392051,"adult":false},{"id":46877,"adult":false},{"id":281455,"adult":false},{"id":41283,"adult":false},{"id":182560,"adult":false},{"id":392052,"adult":false},{"id":372752,"adult":false},{"id":367613,"adult":false},{"id":22466,"adult":false},{"id":392053,"adult":false},{"id":337577,"adult":false},{"id":371464,"adult":false},{"id":392054,"adult":false},{"id":130387,"adult":false},{"id":356381,"adult":false},{"id":392055,"adult":false},{"id":11950,"adult":false},{"id":390547,"adult":false},{"id":10649,"adult":false},{"id":10650,"adult":false},{"id":392056,"adult":false},{"id":91587,"adult":false},{"id":24021,"adult":false},{"id":50619,"adult":false},{"id":392057,"adult":false},{"id":199026,"adult":false},{"id":260814,"adult":false}],"page":74,"total_pages":118,"total_results":11761}