{"results":[{"id":10895,"adult":false},{"id":282864,"adult":false},{"id":373072,"adult":false},{"id":59336,"adult":false},{"id":248040,"adult":false},{"id":397980,"adult":false},{"id":106176,"adult":false},{"id":54272,"adult":false},{"id":397981,"adult":false},{"id":388596,"adult":false},{"id":353725,"adult":false},{"id":2204,"adult":false},{"id":264972,"adult":false},{"id":397982,"adult":false},{"id":292373,"adult":false},{"id":348025,"adult":false},{"id":397983,"adult":false},{"id":11222,"adult":false},{"id":114033,"adult":false},{"id":397984,"adult":false},{"id":5622,"adult":false},{"id":397985,"adult":true},{"id":397986,"adult":false},{"id":397987,"adult":false},{"id":82703,"adult":false},{"id":37239,"adult":false},{"id":397988,"adult":false},{"id":248504,"adult":false},{"id":897,"adult":false},{"id":246860,"adult":false},{"id":7443,"adult":false},{"id":95520,"adult":false},{"id":91150,"adult":false},{"id":397989,"adult":false},{"id":393300,"adult":false},{"id":249164,"adult":false},{"id":162654,"adult":false},{"id":5055,"adult":false},{"id":192721,"adult":false},{"id":364690,"adult":false},{"id":12761,"adult":false},{"id":184346,"adult":false},{"id":264390,"adult":false},{"id":46150,"adult":false},{"id":271375,"adult":false},{"id":116690,"adult":false},{"id":397990,"adult":false},{"id":377669,"adult":false},{"id":279030,"adult":false},{"id":60773,"adult":false},{"id":5562,"adult":false},{"id":170925,"adult":false},{"id":649,"adult":false},{"id":184315,"adult":false},{"id":29415,"adult":false},{"id":397991,"adult":false},{"id":27361,"adult":false},{"id":344012,"adult":null},{"id":395637,"adult":null},{"id":40423,"adult":false},{"id":58791,"adult":false},{"id":144597,"adult":false},{"id":101929,"adult":false},{"id":111304,"adult":false},{"id":33324,"adult":false},{"id":272692,"adult":false},{"id":366514,"adult":false},{"id":213724,"adult":false},{"id":270703,"adult":false},{"id":291272,"adult":false},{"id":278464,"adult":false},{"id":127,"adult":false},{"id":301733,"adult":false},{"id":59204,"adult":false},{"id":1358,"adult":false},{"id":276496,"adult":false},{"id":28942,"adult":false},{"id":33319,"adult":false},{"id":324308,"adult":false},{"id":112630,"adult":false},{"id":16093,"adult":false},{"id":84972,"adult":false},{"id":901,"adult":false},{"id":789,"adult":false},{"id":30017,"adult":false},{"id":38728,"adult":false},{"id":397992,"adult":false},{"id":44026,"adult":false},{"id":376523,"adult":false},{"id":86664,"adult":false},{"id":366499,"adult":false},{"id":375965,"adult":false},{"id":257708,"adult":false},{"id":397993,"adult":null},{"id":88276,"adult":false},{"id":245913,"adult":false},{"id":341749,"adult":false},{"id":21711,"adult":false},{"id":346570,"adult":false},{"id":138353,"adult":false}],"page":33,"total_pages":128,"total_results":12797}