{"results":[{"id":92108,"adult":false},{"id":398102,"adult":false},{"id":46591,"adult":false},{"id":320996,"adult":false},{"id":109292,"adult":false},{"id":79145,"adult":false},{"id":86666,"adult":false},{"id":46873,"adult":false},{"id":53064,"adult":false},{"id":92998,"adult":false},{"id":143394,"adult":false},{"id":43349,"adult":false},{"id":283105,"adult":false},{"id":43322,"adult":false},{"id":398103,"adult":false},{"id":18292,"adult":false},{"id":8321,"adult":false},{"id":34181,"adult":false},{"id":268893,"adult":false},{"id":42481,"adult":false},{"id":398106,"adult":false},{"id":77365,"adult":false},{"id":262436,"adult":false},{"id":398107,"adult":false},{"id":289198,"adult":false},{"id":14537,"adult":false},{"id":3590,"adult":false},{"id":44115,"adult":false},{"id":391775,"adult":false},{"id":31011,"adult":false},{"id":85144,"adult":false},{"id":398109,"adult":false},{"id":398110,"adult":false},{"id":1059,"adult":false},{"id":122293,"adult":false},{"id":398111,"adult":false},{"id":4912,"adult":false},{"id":398112,"adult":false},{"id":10237,"adult":false},{"id":97942,"adult":false},{"id":14275,"adult":false},{"id":398113,"adult":false},{"id":375487,"adult":false},{"id":371869,"adult":false},{"id":43139,"adult":false},{"id":398114,"adult":false},{"id":375811,"adult":false},{"id":47088,"adult":false},{"id":30141,"adult":false},{"id":260921,"adult":false},{"id":863,"adult":false},{"id":41556,"adult":false},{"id":260899,"adult":false},{"id":120198,"adult":false},{"id":38654,"adult":false},{"id":260900,"adult":false},{"id":270254,"adult":false},{"id":168991,"adult":false},{"id":359356,"adult":false},{"id":60816,"adult":false},{"id":398115,"adult":false},{"id":342677,"adult":false},{"id":395883,"adult":false},{"id":64546,"adult":false},{"id":184123,"adult":false},{"id":260838,"adult":false},{"id":395726,"adult":false},{"id":25623,"adult":false},{"id":260853,"adult":false},{"id":15644,"adult":false},{"id":260894,"adult":false},{"id":130826,"adult":false},{"id":35564,"adult":false},{"id":260905,"adult":false},{"id":298317,"adult":false},{"id":31217,"adult":false},{"id":284200,"adult":false},{"id":260990,"adult":false},{"id":328848,"adult":false},{"id":260995,"adult":false},{"id":70084,"adult":false},{"id":295991,"adult":false},{"id":40623,"adult":false},{"id":53234,"adult":false},{"id":288981,"adult":false},{"id":24774,"adult":false},{"id":42510,"adult":false},{"id":291328,"adult":false},{"id":292431,"adult":false},{"id":15096,"adult":false},{"id":111039,"adult":false},{"id":37717,"adult":false},{"id":21490,"adult":false},{"id":5879,"adult":false},{"id":283384,"adult":false},{"id":21115,"adult":false},{"id":1407,"adult":false},{"id":64728,"adult":false},{"id":492,"adult":false},{"id":12485,"adult":false}],"page":42,"total_pages":128,"total_results":12797}