{"results":[{"id":37961,"adult":false},{"id":403985,"adult":false},{"id":1725,"adult":false},{"id":324803,"adult":false},{"id":330333,"adult":false},{"id":79,"adult":false},{"id":12619,"adult":false},{"id":303,"adult":false},{"id":30159,"adult":false},{"id":22152,"adult":false},{"id":34901,"adult":false},{"id":403986,"adult":false},{"id":403987,"adult":false},{"id":131631,"adult":false},{"id":8276,"adult":false},{"id":227056,"adult":false},{"id":15179,"adult":false},{"id":16056,"adult":false},{"id":22600,"adult":false},{"id":13090,"adult":false},{"id":255671,"adult":false},{"id":11355,"adult":false},{"id":44441,"adult":false},{"id":189445,"adult":false},{"id":403988,"adult":false},{"id":47058,"adult":false},{"id":76718,"adult":false},{"id":385566,"adult":false},{"id":32034,"adult":false},{"id":42710,"adult":false},{"id":376249,"adult":false},{"id":312098,"adult":false},{"id":253251,"adult":false},{"id":31774,"adult":false},{"id":83206,"adult":false},{"id":403989,"adult":false},{"id":285213,"adult":false},{"id":9440,"adult":false},{"id":403990,"adult":false},{"id":118677,"adult":false},{"id":347538,"adult":false},{"id":18498,"adult":false},{"id":1571,"adult":false},{"id":13680,"adult":false},{"id":403991,"adult":false},{"id":16004,"adult":false},{"id":84140,"adult":false},{"id":38655,"adult":false},{"id":214100,"adult":false},{"id":50601,"adult":false},{"id":323020,"adult":false},{"id":246513,"adult":false},{"id":403992,"adult":false},{"id":525,"adult":false},{"id":403993,"adult":false},{"id":403994,"adult":false},{"id":377842,"adult":false},{"id":403995,"adult":false},{"id":11657,"adult":false},{"id":403996,"adult":false},{"id":25103,"adult":false},{"id":10246,"adult":false},{"id":27061,"adult":false},{"id":78708,"adult":false},{"id":403997,"adult":false},{"id":403998,"adult":false},{"id":403999,"adult":false},{"id":107999,"adult":false},{"id":113833,"adult":false},{"id":103927,"adult":false},{"id":31623,"adult":false},{"id":404000,"adult":false},{"id":79521,"adult":false},{"id":404001,"adult":false},{"id":404002,"adult":false},{"id":404003,"adult":false},{"id":404004,"adult":false},{"id":229757,"adult":false},{"id":46910,"adult":false},{"id":404005,"adult":false},{"id":404006,"adult":false},{"id":10807,"adult":false},{"id":358341,"adult":false},{"id":244725,"adult":false},{"id":404007,"adult":false},{"id":295926,"adult":false},{"id":76170,"adult":false},{"id":244728,"adult":false},{"id":388243,"adult":false},{"id":375178,"adult":false},{"id":404008,"adult":false},{"id":293646,"adult":false},{"id":404009,"adult":false},{"id":10601,"adult":false},{"id":145400,"adult":false},{"id":404010,"adult":false},{"id":11983,"adult":false},{"id":387365,"adult":false},{"id":88,"adult":false},{"id":404011,"adult":false}],"page":115,"total_pages":116,"total_results":11526}