{"results":[{"id":175517,"adult":false},{"id":405434,"adult":false},{"id":322686,"adult":false},{"id":31347,"adult":false},{"id":403010,"adult":false},{"id":26945,"adult":false},{"id":66704,"adult":null},{"id":31980,"adult":false},{"id":12453,"adult":false},{"id":403400,"adult":false},{"id":12211,"adult":false},{"id":389367,"adult":true},{"id":398440,"adult":false},{"id":13360,"adult":false},{"id":102244,"adult":false},{"id":405435,"adult":false},{"id":319461,"adult":false},{"id":400714,"adult":true},{"id":256040,"adult":false},{"id":405436,"adult":false},{"id":334376,"adult":false},{"id":405437,"adult":true},{"id":14903,"adult":false},{"id":405438,"adult":false},{"id":333385,"adult":false},{"id":25410,"adult":false},{"id":405439,"adult":false},{"id":245615,"adult":false},{"id":405440,"adult":false},{"id":1884,"adult":false},{"id":405441,"adult":false},{"id":372751,"adult":false},{"id":171823,"adult":false},{"id":405442,"adult":false},{"id":405443,"adult":false},{"id":405444,"adult":false},{"id":316002,"adult":false},{"id":7070,"adult":false},{"id":18191,"adult":false},{"id":405445,"adult":false},{"id":2023,"adult":false},{"id":84421,"adult":false},{"id":53280,"adult":null},{"id":53277,"adult":null},{"id":368194,"adult":false},{"id":506,"adult":false},{"id":285149,"adult":false},{"id":2370,"adult":false},{"id":405446,"adult":false},{"id":325634,"adult":false},{"id":405447,"adult":false},{"id":41573,"adult":false},{"id":28258,"adult":false},{"id":107593,"adult":false},{"id":14284,"adult":false},{"id":321067,"adult":false},{"id":77851,"adult":false},{"id":354151,"adult":false},{"id":405451,"adult":null},{"id":147838,"adult":false},{"id":27948,"adult":false},{"id":405452,"adult":false},{"id":39924,"adult":false},{"id":40842,"adult":false},{"id":405453,"adult":null},{"id":177,"adult":false},{"id":372754,"adult":false},{"id":16121,"adult":false},{"id":158329,"adult":false},{"id":11135,"adult":false},{"id":233423,"adult":false},{"id":203833,"adult":false},{"id":1791,"adult":false},{"id":309859,"adult":false},{"id":2309,"adult":false},{"id":54585,"adult":false},{"id":305143,"adult":false},{"id":49593,"adult":false},{"id":405454,"adult":false},{"id":227679,"adult":false},{"id":340336,"adult":false},{"id":348289,"adult":false},{"id":92915,"adult":false},{"id":405456,"adult":false},{"id":405457,"adult":false},{"id":135939,"adult":false},{"id":358721,"adult":false},{"id":319356,"adult":false},{"id":405458,"adult":false},{"id":11969,"adult":false},{"id":397448,"adult":false},{"id":114847,"adult":false},{"id":57564,"adult":false},{"id":405459,"adult":false},{"id":405460,"adult":null},{"id":330764,"adult":false},{"id":405461,"adult":false},{"id":98868,"adult":false},{"id":405462,"adult":false},{"id":30861,"adult":false}],"page":68,"total_pages":112,"total_results":11190}