{"results":[{"id":378756,"adult":false},{"id":295130,"adult":false},{"id":285879,"adult":false},{"id":280430,"adult":false},{"id":361597,"adult":false},{"id":378757,"adult":null},{"id":36694,"adult":false},{"id":50457,"adult":false},{"id":325383,"adult":null},{"id":378758,"adult":false},{"id":378759,"adult":null},{"id":286023,"adult":false},{"id":378760,"adult":false},{"id":375741,"adult":false},{"id":378763,"adult":false},{"id":267795,"adult":false},{"id":2150,"adult":false},{"id":378764,"adult":false},{"id":378765,"adult":false},{"id":11047,"adult":false},{"id":54421,"adult":false},{"id":10,"adult":false},{"id":378766,"adult":false},{"id":378767,"adult":false},{"id":43699,"adult":false},{"id":378768,"adult":false},{"id":378769,"adult":false},{"id":8920,"adult":false},{"id":16232,"adult":false},{"id":378770,"adult":false},{"id":2109,"adult":false},{"id":5175,"adult":false},{"id":193439,"adult":false},{"id":27576,"adult":false},{"id":378771,"adult":false},{"id":40039,"adult":false},{"id":40040,"adult":false},{"id":164331,"adult":false},{"id":378772,"adult":false},{"id":378773,"adult":false},{"id":378774,"adult":false},{"id":378775,"adult":false},{"id":10249,"adult":false},{"id":378776,"adult":false},{"id":60608,"adult":false},{"id":79045,"adult":false},{"id":378777,"adult":false},{"id":378778,"adult":false},{"id":28918,"adult":false},{"id":238713,"adult":false},{"id":378779,"adult":false},{"id":268920,"adult":false},{"id":60216,"adult":false},{"id":238097,"adult":false},{"id":5592,"adult":false},{"id":29601,"adult":false},{"id":80616,"adult":false},{"id":378780,"adult":false},{"id":292084,"adult":false},{"id":2762,"adult":false},{"id":137683,"adult":false},{"id":183680,"adult":false},{"id":820,"adult":false},{"id":322095,"adult":false},{"id":196474,"adult":false},{"id":40364,"adult":false},{"id":163879,"adult":false},{"id":376003,"adult":false},{"id":16774,"adult":false},{"id":3475,"adult":false},{"id":226861,"adult":false},{"id":111475,"adult":false},{"id":256768,"adult":false},{"id":71813,"adult":false},{"id":257473,"adult":false},{"id":303857,"adult":false},{"id":198375,"adult":false},{"id":260516,"adult":false},{"id":329946,"adult":false},{"id":192712,"adult":false},{"id":257512,"adult":false},{"id":225086,"adult":false},{"id":115969,"adult":false},{"id":42076,"adult":false},{"id":130742,"adult":false},{"id":20455,"adult":false},{"id":360911,"adult":false},{"id":48632,"adult":false},{"id":59297,"adult":false},{"id":297676,"adult":false},{"id":313379,"adult":false},{"id":33441,"adult":false},{"id":315969,"adult":false},{"id":323389,"adult":false},{"id":143830,"adult":false},{"id":311127,"adult":false},{"id":297188,"adult":false},{"id":294487,"adult":null},{"id":60131,"adult":false},{"id":85802,"adult":false}],"page":73,"total_pages":226,"total_results":22514}