{"results":[{"id":383246,"adult":false},{"id":355158,"adult":false},{"id":39414,"adult":false},{"id":299357,"adult":true},{"id":213874,"adult":false},{"id":192946,"adult":false},{"id":57814,"adult":false},{"id":64711,"adult":false},{"id":168903,"adult":false},{"id":235943,"adult":false},{"id":88769,"adult":false},{"id":100349,"adult":false},{"id":144904,"adult":false},{"id":383247,"adult":false},{"id":243090,"adult":true},{"id":115024,"adult":false},{"id":188763,"adult":false},{"id":279229,"adult":false},{"id":383250,"adult":false},{"id":99869,"adult":false},{"id":106929,"adult":false},{"id":249152,"adult":null},{"id":236109,"adult":false},{"id":171858,"adult":false},{"id":165217,"adult":null},{"id":104556,"adult":false},{"id":169888,"adult":false},{"id":222732,"adult":false},{"id":269955,"adult":false},{"id":298471,"adult":true},{"id":322886,"adult":true},{"id":315109,"adult":true},{"id":246872,"adult":true},{"id":296184,"adult":true},{"id":367354,"adult":true},{"id":346265,"adult":false},{"id":104531,"adult":false},{"id":383251,"adult":false},{"id":38178,"adult":false},{"id":383252,"adult":false},{"id":383253,"adult":false},{"id":143558,"adult":false},{"id":913,"adult":false},{"id":371771,"adult":null},{"id":383254,"adult":false},{"id":44678,"adult":false},{"id":70005,"adult":false},{"id":383255,"adult":false},{"id":16859,"adult":false},{"id":338065,"adult":false},{"id":166832,"adult":null},{"id":14527,"adult":false},{"id":383256,"adult":false},{"id":48130,"adult":false},{"id":253445,"adult":false},{"id":40541,"adult":false},{"id":77569,"adult":null},{"id":670,"adult":false},{"id":1844,"adult":false},{"id":86066,"adult":false},{"id":27324,"adult":false},{"id":323966,"adult":false},{"id":318998,"adult":false},{"id":1262,"adult":false},{"id":185103,"adult":false},{"id":383257,"adult":false},{"id":310548,"adult":false},{"id":383258,"adult":false},{"id":2794,"adult":false},{"id":20455,"adult":false},{"id":383259,"adult":false},{"id":2044,"adult":false},{"id":379663,"adult":false},{"id":302827,"adult":false},{"id":173438,"adult":false},{"id":34708,"adult":false},{"id":171744,"adult":false},{"id":118805,"adult":false},{"id":100393,"adult":false},{"id":383260,"adult":false},{"id":226144,"adult":false},{"id":231862,"adult":null},{"id":383261,"adult":false},{"id":117982,"adult":false},{"id":383262,"adult":false},{"id":381052,"adult":false},{"id":116177,"adult":false},{"id":326532,"adult":false},{"id":77186,"adult":false},{"id":365673,"adult":false},{"id":375963,"adult":false},{"id":303749,"adult":false},{"id":377505,"adult":false},{"id":281861,"adult":false},{"id":67693,"adult":false},{"id":303753,"adult":false},{"id":383263,"adult":false},{"id":303750,"adult":false},{"id":383264,"adult":false},{"id":303752,"adult":false}],"page":25,"total_pages":123,"total_results":12205}