{"results":[{"id":346500,"adult":false},{"id":45317,"adult":false},{"id":10895,"adult":false},{"id":408119,"adult":false},{"id":328360,"adult":false},{"id":280644,"adult":false},{"id":408120,"adult":false},{"id":49849,"adult":false},{"id":333989,"adult":false},{"id":361010,"adult":false},{"id":291307,"adult":false},{"id":298263,"adult":false},{"id":329166,"adult":false},{"id":62211,"adult":false},{"id":331850,"adult":false},{"id":1422,"adult":false},{"id":408121,"adult":false},{"id":18379,"adult":false},{"id":408122,"adult":false},{"id":23168,"adult":false},{"id":332271,"adult":false},{"id":1954,"adult":false},{"id":283350,"adult":false},{"id":186741,"adult":false},{"id":293092,"adult":false},{"id":321204,"adult":false},{"id":63760,"adult":false},{"id":408123,"adult":false},{"id":408124,"adult":false},{"id":288366,"adult":false},{"id":149404,"adult":false},{"id":194998,"adult":false},{"id":408125,"adult":false},{"id":389769,"adult":false},{"id":347641,"adult":false},{"id":408126,"adult":false},{"id":389847,"adult":false},{"id":332856,"adult":false},{"id":278940,"adult":false},{"id":229597,"adult":false},{"id":2770,"adult":false},{"id":311615,"adult":false},{"id":408127,"adult":false},{"id":355397,"adult":false},{"id":283161,"adult":false},{"id":288520,"adult":false},{"id":404782,"adult":false},{"id":408128,"adult":false},{"id":369654,"adult":false},{"id":408129,"adult":false},{"id":186423,"adult":false},{"id":312321,"adult":false},{"id":281908,"adult":false},{"id":328445,"adult":false},{"id":38321,"adult":false},{"id":3558,"adult":false},{"id":408130,"adult":null},{"id":384626,"adult":false},{"id":408131,"adult":false},{"id":408132,"adult":false},{"id":408133,"adult":false},{"id":408134,"adult":false},{"id":408135,"adult":false},{"id":354037,"adult":false},{"id":354035,"adult":false},{"id":354029,"adult":false},{"id":385625,"adult":false},{"id":408136,"adult":false},{"id":385624,"adult":false},{"id":385623,"adult":false},{"id":357798,"adult":false},{"id":265016,"adult":false},{"id":408137,"adult":false},{"id":299461,"adult":false},{"id":380839,"adult":false},{"id":408138,"adult":false},{"id":183552,"adult":false},{"id":408139,"adult":false},{"id":328344,"adult":false},{"id":408140,"adult":false},{"id":127729,"adult":false},{"id":213491,"adult":false},{"id":98251,"adult":false},{"id":313982,"adult":false},{"id":408141,"adult":false},{"id":183536,"adult":false},{"id":251885,"adult":false},{"id":240123,"adult":false},{"id":346495,"adult":false},{"id":44077,"adult":false},{"id":408142,"adult":false},{"id":351892,"adult":false},{"id":200025,"adult":false},{"id":42723,"adult":false},{"id":87112,"adult":false},{"id":405651,"adult":false},{"id":301950,"adult":false},{"id":400059,"adult":false},{"id":341209,"adult":false},{"id":351840,"adult":false}],"page":105,"total_pages":120,"total_results":11946}