{"results":[{"id":51470,"adult":false},{"id":334298,"adult":false},{"id":81831,"adult":false},{"id":373339,"adult":false},{"id":411036,"adult":false},{"id":279977,"adult":false},{"id":175731,"adult":false},{"id":8355,"adult":false},{"id":409198,"adult":false},{"id":422870,"adult":false},{"id":22585,"adult":false},{"id":409696,"adult":false},{"id":416399,"adult":false},{"id":422871,"adult":false},{"id":422872,"adult":false},{"id":393857,"adult":false},{"id":422873,"adult":false},{"id":422874,"adult":false},{"id":422875,"adult":false},{"id":75326,"adult":false},{"id":45698,"adult":false},{"id":386315,"adult":false},{"id":422876,"adult":false},{"id":85297,"adult":false},{"id":262589,"adult":false},{"id":422877,"adult":false},{"id":374794,"adult":false},{"id":207903,"adult":false},{"id":422878,"adult":false},{"id":238292,"adult":false},{"id":277247,"adult":false},{"id":422879,"adult":false},{"id":220343,"adult":false},{"id":422880,"adult":false},{"id":199235,"adult":false},{"id":50704,"adult":false},{"id":63777,"adult":false},{"id":27916,"adult":false},{"id":407365,"adult":false},{"id":267371,"adult":false},{"id":422881,"adult":false},{"id":257831,"adult":false},{"id":422882,"adult":false},{"id":64883,"adult":false},{"id":4789,"adult":false},{"id":45212,"adult":false},{"id":85199,"adult":false},{"id":318173,"adult":false},{"id":165632,"adult":false},{"id":276757,"adult":false},{"id":46069,"adult":false},{"id":1900,"adult":false},{"id":281,"adult":false},{"id":6977,"adult":false},{"id":422883,"adult":false},{"id":115821,"adult":false},{"id":222517,"adult":false},{"id":217707,"adult":false},{"id":44725,"adult":false},{"id":23446,"adult":false},{"id":44727,"adult":false},{"id":44729,"adult":false},{"id":44728,"adult":false},{"id":422884,"adult":false},{"id":41498,"adult":false},{"id":25278,"adult":false},{"id":44730,"adult":false},{"id":422885,"adult":false},{"id":44731,"adult":false},{"id":79082,"adult":false},{"id":176983,"adult":false},{"id":142329,"adult":false},{"id":29160,"adult":true},{"id":422886,"adult":false},{"id":110327,"adult":false},{"id":422887,"adult":false},{"id":49038,"adult":false},{"id":314382,"adult":false},{"id":415528,"adult":false},{"id":71750,"adult":false},{"id":72984,"adult":false},{"id":67058,"adult":false},{"id":335940,"adult":false},{"id":12919,"adult":false},{"id":52886,"adult":false},{"id":24826,"adult":false},{"id":97222,"adult":false},{"id":40084,"adult":false},{"id":15785,"adult":false},{"id":67307,"adult":false},{"id":30421,"adult":false},{"id":422888,"adult":false},{"id":348697,"adult":true},{"id":163706,"adult":false},{"id":422889,"adult":false},{"id":39918,"adult":false},{"id":18305,"adult":false},{"id":415351,"adult":false},{"id":86251,"adult":false},{"id":410896,"adult":false}],"page":107,"total_pages":123,"total_results":12202}