{"results":[{"id":273659,"adult":false},{"id":20526,"adult":false},{"id":266216,"adult":false},{"id":10529,"adult":false},{"id":128303,"adult":false},{"id":126960,"adult":false},{"id":11688,"adult":false},{"id":9543,"adult":false},{"id":90353,"adult":false},{"id":193443,"adult":null},{"id":10947,"adult":false},{"id":123025,"adult":false},{"id":233112,"adult":false},{"id":292040,"adult":false},{"id":241077,"adult":false},{"id":11864,"adult":false},{"id":80900,"adult":false},{"id":69723,"adult":false},{"id":267480,"adult":false},{"id":47743,"adult":false},{"id":336882,"adult":false},{"id":5552,"adult":false},{"id":217035,"adult":false},{"id":136127,"adult":false},{"id":386011,"adult":false},{"id":287912,"adult":false},{"id":386012,"adult":false},{"id":386013,"adult":false},{"id":1089,"adult":false},{"id":386014,"adult":false},{"id":42603,"adult":false},{"id":852,"adult":false},{"id":329827,"adult":false},{"id":67967,"adult":false},{"id":386015,"adult":false},{"id":241202,"adult":false},{"id":118442,"adult":false},{"id":386016,"adult":false},{"id":386017,"adult":false},{"id":23520,"adult":false},{"id":386018,"adult":false},{"id":30278,"adult":false},{"id":41796,"adult":false},{"id":386019,"adult":false},{"id":8859,"adult":false},{"id":26789,"adult":false},{"id":215350,"adult":false},{"id":269352,"adult":false},{"id":30159,"adult":false},{"id":364279,"adult":false},{"id":296688,"adult":false},{"id":36916,"adult":false},{"id":386020,"adult":false},{"id":384845,"adult":false},{"id":83223,"adult":false},{"id":62098,"adult":false},{"id":154306,"adult":false},{"id":21380,"adult":false},{"id":33389,"adult":false},{"id":44173,"adult":false},{"id":18501,"adult":false},{"id":289201,"adult":false},{"id":386021,"adult":false},{"id":386022,"adult":false},{"id":386023,"adult":false},{"id":20497,"adult":false},{"id":96936,"adult":false},{"id":209855,"adult":false},{"id":296099,"adult":false},{"id":386024,"adult":false},{"id":380669,"adult":false},{"id":224223,"adult":false},{"id":358227,"adult":null},{"id":76361,"adult":false},{"id":386025,"adult":false},{"id":228161,"adult":false},{"id":30926,"adult":false},{"id":326425,"adult":false},{"id":386026,"adult":false},{"id":74587,"adult":false},{"id":386027,"adult":false},{"id":227481,"adult":false},{"id":386028,"adult":false},{"id":386029,"adult":false},{"id":267792,"adult":false},{"id":43905,"adult":false},{"id":136946,"adult":false},{"id":68430,"adult":false},{"id":39302,"adult":false},{"id":386030,"adult":false},{"id":20763,"adult":false},{"id":31586,"adult":false},{"id":201304,"adult":false},{"id":49146,"adult":false},{"id":385196,"adult":false},{"id":10158,"adult":false},{"id":45243,"adult":false},{"id":19017,"adult":false},{"id":337888,"adult":false},{"id":109439,"adult":false}],"page":51,"total_pages":123,"total_results":12230}