{"results":[{"id":816,"adult":false},{"id":265208,"adult":false},{"id":30006,"adult":false},{"id":319090,"adult":false},{"id":284091,"adult":false},{"id":270486,"adult":false},{"id":384812,"adult":false},{"id":674,"adult":false},{"id":107912,"adult":false},{"id":40807,"adult":false},{"id":212503,"adult":false},{"id":671,"adult":false},{"id":675,"adult":false},{"id":207160,"adult":false},{"id":76762,"adult":false},{"id":98628,"adult":false},{"id":10064,"adult":false},{"id":384813,"adult":false},{"id":384814,"adult":false},{"id":144682,"adult":false},{"id":110936,"adult":false},{"id":384815,"adult":false},{"id":745,"adult":false},{"id":24761,"adult":false},{"id":328,"adult":false},{"id":15003,"adult":false},{"id":384816,"adult":false},{"id":384817,"adult":false},{"id":954,"adult":false},{"id":127554,"adult":false},{"id":384818,"adult":false},{"id":58989,"adult":false},{"id":137321,"adult":false},{"id":14459,"adult":false},{"id":5706,"adult":false},{"id":318061,"adult":false},{"id":384819,"adult":false},{"id":384820,"adult":false},{"id":108510,"adult":false},{"id":71704,"adult":false},{"id":328051,"adult":false},{"id":328274,"adult":false},{"id":6936,"adult":false},{"id":384821,"adult":false},{"id":384822,"adult":false},{"id":384823,"adult":null},{"id":384824,"adult":false},{"id":181283,"adult":false},{"id":27135,"adult":false},{"id":186145,"adult":false},{"id":62039,"adult":false},{"id":384825,"adult":false},{"id":384826,"adult":false},{"id":51497,"adult":false},{"id":316447,"adult":false},{"id":69270,"adult":false},{"id":343400,"adult":null},{"id":86092,"adult":false},{"id":85946,"adult":false},{"id":163585,"adult":false},{"id":268550,"adult":false},{"id":264591,"adult":false},{"id":384827,"adult":false},{"id":266837,"adult":false},{"id":857,"adult":false},{"id":289228,"adult":false},{"id":384828,"adult":false},{"id":171388,"adult":false},{"id":368242,"adult":false},{"id":255973,"adult":false},{"id":119581,"adult":false},{"id":328881,"adult":false},{"id":384829,"adult":true},{"id":298519,"adult":false},{"id":11600,"adult":false},{"id":384830,"adult":false},{"id":384831,"adult":false},{"id":20759,"adult":false},{"id":32054,"adult":false},{"id":369911,"adult":false},{"id":285339,"adult":false},{"id":17609,"adult":false},{"id":4011,"adult":false},{"id":184,"adult":false},{"id":94528,"adult":false},{"id":384832,"adult":false},{"id":163786,"adult":false},{"id":384833,"adult":false},{"id":27732,"adult":false},{"id":14729,"adult":false},{"id":185477,"adult":false},{"id":28874,"adult":false},{"id":308663,"adult":false},{"id":276228,"adult":false},{"id":384834,"adult":false},{"id":291167,"adult":false},{"id":72806,"adult":false},{"id":131484,"adult":false},{"id":384835,"adult":false},{"id":36404,"adult":false}],"page":118,"total_pages":123,"total_results":12205}