{"results":[{"id":280092,"adult":false},{"id":376660,"adult":false},{"id":7299,"adult":false},{"id":75612,"adult":false},{"id":376661,"adult":null},{"id":66166,"adult":false},{"id":86482,"adult":false},{"id":80274,"adult":false},{"id":4193,"adult":false},{"id":4192,"adult":false},{"id":44256,"adult":false},{"id":168530,"adult":false},{"id":10138,"adult":false},{"id":68721,"adult":false},{"id":77495,"adult":false},{"id":376662,"adult":false},{"id":337005,"adult":false},{"id":239583,"adult":false},{"id":39254,"adult":false},{"id":259693,"adult":false},{"id":125400,"adult":false},{"id":98566,"adult":false},{"id":292280,"adult":false},{"id":44520,"adult":false},{"id":7348,"adult":false},{"id":376663,"adult":null},{"id":330191,"adult":false},{"id":262672,"adult":false},{"id":48210,"adult":false},{"id":346672,"adult":false},{"id":338964,"adult":false},{"id":142965,"adult":false},{"id":11209,"adult":false},{"id":10733,"adult":false},{"id":181557,"adult":false},{"id":21925,"adult":false},{"id":61201,"adult":false},{"id":287424,"adult":false},{"id":376664,"adult":false},{"id":376665,"adult":false},{"id":20941,"adult":false},{"id":42735,"adult":false},{"id":376666,"adult":false},{"id":26865,"adult":false},{"id":254148,"adult":false},{"id":9585,"adult":false},{"id":174646,"adult":false},{"id":225638,"adult":false},{"id":313628,"adult":false},{"id":280503,"adult":false},{"id":374735,"adult":false},{"id":78328,"adult":false},{"id":25846,"adult":false},{"id":37235,"adult":false},{"id":9264,"adult":false},{"id":100656,"adult":false},{"id":347669,"adult":false},{"id":18220,"adult":false},{"id":195191,"adult":false},{"id":24348,"adult":false},{"id":72432,"adult":false},{"id":64568,"adult":false},{"id":244563,"adult":false},{"id":41275,"adult":false},{"id":49715,"adult":false},{"id":242294,"adult":false},{"id":10427,"adult":false},{"id":22450,"adult":false},{"id":376667,"adult":false},{"id":674,"adult":false},{"id":310137,"adult":false},{"id":42566,"adult":false},{"id":10402,"adult":false},{"id":376668,"adult":false},{"id":32649,"adult":false},{"id":253799,"adult":false},{"id":31472,"adult":false},{"id":125589,"adult":false},{"id":376669,"adult":false},{"id":759,"adult":false},{"id":140480,"adult":false},{"id":2102,"adult":false},{"id":172785,"adult":false},{"id":376670,"adult":false},{"id":32048,"adult":false},{"id":277154,"adult":false},{"id":46194,"adult":false},{"id":238777,"adult":false},{"id":374504,"adult":false},{"id":174316,"adult":false},{"id":21788,"adult":false},{"id":376671,"adult":false},{"id":21765,"adult":false},{"id":109397,"adult":false},{"id":325706,"adult":false},{"id":173397,"adult":false},{"id":246057,"adult":false},{"id":94660,"adult":false},{"id":2017,"adult":false},{"id":376672,"adult":false}],"page":83,"total_pages":121,"total_results":12060}