{"results":[{"id":92601,"adult":false},{"id":287390,"adult":false},{"id":379,"adult":false},{"id":411491,"adult":false},{"id":136350,"adult":false},{"id":332506,"adult":false},{"id":135498,"adult":false},{"id":209274,"adult":false},{"id":382322,"adult":false},{"id":80410,"adult":false},{"id":252360,"adult":false},{"id":292862,"adult":false},{"id":338766,"adult":false},{"id":260759,"adult":false},{"id":411492,"adult":false},{"id":411493,"adult":false},{"id":32052,"adult":false},{"id":163706,"adult":false},{"id":12261,"adult":false},{"id":483,"adult":false},{"id":237863,"adult":false},{"id":322240,"adult":false},{"id":84803,"adult":false},{"id":216781,"adult":false},{"id":399566,"adult":false},{"id":339423,"adult":false},{"id":411398,"adult":false},{"id":321086,"adult":false},{"id":411494,"adult":false},{"id":411495,"adult":false},{"id":411496,"adult":false},{"id":87827,"adult":false},{"id":120512,"adult":false},{"id":86137,"adult":false},{"id":259900,"adult":false},{"id":348668,"adult":false},{"id":409616,"adult":false},{"id":411497,"adult":false},{"id":48612,"adult":false},{"id":54877,"adult":false},{"id":411498,"adult":false},{"id":339397,"adult":false},{"id":337556,"adult":false},{"id":129481,"adult":false},{"id":12611,"adult":false},{"id":72111,"adult":false},{"id":411499,"adult":false},{"id":411500,"adult":false},{"id":38356,"adult":false},{"id":202792,"adult":false},{"id":66517,"adult":false},{"id":69270,"adult":false},{"id":333669,"adult":false},{"id":148491,"adult":false},{"id":4970,"adult":false},{"id":345302,"adult":false},{"id":135870,"adult":false},{"id":46517,"adult":false},{"id":411501,"adult":false},{"id":83190,"adult":false},{"id":411502,"adult":false},{"id":4286,"adult":false},{"id":297757,"adult":false},{"id":106924,"adult":false},{"id":400896,"adult":false},{"id":368940,"adult":false},{"id":9550,"adult":false},{"id":290598,"adult":false},{"id":127744,"adult":false},{"id":69512,"adult":false},{"id":388279,"adult":false},{"id":3056,"adult":false},{"id":107008,"adult":false},{"id":3008,"adult":false},{"id":205220,"adult":false},{"id":277992,"adult":false},{"id":411410,"adult":false},{"id":49357,"adult":true},{"id":369780,"adult":false},{"id":49299,"adult":false},{"id":36615,"adult":false},{"id":7840,"adult":false},{"id":150146,"adult":false},{"id":2609,"adult":false},{"id":278035,"adult":false},{"id":11963,"adult":false},{"id":253282,"adult":false},{"id":33385,"adult":false},{"id":411503,"adult":false},{"id":360511,"adult":false},{"id":115647,"adult":false},{"id":361183,"adult":false},{"id":159942,"adult":false},{"id":411504,"adult":false},{"id":411505,"adult":false},{"id":293828,"adult":false},{"id":35860,"adult":false},{"id":24559,"adult":false},{"id":201429,"adult":false},{"id":289927,"adult":false}],"page":5,"total_pages":103,"total_results":10211}