{"results":[{"id":9390,"adult":false},{"id":254696,"adult":false},{"id":37373,"adult":false},{"id":346615,"adult":false},{"id":76696,"adult":false},{"id":276491,"adult":false},{"id":40225,"adult":false},{"id":316042,"adult":false},{"id":79755,"adult":false},{"id":24983,"adult":false},{"id":22683,"adult":false},{"id":121358,"adult":false},{"id":385379,"adult":false},{"id":48303,"adult":false},{"id":51865,"adult":false},{"id":315430,"adult":false},{"id":265756,"adult":false},{"id":343194,"adult":null},{"id":63176,"adult":false},{"id":389087,"adult":true},{"id":98927,"adult":false},{"id":63891,"adult":false},{"id":389088,"adult":false},{"id":389089,"adult":false},{"id":389090,"adult":true},{"id":389091,"adult":false},{"id":389092,"adult":true},{"id":389094,"adult":true},{"id":59566,"adult":false},{"id":209913,"adult":false},{"id":193756,"adult":false},{"id":152736,"adult":false},{"id":301228,"adult":false},{"id":291081,"adult":false},{"id":47921,"adult":false},{"id":24180,"adult":false},{"id":291084,"adult":false},{"id":58129,"adult":false},{"id":291092,"adult":false},{"id":102323,"adult":false},{"id":374614,"adult":false},{"id":51860,"adult":false},{"id":9798,"adult":false},{"id":81672,"adult":false},{"id":38093,"adult":false},{"id":299610,"adult":false},{"id":376296,"adult":false},{"id":189698,"adult":false},{"id":347847,"adult":false},{"id":189741,"adult":false},{"id":1607,"adult":false},{"id":389096,"adult":null},{"id":1485,"adult":false},{"id":166005,"adult":false},{"id":274670,"adult":false},{"id":348947,"adult":false},{"id":311018,"adult":false},{"id":389097,"adult":false},{"id":955,"adult":false},{"id":381117,"adult":true},{"id":389098,"adult":null},{"id":122870,"adult":false},{"id":66968,"adult":false},{"id":289,"adult":false},{"id":6620,"adult":false},{"id":10387,"adult":false},{"id":32552,"adult":false},{"id":47254,"adult":false},{"id":389099,"adult":false},{"id":20842,"adult":false},{"id":135806,"adult":false},{"id":20873,"adult":false},{"id":389100,"adult":false},{"id":48466,"adult":false},{"id":127696,"adult":false},{"id":62719,"adult":false},{"id":40696,"adult":false},{"id":389101,"adult":false},{"id":199591,"adult":false},{"id":389102,"adult":false},{"id":389103,"adult":true},{"id":128466,"adult":false},{"id":361297,"adult":false},{"id":292189,"adult":false},{"id":11626,"adult":false},{"id":389104,"adult":false},{"id":53815,"adult":true},{"id":11875,"adult":false},{"id":49428,"adult":true},{"id":12127,"adult":false},{"id":386377,"adult":null},{"id":301759,"adult":true},{"id":374047,"adult":null},{"id":286743,"adult":false},{"id":953,"adult":false},{"id":10527,"adult":false},{"id":80321,"adult":false},{"id":389105,"adult":false},{"id":12097,"adult":false},{"id":227148,"adult":false}],"page":75,"total_pages":120,"total_results":11936}