{"results":[{"id":337730,"adult":false},{"id":265010,"adult":false},{"id":12919,"adult":false},{"id":157832,"adult":false},{"id":15487,"adult":false},{"id":145668,"adult":false},{"id":11642,"adult":false},{"id":37309,"adult":false},{"id":201759,"adult":false},{"id":380671,"adult":false},{"id":24664,"adult":false},{"id":380672,"adult":false},{"id":336850,"adult":false},{"id":10432,"adult":false},{"id":380673,"adult":false},{"id":10577,"adult":false},{"id":197569,"adult":true},{"id":380674,"adult":false},{"id":42452,"adult":false},{"id":17130,"adult":false},{"id":258674,"adult":false},{"id":380678,"adult":false},{"id":363425,"adult":false},{"id":307704,"adult":false},{"id":45188,"adult":false},{"id":159934,"adult":false},{"id":166207,"adult":false},{"id":203095,"adult":false},{"id":380679,"adult":false},{"id":277549,"adult":false},{"id":380680,"adult":false},{"id":202058,"adult":true},{"id":323675,"adult":false},{"id":104524,"adult":false},{"id":344273,"adult":true},{"id":344876,"adult":true},{"id":360799,"adult":false},{"id":343526,"adult":true},{"id":248715,"adult":false},{"id":344366,"adult":true},{"id":262650,"adult":false},{"id":380681,"adult":false},{"id":225152,"adult":true},{"id":11858,"adult":false},{"id":87809,"adult":false},{"id":334889,"adult":false},{"id":285702,"adult":true},{"id":380682,"adult":false},{"id":380683,"adult":false},{"id":225146,"adult":true},{"id":175328,"adult":true},{"id":380684,"adult":false},{"id":64605,"adult":false},{"id":327424,"adult":false},{"id":378681,"adult":null},{"id":380685,"adult":false},{"id":47249,"adult":false},{"id":380686,"adult":false},{"id":67296,"adult":false},{"id":377363,"adult":false},{"id":254679,"adult":false},{"id":345384,"adult":true},{"id":345062,"adult":true},{"id":281262,"adult":false},{"id":246717,"adult":true},{"id":380687,"adult":false},{"id":246442,"adult":true},{"id":377428,"adult":false},{"id":253220,"adult":true},{"id":380688,"adult":false},{"id":296109,"adult":false},{"id":247329,"adult":true},{"id":195818,"adult":true},{"id":245419,"adult":true},{"id":359347,"adult":true},{"id":380689,"adult":false},{"id":343895,"adult":true},{"id":24293,"adult":false},{"id":363601,"adult":true},{"id":380690,"adult":false},{"id":226261,"adult":false},{"id":157834,"adult":false},{"id":232672,"adult":false},{"id":98239,"adult":false},{"id":380691,"adult":false},{"id":380692,"adult":false},{"id":25051,"adult":false},{"id":5844,"adult":false},{"id":307291,"adult":false},{"id":294681,"adult":false},{"id":5889,"adult":false},{"id":380693,"adult":false},{"id":90187,"adult":false},{"id":115397,"adult":false},{"id":283193,"adult":false},{"id":91260,"adult":false},{"id":18158,"adult":false},{"id":380694,"adult":false},{"id":311176,"adult":false},{"id":380695,"adult":false}],"page":10,"total_pages":119,"total_results":11854}