{"results":[{"id":379289,"adult":false},{"id":207671,"adult":false},{"id":292308,"adult":false},{"id":11551,"adult":false},{"id":355828,"adult":false},{"id":376415,"adult":false},{"id":6435,"adult":false},{"id":379290,"adult":false},{"id":123553,"adult":false},{"id":16690,"adult":false},{"id":1266,"adult":false},{"id":41182,"adult":false},{"id":379291,"adult":false},{"id":374151,"adult":false},{"id":379292,"adult":false},{"id":379293,"adult":false},{"id":189803,"adult":false},{"id":207003,"adult":false},{"id":13448,"adult":false},{"id":38832,"adult":false},{"id":25610,"adult":false},{"id":3170,"adult":false},{"id":35,"adult":false},{"id":379294,"adult":false},{"id":379295,"adult":false},{"id":12092,"adult":false},{"id":264987,"adult":false},{"id":8867,"adult":false},{"id":379296,"adult":true},{"id":294148,"adult":false},{"id":9612,"adult":false},{"id":12554,"adult":false},{"id":11950,"adult":false},{"id":11005,"adult":false},{"id":196,"adult":false},{"id":165,"adult":false},{"id":10065,"adult":false},{"id":379297,"adult":false},{"id":45657,"adult":false},{"id":10128,"adult":false},{"id":379298,"adult":false},{"id":253331,"adult":false},{"id":238215,"adult":false},{"id":14254,"adult":false},{"id":11152,"adult":false},{"id":19904,"adult":false},{"id":9902,"adult":false},{"id":56281,"adult":false},{"id":37950,"adult":false},{"id":13812,"adult":false},{"id":10066,"adult":false},{"id":132792,"adult":false},{"id":379299,"adult":false},{"id":147538,"adult":false},{"id":11886,"adult":false},{"id":379300,"adult":false},{"id":341862,"adult":false},{"id":30620,"adult":false},{"id":379301,"adult":false},{"id":11135,"adult":false},{"id":309235,"adult":false},{"id":10296,"adult":false},{"id":142375,"adult":false},{"id":125694,"adult":false},{"id":284305,"adult":false},{"id":297580,"adult":false},{"id":157843,"adult":false},{"id":2319,"adult":false},{"id":348811,"adult":false},{"id":353686,"adult":false},{"id":299553,"adult":false},{"id":67809,"adult":false},{"id":148605,"adult":false},{"id":14547,"adult":false},{"id":39451,"adult":false},{"id":118192,"adult":false},{"id":13995,"adult":false},{"id":106355,"adult":false},{"id":53401,"adult":false},{"id":146210,"adult":false},{"id":267259,"adult":false},{"id":1597,"adult":false},{"id":376972,"adult":false},{"id":379302,"adult":false},{"id":306599,"adult":null},{"id":254349,"adult":false},{"id":9913,"adult":false},{"id":379303,"adult":false},{"id":225145,"adult":false},{"id":10020,"adult":false},{"id":274708,"adult":false},{"id":329407,"adult":false},{"id":259187,"adult":null},{"id":379304,"adult":false},{"id":359809,"adult":false},{"id":220146,"adult":false},{"id":379305,"adult":false},{"id":335853,"adult":false},{"id":84505,"adult":false},{"id":368604,"adult":false}],"page":97,"total_pages":226,"total_results":22514}