{"results":[{"id":16320,"adult":false},{"id":414937,"adult":false},{"id":10063,"adult":false},{"id":156068,"adult":false},{"id":349110,"adult":false},{"id":276477,"adult":false},{"id":50388,"adult":false},{"id":9738,"adult":false},{"id":1979,"adult":false},{"id":594,"adult":false},{"id":424843,"adult":null},{"id":14003,"adult":false},{"id":24418,"adult":false},{"id":80518,"adult":false},{"id":140612,"adult":false},{"id":279678,"adult":false},{"id":247838,"adult":false},{"id":424844,"adult":false},{"id":13334,"adult":false},{"id":267853,"adult":false},{"id":89823,"adult":false},{"id":328216,"adult":false},{"id":37859,"adult":false},{"id":339382,"adult":false},{"id":424845,"adult":false},{"id":11846,"adult":false},{"id":21833,"adult":false},{"id":424846,"adult":false},{"id":34796,"adult":false},{"id":34672,"adult":false},{"id":11862,"adult":false},{"id":424847,"adult":false},{"id":39928,"adult":false},{"id":196024,"adult":false},{"id":109410,"adult":false},{"id":220587,"adult":false},{"id":191703,"adult":false},{"id":305522,"adult":false},{"id":24420,"adult":false},{"id":260514,"adult":false},{"id":10987,"adult":false},{"id":62720,"adult":false},{"id":1562,"adult":false},{"id":81390,"adult":false},{"id":388347,"adult":false},{"id":199534,"adult":false},{"id":129533,"adult":false},{"id":10372,"adult":false},{"id":17097,"adult":false},{"id":424848,"adult":false},{"id":363689,"adult":false},{"id":267080,"adult":false},{"id":361042,"adult":false},{"id":383442,"adult":false},{"id":166424,"adult":false},{"id":87785,"adult":false},{"id":336843,"adult":false},{"id":1575,"adult":false},{"id":131197,"adult":false},{"id":398765,"adult":false},{"id":404194,"adult":false},{"id":299054,"adult":false},{"id":379163,"adult":false},{"id":424849,"adult":false},{"id":207317,"adult":false},{"id":68730,"adult":false},{"id":198953,"adult":false},{"id":203046,"adult":false},{"id":300687,"adult":false},{"id":424850,"adult":false},{"id":411019,"adult":false},{"id":415288,"adult":false},{"id":424851,"adult":false},{"id":424852,"adult":false},{"id":115894,"adult":false},{"id":13055,"adult":false},{"id":424853,"adult":false},{"id":412117,"adult":false},{"id":360920,"adult":false},{"id":260528,"adult":false},{"id":158213,"adult":false},{"id":372058,"adult":false},{"id":271736,"adult":false},{"id":373677,"adult":false},{"id":424854,"adult":false},{"id":327464,"adult":false},{"id":274847,"adult":false},{"id":402431,"adult":false},{"id":424855,"adult":false},{"id":343843,"adult":false},{"id":424856,"adult":false},{"id":21057,"adult":false},{"id":287947,"adult":false},{"id":8935,"adult":false},{"id":408584,"adult":false},{"id":424859,"adult":false},{"id":410566,"adult":null},{"id":424860,"adult":false},{"id":84377,"adult":false},{"id":82654,"adult":false}],"page":62,"total_pages":120,"total_results":11922}