{"results":[{"id":224885,"adult":false},{"id":238891,"adult":false},{"id":252178,"adult":false},{"id":60854,"adult":false},{"id":296081,"adult":false},{"id":239245,"adult":false},{"id":41391,"adult":false},{"id":6477,"adult":false},{"id":221,"adult":false},{"id":23398,"adult":false},{"id":60747,"adult":false},{"id":236735,"adult":false},{"id":50456,"adult":false},{"id":241967,"adult":false},{"id":378662,"adult":false},{"id":2105,"adult":false},{"id":24963,"adult":false},{"id":48136,"adult":false},{"id":111839,"adult":false},{"id":18146,"adult":false},{"id":376273,"adult":false},{"id":102078,"adult":false},{"id":37311,"adult":false},{"id":243104,"adult":false},{"id":50544,"adult":false},{"id":139361,"adult":false},{"id":78213,"adult":false},{"id":1579,"adult":false},{"id":275052,"adult":false},{"id":79521,"adult":false},{"id":60963,"adult":false},{"id":378663,"adult":false},{"id":256553,"adult":false},{"id":74861,"adult":false},{"id":47739,"adult":false},{"id":258672,"adult":false},{"id":40578,"adult":false},{"id":220,"adult":false},{"id":51426,"adult":false},{"id":258790,"adult":false},{"id":43340,"adult":false},{"id":378664,"adult":false},{"id":139308,"adult":false},{"id":34018,"adult":false},{"id":278805,"adult":false},{"id":40686,"adult":false},{"id":95977,"adult":false},{"id":374760,"adult":false},{"id":207178,"adult":false},{"id":378665,"adult":false},{"id":378666,"adult":false},{"id":378667,"adult":false},{"id":378668,"adult":false},{"id":267193,"adult":false},{"id":208974,"adult":false},{"id":360912,"adult":false},{"id":61391,"adult":false},{"id":344268,"adult":false},{"id":378669,"adult":false},{"id":378670,"adult":false},{"id":124574,"adult":false},{"id":8470,"adult":false},{"id":136400,"adult":false},{"id":60853,"adult":false},{"id":244506,"adult":false},{"id":41204,"adult":false},{"id":72479,"adult":false},{"id":75623,"adult":false},{"id":234140,"adult":false},{"id":378671,"adult":false},{"id":68443,"adult":false},{"id":55472,"adult":false},{"id":260409,"adult":false},{"id":87621,"adult":false},{"id":34623,"adult":false},{"id":32929,"adult":false},{"id":65213,"adult":false},{"id":62000,"adult":false},{"id":182895,"adult":false},{"id":245457,"adult":false},{"id":15647,"adult":false},{"id":65581,"adult":false},{"id":72847,"adult":false},{"id":378672,"adult":false},{"id":78117,"adult":false},{"id":366622,"adult":false},{"id":1995,"adult":false},{"id":378673,"adult":false},{"id":378674,"adult":false},{"id":283161,"adult":false},{"id":378675,"adult":false},{"id":14789,"adult":false},{"id":378676,"adult":false},{"id":295887,"adult":false},{"id":322792,"adult":false},{"id":79697,"adult":false},{"id":295849,"adult":false},{"id":239439,"adult":false},{"id":375897,"adult":false},{"id":17529,"adult":false}],"page":68,"total_pages":226,"total_results":22514}