{"results":[{"id":161,"adult":false},{"id":290250,"adult":false},{"id":283827,"adult":false},{"id":342344,"adult":false},{"id":308165,"adult":false},{"id":172136,"adult":true},{"id":410882,"adult":false},{"id":385760,"adult":false},{"id":401467,"adult":false},{"id":173720,"adult":false},{"id":107226,"adult":false},{"id":238134,"adult":false},{"id":272666,"adult":false},{"id":413279,"adult":false},{"id":413561,"adult":null},{"id":413564,"adult":null},{"id":413558,"adult":null},{"id":413556,"adult":null},{"id":383283,"adult":null},{"id":51393,"adult":false},{"id":300783,"adult":false},{"id":50341,"adult":false},{"id":410971,"adult":false},{"id":405924,"adult":false},{"id":358835,"adult":false},{"id":412588,"adult":false},{"id":197806,"adult":false},{"id":387351,"adult":false},{"id":411735,"adult":false},{"id":321093,"adult":false},{"id":179892,"adult":false},{"id":277369,"adult":false},{"id":363978,"adult":false},{"id":413641,"adult":false},{"id":94608,"adult":false},{"id":34377,"adult":false},{"id":57666,"adult":false},{"id":199951,"adult":false},{"id":42611,"adult":false},{"id":28277,"adult":false},{"id":126996,"adult":false},{"id":273263,"adult":false},{"id":117167,"adult":false},{"id":413642,"adult":false},{"id":164457,"adult":false},{"id":141685,"adult":false},{"id":413643,"adult":false},{"id":37686,"adult":false},{"id":402334,"adult":false},{"id":263506,"adult":false},{"id":43347,"adult":false},{"id":295130,"adult":false},{"id":57625,"adult":false},{"id":11004,"adult":false},{"id":404344,"adult":false},{"id":363683,"adult":false},{"id":14030,"adult":false},{"id":325744,"adult":false},{"id":12432,"adult":false},{"id":220820,"adult":false},{"id":239207,"adult":false},{"id":378087,"adult":false},{"id":53932,"adult":false},{"id":225608,"adult":false},{"id":309299,"adult":false},{"id":325346,"adult":false},{"id":218275,"adult":false},{"id":181160,"adult":false},{"id":399135,"adult":false},{"id":254302,"adult":false},{"id":411882,"adult":false},{"id":410118,"adult":false},{"id":83735,"adult":false},{"id":170194,"adult":false},{"id":42608,"adult":false},{"id":413576,"adult":false},{"id":5227,"adult":false},{"id":43466,"adult":false},{"id":143491,"adult":false},{"id":306966,"adult":false},{"id":300466,"adult":false},{"id":354288,"adult":false},{"id":413644,"adult":false},{"id":244536,"adult":false},{"id":106717,"adult":false},{"id":2246,"adult":false},{"id":253414,"adult":false},{"id":354110,"adult":false},{"id":318579,"adult":false},{"id":309886,"adult":false},{"id":302528,"adult":false},{"id":151105,"adult":false},{"id":49361,"adult":false},{"id":315872,"adult":false},{"id":370978,"adult":false},{"id":283235,"adult":false},{"id":341013,"adult":false},{"id":400962,"adult":false},{"id":413645,"adult":false},{"id":301875,"adult":false}],"page":5,"total_pages":126,"total_results":12554}