{"results":[{"id":5547,"adult":false},{"id":28360,"adult":false},{"id":106931,"adult":false},{"id":58550,"adult":false},{"id":41066,"adult":false},{"id":1600,"adult":false},{"id":275414,"adult":false},{"id":10451,"adult":false},{"id":5929,"adult":false},{"id":334130,"adult":false},{"id":168012,"adult":false},{"id":198980,"adult":false},{"id":33908,"adult":false},{"id":36223,"adult":false},{"id":10895,"adult":false},{"id":78049,"adult":false},{"id":311630,"adult":false},{"id":13486,"adult":false},{"id":14853,"adult":false},{"id":276550,"adult":false},{"id":12497,"adult":false},{"id":69101,"adult":false},{"id":75657,"adult":false},{"id":69103,"adult":false},{"id":381747,"adult":false},{"id":18203,"adult":false},{"id":68051,"adult":false},{"id":162511,"adult":false},{"id":9647,"adult":false},{"id":12309,"adult":false},{"id":235799,"adult":false},{"id":3170,"adult":false},{"id":55397,"adult":false},{"id":381748,"adult":false},{"id":55409,"adult":false},{"id":12239,"adult":false},{"id":55095,"adult":false},{"id":381749,"adult":false},{"id":55404,"adult":false},{"id":74615,"adult":false},{"id":76028,"adult":false},{"id":12150,"adult":false},{"id":236013,"adult":false},{"id":236954,"adult":false},{"id":53462,"adult":false},{"id":336054,"adult":false},{"id":77049,"adult":false},{"id":55464,"adult":false},{"id":73999,"adult":false},{"id":99968,"adult":false},{"id":9642,"adult":false},{"id":23047,"adult":false},{"id":37412,"adult":false},{"id":57908,"adult":false},{"id":123158,"adult":false},{"id":2395,"adult":false},{"id":61441,"adult":false},{"id":1586,"adult":false},{"id":318993,"adult":false},{"id":30054,"adult":false},{"id":15434,"adult":false},{"id":53474,"adult":false},{"id":130100,"adult":false},{"id":236010,"adult":false},{"id":74998,"adult":false},{"id":64706,"adult":false},{"id":53458,"adult":false},{"id":54485,"adult":false},{"id":256383,"adult":false},{"id":381750,"adult":false},{"id":55371,"adult":false},{"id":55395,"adult":false},{"id":237366,"adult":false},{"id":107625,"adult":false},{"id":55461,"adult":false},{"id":10693,"adult":false},{"id":160783,"adult":false},{"id":67604,"adult":false},{"id":74842,"adult":false},{"id":64695,"adult":false},{"id":68214,"adult":false},{"id":64702,"adult":false},{"id":81860,"adult":false},{"id":378638,"adult":false},{"id":57199,"adult":false},{"id":55462,"adult":false},{"id":56627,"adult":false},{"id":381751,"adult":false},{"id":62598,"adult":false},{"id":67598,"adult":false},{"id":158200,"adult":false},{"id":54482,"adult":false},{"id":55407,"adult":false},{"id":36324,"adult":false},{"id":9386,"adult":false},{"id":67702,"adult":false},{"id":53491,"adult":false},{"id":381752,"adult":false},{"id":56631,"adult":false},{"id":67149,"adult":false}],"page":69,"total_pages":119,"total_results":11854}