{"results":[{"id":47714,"adult":false},{"id":382509,"adult":false},{"id":197433,"adult":false},{"id":342474,"adult":false},{"id":9504,"adult":false},{"id":11168,"adult":false},{"id":39465,"adult":false},{"id":229632,"adult":false},{"id":208026,"adult":false},{"id":24065,"adult":false},{"id":37797,"adult":false},{"id":332872,"adult":false},{"id":12395,"adult":false},{"id":11087,"adult":false},{"id":130892,"adult":false},{"id":30519,"adult":false},{"id":151489,"adult":false},{"id":54052,"adult":false},{"id":11569,"adult":false},{"id":41779,"adult":false},{"id":10073,"adult":false},{"id":9985,"adult":false},{"id":39104,"adult":false},{"id":390043,"adult":false},{"id":136795,"adult":false},{"id":48150,"adult":false},{"id":39108,"adult":false},{"id":10407,"adult":false},{"id":34433,"adult":false},{"id":11052,"adult":false},{"id":12629,"adult":false},{"id":59072,"adult":true},{"id":13823,"adult":false},{"id":425146,"adult":false},{"id":377274,"adult":false},{"id":27857,"adult":false},{"id":10316,"adult":false},{"id":425147,"adult":false},{"id":249994,"adult":false},{"id":2731,"adult":false},{"id":20304,"adult":false},{"id":425148,"adult":false},{"id":425149,"adult":false},{"id":392497,"adult":false},{"id":13249,"adult":false},{"id":51806,"adult":false},{"id":425150,"adult":false},{"id":41592,"adult":false},{"id":425151,"adult":false},{"id":422281,"adult":false},{"id":85373,"adult":false},{"id":14047,"adult":false},{"id":425152,"adult":false},{"id":333384,"adult":false},{"id":425153,"adult":true},{"id":10424,"adult":false},{"id":20676,"adult":false},{"id":387892,"adult":false},{"id":11543,"adult":false},{"id":425154,"adult":null},{"id":1713,"adult":false},{"id":54178,"adult":false},{"id":286162,"adult":false},{"id":341006,"adult":false},{"id":305470,"adult":false},{"id":242606,"adult":false},{"id":4771,"adult":false},{"id":425155,"adult":false},{"id":347882,"adult":false},{"id":56508,"adult":false},{"id":56511,"adult":false},{"id":322487,"adult":false},{"id":355277,"adult":false},{"id":11483,"adult":false},{"id":254399,"adult":false},{"id":425156,"adult":false},{"id":325358,"adult":false},{"id":425157,"adult":false},{"id":425158,"adult":false},{"id":37737,"adult":false},{"id":11566,"adult":false},{"id":5126,"adult":false},{"id":39027,"adult":false},{"id":127361,"adult":false},{"id":425159,"adult":false},{"id":10807,"adult":false},{"id":772,"adult":false},{"id":50327,"adult":false},{"id":43959,"adult":false},{"id":25748,"adult":false},{"id":22842,"adult":false},{"id":106756,"adult":false},{"id":52015,"adult":false},{"id":9617,"adult":false},{"id":14603,"adult":false},{"id":45132,"adult":false},{"id":425160,"adult":false},{"id":160287,"adult":false},{"id":425161,"adult":false},{"id":297040,"adult":false}],"page":79,"total_pages":120,"total_results":11922}