{"results":[{"id":106417,"adult":false},{"id":333846,"adult":false},{"id":273092,"adult":false},{"id":67813,"adult":false},{"id":289213,"adult":false},{"id":397273,"adult":false},{"id":341042,"adult":null},{"id":289210,"adult":false},{"id":363858,"adult":false},{"id":227907,"adult":false},{"id":305047,"adult":false},{"id":386517,"adult":null},{"id":289211,"adult":false},{"id":3177,"adult":false},{"id":71747,"adult":false},{"id":386518,"adult":null},{"id":345232,"adult":true},{"id":343890,"adult":true},{"id":358625,"adult":null},{"id":245746,"adult":true},{"id":185931,"adult":false},{"id":86386,"adult":false},{"id":367584,"adult":false},{"id":366514,"adult":false},{"id":240389,"adult":false},{"id":253450,"adult":false},{"id":301348,"adult":false},{"id":375950,"adult":false},{"id":268633,"adult":false},{"id":334670,"adult":false},{"id":332872,"adult":false},{"id":337556,"adult":false},{"id":372411,"adult":false},{"id":258078,"adult":false},{"id":402795,"adult":true},{"id":347386,"adult":false},{"id":302528,"adult":false},{"id":6420,"adult":false},{"id":9514,"adult":false},{"id":273091,"adult":false},{"id":341045,"adult":false},{"id":366505,"adult":false},{"id":364137,"adult":false},{"id":356488,"adult":false},{"id":326094,"adult":false},{"id":286519,"adult":false},{"id":260751,"adult":false},{"id":399106,"adult":false},{"id":5652,"adult":false},{"id":359298,"adult":false},{"id":377799,"adult":false},{"id":350904,"adult":false},{"id":345911,"adult":false},{"id":314451,"adult":false},{"id":356191,"adult":false},{"id":255549,"adult":false},{"id":267970,"adult":false},{"id":377151,"adult":false},{"id":285205,"adult":false},{"id":21784,"adult":false},{"id":315043,"adult":false},{"id":381451,"adult":false},{"id":382399,"adult":false},{"id":303857,"adult":false},{"id":319998,"adult":false},{"id":278924,"adult":false},{"id":402796,"adult":false},{"id":380734,"adult":false},{"id":288248,"adult":false},{"id":329829,"adult":false},{"id":333669,"adult":false},{"id":33639,"adult":false},{"id":13506,"adult":false},{"id":13618,"adult":false},{"id":402798,"adult":false},{"id":106216,"adult":false},{"id":402799,"adult":false},{"id":401065,"adult":false},{"id":66705,"adult":false},{"id":260697,"adult":false},{"id":402800,"adult":false},{"id":402801,"adult":false},{"id":15785,"adult":false},{"id":10131,"adult":false},{"id":754,"adult":false},{"id":393737,"adult":false},{"id":9496,"adult":false},{"id":9369,"adult":false},{"id":401846,"adult":false},{"id":362601,"adult":false},{"id":388131,"adult":false},{"id":26672,"adult":false},{"id":192136,"adult":false},{"id":302937,"adult":false},{"id":276496,"adult":false},{"id":254320,"adult":false},{"id":330697,"adult":false},{"id":300669,"adult":false},{"id":334531,"adult":false},{"id":293156,"adult":false}],"page":46,"total_pages":116,"total_results":11526}