{"results":[{"id":285318,"adult":false},{"id":185512,"adult":false},{"id":75965,"adult":false},{"id":344719,"adult":false},{"id":384658,"adult":false},{"id":43877,"adult":false},{"id":384659,"adult":false},{"id":378085,"adult":false},{"id":73565,"adult":false},{"id":261867,"adult":false},{"id":10138,"adult":false},{"id":370511,"adult":false},{"id":10952,"adult":false},{"id":12575,"adult":false},{"id":10718,"adult":false},{"id":384660,"adult":true},{"id":54764,"adult":false},{"id":3309,"adult":false},{"id":384661,"adult":false},{"id":38395,"adult":false},{"id":6,"adult":false},{"id":46714,"adult":false},{"id":12138,"adult":false},{"id":360976,"adult":true},{"id":384662,"adult":false},{"id":9886,"adult":false},{"id":116415,"adult":false},{"id":384663,"adult":true},{"id":152760,"adult":false},{"id":348682,"adult":false},{"id":86141,"adult":false},{"id":384664,"adult":false},{"id":301888,"adult":null},{"id":146238,"adult":false},{"id":384665,"adult":false},{"id":384666,"adult":false},{"id":233180,"adult":false},{"id":290764,"adult":false},{"id":97037,"adult":false},{"id":49526,"adult":false},{"id":303682,"adult":false},{"id":384667,"adult":true},{"id":73310,"adult":false},{"id":348150,"adult":false},{"id":42048,"adult":false},{"id":384668,"adult":true},{"id":7216,"adult":false},{"id":366652,"adult":false},{"id":348534,"adult":null},{"id":24499,"adult":false},{"id":352633,"adult":null},{"id":366655,"adult":false},{"id":234364,"adult":false},{"id":211213,"adult":false},{"id":27714,"adult":false},{"id":366658,"adult":false},{"id":267797,"adult":false},{"id":384669,"adult":false},{"id":278633,"adult":false},{"id":146243,"adult":false},{"id":384670,"adult":false},{"id":366670,"adult":false},{"id":371037,"adult":false},{"id":366665,"adult":false},{"id":20762,"adult":false},{"id":384672,"adult":true},{"id":293982,"adult":false},{"id":110143,"adult":false},{"id":6957,"adult":false},{"id":2295,"adult":false},{"id":345,"adult":false},{"id":17124,"adult":false},{"id":14211,"adult":false},{"id":11867,"adult":false},{"id":384673,"adult":false},{"id":384674,"adult":true},{"id":325139,"adult":false},{"id":332179,"adult":false},{"id":867,"adult":false},{"id":344626,"adult":false},{"id":384675,"adult":false},{"id":22238,"adult":false},{"id":328660,"adult":null},{"id":74242,"adult":false},{"id":339482,"adult":false},{"id":54398,"adult":false},{"id":37265,"adult":false},{"id":219002,"adult":false},{"id":211039,"adult":false},{"id":91872,"adult":false},{"id":54291,"adult":false},{"id":200941,"adult":false},{"id":382587,"adult":false},{"id":295273,"adult":false},{"id":348793,"adult":false},{"id":254323,"adult":false},{"id":220546,"adult":false},{"id":1584,"adult":false},{"id":9626,"adult":false},{"id":384676,"adult":false}],"page":109,"total_pages":123,"total_results":12205}