{"results":[{"id":163008,"adult":false},{"id":127976,"adult":false},{"id":117670,"adult":false},{"id":597,"adult":false},{"id":6227,"adult":false},{"id":369057,"adult":false},{"id":268484,"adult":false},{"id":379987,"adult":false},{"id":368915,"adult":false},{"id":381363,"adult":false},{"id":381364,"adult":false},{"id":507,"adult":false},{"id":11132,"adult":false},{"id":77849,"adult":false},{"id":381365,"adult":false},{"id":381366,"adult":false},{"id":5,"adult":false},{"id":956,"adult":false},{"id":45973,"adult":false},{"id":20435,"adult":false},{"id":177677,"adult":false},{"id":11523,"adult":false},{"id":42997,"adult":false},{"id":249,"adult":false},{"id":9701,"adult":false},{"id":381367,"adult":false},{"id":99194,"adult":false},{"id":80596,"adult":false},{"id":39978,"adult":false},{"id":54769,"adult":false},{"id":131783,"adult":false},{"id":377783,"adult":false},{"id":381368,"adult":false},{"id":332246,"adult":false},{"id":193908,"adult":false},{"id":50671,"adult":false},{"id":39379,"adult":false},{"id":5493,"adult":false},{"id":357680,"adult":false},{"id":364076,"adult":false},{"id":291642,"adult":false},{"id":12701,"adult":false},{"id":44465,"adult":false},{"id":22267,"adult":false},{"id":290752,"adult":false},{"id":50104,"adult":false},{"id":56314,"adult":false},{"id":381369,"adult":false},{"id":263630,"adult":false},{"id":43314,"adult":false},{"id":17166,"adult":false},{"id":6183,"adult":false},{"id":565,"adult":false},{"id":381370,"adult":false},{"id":10320,"adult":false},{"id":48171,"adult":false},{"id":20766,"adult":false},{"id":261102,"adult":false},{"id":218323,"adult":false},{"id":381371,"adult":false},{"id":9285,"adult":false},{"id":72710,"adult":false},{"id":20662,"adult":false},{"id":1637,"adult":false},{"id":211566,"adult":false},{"id":8005,"adult":false},{"id":8367,"adult":false},{"id":346722,"adult":false},{"id":17086,"adult":false},{"id":118737,"adult":false},{"id":30237,"adult":false},{"id":9802,"adult":false},{"id":13022,"adult":false},{"id":202273,"adult":false},{"id":339259,"adult":false},{"id":10431,"adult":false},{"id":179569,"adult":false},{"id":333375,"adult":false},{"id":234691,"adult":false},{"id":235851,"adult":false},{"id":234527,"adult":false},{"id":381372,"adult":false},{"id":1639,"adult":false},{"id":152353,"adult":false},{"id":65092,"adult":false},{"id":265290,"adult":false},{"id":236195,"adult":false},{"id":11474,"adult":false},{"id":381373,"adult":false},{"id":61562,"adult":false},{"id":152234,"adult":false},{"id":381374,"adult":false},{"id":255429,"adult":false},{"id":5749,"adult":false},{"id":75780,"adult":false},{"id":212787,"adult":false},{"id":3347,"adult":false},{"id":381375,"adult":false},{"id":274110,"adult":false},{"id":88810,"adult":false}],"page":44,"total_pages":119,"total_results":11854}