{"results":[{"id":55831,"adult":false},{"id":4520,"adult":false},{"id":11524,"adult":false},{"id":483,"adult":false},{"id":185331,"adult":false},{"id":156268,"adult":false},{"id":24918,"adult":false},{"id":58625,"adult":false},{"id":19208,"adult":false},{"id":14782,"adult":false},{"id":179146,"adult":false},{"id":3635,"adult":false},{"id":1951,"adult":false},{"id":72156,"adult":false},{"id":105065,"adult":false},{"id":325189,"adult":false},{"id":105526,"adult":false},{"id":1376,"adult":false},{"id":133557,"adult":false},{"id":8326,"adult":false},{"id":49347,"adult":false},{"id":10869,"adult":false},{"id":18989,"adult":false},{"id":44373,"adult":false},{"id":20803,"adult":false},{"id":117978,"adult":false},{"id":9390,"adult":false},{"id":51409,"adult":false},{"id":2588,"adult":false},{"id":65755,"adult":false},{"id":2017,"adult":false},{"id":43663,"adult":false},{"id":22821,"adult":false},{"id":12508,"adult":false},{"id":70043,"adult":false},{"id":13797,"adult":false},{"id":13222,"adult":false},{"id":59293,"adult":false},{"id":30735,"adult":false},{"id":16186,"adult":false},{"id":42026,"adult":false},{"id":17571,"adult":false},{"id":200975,"adult":false},{"id":71677,"adult":false},{"id":21148,"adult":false},{"id":146243,"adult":false},{"id":50272,"adult":false},{"id":272692,"adult":false},{"id":10872,"adult":false},{"id":37707,"adult":false},{"id":11247,"adult":false},{"id":68818,"adult":false},{"id":291,"adult":false},{"id":11962,"adult":false},{"id":228176,"adult":false},{"id":144078,"adult":false},{"id":37062,"adult":false},{"id":50671,"adult":false},{"id":20521,"adult":false},{"id":20432,"adult":false},{"id":15347,"adult":false},{"id":68384,"adult":false},{"id":19316,"adult":false},{"id":100270,"adult":false},{"id":51994,"adult":false},{"id":20120,"adult":false},{"id":24293,"adult":false},{"id":2925,"adult":false},{"id":13360,"adult":false},{"id":71622,"adult":false},{"id":38295,"adult":false},{"id":89008,"adult":false},{"id":24408,"adult":false},{"id":37269,"adult":false},{"id":8968,"adult":false},{"id":13632,"adult":false},{"id":37774,"adult":false},{"id":37816,"adult":false},{"id":143966,"adult":false},{"id":9719,"adult":false},{"id":260443,"adult":false},{"id":95109,"adult":false},{"id":74101,"adult":false},{"id":45368,"adult":false},{"id":118683,"adult":false},{"id":10133,"adult":false},{"id":69225,"adult":false},{"id":15053,"adult":false},{"id":15254,"adult":false},{"id":42164,"adult":false},{"id":48831,"adult":false},{"id":13412,"adult":false},{"id":5801,"adult":false},{"id":109174,"adult":false},{"id":133701,"adult":false},{"id":26710,"adult":false},{"id":26299,"adult":false},{"id":138988,"adult":false},{"id":60649,"adult":false},{"id":249,"adult":false}],"page":134,"total_pages":226,"total_results":22514}