{"results":[{"id":362992,"adult":false},{"id":11281,"adult":false},{"id":8221,"adult":false},{"id":332709,"adult":false},{"id":389701,"adult":false},{"id":4248,"adult":false},{"id":4256,"adult":false},{"id":4257,"adult":false},{"id":17809,"adult":false},{"id":4258,"adult":false},{"id":245454,"adult":false},{"id":203806,"adult":false},{"id":588,"adult":false},{"id":61012,"adult":false},{"id":9362,"adult":false},{"id":63930,"adult":false},{"id":11252,"adult":false},{"id":158346,"adult":false},{"id":6466,"adult":false},{"id":4232,"adult":false},{"id":4233,"adult":false},{"id":4234,"adult":false},{"id":347682,"adult":false},{"id":389702,"adult":false},{"id":389703,"adult":false},{"id":76956,"adult":false},{"id":389704,"adult":false},{"id":243946,"adult":false},{"id":82507,"adult":false},{"id":924,"adult":false},{"id":389705,"adult":false},{"id":284970,"adult":false},{"id":262840,"adult":false},{"id":12169,"adult":false},{"id":198210,"adult":false},{"id":344516,"adult":false},{"id":389706,"adult":true},{"id":182237,"adult":false},{"id":389707,"adult":false},{"id":76959,"adult":false},{"id":380899,"adult":true},{"id":13150,"adult":false},{"id":389708,"adult":false},{"id":1672,"adult":false},{"id":77449,"adult":false},{"id":64750,"adult":false},{"id":133157,"adult":false},{"id":11531,"adult":false},{"id":16436,"adult":false},{"id":14200,"adult":false},{"id":75902,"adult":true},{"id":287966,"adult":false},{"id":95603,"adult":false},{"id":345651,"adult":false},{"id":247012,"adult":false},{"id":389709,"adult":false},{"id":389710,"adult":false},{"id":389711,"adult":false},{"id":389712,"adult":false},{"id":337708,"adult":false},{"id":299800,"adult":false},{"id":326384,"adult":false},{"id":300438,"adult":false},{"id":86066,"adult":false},{"id":389713,"adult":true},{"id":389714,"adult":false},{"id":73628,"adult":false},{"id":29173,"adult":false},{"id":389715,"adult":false},{"id":9702,"adult":false},{"id":104362,"adult":false},{"id":389716,"adult":false},{"id":389717,"adult":false},{"id":46900,"adult":false},{"id":86000,"adult":false},{"id":277432,"adult":false},{"id":115348,"adult":false},{"id":44099,"adult":false},{"id":47327,"adult":false},{"id":1954,"adult":false},{"id":85226,"adult":false},{"id":205022,"adult":false},{"id":57144,"adult":false},{"id":229045,"adult":false},{"id":389718,"adult":false},{"id":389719,"adult":false},{"id":268016,"adult":false},{"id":1088,"adult":false},{"id":389720,"adult":false},{"id":151932,"adult":false},{"id":368971,"adult":false},{"id":211167,"adult":false},{"id":389721,"adult":false},{"id":317655,"adult":false},{"id":47595,"adult":false},{"id":170442,"adult":false},{"id":226594,"adult":false},{"id":74548,"adult":false},{"id":389722,"adult":false},{"id":42671,"adult":false}],"page":105,"total_pages":120,"total_results":11936}