{"results":[{"id":64624,"adult":false},{"id":389302,"adult":false},{"id":10410,"adult":false},{"id":226095,"adult":false},{"id":80385,"adult":false},{"id":76529,"adult":false},{"id":74395,"adult":false},{"id":167508,"adult":false},{"id":95986,"adult":false},{"id":32079,"adult":false},{"id":23939,"adult":false},{"id":36570,"adult":false},{"id":389303,"adult":false},{"id":379992,"adult":false},{"id":324975,"adult":false},{"id":24260,"adult":false},{"id":264604,"adult":false},{"id":11982,"adult":false},{"id":25468,"adult":false},{"id":258070,"adult":false},{"id":268358,"adult":false},{"id":361261,"adult":false},{"id":389306,"adult":false},{"id":389307,"adult":false},{"id":306781,"adult":false},{"id":374607,"adult":false},{"id":374603,"adult":false},{"id":389308,"adult":false},{"id":381737,"adult":false},{"id":389309,"adult":false},{"id":346907,"adult":false},{"id":324595,"adult":false},{"id":65075,"adult":false},{"id":389310,"adult":false},{"id":283727,"adult":false},{"id":271393,"adult":false},{"id":389311,"adult":false},{"id":389312,"adult":false},{"id":194485,"adult":false},{"id":322687,"adult":false},{"id":389313,"adult":false},{"id":283831,"adult":false},{"id":271122,"adult":false},{"id":199873,"adult":false},{"id":347763,"adult":false},{"id":101172,"adult":false},{"id":47904,"adult":false},{"id":376557,"adult":false},{"id":362571,"adult":false},{"id":389314,"adult":null},{"id":65603,"adult":false},{"id":334415,"adult":false},{"id":288494,"adult":false},{"id":389315,"adult":null},{"id":235145,"adult":false},{"id":39018,"adult":false},{"id":389316,"adult":false},{"id":5073,"adult":false},{"id":234422,"adult":false},{"id":234520,"adult":false},{"id":42152,"adult":false},{"id":224039,"adult":false},{"id":141569,"adult":false},{"id":65942,"adult":false},{"id":389317,"adult":false},{"id":162820,"adult":false},{"id":389318,"adult":false},{"id":366610,"adult":false},{"id":106630,"adult":false},{"id":29627,"adult":false},{"id":170297,"adult":false},{"id":121852,"adult":false},{"id":375922,"adult":false},{"id":42785,"adult":false},{"id":389319,"adult":false},{"id":159216,"adult":false},{"id":330377,"adult":false},{"id":389320,"adult":false},{"id":1559,"adult":false},{"id":130512,"adult":false},{"id":389321,"adult":false},{"id":389322,"adult":false},{"id":389323,"adult":false},{"id":171024,"adult":false},{"id":219341,"adult":false},{"id":252015,"adult":false},{"id":205588,"adult":false},{"id":389324,"adult":false},{"id":284301,"adult":false},{"id":10231,"adult":false},{"id":15531,"adult":false},{"id":9766,"adult":false},{"id":31261,"adult":false},{"id":10549,"adult":false},{"id":13852,"adult":false},{"id":80533,"adult":false},{"id":130426,"adult":false},{"id":269739,"adult":false},{"id":53478,"adult":false},{"id":99234,"adult":false}],"page":85,"total_pages":120,"total_results":11936}