{"results":[{"id":45778,"adult":false},{"id":1485,"adult":false},{"id":19565,"adult":false},{"id":424702,"adult":false},{"id":291305,"adult":false},{"id":297160,"adult":false},{"id":250657,"adult":false},{"id":6076,"adult":false},{"id":10891,"adult":false},{"id":590,"adult":false},{"id":6950,"adult":false},{"id":377276,"adult":false},{"id":9377,"adult":false},{"id":415866,"adult":false},{"id":424703,"adult":false},{"id":14367,"adult":false},{"id":1985,"adult":false},{"id":12106,"adult":false},{"id":420760,"adult":false},{"id":421045,"adult":false},{"id":49517,"adult":false},{"id":424704,"adult":false},{"id":198803,"adult":false},{"id":415854,"adult":false},{"id":421804,"adult":false},{"id":9348,"adult":false},{"id":607,"adult":false},{"id":1049,"adult":false},{"id":424706,"adult":false},{"id":13401,"adult":false},{"id":394161,"adult":false},{"id":57931,"adult":false},{"id":17803,"adult":false},{"id":424709,"adult":false},{"id":10791,"adult":false},{"id":424710,"adult":false},{"id":253183,"adult":false},{"id":13257,"adult":false},{"id":233881,"adult":true},{"id":300536,"adult":false},{"id":424711,"adult":false},{"id":12573,"adult":false},{"id":421681,"adult":false},{"id":40158,"adult":false},{"id":74264,"adult":false},{"id":10216,"adult":false},{"id":424712,"adult":false},{"id":27104,"adult":false},{"id":20048,"adult":false},{"id":253184,"adult":false},{"id":290595,"adult":false},{"id":9711,"adult":false},{"id":74261,"adult":false},{"id":2006,"adult":false},{"id":15212,"adult":false},{"id":253180,"adult":false},{"id":25197,"adult":false},{"id":359246,"adult":false},{"id":420452,"adult":false},{"id":9007,"adult":false},{"id":398007,"adult":false},{"id":195013,"adult":false},{"id":4806,"adult":false},{"id":24621,"adult":false},{"id":11431,"adult":false},{"id":97262,"adult":false},{"id":419142,"adult":false},{"id":10897,"adult":false},{"id":109305,"adult":false},{"id":351033,"adult":false},{"id":13975,"adult":false},{"id":21481,"adult":false},{"id":372615,"adult":false},{"id":23172,"adult":false},{"id":9056,"adult":false},{"id":10753,"adult":false},{"id":393123,"adult":false},{"id":11847,"adult":false},{"id":424713,"adult":false},{"id":49514,"adult":false},{"id":110673,"adult":false},{"id":8007,"adult":false},{"id":100010,"adult":false},{"id":337375,"adult":false},{"id":209354,"adult":false},{"id":292702,"adult":false},{"id":9914,"adult":false},{"id":399268,"adult":false},{"id":112424,"adult":false},{"id":57230,"adult":false},{"id":190415,"adult":false},{"id":64591,"adult":true},{"id":43234,"adult":false},{"id":13005,"adult":false},{"id":286023,"adult":false},{"id":14853,"adult":false},{"id":21024,"adult":false},{"id":48014,"adult":false},{"id":331446,"adult":false},{"id":267444,"adult":false}],"page":55,"total_pages":120,"total_results":11922}