{"results":[{"id":254015,"adult":false},{"id":24919,"adult":false},{"id":423041,"adult":false},{"id":91624,"adult":false},{"id":22383,"adult":false},{"id":82809,"adult":false},{"id":44008,"adult":false},{"id":423042,"adult":false},{"id":423043,"adult":false},{"id":3989,"adult":false},{"id":423044,"adult":false},{"id":40507,"adult":false},{"id":423045,"adult":false},{"id":423046,"adult":false},{"id":13190,"adult":false},{"id":113878,"adult":false},{"id":376847,"adult":false},{"id":13706,"adult":false},{"id":127668,"adult":false},{"id":423047,"adult":false},{"id":423048,"adult":false},{"id":177923,"adult":false},{"id":387553,"adult":false},{"id":15909,"adult":false},{"id":343746,"adult":false},{"id":76882,"adult":false},{"id":2268,"adult":false},{"id":178465,"adult":false},{"id":41411,"adult":false},{"id":2670,"adult":false},{"id":334507,"adult":false},{"id":298164,"adult":false},{"id":341540,"adult":false},{"id":401146,"adult":false},{"id":338400,"adult":false},{"id":184352,"adult":false},{"id":423049,"adult":false},{"id":375533,"adult":false},{"id":423050,"adult":null},{"id":28197,"adult":false},{"id":202573,"adult":false},{"id":109421,"adult":false},{"id":265608,"adult":false},{"id":336705,"adult":false},{"id":423051,"adult":null},{"id":423052,"adult":false},{"id":187855,"adult":false},{"id":285736,"adult":false},{"id":170294,"adult":false},{"id":423053,"adult":false},{"id":238416,"adult":false},{"id":13428,"adult":false},{"id":423054,"adult":false},{"id":423055,"adult":false},{"id":423056,"adult":false},{"id":423057,"adult":false},{"id":329809,"adult":false},{"id":275814,"adult":false},{"id":322602,"adult":false},{"id":128519,"adult":false},{"id":373524,"adult":null},{"id":1809,"adult":false},{"id":423058,"adult":null},{"id":43821,"adult":false},{"id":423059,"adult":false},{"id":423060,"adult":null},{"id":423061,"adult":false},{"id":9960,"adult":false},{"id":80027,"adult":false},{"id":231642,"adult":false},{"id":9696,"adult":false},{"id":423062,"adult":false},{"id":423063,"adult":false},{"id":145769,"adult":false},{"id":67713,"adult":false},{"id":423064,"adult":false},{"id":339419,"adult":false},{"id":423065,"adult":false},{"id":9764,"adult":false},{"id":22637,"adult":false},{"id":10960,"adult":false},{"id":11886,"adult":false},{"id":423066,"adult":false},{"id":423067,"adult":false},{"id":8873,"adult":false},{"id":3,"adult":false},{"id":423068,"adult":false},{"id":8545,"adult":false},{"id":336445,"adult":false},{"id":37684,"adult":false},{"id":326423,"adult":false},{"id":129074,"adult":false},{"id":268056,"adult":false},{"id":81294,"adult":false},{"id":423069,"adult":false},{"id":423070,"adult":false},{"id":423071,"adult":false},{"id":245792,"adult":false},{"id":423072,"adult":false},{"id":327070,"adult":false}],"page":119,"total_pages":123,"total_results":12202}