{"results":[{"id":50858,"adult":false},{"id":125276,"adult":false},{"id":258977,"adult":false},{"id":366549,"adult":false},{"id":107062,"adult":false},{"id":50921,"adult":false},{"id":399019,"adult":false},{"id":187662,"adult":false},{"id":419769,"adult":false},{"id":389849,"adult":false},{"id":416149,"adult":false},{"id":35687,"adult":false},{"id":138370,"adult":false},{"id":419770,"adult":false},{"id":391655,"adult":false},{"id":300686,"adult":false},{"id":335578,"adult":false},{"id":206324,"adult":false},{"id":198431,"adult":false},{"id":328869,"adult":false},{"id":318994,"adult":false},{"id":309242,"adult":false},{"id":198454,"adult":false},{"id":419771,"adult":false},{"id":402446,"adult":false},{"id":377909,"adult":false},{"id":251321,"adult":false},{"id":419772,"adult":false},{"id":14906,"adult":false},{"id":355279,"adult":false},{"id":53569,"adult":false},{"id":419773,"adult":false},{"id":393765,"adult":false},{"id":419774,"adult":false},{"id":1586,"adult":false},{"id":257440,"adult":false},{"id":392820,"adult":false},{"id":85053,"adult":false},{"id":337556,"adult":false},{"id":419775,"adult":false},{"id":320024,"adult":false},{"id":419776,"adult":false},{"id":363343,"adult":false},{"id":11306,"adult":false},{"id":390,"adult":false},{"id":10025,"adult":false},{"id":1165,"adult":false},{"id":48386,"adult":false},{"id":297002,"adult":false},{"id":394374,"adult":false},{"id":30363,"adult":false},{"id":11018,"adult":false},{"id":49767,"adult":false},{"id":80919,"adult":false},{"id":166023,"adult":false},{"id":388868,"adult":false},{"id":168643,"adult":false},{"id":419777,"adult":false},{"id":10834,"adult":false},{"id":22509,"adult":false},{"id":282391,"adult":false},{"id":252612,"adult":false},{"id":24220,"adult":false},{"id":14201,"adult":false},{"id":22473,"adult":false},{"id":14878,"adult":false},{"id":67195,"adult":false},{"id":9791,"adult":false},{"id":49543,"adult":false},{"id":20907,"adult":false},{"id":71109,"adult":false},{"id":10296,"adult":false},{"id":145738,"adult":false},{"id":260798,"adult":false},{"id":287,"adult":false},{"id":13939,"adult":false},{"id":65904,"adult":false},{"id":9598,"adult":false},{"id":150004,"adult":false},{"id":20595,"adult":false},{"id":9447,"adult":false},{"id":9821,"adult":false},{"id":407898,"adult":false},{"id":419778,"adult":false},{"id":260732,"adult":false},{"id":20019,"adult":false},{"id":35922,"adult":false},{"id":135891,"adult":false},{"id":135905,"adult":false},{"id":25445,"adult":false},{"id":33055,"adult":false},{"id":330245,"adult":false},{"id":248424,"adult":false},{"id":207862,"adult":false},{"id":48312,"adult":false},{"id":417451,"adult":false},{"id":248831,"adult":false},{"id":269494,"adult":false},{"id":73316,"adult":false},{"id":393985,"adult":false}],"page":74,"total_pages":144,"total_results":14341}