{"results":[{"id":267,"adult":false},{"id":257088,"adult":false},{"id":83542,"adult":false},{"id":375290,"adult":false},{"id":378858,"adult":false},{"id":195796,"adult":false},{"id":287226,"adult":false},{"id":295413,"adult":false},{"id":341392,"adult":false},{"id":8440,"adult":false},{"id":892,"adult":false},{"id":170,"adult":false},{"id":14664,"adult":false},{"id":401324,"adult":false},{"id":315335,"adult":false},{"id":162,"adult":false},{"id":363117,"adult":false},{"id":24223,"adult":false},{"id":53128,"adult":false},{"id":315212,"adult":false},{"id":3933,"adult":false},{"id":302026,"adult":false},{"id":250546,"adult":false},{"id":9666,"adult":false},{"id":9479,"adult":false},{"id":166204,"adult":false},{"id":4114,"adult":false},{"id":1995,"adult":false},{"id":402768,"adult":false},{"id":100402,"adult":false},{"id":402769,"adult":false},{"id":402770,"adult":false},{"id":6312,"adult":false},{"id":9501,"adult":false},{"id":14462,"adult":false},{"id":76403,"adult":false},{"id":394299,"adult":false},{"id":9306,"adult":false},{"id":286217,"adult":false},{"id":273277,"adult":false},{"id":329628,"adult":false},{"id":402771,"adult":false},{"id":273577,"adult":false},{"id":274591,"adult":false},{"id":336075,"adult":false},{"id":170574,"adult":false},{"id":80642,"adult":false},{"id":175,"adult":false},{"id":108017,"adult":false},{"id":25767,"adult":false},{"id":43317,"adult":false},{"id":369781,"adult":false},{"id":64817,"adult":false},{"id":277650,"adult":false},{"id":10912,"adult":false},{"id":14324,"adult":false},{"id":11575,"adult":false},{"id":11839,"adult":false},{"id":14869,"adult":false},{"id":25564,"adult":false},{"id":402772,"adult":false},{"id":1885,"adult":false},{"id":402773,"adult":false},{"id":14168,"adult":false},{"id":41630,"adult":false},{"id":114695,"adult":false},{"id":49387,"adult":false},{"id":1577,"adult":false},{"id":294093,"adult":false},{"id":81110,"adult":false},{"id":4688,"adult":false},{"id":225098,"adult":false},{"id":402774,"adult":null},{"id":402775,"adult":false},{"id":402776,"adult":null},{"id":86555,"adult":false},{"id":193146,"adult":false},{"id":402777,"adult":null},{"id":77960,"adult":false},{"id":370561,"adult":false},{"id":290829,"adult":false},{"id":114218,"adult":false},{"id":241139,"adult":false},{"id":99760,"adult":false},{"id":114842,"adult":false},{"id":20766,"adult":false},{"id":109726,"adult":false},{"id":82654,"adult":false},{"id":402778,"adult":false},{"id":166202,"adult":false},{"id":10531,"adult":false},{"id":80448,"adult":false},{"id":187857,"adult":false},{"id":110001,"adult":false},{"id":22829,"adult":false},{"id":170405,"adult":false},{"id":108307,"adult":false},{"id":36998,"adult":false},{"id":8913,"adult":false},{"id":103164,"adult":false}],"page":44,"total_pages":116,"total_results":11526}