{"results":[{"id":92341,"adult":false},{"id":91181,"adult":false},{"id":188927,"adult":false},{"id":159216,"adult":false},{"id":257440,"adult":false},{"id":73125,"adult":false},{"id":31868,"adult":false},{"id":354249,"adult":false},{"id":101219,"adult":false},{"id":384602,"adult":false},{"id":9008,"adult":false},{"id":317045,"adult":false},{"id":87115,"adult":false},{"id":23483,"adult":false},{"id":118581,"adult":false},{"id":26529,"adult":false},{"id":43850,"adult":false},{"id":384603,"adult":false},{"id":384605,"adult":false},{"id":384606,"adult":false},{"id":384607,"adult":false},{"id":86651,"adult":false},{"id":384608,"adult":false},{"id":381035,"adult":false},{"id":384609,"adult":false},{"id":9377,"adult":false},{"id":384610,"adult":false},{"id":10890,"adult":false},{"id":2617,"adult":false},{"id":43192,"adult":false},{"id":12139,"adult":false},{"id":11894,"adult":false},{"id":361589,"adult":false},{"id":117278,"adult":false},{"id":83486,"adult":false},{"id":145814,"adult":false},{"id":342878,"adult":false},{"id":384611,"adult":false},{"id":119540,"adult":false},{"id":85948,"adult":false},{"id":75363,"adult":false},{"id":56589,"adult":false},{"id":45650,"adult":false},{"id":56588,"adult":null},{"id":249513,"adult":false},{"id":8767,"adult":false},{"id":279099,"adult":true},{"id":384612,"adult":null},{"id":11222,"adult":false},{"id":384613,"adult":false},{"id":358049,"adult":false},{"id":384614,"adult":false},{"id":345393,"adult":false},{"id":130168,"adult":false},{"id":204227,"adult":false},{"id":11806,"adult":false},{"id":11418,"adult":false},{"id":1649,"adult":false},{"id":65835,"adult":false},{"id":384615,"adult":false},{"id":83916,"adult":false},{"id":384616,"adult":false},{"id":384617,"adult":false},{"id":384618,"adult":false},{"id":384619,"adult":false},{"id":384620,"adult":false},{"id":25195,"adult":false},{"id":384621,"adult":false},{"id":364994,"adult":false},{"id":293185,"adult":false},{"id":384622,"adult":false},{"id":384623,"adult":false},{"id":384624,"adult":false},{"id":247780,"adult":false},{"id":384625,"adult":false},{"id":374922,"adult":true},{"id":97657,"adult":false},{"id":261398,"adult":false},{"id":19560,"adult":false},{"id":384626,"adult":false},{"id":384627,"adult":false},{"id":369533,"adult":false},{"id":364928,"adult":false},{"id":384628,"adult":false},{"id":180629,"adult":false},{"id":52354,"adult":false},{"id":379559,"adult":false},{"id":58219,"adult":false},{"id":37581,"adult":false},{"id":186958,"adult":false},{"id":268621,"adult":false},{"id":384629,"adult":false},{"id":254627,"adult":false},{"id":215559,"adult":false},{"id":354214,"adult":false},{"id":384630,"adult":true},{"id":355421,"adult":false},{"id":75845,"adult":false},{"id":384631,"adult":true},{"id":283910,"adult":false}],"page":107,"total_pages":123,"total_results":12205}