{"results":[{"id":411145,"adult":false},{"id":32069,"adult":false},{"id":411146,"adult":true},{"id":10523,"adult":false},{"id":10524,"adult":false},{"id":218887,"adult":false},{"id":129734,"adult":false},{"id":150897,"adult":false},{"id":86,"adult":false},{"id":41364,"adult":false},{"id":411147,"adult":true},{"id":13712,"adult":false},{"id":334117,"adult":false},{"id":180627,"adult":false},{"id":411148,"adult":true},{"id":995,"adult":false},{"id":272031,"adult":false},{"id":411149,"adult":true},{"id":127885,"adult":false},{"id":265195,"adult":false},{"id":186071,"adult":false},{"id":23478,"adult":false},{"id":411150,"adult":true},{"id":33511,"adult":false},{"id":411151,"adult":true},{"id":308979,"adult":false},{"id":44441,"adult":false},{"id":411153,"adult":true},{"id":186077,"adult":false},{"id":32390,"adult":false},{"id":411155,"adult":null},{"id":8348,"adult":false},{"id":286519,"adult":false},{"id":172106,"adult":false},{"id":411156,"adult":true},{"id":250950,"adult":false},{"id":85735,"adult":false},{"id":353614,"adult":false},{"id":24734,"adult":false},{"id":411157,"adult":true},{"id":333124,"adult":false},{"id":115023,"adult":false},{"id":79540,"adult":false},{"id":411158,"adult":false},{"id":348296,"adult":false},{"id":411159,"adult":true},{"id":411160,"adult":true},{"id":411161,"adult":false},{"id":39768,"adult":false},{"id":411162,"adult":true},{"id":411163,"adult":false},{"id":379393,"adult":false},{"id":411164,"adult":false},{"id":411165,"adult":false},{"id":411166,"adult":true},{"id":411167,"adult":true},{"id":411168,"adult":false},{"id":411169,"adult":true},{"id":167456,"adult":false},{"id":91217,"adult":false},{"id":315267,"adult":false},{"id":411170,"adult":true},{"id":28761,"adult":false},{"id":411171,"adult":true},{"id":22627,"adult":false},{"id":368336,"adult":false},{"id":318917,"adult":false},{"id":588,"adult":false},{"id":326423,"adult":false},{"id":83230,"adult":false},{"id":411172,"adult":false},{"id":411173,"adult":false},{"id":291805,"adult":false},{"id":268212,"adult":false},{"id":407904,"adult":null},{"id":411174,"adult":false},{"id":243504,"adult":false},{"id":411175,"adult":false},{"id":411176,"adult":false},{"id":411177,"adult":false},{"id":340213,"adult":false},{"id":321142,"adult":false},{"id":153706,"adult":false},{"id":331164,"adult":false},{"id":50591,"adult":false},{"id":391302,"adult":false},{"id":378614,"adult":false},{"id":51376,"adult":false},{"id":213262,"adult":false},{"id":411178,"adult":false},{"id":396102,"adult":null},{"id":44215,"adult":false},{"id":35955,"adult":false},{"id":402778,"adult":false},{"id":411179,"adult":false},{"id":58766,"adult":true},{"id":331955,"adult":false},{"id":86607,"adult":false},{"id":16869,"adult":false},{"id":267552,"adult":false}],"page":112,"total_pages":117,"total_results":11641}