{"results":[{"id":12767,"adult":false},{"id":233476,"adult":false},{"id":285703,"adult":false},{"id":4772,"adult":false},{"id":375633,"adult":false},{"id":9392,"adult":false},{"id":1696,"adult":false},{"id":27578,"adult":false},{"id":290674,"adult":false},{"id":375634,"adult":false},{"id":78298,"adult":false},{"id":11354,"adult":false},{"id":20532,"adult":false},{"id":3784,"adult":false},{"id":6217,"adult":false},{"id":11011,"adult":false},{"id":375637,"adult":null},{"id":375638,"adult":false},{"id":1975,"adult":false},{"id":375639,"adult":false},{"id":314389,"adult":false},{"id":43368,"adult":false},{"id":12259,"adult":false},{"id":335440,"adult":false},{"id":10999,"adult":false},{"id":9793,"adult":false},{"id":22051,"adult":false},{"id":302688,"adult":false},{"id":375640,"adult":false},{"id":89899,"adult":false},{"id":13860,"adult":true},{"id":372251,"adult":null},{"id":12251,"adult":false},{"id":375641,"adult":false},{"id":227348,"adult":false},{"id":375642,"adult":false},{"id":43768,"adult":false},{"id":58730,"adult":false},{"id":375643,"adult":false},{"id":375644,"adult":false},{"id":97596,"adult":false},{"id":256997,"adult":false},{"id":375645,"adult":false},{"id":11370,"adult":false},{"id":49012,"adult":false},{"id":13665,"adult":false},{"id":375646,"adult":false},{"id":169066,"adult":false},{"id":375647,"adult":false},{"id":375648,"adult":false},{"id":15596,"adult":false},{"id":26044,"adult":false},{"id":375649,"adult":false},{"id":14013,"adult":false},{"id":14192,"adult":false},{"id":260800,"adult":false},{"id":267860,"adult":false},{"id":375650,"adult":false},{"id":9485,"adult":false},{"id":189582,"adult":false},{"id":174388,"adult":false},{"id":14459,"adult":false},{"id":755,"adult":false},{"id":193805,"adult":false},{"id":109775,"adult":false},{"id":194236,"adult":false},{"id":305932,"adult":false},{"id":144421,"adult":false},{"id":267480,"adult":false},{"id":375651,"adult":false},{"id":375652,"adult":false},{"id":375653,"adult":null},{"id":293911,"adult":false},{"id":262042,"adult":false},{"id":197082,"adult":false},{"id":303737,"adult":false},{"id":68511,"adult":null},{"id":375654,"adult":false},{"id":116698,"adult":false},{"id":12095,"adult":false},{"id":371369,"adult":false},{"id":10213,"adult":false},{"id":375655,"adult":false},{"id":6644,"adult":false},{"id":375656,"adult":false},{"id":302689,"adult":false},{"id":341548,"adult":false},{"id":2143,"adult":false},{"id":340275,"adult":false},{"id":375657,"adult":false},{"id":11118,"adult":false},{"id":375658,"adult":false},{"id":369205,"adult":false},{"id":105832,"adult":false},{"id":372711,"adult":false},{"id":301865,"adult":false},{"id":205729,"adult":false},{"id":66467,"adult":false},{"id":375659,"adult":false},{"id":375660,"adult":false}],"page":26,"total_pages":121,"total_results":12060}