{"results":[{"id":116981,"adult":false},{"id":10157,"adult":false},{"id":12118,"adult":false},{"id":376977,"adult":false},{"id":10587,"adult":false},{"id":376978,"adult":false},{"id":376979,"adult":false},{"id":376980,"adult":false},{"id":376981,"adult":false},{"id":11546,"adult":false},{"id":376982,"adult":false},{"id":376983,"adult":false},{"id":96724,"adult":false},{"id":346995,"adult":false},{"id":376984,"adult":false},{"id":302401,"adult":false},{"id":376985,"adult":false},{"id":376986,"adult":false},{"id":259695,"adult":false},{"id":28494,"adult":false},{"id":376987,"adult":false},{"id":314837,"adult":false},{"id":363354,"adult":false},{"id":40930,"adult":false},{"id":127157,"adult":false},{"id":376988,"adult":false},{"id":241254,"adult":false},{"id":34769,"adult":false},{"id":10320,"adult":false},{"id":258707,"adult":false},{"id":11949,"adult":false},{"id":286387,"adult":false},{"id":351066,"adult":false},{"id":306681,"adult":false},{"id":376989,"adult":false},{"id":376990,"adult":false},{"id":323679,"adult":false},{"id":376991,"adult":false},{"id":359326,"adult":null},{"id":245881,"adult":false},{"id":376993,"adult":null},{"id":376994,"adult":false},{"id":209276,"adult":false},{"id":376995,"adult":false},{"id":7364,"adult":false},{"id":16320,"adult":false},{"id":21208,"adult":false},{"id":376996,"adult":false},{"id":191961,"adult":false},{"id":41266,"adult":false},{"id":184651,"adult":false},{"id":312695,"adult":false},{"id":376997,"adult":false},{"id":376998,"adult":false},{"id":9829,"adult":false},{"id":17920,"adult":false},{"id":145219,"adult":false},{"id":36643,"adult":false},{"id":2699,"adult":false},{"id":47536,"adult":false},{"id":366377,"adult":false},{"id":16406,"adult":false},{"id":55801,"adult":false},{"id":59861,"adult":false},{"id":371440,"adult":false},{"id":376999,"adult":false},{"id":17738,"adult":false},{"id":377000,"adult":false},{"id":377001,"adult":true},{"id":374355,"adult":false},{"id":377002,"adult":false},{"id":137769,"adult":false},{"id":353163,"adult":false},{"id":283691,"adult":false},{"id":265047,"adult":false},{"id":377003,"adult":true},{"id":206866,"adult":false},{"id":174559,"adult":false},{"id":188057,"adult":false},{"id":377004,"adult":false},{"id":375230,"adult":true},{"id":287578,"adult":false},{"id":329297,"adult":false},{"id":370777,"adult":false},{"id":63062,"adult":false},{"id":77780,"adult":false},{"id":293516,"adult":false},{"id":686,"adult":false},{"id":8413,"adult":false},{"id":377005,"adult":true},{"id":316842,"adult":false},{"id":8870,"adult":false},{"id":9884,"adult":false},{"id":9593,"adult":false},{"id":64972,"adult":false},{"id":229416,"adult":false},{"id":345161,"adult":false},{"id":10867,"adult":false},{"id":49418,"adult":false},{"id":377006,"adult":true}],"page":100,"total_pages":121,"total_results":12060}