{"results":[{"id":258763,"adult":false},{"id":179892,"adult":false},{"id":327718,"adult":false},{"id":24621,"adult":false},{"id":340304,"adult":false},{"id":9691,"adult":false},{"id":265884,"adult":false},{"id":286654,"adult":false},{"id":107580,"adult":false},{"id":30805,"adult":false},{"id":405508,"adult":false},{"id":166392,"adult":false},{"id":67227,"adult":false},{"id":94792,"adult":false},{"id":9826,"adult":false},{"id":408354,"adult":false},{"id":408355,"adult":false},{"id":59232,"adult":false},{"id":257932,"adult":false},{"id":11253,"adult":false},{"id":65963,"adult":false},{"id":149549,"adult":false},{"id":408356,"adult":false},{"id":408357,"adult":false},{"id":408358,"adult":false},{"id":256036,"adult":false},{"id":408359,"adult":false},{"id":66045,"adult":false},{"id":408360,"adult":false},{"id":26518,"adult":false},{"id":115575,"adult":false},{"id":5842,"adult":false},{"id":80919,"adult":false},{"id":1378,"adult":false},{"id":408361,"adult":false},{"id":220268,"adult":false},{"id":398587,"adult":null},{"id":34375,"adult":false},{"id":408362,"adult":false},{"id":321779,"adult":false},{"id":319265,"adult":false},{"id":405716,"adult":false},{"id":91403,"adult":false},{"id":12924,"adult":false},{"id":364243,"adult":false},{"id":408363,"adult":false},{"id":136018,"adult":false},{"id":37433,"adult":false},{"id":380111,"adult":false},{"id":37708,"adult":false},{"id":17124,"adult":false},{"id":61864,"adult":false},{"id":322766,"adult":false},{"id":46849,"adult":false},{"id":33059,"adult":false},{"id":14979,"adult":false},{"id":395269,"adult":false},{"id":342484,"adult":false},{"id":408364,"adult":false},{"id":264670,"adult":false},{"id":401251,"adult":false},{"id":269768,"adult":false},{"id":266249,"adult":false},{"id":260767,"adult":false},{"id":333352,"adult":false},{"id":319234,"adult":null},{"id":403005,"adult":false},{"id":44071,"adult":false},{"id":408365,"adult":false},{"id":204755,"adult":false},{"id":34031,"adult":false},{"id":8430,"adult":false},{"id":28100,"adult":false},{"id":125381,"adult":false},{"id":233899,"adult":false},{"id":374987,"adult":false},{"id":2503,"adult":false},{"id":265877,"adult":false},{"id":367759,"adult":false},{"id":54572,"adult":false},{"id":43313,"adult":false},{"id":408366,"adult":false},{"id":10694,"adult":false},{"id":81699,"adult":false},{"id":6720,"adult":false},{"id":336340,"adult":false},{"id":337556,"adult":false},{"id":216474,"adult":false},{"id":924,"adult":false},{"id":301768,"adult":false},{"id":381288,"adult":false},{"id":408367,"adult":false},{"id":94525,"adult":false},{"id":79026,"adult":false},{"id":87548,"adult":false},{"id":288484,"adult":false},{"id":299200,"adult":false},{"id":51741,"adult":false},{"id":265383,"adult":false},{"id":408368,"adult":false}],"page":117,"total_pages":120,"total_results":11946}