{"results":[{"id":34070,"adult":false},{"id":34056,"adult":false},{"id":430458,"adult":false},{"id":24470,"adult":false},{"id":29015,"adult":false},{"id":40039,"adult":false},{"id":17646,"adult":false},{"id":430459,"adult":false},{"id":97000,"adult":false},{"id":69758,"adult":false},{"id":9677,"adult":false},{"id":21991,"adult":false},{"id":10499,"adult":false},{"id":400449,"adult":false},{"id":231204,"adult":false},{"id":2133,"adult":false},{"id":430460,"adult":false},{"id":430461,"adult":false},{"id":10384,"adult":false},{"id":64269,"adult":false},{"id":37131,"adult":false},{"id":10429,"adult":false},{"id":419757,"adult":false},{"id":2330,"adult":false},{"id":430462,"adult":false},{"id":102943,"adult":false},{"id":405868,"adult":false},{"id":1636,"adult":false},{"id":430463,"adult":false},{"id":40249,"adult":false},{"id":430464,"adult":false},{"id":11973,"adult":false},{"id":16110,"adult":false},{"id":19214,"adult":false},{"id":15655,"adult":false},{"id":40468,"adult":false},{"id":44266,"adult":false},{"id":237958,"adult":false},{"id":36234,"adult":false},{"id":7450,"adult":false},{"id":275496,"adult":false},{"id":330711,"adult":false},{"id":162020,"adult":false},{"id":430465,"adult":false},{"id":228987,"adult":false},{"id":18041,"adult":false},{"id":154307,"adult":false},{"id":34729,"adult":false},{"id":430466,"adult":false},{"id":20004,"adult":false},{"id":171827,"adult":false},{"id":81207,"adult":false},{"id":18074,"adult":false},{"id":49979,"adult":false},{"id":89553,"adult":false},{"id":430467,"adult":false},{"id":12480,"adult":false},{"id":3536,"adult":false},{"id":67660,"adult":false},{"id":36661,"adult":false},{"id":71887,"adult":false},{"id":10562,"adult":false},{"id":335578,"adult":false},{"id":30944,"adult":false},{"id":77787,"adult":false},{"id":184098,"adult":false},{"id":176177,"adult":false},{"id":51333,"adult":false},{"id":11678,"adult":false},{"id":47724,"adult":false},{"id":161143,"adult":false},{"id":68572,"adult":false},{"id":50225,"adult":false},{"id":37722,"adult":false},{"id":10685,"adult":false},{"id":1619,"adult":false},{"id":17711,"adult":false},{"id":218408,"adult":false},{"id":23160,"adult":false},{"id":10577,"adult":false},{"id":77434,"adult":false},{"id":129935,"adult":false},{"id":75778,"adult":false},{"id":2155,"adult":false},{"id":66796,"adult":false},{"id":430468,"adult":false},{"id":488,"adult":false},{"id":29937,"adult":false},{"id":379995,"adult":false},{"id":48217,"adult":false},{"id":81247,"adult":false},{"id":14629,"adult":false},{"id":192109,"adult":false},{"id":28031,"adult":false},{"id":41460,"adult":false},{"id":36670,"adult":false},{"id":296029,"adult":false},{"id":26446,"adult":false},{"id":332479,"adult":false},{"id":403114,"adult":false}],"page":19,"total_pages":114,"total_results":11339}