{"results":[{"id":388984,"adult":false},{"id":193962,"adult":false},{"id":19405,"adult":false},{"id":22488,"adult":false},{"id":255772,"adult":false},{"id":383285,"adult":false},{"id":388943,"adult":false},{"id":390525,"adult":null},{"id":10991,"adult":false},{"id":27776,"adult":true},{"id":386556,"adult":false},{"id":384525,"adult":false},{"id":384454,"adult":false},{"id":384385,"adult":false},{"id":21705,"adult":false},{"id":384279,"adult":false},{"id":384130,"adult":false},{"id":383967,"adult":false},{"id":392288,"adult":false},{"id":383814,"adult":false},{"id":383505,"adult":false},{"id":383633,"adult":false},{"id":383466,"adult":false},{"id":20583,"adult":false},{"id":162877,"adult":false},{"id":19849,"adult":false},{"id":6878,"adult":false},{"id":150776,"adult":false},{"id":321022,"adult":false},{"id":288981,"adult":false},{"id":49857,"adult":false},{"id":21636,"adult":false},{"id":61303,"adult":false},{"id":20771,"adult":false},{"id":31618,"adult":false},{"id":25182,"adult":false},{"id":63219,"adult":null},{"id":22572,"adult":false},{"id":11564,"adult":false},{"id":3933,"adult":false},{"id":387000,"adult":false},{"id":222930,"adult":false},{"id":392289,"adult":false},{"id":36301,"adult":false},{"id":8869,"adult":false},{"id":140823,"adult":false},{"id":258799,"adult":false},{"id":392292,"adult":false},{"id":392293,"adult":false},{"id":309816,"adult":false},{"id":30941,"adult":false},{"id":2575,"adult":false},{"id":2657,"adult":false},{"id":392294,"adult":false},{"id":3075,"adult":false},{"id":3309,"adult":false},{"id":4517,"adult":false},{"id":339891,"adult":false},{"id":126841,"adult":false},{"id":335899,"adult":false},{"id":342843,"adult":false},{"id":4922,"adult":false},{"id":307195,"adult":false},{"id":329550,"adult":false},{"id":89185,"adult":false},{"id":277846,"adult":false},{"id":41129,"adult":false},{"id":35558,"adult":false},{"id":5375,"adult":false},{"id":370271,"adult":false},{"id":6068,"adult":false},{"id":132833,"adult":false},{"id":6171,"adult":false},{"id":40205,"adult":false},{"id":6795,"adult":false},{"id":114286,"adult":false},{"id":6972,"adult":false},{"id":7299,"adult":false},{"id":7451,"adult":false},{"id":61717,"adult":false},{"id":55504,"adult":false},{"id":381044,"adult":false},{"id":3767,"adult":false},{"id":360779,"adult":false},{"id":4641,"adult":false},{"id":7552,"adult":false},{"id":21481,"adult":false},{"id":13968,"adult":false},{"id":170967,"adult":false},{"id":379474,"adult":false},{"id":130090,"adult":false},{"id":369569,"adult":false},{"id":7978,"adult":false},{"id":376087,"adult":false},{"id":392295,"adult":false},{"id":378441,"adult":false},{"id":79399,"adult":false},{"id":384673,"adult":false},{"id":392296,"adult":false},{"id":392297,"adult":false}],"page":90,"total_pages":118,"total_results":11761}