{"results":[{"id":20287,"adult":false},{"id":343214,"adult":false},{"id":12528,"adult":false},{"id":22094,"adult":false},{"id":354800,"adult":false},{"id":316690,"adult":false},{"id":1417,"adult":false},{"id":403232,"adult":false},{"id":43374,"adult":false},{"id":10340,"adult":false},{"id":410046,"adult":false},{"id":410047,"adult":false},{"id":410049,"adult":false},{"id":410050,"adult":false},{"id":410056,"adult":false},{"id":410057,"adult":false},{"id":410059,"adult":false},{"id":76975,"adult":false},{"id":410060,"adult":false},{"id":410061,"adult":false},{"id":410070,"adult":false},{"id":410072,"adult":false},{"id":410074,"adult":false},{"id":410076,"adult":false},{"id":265483,"adult":null},{"id":410077,"adult":false},{"id":410079,"adult":false},{"id":410080,"adult":false},{"id":410081,"adult":false},{"id":410082,"adult":false},{"id":410084,"adult":false},{"id":410085,"adult":false},{"id":410087,"adult":false},{"id":117051,"adult":false},{"id":410088,"adult":false},{"id":410089,"adult":false},{"id":410091,"adult":false},{"id":410093,"adult":false},{"id":410094,"adult":false},{"id":38616,"adult":false},{"id":410095,"adult":false},{"id":410100,"adult":null},{"id":41254,"adult":false},{"id":42562,"adult":false},{"id":44262,"adult":false},{"id":44343,"adult":false},{"id":37710,"adult":false},{"id":45183,"adult":false},{"id":45818,"adult":false},{"id":46383,"adult":false},{"id":46755,"adult":false},{"id":48749,"adult":false},{"id":49121,"adult":false},{"id":50069,"adult":false},{"id":290075,"adult":false},{"id":50192,"adult":false},{"id":51055,"adult":false},{"id":51252,"adult":false},{"id":51685,"adult":false},{"id":51946,"adult":false},{"id":52902,"adult":false},{"id":54190,"adult":false},{"id":54515,"adult":false},{"id":57005,"adult":false},{"id":58891,"adult":false},{"id":59777,"adult":false},{"id":59928,"adult":false},{"id":60775,"adult":false},{"id":60925,"adult":false},{"id":61200,"adult":false},{"id":61671,"adult":false},{"id":10895,"adult":false},{"id":61724,"adult":false},{"id":61845,"adult":false},{"id":63357,"adult":false},{"id":64190,"adult":false},{"id":65145,"adult":false},{"id":65626,"adult":false},{"id":67084,"adult":false},{"id":67547,"adult":false},{"id":69397,"adult":false},{"id":70567,"adult":false},{"id":74127,"adult":false},{"id":75828,"adult":false},{"id":78397,"adult":false},{"id":79908,"adult":false},{"id":80023,"adult":false},{"id":80355,"adult":false},{"id":80545,"adult":false},{"id":81543,"adult":false},{"id":81657,"adult":false},{"id":83460,"adult":false},{"id":83946,"adult":false},{"id":90295,"adult":false},{"id":90658,"adult":false},{"id":91854,"adult":false},{"id":94583,"adult":false},{"id":96817,"adult":false},{"id":97214,"adult":false},{"id":97291,"adult":false}],"page":48,"total_pages":103,"total_results":10211}