{"results":[{"id":102001,"adult":false},{"id":404048,"adult":false},{"id":20017,"adult":false},{"id":6620,"adult":false},{"id":89708,"adult":false},{"id":35906,"adult":false},{"id":363423,"adult":false},{"id":164567,"adult":false},{"id":362321,"adult":false},{"id":405847,"adult":false},{"id":239412,"adult":false},{"id":272659,"adult":false},{"id":405848,"adult":false},{"id":405849,"adult":false},{"id":374432,"adult":false},{"id":195509,"adult":false},{"id":341014,"adult":false},{"id":189033,"adult":false},{"id":405850,"adult":false},{"id":153709,"adult":false},{"id":228263,"adult":false},{"id":405851,"adult":false},{"id":178594,"adult":false},{"id":405852,"adult":false},{"id":405853,"adult":true},{"id":22398,"adult":false},{"id":264425,"adult":false},{"id":405854,"adult":true},{"id":405855,"adult":false},{"id":405856,"adult":true},{"id":232759,"adult":false},{"id":405857,"adult":false},{"id":13305,"adult":false},{"id":370718,"adult":false},{"id":313074,"adult":false},{"id":42552,"adult":false},{"id":76551,"adult":false},{"id":405858,"adult":false},{"id":9914,"adult":false},{"id":326773,"adult":null},{"id":82348,"adult":false},{"id":405859,"adult":false},{"id":61041,"adult":false},{"id":405860,"adult":false},{"id":405861,"adult":false},{"id":30667,"adult":false},{"id":55798,"adult":false},{"id":405862,"adult":null},{"id":405863,"adult":false},{"id":174733,"adult":false},{"id":405864,"adult":false},{"id":405865,"adult":true},{"id":153165,"adult":false},{"id":76062,"adult":false},{"id":340553,"adult":false},{"id":147973,"adult":false},{"id":121820,"adult":false},{"id":405866,"adult":false},{"id":405867,"adult":false},{"id":209251,"adult":false},{"id":392257,"adult":false},{"id":2241,"adult":false},{"id":405868,"adult":false},{"id":120570,"adult":false},{"id":12101,"adult":false},{"id":23082,"adult":false},{"id":405869,"adult":false},{"id":25848,"adult":false},{"id":52327,"adult":false},{"id":347413,"adult":false},{"id":405870,"adult":false},{"id":1726,"adult":false},{"id":10138,"adult":false},{"id":2164,"adult":false},{"id":68721,"adult":false},{"id":10657,"adult":false},{"id":370800,"adult":false},{"id":404292,"adult":false},{"id":405871,"adult":false},{"id":67615,"adult":false},{"id":284004,"adult":false},{"id":23201,"adult":false},{"id":341838,"adult":false},{"id":120,"adult":false},{"id":201764,"adult":false},{"id":11589,"adult":false},{"id":372658,"adult":false},{"id":14180,"adult":false},{"id":405872,"adult":false},{"id":405873,"adult":false},{"id":405874,"adult":false},{"id":121,"adult":false},{"id":195916,"adult":false},{"id":192566,"adult":false},{"id":64450,"adult":false},{"id":122,"adult":false},{"id":240839,"adult":false},{"id":10899,"adult":false},{"id":311155,"adult":false},{"id":133919,"adult":false}],"page":86,"total_pages":112,"total_results":11190}