{"results":[{"id":241797,"adult":false},{"id":380716,"adult":false},{"id":228066,"adult":false},{"id":210885,"adult":false},{"id":31695,"adult":false},{"id":41463,"adult":false},{"id":30204,"adult":false},{"id":332938,"adult":false},{"id":316373,"adult":false},{"id":136928,"adult":false},{"id":274479,"adult":false},{"id":218877,"adult":false},{"id":380717,"adult":false},{"id":371778,"adult":false},{"id":380718,"adult":false},{"id":9476,"adult":false},{"id":136795,"adult":false},{"id":380307,"adult":false},{"id":380719,"adult":false},{"id":277796,"adult":false},{"id":114083,"adult":false},{"id":4133,"adult":false},{"id":50139,"adult":false},{"id":333195,"adult":false},{"id":261507,"adult":false},{"id":220584,"adult":false},{"id":183777,"adult":false},{"id":9426,"adult":false},{"id":380720,"adult":false},{"id":380721,"adult":false},{"id":45448,"adult":false},{"id":314036,"adult":null},{"id":45889,"adult":false},{"id":380722,"adult":false},{"id":178,"adult":false},{"id":297167,"adult":false},{"id":334087,"adult":false},{"id":380723,"adult":false},{"id":380724,"adult":false},{"id":54855,"adult":false},{"id":45468,"adult":false},{"id":343952,"adult":false},{"id":380725,"adult":false},{"id":366323,"adult":false},{"id":333503,"adult":false},{"id":322240,"adult":false},{"id":380386,"adult":false},{"id":380726,"adult":false},{"id":161843,"adult":false},{"id":174281,"adult":false},{"id":145782,"adult":false},{"id":161838,"adult":false},{"id":380727,"adult":false},{"id":14560,"adult":false},{"id":322514,"adult":false},{"id":256765,"adult":false},{"id":311027,"adult":false},{"id":380728,"adult":false},{"id":174282,"adult":false},{"id":174308,"adult":false},{"id":256961,"adult":false},{"id":37467,"adult":false},{"id":380729,"adult":false},{"id":174305,"adult":false},{"id":174289,"adult":false},{"id":380730,"adult":false},{"id":380731,"adult":false},{"id":380732,"adult":false},{"id":380733,"adult":false},{"id":174290,"adult":false},{"id":174275,"adult":false},{"id":380734,"adult":false},{"id":380735,"adult":false},{"id":380736,"adult":false},{"id":380737,"adult":false},{"id":380738,"adult":false},{"id":174279,"adult":false},{"id":174270,"adult":false},{"id":380739,"adult":false},{"id":380740,"adult":false},{"id":380741,"adult":null},{"id":174286,"adult":false},{"id":174267,"adult":false},{"id":380742,"adult":false},{"id":380743,"adult":false},{"id":380744,"adult":false},{"id":19609,"adult":false},{"id":184674,"adult":false},{"id":184646,"adult":false},{"id":159774,"adult":false},{"id":380745,"adult":false},{"id":184654,"adult":false},{"id":184662,"adult":false},{"id":380746,"adult":false},{"id":184663,"adult":false},{"id":184678,"adult":false},{"id":184677,"adult":false},{"id":184632,"adult":false},{"id":12113,"adult":false},{"id":184667,"adult":false}],"page":13,"total_pages":119,"total_results":11854}