{"results":[{"id":381402,"adult":false},{"id":94606,"adult":false},{"id":260694,"adult":false},{"id":58283,"adult":false},{"id":9721,"adult":false},{"id":381403,"adult":false},{"id":68,"adult":false},{"id":284284,"adult":false},{"id":201471,"adult":false},{"id":10515,"adult":false},{"id":381404,"adult":true},{"id":381405,"adult":false},{"id":357528,"adult":false},{"id":64687,"adult":false},{"id":381406,"adult":true},{"id":381407,"adult":true},{"id":9079,"adult":false},{"id":381408,"adult":true},{"id":381409,"adult":true},{"id":196803,"adult":false},{"id":381410,"adult":false},{"id":352197,"adult":false},{"id":381411,"adult":true},{"id":206648,"adult":false},{"id":381412,"adult":true},{"id":381413,"adult":false},{"id":4638,"adult":false},{"id":381414,"adult":false},{"id":324285,"adult":false},{"id":70559,"adult":false},{"id":321612,"adult":false},{"id":13982,"adult":false},{"id":338172,"adult":false},{"id":188782,"adult":false},{"id":298595,"adult":false},{"id":44201,"adult":false},{"id":235592,"adult":false},{"id":328588,"adult":false},{"id":229541,"adult":false},{"id":268322,"adult":false},{"id":381415,"adult":false},{"id":328111,"adult":false},{"id":60309,"adult":false},{"id":135483,"adult":false},{"id":8681,"adult":false},{"id":82675,"adult":false},{"id":259956,"adult":false},{"id":32456,"adult":false},{"id":25016,"adult":false},{"id":19899,"adult":false},{"id":107656,"adult":false},{"id":60011,"adult":false},{"id":105113,"adult":false},{"id":338653,"adult":false},{"id":381416,"adult":false},{"id":381417,"adult":false},{"id":64345,"adult":false},{"id":188621,"adult":false},{"id":32037,"adult":false},{"id":11059,"adult":false},{"id":316543,"adult":false},{"id":379500,"adult":false},{"id":325113,"adult":false},{"id":334531,"adult":false},{"id":324421,"adult":false},{"id":272548,"adult":false},{"id":381418,"adult":false},{"id":252168,"adult":false},{"id":329984,"adult":false},{"id":281621,"adult":false},{"id":278585,"adult":false},{"id":11287,"adult":false},{"id":11429,"adult":false},{"id":218670,"adult":false},{"id":18111,"adult":false},{"id":381419,"adult":false},{"id":252994,"adult":false},{"id":31225,"adult":false},{"id":922,"adult":false},{"id":148630,"adult":false},{"id":381420,"adult":false},{"id":267193,"adult":false},{"id":381421,"adult":null},{"id":381422,"adult":false},{"id":381423,"adult":false},{"id":347483,"adult":false},{"id":298085,"adult":false},{"id":218815,"adult":false},{"id":331136,"adult":false},{"id":175024,"adult":false},{"id":175278,"adult":false},{"id":188050,"adult":false},{"id":381424,"adult":false},{"id":175720,"adult":false},{"id":176324,"adult":false},{"id":102888,"adult":false},{"id":185164,"adult":false},{"id":189861,"adult":false},{"id":140271,"adult":false},{"id":189716,"adult":false}],"page":47,"total_pages":119,"total_results":11854}