{"results":[{"id":300155,"adult":false},{"id":163528,"adult":false},{"id":298854,"adult":false},{"id":90994,"adult":false},{"id":391758,"adult":false},{"id":27064,"adult":false},{"id":391759,"adult":false},{"id":347746,"adult":false},{"id":391760,"adult":false},{"id":37958,"adult":false},{"id":236584,"adult":false},{"id":1381,"adult":false},{"id":391762,"adult":false},{"id":102586,"adult":false},{"id":391763,"adult":false},{"id":38117,"adult":false},{"id":108560,"adult":false},{"id":287491,"adult":false},{"id":60592,"adult":false},{"id":388,"adult":false},{"id":101535,"adult":false},{"id":367499,"adult":false},{"id":57241,"adult":false},{"id":105900,"adult":false},{"id":123961,"adult":false},{"id":391764,"adult":false},{"id":350499,"adult":false},{"id":17077,"adult":false},{"id":59447,"adult":false},{"id":35153,"adult":false},{"id":391765,"adult":false},{"id":9481,"adult":false},{"id":371893,"adult":false},{"id":350752,"adult":false},{"id":5491,"adult":false},{"id":30141,"adult":false},{"id":168806,"adult":false},{"id":361189,"adult":false},{"id":263776,"adult":false},{"id":15179,"adult":false},{"id":311238,"adult":false},{"id":391766,"adult":false},{"id":391767,"adult":false},{"id":325078,"adult":false},{"id":391768,"adult":false},{"id":16933,"adult":false},{"id":47721,"adult":false},{"id":391769,"adult":false},{"id":76864,"adult":false},{"id":47473,"adult":false},{"id":391770,"adult":false},{"id":391771,"adult":false},{"id":391772,"adult":false},{"id":87621,"adult":false},{"id":91467,"adult":false},{"id":742,"adult":false},{"id":73088,"adult":false},{"id":391773,"adult":false},{"id":69544,"adult":false},{"id":234747,"adult":false},{"id":28062,"adult":false},{"id":376946,"adult":false},{"id":5817,"adult":false},{"id":347754,"adult":false},{"id":204922,"adult":false},{"id":59965,"adult":false},{"id":35169,"adult":false},{"id":90767,"adult":false},{"id":109380,"adult":false},{"id":377567,"adult":false},{"id":336882,"adult":false},{"id":344218,"adult":false},{"id":391774,"adult":false},{"id":62564,"adult":false},{"id":131590,"adult":false},{"id":37570,"adult":false},{"id":11083,"adult":false},{"id":391775,"adult":false},{"id":391776,"adult":false},{"id":387423,"adult":false},{"id":41809,"adult":false},{"id":56036,"adult":false},{"id":40504,"adult":false},{"id":391777,"adult":false},{"id":95489,"adult":false},{"id":341512,"adult":false},{"id":13374,"adult":false},{"id":9779,"adult":false},{"id":391778,"adult":false},{"id":341545,"adult":false},{"id":11823,"adult":false},{"id":11812,"adult":false},{"id":177888,"adult":false},{"id":10924,"adult":false},{"id":26880,"adult":false},{"id":245473,"adult":false},{"id":5558,"adult":false},{"id":391779,"adult":false},{"id":94663,"adult":false},{"id":391780,"adult":false}],"page":60,"total_pages":118,"total_results":11761}