{"results":[{"id":264732,"adult":false},{"id":130850,"adult":false},{"id":396693,"adult":false},{"id":122353,"adult":false},{"id":11550,"adult":false},{"id":13943,"adult":false},{"id":13775,"adult":false},{"id":27217,"adult":false},{"id":396694,"adult":false},{"id":1555,"adult":false},{"id":198701,"adult":false},{"id":41997,"adult":false},{"id":358506,"adult":false},{"id":19933,"adult":false},{"id":396695,"adult":false},{"id":396696,"adult":false},{"id":20378,"adult":false},{"id":1826,"adult":false},{"id":396697,"adult":false},{"id":396698,"adult":false},{"id":49519,"adult":false},{"id":49009,"adult":false},{"id":84850,"adult":false},{"id":396699,"adult":false},{"id":36236,"adult":false},{"id":396700,"adult":false},{"id":396701,"adult":false},{"id":65588,"adult":false},{"id":394945,"adult":false},{"id":396702,"adult":false},{"id":262902,"adult":false},{"id":15831,"adult":false},{"id":262888,"adult":false},{"id":89289,"adult":false},{"id":14432,"adult":false},{"id":76314,"adult":false},{"id":396703,"adult":false},{"id":141011,"adult":false},{"id":38913,"adult":false},{"id":16043,"adult":false},{"id":157320,"adult":false},{"id":16044,"adult":false},{"id":169807,"adult":false},{"id":396704,"adult":false},{"id":361858,"adult":false},{"id":13761,"adult":false},{"id":259385,"adult":false},{"id":64127,"adult":false},{"id":396705,"adult":false},{"id":44350,"adult":false},{"id":113850,"adult":false},{"id":393955,"adult":false},{"id":376884,"adult":false},{"id":312070,"adult":false},{"id":46642,"adult":false},{"id":362178,"adult":false},{"id":354759,"adult":false},{"id":73109,"adult":false},{"id":396706,"adult":false},{"id":41025,"adult":false},{"id":295698,"adult":false},{"id":349048,"adult":false},{"id":29077,"adult":false},{"id":296999,"adult":false},{"id":42617,"adult":false},{"id":355774,"adult":false},{"id":57603,"adult":false},{"id":396707,"adult":false},{"id":342536,"adult":false},{"id":7518,"adult":false},{"id":117747,"adult":false},{"id":69900,"adult":false},{"id":68724,"adult":false},{"id":80274,"adult":false},{"id":354771,"adult":false},{"id":335409,"adult":false},{"id":172136,"adult":true},{"id":396708,"adult":null},{"id":81796,"adult":false},{"id":240832,"adult":false},{"id":344909,"adult":false},{"id":344907,"adult":false},{"id":75612,"adult":false},{"id":342899,"adult":false},{"id":396709,"adult":false},{"id":396710,"adult":false},{"id":206487,"adult":false},{"id":39254,"adult":false},{"id":19757,"adult":false},{"id":396711,"adult":false},{"id":8870,"adult":false},{"id":16320,"adult":false},{"id":325844,"adult":false},{"id":107652,"adult":false},{"id":42684,"adult":false},{"id":110415,"adult":false},{"id":91965,"adult":true},{"id":37686,"adult":false},{"id":9570,"adult":false},{"id":102835,"adult":false}],"page":90,"total_pages":130,"total_results":12927}