{"results":[{"id":402693,"adult":false},{"id":132712,"adult":false},{"id":277387,"adult":false},{"id":263846,"adult":false},{"id":415446,"adult":false},{"id":185671,"adult":false},{"id":393814,"adult":false},{"id":415447,"adult":false},{"id":78073,"adult":false},{"id":409570,"adult":false},{"id":415448,"adult":false},{"id":339719,"adult":false},{"id":381421,"adult":null},{"id":65532,"adult":false},{"id":159006,"adult":false},{"id":48150,"adult":false},{"id":49911,"adult":false},{"id":415449,"adult":false},{"id":279668,"adult":false},{"id":333266,"adult":false},{"id":173462,"adult":false},{"id":62392,"adult":false},{"id":389868,"adult":false},{"id":408656,"adult":false},{"id":415450,"adult":false},{"id":239395,"adult":false},{"id":415451,"adult":false},{"id":415452,"adult":true},{"id":167882,"adult":false},{"id":276161,"adult":false},{"id":276164,"adult":false},{"id":53099,"adult":false},{"id":276159,"adult":false},{"id":276171,"adult":false},{"id":276162,"adult":false},{"id":276165,"adult":false},{"id":204646,"adult":false},{"id":415453,"adult":false},{"id":9646,"adult":false},{"id":40655,"adult":false},{"id":415454,"adult":null},{"id":14196,"adult":false},{"id":273062,"adult":false},{"id":240481,"adult":false},{"id":329523,"adult":false},{"id":338617,"adult":false},{"id":276230,"adult":false},{"id":364985,"adult":false},{"id":296553,"adult":false},{"id":319632,"adult":false},{"id":212762,"adult":false},{"id":415455,"adult":false},{"id":10730,"adult":false},{"id":66446,"adult":false},{"id":45612,"adult":false},{"id":113102,"adult":false},{"id":210059,"adult":false},{"id":163440,"adult":false},{"id":11282,"adult":false},{"id":415456,"adult":false},{"id":89492,"adult":false},{"id":42258,"adult":false},{"id":415457,"adult":false},{"id":89501,"adult":false},{"id":346646,"adult":false},{"id":61062,"adult":false},{"id":382743,"adult":false},{"id":415458,"adult":false},{"id":56781,"adult":false},{"id":66263,"adult":false},{"id":229884,"adult":false},{"id":280878,"adult":false},{"id":413144,"adult":false},{"id":360941,"adult":false},{"id":281818,"adult":false},{"id":78963,"adult":false},{"id":61777,"adult":false},{"id":78953,"adult":false},{"id":415459,"adult":false},{"id":277852,"adult":false},{"id":191371,"adult":false},{"id":111543,"adult":false},{"id":94887,"adult":false},{"id":222979,"adult":false},{"id":415460,"adult":false},{"id":69432,"adult":false},{"id":377383,"adult":false},{"id":9741,"adult":false},{"id":269539,"adult":false},{"id":303769,"adult":true},{"id":300983,"adult":false},{"id":415461,"adult":false},{"id":415462,"adult":false},{"id":410932,"adult":false},{"id":320910,"adult":false},{"id":121674,"adult":false},{"id":362150,"adult":false},{"id":415463,"adult":false},{"id":371097,"adult":false},{"id":378779,"adult":false}],"page":109,"total_pages":126,"total_results":12554}