{"results":[{"id":220,"adult":false},{"id":12211,"adult":false},{"id":258790,"adult":false},{"id":180,"adult":false},{"id":27191,"adult":false},{"id":384515,"adult":false},{"id":25673,"adult":false},{"id":258827,"adult":false},{"id":11414,"adult":false},{"id":372030,"adult":null},{"id":7220,"adult":false},{"id":384516,"adult":false},{"id":15421,"adult":false},{"id":874,"adult":false},{"id":36647,"adult":false},{"id":22522,"adult":false},{"id":36648,"adult":false},{"id":61280,"adult":false},{"id":16619,"adult":false},{"id":50569,"adult":false},{"id":11050,"adult":false},{"id":382696,"adult":false},{"id":287009,"adult":false},{"id":606,"adult":false},{"id":373881,"adult":false},{"id":2604,"adult":false},{"id":340643,"adult":null},{"id":10337,"adult":false},{"id":310568,"adult":false},{"id":384517,"adult":false},{"id":142,"adult":false},{"id":15363,"adult":false},{"id":1164,"adult":false},{"id":296089,"adult":false},{"id":65057,"adult":false},{"id":48871,"adult":false},{"id":52874,"adult":false},{"id":378747,"adult":false},{"id":62454,"adult":false},{"id":286554,"adult":false},{"id":316002,"adult":false},{"id":384518,"adult":false},{"id":340641,"adult":null},{"id":358331,"adult":false},{"id":316064,"adult":false},{"id":353094,"adult":false},{"id":7461,"adult":false},{"id":1893,"adult":false},{"id":227510,"adult":false},{"id":156530,"adult":false},{"id":277558,"adult":false},{"id":337535,"adult":false},{"id":73588,"adult":false},{"id":64348,"adult":false},{"id":258580,"adult":false},{"id":113947,"adult":false},{"id":13167,"adult":false},{"id":265278,"adult":false},{"id":29717,"adult":false},{"id":384519,"adult":false},{"id":384520,"adult":false},{"id":384521,"adult":false},{"id":34326,"adult":false},{"id":52979,"adult":false},{"id":52980,"adult":false},{"id":64912,"adult":false},{"id":273456,"adult":false},{"id":265010,"adult":false},{"id":7010,"adult":false},{"id":306120,"adult":false},{"id":10579,"adult":false},{"id":384522,"adult":false},{"id":17234,"adult":false},{"id":17692,"adult":false},{"id":11372,"adult":false},{"id":38238,"adult":false},{"id":347751,"adult":false},{"id":357892,"adult":true},{"id":358867,"adult":true},{"id":332806,"adult":false},{"id":255208,"adult":false},{"id":32585,"adult":false},{"id":142300,"adult":false},{"id":163549,"adult":false},{"id":152584,"adult":false},{"id":316681,"adult":false},{"id":99579,"adult":false},{"id":255622,"adult":false},{"id":7553,"adult":false},{"id":54842,"adult":false},{"id":257907,"adult":false},{"id":207260,"adult":false},{"id":17144,"adult":false},{"id":83147,"adult":false},{"id":44032,"adult":false},{"id":278586,"adult":false},{"id":384523,"adult":false},{"id":264361,"adult":false},{"id":312969,"adult":false},{"id":283686,"adult":false}],"page":103,"total_pages":123,"total_results":12205}