{"results":[{"id":55931,"adult":false},{"id":255936,"adult":false},{"id":409241,"adult":false},{"id":342179,"adult":false},{"id":290250,"adult":false},{"id":342183,"adult":false},{"id":562,"adult":false},{"id":409242,"adult":false},{"id":409243,"adult":false},{"id":128475,"adult":false},{"id":52871,"adult":false},{"id":289891,"adult":false},{"id":409244,"adult":false},{"id":70356,"adult":false},{"id":409245,"adult":false},{"id":15670,"adult":false},{"id":107437,"adult":false},{"id":409246,"adult":false},{"id":1573,"adult":false},{"id":303854,"adult":false},{"id":22816,"adult":false},{"id":317669,"adult":false},{"id":409247,"adult":false},{"id":29596,"adult":false},{"id":409248,"adult":false},{"id":172617,"adult":false},{"id":386509,"adult":false},{"id":409249,"adult":false},{"id":409250,"adult":true},{"id":408350,"adult":true},{"id":387140,"adult":null},{"id":327330,"adult":false},{"id":230433,"adult":false},{"id":319027,"adult":false},{"id":364803,"adult":false},{"id":14543,"adult":false},{"id":278903,"adult":false},{"id":1572,"adult":false},{"id":54521,"adult":false},{"id":24083,"adult":false},{"id":103742,"adult":false},{"id":409251,"adult":true},{"id":311224,"adult":false},{"id":409252,"adult":false},{"id":294016,"adult":false},{"id":225728,"adult":false},{"id":373040,"adult":false},{"id":409253,"adult":false},{"id":343913,"adult":false},{"id":355255,"adult":false},{"id":1600,"adult":false},{"id":176208,"adult":false},{"id":293814,"adult":false},{"id":138406,"adult":false},{"id":288666,"adult":false},{"id":95053,"adult":false},{"id":188127,"adult":false},{"id":11347,"adult":false},{"id":222313,"adult":false},{"id":200847,"adult":false},{"id":262279,"adult":false},{"id":368221,"adult":false},{"id":392374,"adult":false},{"id":367146,"adult":null},{"id":368240,"adult":false},{"id":113181,"adult":false},{"id":155184,"adult":false},{"id":305917,"adult":false},{"id":345911,"adult":false},{"id":301875,"adult":false},{"id":165433,"adult":false},{"id":194853,"adult":false},{"id":38141,"adult":false},{"id":31868,"adult":false},{"id":282220,"adult":false},{"id":80762,"adult":false},{"id":1571,"adult":false},{"id":9336,"adult":false},{"id":82784,"adult":false},{"id":10157,"adult":false},{"id":223485,"adult":false},{"id":12118,"adult":false},{"id":10587,"adult":false},{"id":67590,"adult":false},{"id":167073,"adult":false},{"id":313226,"adult":null},{"id":295226,"adult":false},{"id":313230,"adult":false},{"id":67149,"adult":false},{"id":364175,"adult":false},{"id":67170,"adult":false},{"id":305252,"adult":false},{"id":66879,"adult":false},{"id":298289,"adult":false},{"id":295920,"adult":false},{"id":408122,"adult":false},{"id":409254,"adult":false},{"id":386689,"adult":false},{"id":210923,"adult":false},{"id":83382,"adult":false}],"page":12,"total_pages":117,"total_results":11641}