{"results":[{"id":169401,"adult":false},{"id":54405,"adult":false},{"id":3134,"adult":false},{"id":340485,"adult":false},{"id":8274,"adult":false},{"id":63046,"adult":false},{"id":99234,"adult":false},{"id":325712,"adult":false},{"id":340676,"adult":false},{"id":375315,"adult":false},{"id":86706,"adult":false},{"id":260615,"adult":false},{"id":326382,"adult":false},{"id":179366,"adult":false},{"id":392835,"adult":false},{"id":64648,"adult":false},{"id":330770,"adult":false},{"id":52743,"adult":false},{"id":392194,"adult":false},{"id":382410,"adult":false},{"id":54080,"adult":false},{"id":392189,"adult":false},{"id":146730,"adult":false},{"id":393361,"adult":false},{"id":393362,"adult":false},{"id":180299,"adult":false},{"id":80587,"adult":false},{"id":293660,"adult":false},{"id":16384,"adult":false},{"id":308027,"adult":false},{"id":358923,"adult":false},{"id":342899,"adult":false},{"id":128583,"adult":false},{"id":33522,"adult":false},{"id":392655,"adult":false},{"id":185935,"adult":false},{"id":386810,"adult":false},{"id":35662,"adult":false},{"id":389237,"adult":false},{"id":393363,"adult":false},{"id":297646,"adult":false},{"id":2019,"adult":false},{"id":292665,"adult":false},{"id":28338,"adult":false},{"id":297549,"adult":false},{"id":355789,"adult":false},{"id":107652,"adult":false},{"id":393364,"adult":false},{"id":393365,"adult":false},{"id":361220,"adult":false},{"id":108183,"adult":false},{"id":392033,"adult":false},{"id":31664,"adult":false},{"id":393366,"adult":false},{"id":393367,"adult":false},{"id":2654,"adult":false},{"id":41292,"adult":false},{"id":393368,"adult":false},{"id":10547,"adult":false},{"id":393369,"adult":false},{"id":241339,"adult":false},{"id":109410,"adult":false},{"id":393370,"adult":false},{"id":295588,"adult":false},{"id":390212,"adult":false},{"id":206003,"adult":false},{"id":324807,"adult":false},{"id":393371,"adult":false},{"id":339934,"adult":false},{"id":47431,"adult":false},{"id":10885,"adult":false},{"id":208378,"adult":false},{"id":10063,"adult":false},{"id":390877,"adult":null},{"id":393372,"adult":false},{"id":27036,"adult":false},{"id":28663,"adult":false},{"id":271064,"adult":false},{"id":148232,"adult":false},{"id":321747,"adult":false},{"id":393373,"adult":false},{"id":200058,"adult":false},{"id":393374,"adult":false},{"id":1654,"adult":false},{"id":362699,"adult":false},{"id":389898,"adult":false},{"id":2698,"adult":false},{"id":247251,"adult":false},{"id":353066,"adult":false},{"id":157289,"adult":false},{"id":324262,"adult":false},{"id":279648,"adult":false},{"id":267178,"adult":false},{"id":10,"adult":false},{"id":393375,"adult":null},{"id":393376,"adult":false},{"id":393378,"adult":false},{"id":189233,"adult":false},{"id":48291,"adult":false},{"id":393379,"adult":false}],"page":33,"total_pages":127,"total_results":12659}