{"results":[{"id":34045,"adult":false},{"id":322125,"adult":false},{"id":1213,"adult":false},{"id":37135,"adult":false},{"id":315868,"adult":false},{"id":10368,"adult":false},{"id":161157,"adult":false},{"id":47534,"adult":false},{"id":14005,"adult":false},{"id":22509,"adult":false},{"id":6415,"adult":false},{"id":4154,"adult":false},{"id":26425,"adult":false},{"id":30943,"adult":false},{"id":12524,"adult":false},{"id":284348,"adult":false},{"id":294093,"adult":false},{"id":429570,"adult":false},{"id":53928,"adult":false},{"id":102947,"adult":false},{"id":23105,"adult":false},{"id":46435,"adult":false},{"id":863,"adult":false},{"id":429571,"adult":false},{"id":68044,"adult":false},{"id":21700,"adult":false},{"id":55123,"adult":false},{"id":76171,"adult":false},{"id":12596,"adult":false},{"id":8076,"adult":false},{"id":429572,"adult":false},{"id":10951,"adult":false},{"id":250366,"adult":false},{"id":32306,"adult":false},{"id":81852,"adult":false},{"id":36251,"adult":false},{"id":336419,"adult":false},{"id":91804,"adult":false},{"id":30455,"adult":false},{"id":411436,"adult":false},{"id":14709,"adult":false},{"id":368091,"adult":false},{"id":1443,"adult":false},{"id":9423,"adult":false},{"id":80739,"adult":false},{"id":93980,"adult":false},{"id":42739,"adult":false},{"id":30968,"adult":false},{"id":401123,"adult":false},{"id":62676,"adult":false},{"id":428148,"adult":false},{"id":146405,"adult":false},{"id":103648,"adult":false},{"id":9496,"adult":false},{"id":13893,"adult":false},{"id":429573,"adult":false},{"id":40879,"adult":false},{"id":407803,"adult":false},{"id":47439,"adult":false},{"id":429574,"adult":false},{"id":317310,"adult":false},{"id":292534,"adult":false},{"id":10350,"adult":false},{"id":12594,"adult":false},{"id":32640,"adult":false},{"id":71186,"adult":false},{"id":5282,"adult":false},{"id":89014,"adult":false},{"id":7837,"adult":false},{"id":34766,"adult":false},{"id":18892,"adult":false},{"id":429575,"adult":null},{"id":30922,"adult":false},{"id":242042,"adult":false},{"id":294083,"adult":false},{"id":284514,"adult":false},{"id":11644,"adult":false},{"id":429576,"adult":false},{"id":52925,"adult":false},{"id":3036,"adult":false},{"id":60160,"adult":false},{"id":19323,"adult":false},{"id":150670,"adult":false},{"id":25603,"adult":false},{"id":379731,"adult":false},{"id":154103,"adult":false},{"id":362610,"adult":false},{"id":429577,"adult":false},{"id":82512,"adult":false},{"id":18627,"adult":false},{"id":429578,"adult":false},{"id":1682,"adult":false},{"id":429579,"adult":false},{"id":256687,"adult":false},{"id":429580,"adult":false},{"id":429581,"adult":false},{"id":429582,"adult":false},{"id":429583,"adult":false},{"id":429584,"adult":false},{"id":47933,"adult":false}],"page":88,"total_pages":123,"total_results":12242}