{"results":[{"id":376076,"adult":false},{"id":308266,"adult":false},{"id":10200,"adult":false},{"id":28975,"adult":false},{"id":390526,"adult":false},{"id":1283,"adult":false},{"id":1284,"adult":false},{"id":393252,"adult":false},{"id":393253,"adult":false},{"id":393255,"adult":false},{"id":9381,"adult":false},{"id":14400,"adult":false},{"id":347752,"adult":false},{"id":2501,"adult":false},{"id":42949,"adult":false},{"id":267480,"adult":false},{"id":393256,"adult":false},{"id":15936,"adult":false},{"id":332225,"adult":false},{"id":388862,"adult":false},{"id":281152,"adult":false},{"id":1368,"adult":false},{"id":259171,"adult":false},{"id":106885,"adult":false},{"id":259694,"adult":false},{"id":360920,"adult":false},{"id":9990,"adult":false},{"id":15066,"adult":false},{"id":378900,"adult":false},{"id":192141,"adult":false},{"id":51853,"adult":false},{"id":393257,"adult":false},{"id":32060,"adult":false},{"id":378627,"adult":false},{"id":8984,"adult":false},{"id":104935,"adult":false},{"id":90369,"adult":false},{"id":11313,"adult":false},{"id":21311,"adult":false},{"id":393258,"adult":true},{"id":10219,"adult":false},{"id":355484,"adult":false},{"id":77948,"adult":false},{"id":20604,"adult":false},{"id":69794,"adult":false},{"id":361489,"adult":false},{"id":336207,"adult":false},{"id":14237,"adult":false},{"id":393259,"adult":false},{"id":64252,"adult":false},{"id":145717,"adult":false},{"id":115423,"adult":false},{"id":193299,"adult":false},{"id":393260,"adult":false},{"id":393261,"adult":false},{"id":24083,"adult":false},{"id":393262,"adult":false},{"id":393263,"adult":false},{"id":1049,"adult":false},{"id":293364,"adult":false},{"id":35343,"adult":false},{"id":62469,"adult":false},{"id":252731,"adult":false},{"id":37353,"adult":false},{"id":64972,"adult":false},{"id":138590,"adult":false},{"id":54257,"adult":false},{"id":168725,"adult":false},{"id":393264,"adult":false},{"id":393265,"adult":false},{"id":393266,"adult":false},{"id":393267,"adult":false},{"id":13159,"adult":false},{"id":72559,"adult":false},{"id":58151,"adult":false},{"id":157,"adult":false},{"id":13491,"adult":false},{"id":289728,"adult":false},{"id":42044,"adult":false},{"id":11778,"adult":false},{"id":10280,"adult":false},{"id":393268,"adult":false},{"id":283589,"adult":false},{"id":87827,"adult":false},{"id":326425,"adult":false},{"id":41154,"adult":false},{"id":557,"adult":false},{"id":13957,"adult":false},{"id":16971,"adult":false},{"id":24113,"adult":false},{"id":85985,"adult":false},{"id":362731,"adult":null},{"id":363354,"adult":false},{"id":10829,"adult":false},{"id":50685,"adult":false},{"id":23759,"adult":false},{"id":270487,"adult":false},{"id":233780,"adult":false},{"id":6415,"adult":false},{"id":12,"adult":false}],"page":25,"total_pages":127,"total_results":12659}