{"results":[{"id":217011,"adult":false},{"id":69931,"adult":false},{"id":422794,"adult":false},{"id":83542,"adult":false},{"id":422795,"adult":false},{"id":229294,"adult":false},{"id":422796,"adult":false},{"id":1416,"adult":false},{"id":260982,"adult":false},{"id":46509,"adult":false},{"id":2290,"adult":false},{"id":603,"adult":false},{"id":16205,"adult":false},{"id":29996,"adult":false},{"id":11567,"adult":false},{"id":412722,"adult":false},{"id":422798,"adult":false},{"id":315967,"adult":false},{"id":412723,"adult":false},{"id":412726,"adult":false},{"id":412728,"adult":false},{"id":283378,"adult":false},{"id":24152,"adult":false},{"id":22385,"adult":false},{"id":4858,"adult":false},{"id":381024,"adult":false},{"id":412733,"adult":false},{"id":412735,"adult":false},{"id":347705,"adult":false},{"id":183825,"adult":false},{"id":175386,"adult":false},{"id":33923,"adult":false},{"id":342172,"adult":false},{"id":7214,"adult":false},{"id":176399,"adult":false},{"id":98109,"adult":false},{"id":104594,"adult":false},{"id":129165,"adult":false},{"id":140985,"adult":false},{"id":422799,"adult":false},{"id":28354,"adult":false},{"id":53335,"adult":false},{"id":405023,"adult":null},{"id":202619,"adult":false},{"id":55847,"adult":false},{"id":40343,"adult":false},{"id":103071,"adult":false},{"id":39667,"adult":true},{"id":33801,"adult":false},{"id":264871,"adult":false},{"id":42544,"adult":false},{"id":30112,"adult":false},{"id":25507,"adult":false},{"id":9409,"adult":false},{"id":41474,"adult":false},{"id":403348,"adult":false},{"id":261129,"adult":false},{"id":327088,"adult":false},{"id":110957,"adult":false},{"id":296523,"adult":false},{"id":187662,"adult":false},{"id":422800,"adult":false},{"id":9057,"adult":false},{"id":36759,"adult":false},{"id":422801,"adult":false},{"id":82702,"adult":false},{"id":313288,"adult":false},{"id":95,"adult":false},{"id":9710,"adult":false},{"id":1428,"adult":false},{"id":64835,"adult":false},{"id":110299,"adult":false},{"id":339513,"adult":false},{"id":107328,"adult":false},{"id":273554,"adult":false},{"id":64053,"adult":false},{"id":150540,"adult":false},{"id":57361,"adult":false},{"id":4986,"adult":false},{"id":96236,"adult":false},{"id":4989,"adult":false},{"id":74576,"adult":false},{"id":78353,"adult":false},{"id":37618,"adult":false},{"id":14664,"adult":false},{"id":74310,"adult":false},{"id":273452,"adult":false},{"id":351790,"adult":false},{"id":318654,"adult":false},{"id":80287,"adult":false},{"id":242546,"adult":false},{"id":27342,"adult":false},{"id":422802,"adult":false},{"id":69828,"adult":false},{"id":13795,"adult":false},{"id":64942,"adult":false},{"id":128145,"adult":false},{"id":82798,"adult":false},{"id":780,"adult":false},{"id":80810,"adult":false}],"page":102,"total_pages":123,"total_results":12202}