{"results":[{"id":44693,"adult":false},{"id":170521,"adult":null},{"id":401500,"adult":false},{"id":33045,"adult":false},{"id":401501,"adult":false},{"id":401502,"adult":false},{"id":73791,"adult":false},{"id":35412,"adult":false},{"id":370687,"adult":false},{"id":255870,"adult":false},{"id":401503,"adult":true},{"id":401504,"adult":false},{"id":350839,"adult":false},{"id":47793,"adult":false},{"id":270383,"adult":false},{"id":401505,"adult":false},{"id":30636,"adult":false},{"id":401506,"adult":false},{"id":49125,"adult":false},{"id":42225,"adult":false},{"id":135521,"adult":false},{"id":41648,"adult":false},{"id":194139,"adult":false},{"id":73065,"adult":false},{"id":21260,"adult":false},{"id":401507,"adult":false},{"id":401508,"adult":false},{"id":270470,"adult":false},{"id":351097,"adult":false},{"id":401509,"adult":false},{"id":284341,"adult":false},{"id":255482,"adult":false},{"id":401510,"adult":false},{"id":394661,"adult":false},{"id":230858,"adult":false},{"id":180048,"adult":false},{"id":30335,"adult":false},{"id":1370,"adult":false},{"id":128237,"adult":false},{"id":97989,"adult":false},{"id":121929,"adult":false},{"id":401511,"adult":false},{"id":92643,"adult":false},{"id":85544,"adult":false},{"id":110949,"adult":false},{"id":26943,"adult":false},{"id":347834,"adult":false},{"id":82409,"adult":false},{"id":401512,"adult":true},{"id":401513,"adult":false},{"id":192153,"adult":false},{"id":401514,"adult":false},{"id":311683,"adult":false},{"id":401515,"adult":true},{"id":401516,"adult":true},{"id":386870,"adult":false},{"id":401517,"adult":false},{"id":401518,"adult":false},{"id":134463,"adult":false},{"id":326741,"adult":false},{"id":4678,"adult":false},{"id":401519,"adult":false},{"id":2155,"adult":false},{"id":401520,"adult":false},{"id":103057,"adult":false},{"id":278927,"adult":false},{"id":29959,"adult":false},{"id":80358,"adult":false},{"id":401521,"adult":false},{"id":10060,"adult":false},{"id":263281,"adult":false},{"id":41030,"adult":false},{"id":37779,"adult":false},{"id":29412,"adult":false},{"id":90,"adult":false},{"id":401522,"adult":false},{"id":316023,"adult":false},{"id":60967,"adult":false},{"id":393718,"adult":false},{"id":68310,"adult":false},{"id":401523,"adult":false},{"id":270489,"adult":false},{"id":200957,"adult":false},{"id":401524,"adult":false},{"id":16444,"adult":false},{"id":270342,"adult":false},{"id":401525,"adult":false},{"id":397544,"adult":false},{"id":215211,"adult":false},{"id":401526,"adult":false},{"id":401527,"adult":false},{"id":85872,"adult":false},{"id":401528,"adult":null},{"id":74765,"adult":false},{"id":48915,"adult":false},{"id":401529,"adult":false},{"id":41022,"adult":false},{"id":346371,"adult":false},{"id":15362,"adult":false},{"id":401530,"adult":false}],"page":86,"total_pages":116,"total_results":11568}