{"results":[{"id":259903,"adult":false},{"id":75987,"adult":false},{"id":96068,"adult":false},{"id":409181,"adult":null},{"id":388439,"adult":null},{"id":173992,"adult":false},{"id":407660,"adult":null},{"id":391976,"adult":null},{"id":33295,"adult":false},{"id":407662,"adult":null},{"id":407653,"adult":null},{"id":29263,"adult":false},{"id":226632,"adult":false},{"id":290950,"adult":false},{"id":409182,"adult":false},{"id":409183,"adult":false},{"id":335,"adult":false},{"id":407658,"adult":null},{"id":1984,"adult":false},{"id":407337,"adult":null},{"id":76314,"adult":false},{"id":140283,"adult":false},{"id":409184,"adult":null},{"id":16017,"adult":false},{"id":31995,"adult":false},{"id":16044,"adult":false},{"id":16034,"adult":false},{"id":409185,"adult":null},{"id":11659,"adult":false},{"id":409186,"adult":null},{"id":29873,"adult":false},{"id":181118,"adult":false},{"id":391943,"adult":null},{"id":390913,"adult":null},{"id":352233,"adult":false},{"id":173977,"adult":false},{"id":158062,"adult":false},{"id":278519,"adult":false},{"id":1637,"adult":false},{"id":409187,"adult":null},{"id":4031,"adult":false},{"id":6637,"adult":false},{"id":391968,"adult":null},{"id":278798,"adult":false},{"id":241001,"adult":false},{"id":157735,"adult":false},{"id":238891,"adult":false},{"id":409188,"adult":false},{"id":143921,"adult":false},{"id":408281,"adult":false},{"id":409036,"adult":false},{"id":409189,"adult":false},{"id":409190,"adult":false},{"id":13975,"adult":false},{"id":409191,"adult":false},{"id":157680,"adult":false},{"id":238892,"adult":false},{"id":409192,"adult":null},{"id":374452,"adult":false},{"id":344788,"adult":false},{"id":157683,"adult":false},{"id":296560,"adult":null},{"id":391950,"adult":null},{"id":120,"adult":false},{"id":391952,"adult":null},{"id":153395,"adult":false},{"id":43064,"adult":false},{"id":122,"adult":false},{"id":326206,"adult":false},{"id":198308,"adult":false},{"id":275525,"adult":false},{"id":28870,"adult":false},{"id":121,"adult":false},{"id":394397,"adult":false},{"id":98232,"adult":false},{"id":409193,"adult":false},{"id":266818,"adult":false},{"id":409194,"adult":null},{"id":409195,"adult":false},{"id":8881,"adult":false},{"id":409196,"adult":false},{"id":409197,"adult":false},{"id":395202,"adult":false},{"id":313575,"adult":false},{"id":409198,"adult":false},{"id":397555,"adult":false},{"id":14011,"adult":false},{"id":37403,"adult":false},{"id":409034,"adult":false},{"id":298619,"adult":false},{"id":253622,"adult":false},{"id":409038,"adult":false},{"id":13851,"adult":false},{"id":409199,"adult":false},{"id":302401,"adult":false},{"id":68735,"adult":false},{"id":199114,"adult":false},{"id":1639,"adult":false},{"id":80530,"adult":false},{"id":230170,"adult":false}],"page":7,"total_pages":117,"total_results":11641}