{"results":[{"id":23431,"adult":false},{"id":387084,"adult":false},{"id":131635,"adult":false},{"id":74455,"adult":false},{"id":2621,"adult":false},{"id":49338,"adult":false},{"id":111293,"adult":false},{"id":11688,"adult":false},{"id":387745,"adult":false},{"id":1642,"adult":false},{"id":69778,"adult":false},{"id":40522,"adult":false},{"id":105972,"adult":false},{"id":387746,"adult":false},{"id":34576,"adult":false},{"id":158630,"adult":true},{"id":2107,"adult":false},{"id":339423,"adult":false},{"id":108962,"adult":false},{"id":257088,"adult":false},{"id":299582,"adult":false},{"id":387747,"adult":false},{"id":11091,"adult":false},{"id":90544,"adult":false},{"id":387748,"adult":false},{"id":2058,"adult":false},{"id":9586,"adult":false},{"id":88978,"adult":false},{"id":358438,"adult":false},{"id":355045,"adult":false},{"id":350073,"adult":false},{"id":110143,"adult":false},{"id":387749,"adult":false},{"id":387750,"adult":false},{"id":387751,"adult":false},{"id":55492,"adult":false},{"id":350941,"adult":false},{"id":346342,"adult":false},{"id":226486,"adult":false},{"id":382864,"adult":false},{"id":382866,"adult":false},{"id":11060,"adult":false},{"id":10411,"adult":false},{"id":43085,"adult":false},{"id":11364,"adult":false},{"id":387752,"adult":false},{"id":312831,"adult":false},{"id":387753,"adult":false},{"id":33478,"adult":false},{"id":33474,"adult":false},{"id":1957,"adult":false},{"id":320625,"adult":false},{"id":373451,"adult":false},{"id":33479,"adult":false},{"id":5548,"adult":false},{"id":33476,"adult":false},{"id":12,"adult":false},{"id":387754,"adult":false},{"id":368204,"adult":false},{"id":15278,"adult":false},{"id":206213,"adult":false},{"id":387755,"adult":false},{"id":77665,"adult":false},{"id":44634,"adult":false},{"id":293413,"adult":false},{"id":9415,"adult":false},{"id":39877,"adult":false},{"id":2322,"adult":false},{"id":375250,"adult":null},{"id":16784,"adult":false},{"id":176088,"adult":false},{"id":378348,"adult":false},{"id":387756,"adult":false},{"id":304250,"adult":false},{"id":374111,"adult":false},{"id":45877,"adult":false},{"id":186881,"adult":false},{"id":197338,"adult":false},{"id":387757,"adult":false},{"id":15035,"adult":false},{"id":387758,"adult":false},{"id":365149,"adult":false},{"id":366484,"adult":false},{"id":386782,"adult":false},{"id":2770,"adult":false},{"id":387759,"adult":false},{"id":644,"adult":false},{"id":387760,"adult":null},{"id":330,"adult":false},{"id":9786,"adult":false},{"id":55526,"adult":false},{"id":11870,"adult":false},{"id":80007,"adult":false},{"id":34305,"adult":false},{"id":9422,"adult":false},{"id":70964,"adult":false},{"id":387761,"adult":false},{"id":251974,"adult":false},{"id":387762,"adult":false},{"id":376208,"adult":false}],"page":3,"total_pages":120,"total_results":11936}