{"results":[{"id":14929,"adult":false},{"id":417841,"adult":false},{"id":91642,"adult":false},{"id":132935,"adult":false},{"id":26200,"adult":false},{"id":89736,"adult":false},{"id":8778,"adult":false},{"id":106661,"adult":false},{"id":420762,"adult":true},{"id":13305,"adult":false},{"id":7090,"adult":false},{"id":14635,"adult":false},{"id":103742,"adult":false},{"id":10712,"adult":false},{"id":8869,"adult":false},{"id":9296,"adult":false},{"id":16769,"adult":false},{"id":56474,"adult":false},{"id":5651,"adult":false},{"id":11684,"adult":false},{"id":5725,"adult":false},{"id":100530,"adult":false},{"id":109408,"adult":false},{"id":41762,"adult":false},{"id":5721,"adult":false},{"id":11304,"adult":false},{"id":5851,"adult":false},{"id":15136,"adult":false},{"id":417682,"adult":false},{"id":9544,"adult":false},{"id":411024,"adult":false},{"id":420763,"adult":false},{"id":420764,"adult":null},{"id":420765,"adult":false},{"id":21970,"adult":false},{"id":9045,"adult":false},{"id":1958,"adult":false},{"id":16969,"adult":false},{"id":11013,"adult":false},{"id":420766,"adult":false},{"id":11560,"adult":false},{"id":9298,"adult":false},{"id":11022,"adult":false},{"id":4727,"adult":false},{"id":420767,"adult":false},{"id":26955,"adult":false},{"id":54157,"adult":false},{"id":24825,"adult":false},{"id":216471,"adult":false},{"id":420768,"adult":true},{"id":16646,"adult":false},{"id":20689,"adult":false},{"id":33076,"adult":false},{"id":63406,"adult":false},{"id":4107,"adult":false},{"id":65502,"adult":false},{"id":9266,"adult":false},{"id":26843,"adult":false},{"id":10775,"adult":false},{"id":420769,"adult":false},{"id":28326,"adult":false},{"id":9613,"adult":false},{"id":393787,"adult":false},{"id":19448,"adult":false},{"id":39269,"adult":false},{"id":13497,"adult":false},{"id":12590,"adult":false},{"id":130544,"adult":false},{"id":420770,"adult":null},{"id":52999,"adult":false},{"id":252171,"adult":false},{"id":119242,"adult":false},{"id":104325,"adult":false},{"id":295353,"adult":false},{"id":4499,"adult":false},{"id":191482,"adult":false},{"id":37997,"adult":false},{"id":54580,"adult":false},{"id":11160,"adult":false},{"id":199661,"adult":false},{"id":157690,"adult":false},{"id":420771,"adult":false},{"id":11335,"adult":false},{"id":36599,"adult":false},{"id":408846,"adult":false},{"id":28380,"adult":false},{"id":9562,"adult":false},{"id":86215,"adult":false},{"id":9555,"adult":false},{"id":420772,"adult":false},{"id":2165,"adult":false},{"id":39141,"adult":false},{"id":31278,"adult":false},{"id":25913,"adult":false},{"id":99037,"adult":false},{"id":19404,"adult":false},{"id":12541,"adult":false},{"id":72579,"adult":false},{"id":17187,"adult":false},{"id":11852,"adult":false}],"page":126,"total_pages":144,"total_results":14341}