{"results":[{"id":77879,"adult":false},{"id":65872,"adult":false},{"id":303969,"adult":false},{"id":41608,"adult":false},{"id":425007,"adult":false},{"id":260030,"adult":false},{"id":62842,"adult":false},{"id":110919,"adult":false},{"id":310307,"adult":false},{"id":429055,"adult":false},{"id":364123,"adult":false},{"id":56531,"adult":false},{"id":255160,"adult":false},{"id":165463,"adult":false},{"id":29450,"adult":false},{"id":220638,"adult":false},{"id":38248,"adult":false},{"id":429056,"adult":null},{"id":429057,"adult":false},{"id":341204,"adult":false},{"id":113058,"adult":false},{"id":429058,"adult":false},{"id":22468,"adult":false},{"id":21521,"adult":false},{"id":429059,"adult":false},{"id":429060,"adult":false},{"id":17180,"adult":false},{"id":195805,"adult":false},{"id":81219,"adult":false},{"id":362777,"adult":false},{"id":123793,"adult":false},{"id":17692,"adult":false},{"id":429061,"adult":false},{"id":376716,"adult":false},{"id":373986,"adult":false},{"id":383748,"adult":false},{"id":413953,"adult":false},{"id":2980,"adult":false},{"id":429062,"adult":false},{"id":345922,"adult":false},{"id":62749,"adult":false},{"id":370992,"adult":false},{"id":393445,"adult":false},{"id":152358,"adult":false},{"id":102293,"adult":false},{"id":21828,"adult":false},{"id":32196,"adult":false},{"id":399842,"adult":false},{"id":94615,"adult":false},{"id":174133,"adult":false},{"id":259691,"adult":false},{"id":286548,"adult":false},{"id":399844,"adult":false},{"id":111625,"adult":false},{"id":52365,"adult":false},{"id":1675,"adult":false},{"id":421848,"adult":false},{"id":386890,"adult":false},{"id":387391,"adult":false},{"id":429063,"adult":false},{"id":429064,"adult":false},{"id":429065,"adult":false},{"id":45853,"adult":false},{"id":56431,"adult":false},{"id":11033,"adult":false},{"id":429066,"adult":false},{"id":303873,"adult":false},{"id":28441,"adult":false},{"id":44920,"adult":false},{"id":429067,"adult":false},{"id":249936,"adult":false},{"id":237696,"adult":false},{"id":296853,"adult":false},{"id":429068,"adult":false},{"id":393537,"adult":false},{"id":372297,"adult":false},{"id":151909,"adult":false},{"id":355769,"adult":false},{"id":269804,"adult":false},{"id":122387,"adult":false},{"id":374232,"adult":false},{"id":332833,"adult":false},{"id":429069,"adult":false},{"id":306237,"adult":false},{"id":265581,"adult":false},{"id":308257,"adult":false},{"id":129146,"adult":false},{"id":29355,"adult":false},{"id":148893,"adult":false},{"id":429070,"adult":false},{"id":17578,"adult":false},{"id":306732,"adult":false},{"id":307044,"adult":false},{"id":331304,"adult":false},{"id":307041,"adult":false},{"id":326716,"adult":false},{"id":120775,"adult":false},{"id":307043,"adult":false},{"id":426684,"adult":false},{"id":333484,"adult":false}],"page":54,"total_pages":123,"total_results":12242}