{"results":[{"id":29845,"adult":false},{"id":430077,"adult":false},{"id":25673,"adult":false},{"id":851,"adult":false},{"id":430078,"adult":false},{"id":405156,"adult":false},{"id":874,"adult":false},{"id":25364,"adult":false},{"id":308931,"adult":false},{"id":16642,"adult":false},{"id":11562,"adult":false},{"id":427173,"adult":false},{"id":430081,"adult":false},{"id":24226,"adult":false},{"id":3090,"adult":false},{"id":430082,"adult":false},{"id":426109,"adult":false},{"id":68274,"adult":false},{"id":427217,"adult":false},{"id":372660,"adult":false},{"id":430083,"adult":false},{"id":245792,"adult":false},{"id":414399,"adult":null},{"id":430084,"adult":false},{"id":430085,"adult":false},{"id":338072,"adult":false},{"id":284132,"adult":false},{"id":391044,"adult":false},{"id":338511,"adult":false},{"id":235364,"adult":false},{"id":430086,"adult":false},{"id":6075,"adult":false},{"id":837,"adult":false},{"id":234550,"adult":false},{"id":62630,"adult":false},{"id":253921,"adult":false},{"id":375406,"adult":false},{"id":234569,"adult":false},{"id":283203,"adult":false},{"id":262014,"adult":false},{"id":134360,"adult":false},{"id":315863,"adult":false},{"id":321398,"adult":false},{"id":266749,"adult":false},{"id":287681,"adult":false},{"id":54747,"adult":false},{"id":430087,"adult":false},{"id":249260,"adult":false},{"id":54680,"adult":false},{"id":116715,"adult":false},{"id":430088,"adult":false},{"id":163560,"adult":false},{"id":384385,"adult":false},{"id":34388,"adult":false},{"id":341185,"adult":false},{"id":370688,"adult":false},{"id":266950,"adult":false},{"id":291984,"adult":false},{"id":313021,"adult":false},{"id":212716,"adult":false},{"id":74646,"adult":false},{"id":68193,"adult":false},{"id":43348,"adult":false},{"id":191829,"adult":false},{"id":74561,"adult":false},{"id":273187,"adult":false},{"id":381018,"adult":false},{"id":169,"adult":false},{"id":12469,"adult":false},{"id":233908,"adult":false},{"id":430089,"adult":null},{"id":168157,"adult":false},{"id":41281,"adult":false},{"id":430090,"adult":null},{"id":412561,"adult":false},{"id":13637,"adult":false},{"id":268648,"adult":false},{"id":360951,"adult":false},{"id":271924,"adult":false},{"id":62733,"adult":false},{"id":47890,"adult":false},{"id":317557,"adult":false},{"id":294874,"adult":false},{"id":60711,"adult":false},{"id":337340,"adult":false},{"id":32064,"adult":false},{"id":308760,"adult":false},{"id":394892,"adult":true},{"id":330571,"adult":false},{"id":104316,"adult":false},{"id":430091,"adult":false},{"id":333152,"adult":false},{"id":44578,"adult":false},{"id":396480,"adult":true},{"id":45839,"adult":false},{"id":415957,"adult":true},{"id":24418,"adult":false},{"id":387202,"adult":true},{"id":423516,"adult":false},{"id":382937,"adult":true}],"page":118,"total_pages":123,"total_results":12242}