{"results":[{"id":44170,"adult":false},{"id":10371,"adult":false},{"id":26283,"adult":false},{"id":84540,"adult":false},{"id":12312,"adult":false},{"id":11076,"adult":false},{"id":11364,"adult":false},{"id":2616,"adult":false},{"id":395822,"adult":false},{"id":2755,"adult":false},{"id":284642,"adult":false},{"id":43370,"adult":false},{"id":282778,"adult":false},{"id":75627,"adult":false},{"id":398703,"adult":false},{"id":397901,"adult":false},{"id":397900,"adult":false},{"id":191855,"adult":false},{"id":45042,"adult":false},{"id":60081,"adult":null},{"id":401124,"adult":false},{"id":401125,"adult":false},{"id":14433,"adult":false},{"id":401126,"adult":false},{"id":47848,"adult":false},{"id":267346,"adult":false},{"id":401127,"adult":false},{"id":395387,"adult":false},{"id":401128,"adult":false},{"id":5445,"adult":false},{"id":401129,"adult":false},{"id":385938,"adult":false},{"id":231384,"adult":false},{"id":394767,"adult":false},{"id":28121,"adult":false},{"id":28981,"adult":false},{"id":19157,"adult":false},{"id":341366,"adult":false},{"id":4520,"adult":false},{"id":336495,"adult":false},{"id":52699,"adult":false},{"id":1595,"adult":false},{"id":258843,"adult":false},{"id":7451,"adult":false},{"id":354148,"adult":false},{"id":365675,"adult":false},{"id":306735,"adult":false},{"id":14542,"adult":false},{"id":373159,"adult":null},{"id":97686,"adult":false},{"id":11034,"adult":false},{"id":16056,"adult":false},{"id":401130,"adult":false},{"id":31908,"adult":false},{"id":401131,"adult":false},{"id":114955,"adult":false},{"id":9967,"adult":false},{"id":401132,"adult":false},{"id":10159,"adult":false},{"id":366512,"adult":false},{"id":328342,"adult":false},{"id":46286,"adult":false},{"id":84192,"adult":false},{"id":25019,"adult":false},{"id":351342,"adult":false},{"id":291289,"adult":false},{"id":64769,"adult":false},{"id":80272,"adult":false},{"id":357817,"adult":false},{"id":8346,"adult":false},{"id":229828,"adult":false},{"id":266066,"adult":false},{"id":302688,"adult":false},{"id":272693,"adult":false},{"id":401133,"adult":false},{"id":401134,"adult":false},{"id":334495,"adult":false},{"id":244095,"adult":false},{"id":401135,"adult":false},{"id":296098,"adult":false},{"id":401136,"adult":false},{"id":401137,"adult":null},{"id":191585,"adult":null},{"id":40321,"adult":false},{"id":155154,"adult":false},{"id":377091,"adult":false},{"id":52659,"adult":false},{"id":346641,"adult":false},{"id":132201,"adult":false},{"id":401138,"adult":null},{"id":401139,"adult":false},{"id":267002,"adult":false},{"id":281862,"adult":false},{"id":42104,"adult":false},{"id":78181,"adult":false},{"id":82940,"adult":false},{"id":339846,"adult":false},{"id":375599,"adult":false},{"id":401140,"adult":false},{"id":45133,"adult":false}],"page":64,"total_pages":116,"total_results":11568}