{"results":[{"id":322456,"adult":false},{"id":2503,"adult":false},{"id":391402,"adult":false},{"id":8974,"adult":false},{"id":422366,"adult":false},{"id":402648,"adult":false},{"id":2310,"adult":false},{"id":300035,"adult":false},{"id":422367,"adult":false},{"id":422368,"adult":null},{"id":276399,"adult":false},{"id":218784,"adult":false},{"id":422369,"adult":null},{"id":315452,"adult":false},{"id":422370,"adult":null},{"id":37430,"adult":false},{"id":422371,"adult":null},{"id":370246,"adult":false},{"id":72334,"adult":false},{"id":4912,"adult":false},{"id":422372,"adult":false},{"id":187684,"adult":false},{"id":419156,"adult":false},{"id":9457,"adult":false},{"id":217631,"adult":false},{"id":10946,"adult":false},{"id":129181,"adult":false},{"id":257932,"adult":false},{"id":422373,"adult":false},{"id":187487,"adult":false},{"id":187466,"adult":false},{"id":298115,"adult":false},{"id":57586,"adult":false},{"id":273450,"adult":false},{"id":10330,"adult":false},{"id":176640,"adult":false},{"id":36569,"adult":false},{"id":19585,"adult":false},{"id":157252,"adult":false},{"id":129749,"adult":false},{"id":292795,"adult":false},{"id":422374,"adult":false},{"id":135465,"adult":false},{"id":37958,"adult":false},{"id":10679,"adult":false},{"id":214314,"adult":false},{"id":37725,"adult":false},{"id":408952,"adult":false},{"id":295448,"adult":false},{"id":9293,"adult":false},{"id":14657,"adult":false},{"id":405597,"adult":false},{"id":60620,"adult":false},{"id":10118,"adult":false},{"id":10625,"adult":false},{"id":22832,"adult":false},{"id":10529,"adult":false},{"id":422375,"adult":false},{"id":54287,"adult":false},{"id":270654,"adult":false},{"id":371780,"adult":false},{"id":422376,"adult":false},{"id":104532,"adult":false},{"id":422377,"adult":false},{"id":42010,"adult":false},{"id":19529,"adult":false},{"id":422378,"adult":false},{"id":38165,"adult":false},{"id":391750,"adult":false},{"id":123109,"adult":false},{"id":354141,"adult":false},{"id":193278,"adult":false},{"id":63243,"adult":false},{"id":76731,"adult":false},{"id":31184,"adult":false},{"id":364499,"adult":false},{"id":32238,"adult":false},{"id":81566,"adult":false},{"id":422379,"adult":false},{"id":422380,"adult":false},{"id":163335,"adult":false},{"id":414920,"adult":false},{"id":420622,"adult":false},{"id":394455,"adult":false},{"id":260457,"adult":false},{"id":275678,"adult":false},{"id":129709,"adult":false},{"id":123806,"adult":false},{"id":91426,"adult":false},{"id":125183,"adult":false},{"id":100466,"adult":false},{"id":163,"adult":false},{"id":376660,"adult":false},{"id":260202,"adult":false},{"id":56247,"adult":false},{"id":422381,"adult":false},{"id":369885,"adult":false},{"id":422382,"adult":false},{"id":422383,"adult":false},{"id":48355,"adult":false}],"page":79,"total_pages":123,"total_results":12202}