{"results":[{"id":373976,"adult":false},{"id":16440,"adult":false},{"id":9386,"adult":false},{"id":20332,"adult":false},{"id":115771,"adult":false},{"id":185050,"adult":false},{"id":408788,"adult":false},{"id":11856,"adult":false},{"id":199677,"adult":false},{"id":235292,"adult":false},{"id":289341,"adult":false},{"id":78071,"adult":false},{"id":27329,"adult":false},{"id":115039,"adult":false},{"id":56295,"adult":false},{"id":409200,"adult":false},{"id":137618,"adult":false},{"id":267458,"adult":false},{"id":277826,"adult":false},{"id":315289,"adult":true},{"id":398289,"adult":false},{"id":115029,"adult":false},{"id":409201,"adult":null},{"id":21586,"adult":false},{"id":115801,"adult":false},{"id":276907,"adult":false},{"id":409202,"adult":false},{"id":115781,"adult":false},{"id":25955,"adult":false},{"id":186227,"adult":false},{"id":277439,"adult":false},{"id":27292,"adult":false},{"id":409203,"adult":false},{"id":30288,"adult":false},{"id":301943,"adult":false},{"id":400312,"adult":false},{"id":115034,"adult":false},{"id":13531,"adult":false},{"id":284618,"adult":false},{"id":29537,"adult":false},{"id":30895,"adult":false},{"id":106181,"adult":false},{"id":184945,"adult":false},{"id":347630,"adult":false},{"id":61710,"adult":false},{"id":11905,"adult":false},{"id":377799,"adult":false},{"id":409204,"adult":false},{"id":353326,"adult":false},{"id":169103,"adult":false},{"id":901,"adult":false},{"id":11536,"adult":false},{"id":28973,"adult":false},{"id":15301,"adult":false},{"id":409205,"adult":false},{"id":409206,"adult":false},{"id":242250,"adult":false},{"id":409207,"adult":false},{"id":812,"adult":false},{"id":47059,"adult":false},{"id":409208,"adult":false},{"id":265124,"adult":false},{"id":394123,"adult":false},{"id":10591,"adult":false},{"id":47933,"adult":false},{"id":409209,"adult":false},{"id":409210,"adult":false},{"id":52767,"adult":false},{"id":26031,"adult":false},{"id":4248,"adult":false},{"id":4247,"adult":false},{"id":15137,"adult":false},{"id":4256,"adult":false},{"id":409211,"adult":false},{"id":193216,"adult":false},{"id":47553,"adult":false},{"id":405074,"adult":false},{"id":337574,"adult":false},{"id":334536,"adult":false},{"id":220447,"adult":false},{"id":10605,"adult":false},{"id":82992,"adult":false},{"id":51497,"adult":false},{"id":13804,"adult":false},{"id":67071,"adult":false},{"id":9615,"adult":false},{"id":584,"adult":false},{"id":9799,"adult":false},{"id":31221,"adult":false},{"id":396883,"adult":false},{"id":345889,"adult":false},{"id":228165,"adult":false},{"id":328131,"adult":false},{"id":5636,"adult":false},{"id":209612,"adult":false},{"id":267192,"adult":false},{"id":55808,"adult":false},{"id":46443,"adult":false},{"id":28945,"adult":false},{"id":39252,"adult":false}],"page":8,"total_pages":117,"total_results":11641}