{"results":[{"id":324562,"adult":false},{"id":413279,"adult":false},{"id":366862,"adult":false},{"id":4465,"adult":false},{"id":31939,"adult":false},{"id":331923,"adult":false},{"id":10880,"adult":false},{"id":179058,"adult":false},{"id":42416,"adult":false},{"id":19757,"adult":false},{"id":31601,"adult":false},{"id":12309,"adult":false},{"id":183329,"adult":false},{"id":421614,"adult":false},{"id":83105,"adult":false},{"id":343611,"adult":false},{"id":18491,"adult":false},{"id":421615,"adult":false},{"id":17667,"adult":false},{"id":331313,"adult":false},{"id":10260,"adult":false},{"id":380124,"adult":false},{"id":90,"adult":false},{"id":61471,"adult":false},{"id":11296,"adult":false},{"id":58087,"adult":false},{"id":376391,"adult":false},{"id":167332,"adult":false},{"id":142798,"adult":false},{"id":27533,"adult":false},{"id":421616,"adult":false},{"id":11368,"adult":false},{"id":4841,"adult":false},{"id":263858,"adult":false},{"id":421617,"adult":false},{"id":152812,"adult":false},{"id":274167,"adult":false},{"id":63418,"adult":false},{"id":15259,"adult":false},{"id":60573,"adult":false},{"id":34748,"adult":false},{"id":12762,"adult":false},{"id":82633,"adult":false},{"id":409502,"adult":false},{"id":345674,"adult":false},{"id":421618,"adult":false},{"id":13158,"adult":false},{"id":143361,"adult":false},{"id":93897,"adult":false},{"id":18618,"adult":false},{"id":290250,"adult":false},{"id":31126,"adult":false},{"id":421619,"adult":false},{"id":118570,"adult":false},{"id":140690,"adult":false},{"id":421620,"adult":false},{"id":420854,"adult":false},{"id":58664,"adult":false},{"id":335482,"adult":false},{"id":296099,"adult":false},{"id":199556,"adult":false},{"id":340857,"adult":false},{"id":421622,"adult":false},{"id":302946,"adult":false},{"id":421623,"adult":false},{"id":169968,"adult":false},{"id":421624,"adult":false},{"id":421625,"adult":false},{"id":14564,"adult":false},{"id":421626,"adult":false},{"id":253350,"adult":false},{"id":63348,"adult":false},{"id":333667,"adult":false},{"id":421627,"adult":false},{"id":421628,"adult":false},{"id":421629,"adult":false},{"id":70981,"adult":false},{"id":169945,"adult":false},{"id":421630,"adult":false},{"id":394045,"adult":false},{"id":257445,"adult":false},{"id":268236,"adult":false},{"id":421631,"adult":false},{"id":362447,"adult":false},{"id":421632,"adult":false},{"id":421633,"adult":false},{"id":324786,"adult":false},{"id":376233,"adult":false},{"id":421634,"adult":false},{"id":65754,"adult":false},{"id":421635,"adult":false},{"id":330557,"adult":false},{"id":44629,"adult":false},{"id":61891,"adult":false},{"id":337674,"adult":false},{"id":37799,"adult":false},{"id":341050,"adult":false},{"id":568,"adult":false},{"id":318993,"adult":false},{"id":133805,"adult":false}],"page":24,"total_pages":123,"total_results":12202}