{"results":[{"id":54265,"adult":false},{"id":54266,"adult":false},{"id":54272,"adult":false},{"id":54273,"adult":false},{"id":54274,"adult":false},{"id":54275,"adult":false},{"id":21410,"adult":false},{"id":54276,"adult":false},{"id":54277,"adult":false},{"id":54278,"adult":false},{"id":54279,"adult":false},{"id":388810,"adult":false},{"id":54280,"adult":false},{"id":54281,"adult":false},{"id":42601,"adult":false},{"id":54283,"adult":false},{"id":24444,"adult":false},{"id":54284,"adult":false},{"id":54306,"adult":false},{"id":54307,"adult":false},{"id":388811,"adult":false},{"id":297983,"adult":false},{"id":388812,"adult":false},{"id":388813,"adult":false},{"id":374609,"adult":false},{"id":388814,"adult":false},{"id":385203,"adult":false},{"id":388815,"adult":false},{"id":388816,"adult":false},{"id":388817,"adult":false},{"id":388818,"adult":false},{"id":388819,"adult":false},{"id":388820,"adult":true},{"id":33408,"adult":false},{"id":388821,"adult":false},{"id":377432,"adult":false},{"id":388822,"adult":true},{"id":388823,"adult":false},{"id":388824,"adult":false},{"id":269525,"adult":false},{"id":388825,"adult":false},{"id":18333,"adult":false},{"id":29455,"adult":false},{"id":97054,"adult":false},{"id":388826,"adult":false},{"id":388827,"adult":false},{"id":1594,"adult":false},{"id":388828,"adult":false},{"id":388829,"adult":false},{"id":28715,"adult":false},{"id":325131,"adult":false},{"id":388830,"adult":false},{"id":42215,"adult":false},{"id":299264,"adult":false},{"id":388831,"adult":false},{"id":386147,"adult":null},{"id":1829,"adult":false},{"id":242926,"adult":false},{"id":388832,"adult":false},{"id":27686,"adult":false},{"id":388833,"adult":false},{"id":388834,"adult":false},{"id":388835,"adult":false},{"id":364895,"adult":false},{"id":388836,"adult":false},{"id":42323,"adult":false},{"id":22434,"adult":false},{"id":355944,"adult":false},{"id":190496,"adult":false},{"id":375199,"adult":false},{"id":388837,"adult":false},{"id":384487,"adult":false},{"id":306966,"adult":false},{"id":388838,"adult":false},{"id":352643,"adult":false},{"id":295,"adult":false},{"id":18287,"adult":false},{"id":353387,"adult":false},{"id":298286,"adult":false},{"id":388839,"adult":false},{"id":37287,"adult":false},{"id":10,"adult":false},{"id":388840,"adult":false},{"id":388841,"adult":false},{"id":2150,"adult":false},{"id":333609,"adult":false},{"id":10569,"adult":false},{"id":368304,"adult":false},{"id":314220,"adult":false},{"id":813,"adult":false},{"id":388842,"adult":false},{"id":109664,"adult":false},{"id":388843,"adult":false},{"id":388844,"adult":false},{"id":388845,"adult":false},{"id":16231,"adult":false},{"id":388846,"adult":false},{"id":368108,"adult":false},{"id":36280,"adult":false},{"id":323372,"adult":false}],"page":61,"total_pages":120,"total_results":11936}