{"results":[{"id":409093,"adult":false},{"id":409096,"adult":false},{"id":394910,"adult":true},{"id":290036,"adult":false},{"id":363889,"adult":false},{"id":409097,"adult":false},{"id":409098,"adult":false},{"id":409099,"adult":false},{"id":393546,"adult":false},{"id":81837,"adult":false},{"id":409100,"adult":false},{"id":115134,"adult":false},{"id":54543,"adult":false},{"id":409101,"adult":false},{"id":81998,"adult":false},{"id":70811,"adult":false},{"id":409102,"adult":false},{"id":409103,"adult":false},{"id":378354,"adult":false},{"id":409104,"adult":true},{"id":382638,"adult":false},{"id":117260,"adult":false},{"id":349369,"adult":false},{"id":349285,"adult":false},{"id":349314,"adult":false},{"id":18726,"adult":false},{"id":135132,"adult":false},{"id":409105,"adult":false},{"id":10210,"adult":false},{"id":384763,"adult":false},{"id":409106,"adult":false},{"id":409107,"adult":false},{"id":408916,"adult":false},{"id":409108,"adult":null},{"id":405932,"adult":false},{"id":409109,"adult":false},{"id":373733,"adult":true},{"id":127380,"adult":false},{"id":409110,"adult":false},{"id":317341,"adult":true},{"id":409111,"adult":false},{"id":409112,"adult":false},{"id":322076,"adult":false},{"id":262500,"adult":false},{"id":286217,"adult":false},{"id":198184,"adult":false},{"id":211672,"adult":false},{"id":409113,"adult":false},{"id":409114,"adult":true},{"id":351339,"adult":false},{"id":409115,"adult":false},{"id":325348,"adult":false},{"id":324668,"adult":false},{"id":9874,"adult":false},{"id":328111,"adult":false},{"id":3031,"adult":false},{"id":382766,"adult":false},{"id":329865,"adult":false},{"id":258509,"adult":false},{"id":382322,"adult":false},{"id":409116,"adult":true},{"id":396497,"adult":false},{"id":409117,"adult":true},{"id":121565,"adult":false},{"id":326215,"adult":false},{"id":381992,"adult":false},{"id":14160,"adult":false},{"id":192577,"adult":false},{"id":21891,"adult":false},{"id":409119,"adult":false},{"id":81032,"adult":false},{"id":158782,"adult":false},{"id":1584,"adult":false},{"id":37924,"adult":false},{"id":30273,"adult":false},{"id":118195,"adult":false},{"id":8080,"adult":false},{"id":348678,"adult":false},{"id":288664,"adult":false},{"id":339964,"adult":false},{"id":266227,"adult":false},{"id":306838,"adult":false},{"id":31465,"adult":false},{"id":241310,"adult":false},{"id":299357,"adult":true},{"id":69496,"adult":false},{"id":11163,"adult":false},{"id":409120,"adult":false},{"id":258489,"adult":false},{"id":296318,"adult":false},{"id":347772,"adult":false},{"id":409121,"adult":null},{"id":409122,"adult":false},{"id":409123,"adult":false},{"id":371236,"adult":false},{"id":405460,"adult":null},{"id":406326,"adult":false},{"id":272837,"adult":false},{"id":396714,"adult":false},{"id":29243,"adult":false}],"page":1,"total_pages":117,"total_results":11641}