{"results":[{"id":11837,"adult":false},{"id":412863,"adult":false},{"id":399579,"adult":false},{"id":354979,"adult":false},{"id":16825,"adult":false},{"id":412864,"adult":false},{"id":398402,"adult":false},{"id":82666,"adult":false},{"id":12567,"adult":false},{"id":412865,"adult":false},{"id":412868,"adult":false},{"id":412869,"adult":false},{"id":412870,"adult":false},{"id":8995,"adult":false},{"id":412871,"adult":null},{"id":371638,"adult":false},{"id":412872,"adult":false},{"id":16933,"adult":false},{"id":396104,"adult":false},{"id":286657,"adult":false},{"id":144161,"adult":false},{"id":142487,"adult":false},{"id":336700,"adult":false},{"id":52629,"adult":false},{"id":351809,"adult":false},{"id":256057,"adult":false},{"id":308233,"adult":false},{"id":22355,"adult":false},{"id":373281,"adult":false},{"id":412873,"adult":false},{"id":354074,"adult":false},{"id":301521,"adult":false},{"id":8342,"adult":false},{"id":412874,"adult":false},{"id":294921,"adult":false},{"id":29182,"adult":false},{"id":293670,"adult":false},{"id":412875,"adult":false},{"id":393857,"adult":false},{"id":319998,"adult":false},{"id":376652,"adult":false},{"id":270720,"adult":false},{"id":412876,"adult":false},{"id":307615,"adult":false},{"id":359207,"adult":false},{"id":372689,"adult":false},{"id":34038,"adult":false},{"id":117993,"adult":false},{"id":10328,"adult":false},{"id":14480,"adult":false},{"id":31704,"adult":false},{"id":82884,"adult":false},{"id":104173,"adult":false},{"id":4889,"adult":false},{"id":28381,"adult":false},{"id":155450,"adult":false},{"id":25713,"adult":false},{"id":42690,"adult":false},{"id":381075,"adult":false},{"id":319060,"adult":false},{"id":32489,"adult":false},{"id":198794,"adult":false},{"id":36642,"adult":false},{"id":4565,"adult":false},{"id":15825,"adult":false},{"id":143925,"adult":false},{"id":28279,"adult":false},{"id":262846,"adult":false},{"id":98085,"adult":false},{"id":280839,"adult":false},{"id":2798,"adult":false},{"id":287803,"adult":false},{"id":371446,"adult":false},{"id":76131,"adult":false},{"id":16305,"adult":false},{"id":412877,"adult":false},{"id":162423,"adult":false},{"id":384682,"adult":false},{"id":18404,"adult":false},{"id":9326,"adult":false},{"id":381018,"adult":false},{"id":340485,"adult":false},{"id":12613,"adult":false},{"id":14024,"adult":false},{"id":55530,"adult":false},{"id":382272,"adult":false},{"id":381935,"adult":false},{"id":412878,"adult":false},{"id":328073,"adult":false},{"id":373397,"adult":false},{"id":353814,"adult":false},{"id":353812,"adult":false},{"id":59468,"adult":false},{"id":412879,"adult":false},{"id":9305,"adult":false},{"id":330900,"adult":false},{"id":408196,"adult":false},{"id":323091,"adult":false},{"id":411155,"adult":null},{"id":336654,"adult":false}],"page":89,"total_pages":103,"total_results":10211}