{"results":[{"id":335051,"adult":false},{"id":16873,"adult":false},{"id":259480,"adult":false},{"id":9326,"adult":false},{"id":451165,"adult":false},{"id":36922,"adult":false},{"id":451166,"adult":false},{"id":33851,"adult":false},{"id":198735,"adult":false},{"id":191381,"adult":false},{"id":276949,"adult":false},{"id":56494,"adult":false},{"id":95400,"adult":false},{"id":60281,"adult":false},{"id":241177,"adult":false},{"id":49707,"adult":false},{"id":60809,"adult":false},{"id":44622,"adult":null},{"id":111641,"adult":false},{"id":451167,"adult":null},{"id":47441,"adult":false},{"id":13172,"adult":false},{"id":399502,"adult":false},{"id":15513,"adult":false},{"id":47644,"adult":false},{"id":391632,"adult":false},{"id":369393,"adult":false},{"id":221791,"adult":false},{"id":290654,"adult":false},{"id":58438,"adult":false},{"id":421619,"adult":false},{"id":87561,"adult":false},{"id":177556,"adult":false},{"id":418604,"adult":false},{"id":419522,"adult":false},{"id":451169,"adult":false},{"id":48853,"adult":false},{"id":85109,"adult":false},{"id":193687,"adult":false},{"id":265010,"adult":false},{"id":337500,"adult":false},{"id":57703,"adult":false},{"id":451170,"adult":false},{"id":36877,"adult":false},{"id":348901,"adult":false},{"id":325408,"adult":false},{"id":36878,"adult":false},{"id":257951,"adult":false},{"id":29981,"adult":false},{"id":277732,"adult":false},{"id":159643,"adult":false},{"id":246400,"adult":false},{"id":406200,"adult":false},{"id":77566,"adult":false},{"id":9399,"adult":false},{"id":326215,"adult":false},{"id":28652,"adult":false},{"id":174224,"adult":false},{"id":451171,"adult":false},{"id":451172,"adult":false},{"id":348315,"adult":false},{"id":298931,"adult":false},{"id":270746,"adult":false},{"id":348390,"adult":false},{"id":8065,"adult":false},{"id":430172,"adult":false},{"id":419109,"adult":false},{"id":48197,"adult":false},{"id":11951,"adult":false},{"id":168863,"adult":false},{"id":2897,"adult":false},{"id":332832,"adult":false},{"id":451173,"adult":false},{"id":17182,"adult":false},{"id":267990,"adult":false},{"id":245698,"adult":false},{"id":19017,"adult":false},{"id":84992,"adult":false},{"id":75204,"adult":false},{"id":172124,"adult":false},{"id":255969,"adult":false},{"id":7874,"adult":false},{"id":4133,"adult":false},{"id":2410,"adult":false},{"id":93840,"adult":false},{"id":918,"adult":false},{"id":445303,"adult":false},{"id":109326,"adult":false},{"id":561,"adult":false},{"id":9557,"adult":false},{"id":451174,"adult":false},{"id":2149,"adult":false},{"id":277718,"adult":false},{"id":29259,"adult":false},{"id":406597,"adult":false},{"id":22615,"adult":false},{"id":18569,"adult":false},{"id":451175,"adult":false},{"id":451176,"adult":false},{"id":428754,"adult":false}],"page":79,"total_pages":105,"total_results":10420}