{"results":[{"id":268,"adult":false},{"id":24626,"adult":false},{"id":435228,"adult":false},{"id":165869,"adult":false},{"id":297544,"adult":false},{"id":11000,"adult":false},{"id":280996,"adult":false},{"id":435229,"adult":false},{"id":11338,"adult":false},{"id":402239,"adult":true},{"id":321769,"adult":false},{"id":9042,"adult":false},{"id":430101,"adult":null},{"id":140638,"adult":false},{"id":65796,"adult":false},{"id":435230,"adult":false},{"id":355989,"adult":false},{"id":20126,"adult":false},{"id":348896,"adult":false},{"id":85625,"adult":false},{"id":281444,"adult":false},{"id":179192,"adult":false},{"id":402648,"adult":false},{"id":294105,"adult":false},{"id":435231,"adult":false},{"id":14474,"adult":false},{"id":409027,"adult":null},{"id":1632,"adult":false},{"id":263448,"adult":false},{"id":435232,"adult":null},{"id":16781,"adult":false},{"id":42525,"adult":false},{"id":435233,"adult":false},{"id":43449,"adult":false},{"id":1376,"adult":false},{"id":1892,"adult":false},{"id":14695,"adult":false},{"id":93057,"adult":false},{"id":14689,"adult":false},{"id":435234,"adult":false},{"id":86812,"adult":false},{"id":4564,"adult":false},{"id":413565,"adult":false},{"id":55715,"adult":false},{"id":435235,"adult":null},{"id":16769,"adult":false},{"id":33225,"adult":false},{"id":76285,"adult":false},{"id":54271,"adult":false},{"id":140443,"adult":false},{"id":192415,"adult":false},{"id":380694,"adult":false},{"id":419774,"adult":false},{"id":259766,"adult":false},{"id":52316,"adult":false},{"id":124655,"adult":false},{"id":299522,"adult":false},{"id":48139,"adult":false},{"id":2457,"adult":false},{"id":11962,"adult":false},{"id":15028,"adult":false},{"id":9881,"adult":false},{"id":128142,"adult":false},{"id":14396,"adult":false},{"id":13559,"adult":false},{"id":143841,"adult":false},{"id":435236,"adult":false},{"id":12499,"adult":false},{"id":317155,"adult":false},{"id":299692,"adult":false},{"id":218406,"adult":false},{"id":75826,"adult":false},{"id":10692,"adult":false},{"id":170759,"adult":false},{"id":75822,"adult":false},{"id":15849,"adult":false},{"id":431287,"adult":true},{"id":117422,"adult":false},{"id":29715,"adult":false},{"id":75834,"adult":false},{"id":297761,"adult":false},{"id":435237,"adult":false},{"id":435238,"adult":false},{"id":102966,"adult":false},{"id":70811,"adult":false},{"id":435239,"adult":false},{"id":11906,"adult":false},{"id":180680,"adult":false},{"id":408699,"adult":false},{"id":125356,"adult":false},{"id":27629,"adult":false},{"id":11645,"adult":false},{"id":134593,"adult":false},{"id":90966,"adult":false},{"id":434742,"adult":false},{"id":180576,"adult":false},{"id":435241,"adult":false},{"id":306272,"adult":true},{"id":113823,"adult":false},{"id":179058,"adult":false}],"page":14,"total_pages":144,"total_results":14325}