{"results":[{"id":434295,"adult":false},{"id":304826,"adult":true},{"id":3543,"adult":false},{"id":435242,"adult":false},{"id":306271,"adult":true},{"id":306270,"adult":true},{"id":435243,"adult":false},{"id":306013,"adult":true},{"id":139328,"adult":false},{"id":61933,"adult":false},{"id":435245,"adult":false},{"id":435246,"adult":false},{"id":435247,"adult":false},{"id":417502,"adult":false},{"id":432812,"adult":null},{"id":417504,"adult":false},{"id":294963,"adult":false},{"id":9626,"adult":false},{"id":429165,"adult":false},{"id":80185,"adult":false},{"id":344555,"adult":false},{"id":28614,"adult":false},{"id":248821,"adult":false},{"id":435248,"adult":false},{"id":422405,"adult":false},{"id":435249,"adult":false},{"id":161702,"adult":true},{"id":301069,"adult":false},{"id":228276,"adult":false},{"id":12403,"adult":false},{"id":127632,"adult":false},{"id":435250,"adult":false},{"id":20325,"adult":false},{"id":295130,"adult":false},{"id":1562,"adult":false},{"id":435251,"adult":false},{"id":340678,"adult":false},{"id":265582,"adult":false},{"id":435252,"adult":false},{"id":352885,"adult":false},{"id":31805,"adult":false},{"id":309315,"adult":false},{"id":435253,"adult":false},{"id":390959,"adult":false},{"id":155098,"adult":false},{"id":435254,"adult":false},{"id":11005,"adult":false},{"id":352334,"adult":false},{"id":435255,"adult":false},{"id":434163,"adult":false},{"id":1164,"adult":false},{"id":11914,"adult":false},{"id":136423,"adult":false},{"id":492,"adult":false},{"id":81576,"adult":false},{"id":1593,"adult":false},{"id":621,"adult":false},{"id":29979,"adult":false},{"id":79042,"adult":false},{"id":261023,"adult":false},{"id":10545,"adult":false},{"id":435256,"adult":false},{"id":127380,"adult":false},{"id":435257,"adult":false},{"id":30519,"adult":false},{"id":9594,"adult":false},{"id":431476,"adult":null},{"id":3347,"adult":false},{"id":146511,"adult":false},{"id":286192,"adult":false},{"id":299091,"adult":true},{"id":9539,"adult":false},{"id":48319,"adult":false},{"id":6609,"adult":false},{"id":435258,"adult":true},{"id":2266,"adult":false},{"id":4269,"adult":false},{"id":10413,"adult":false},{"id":435259,"adult":false},{"id":748,"adult":false},{"id":11035,"adult":false},{"id":435260,"adult":null},{"id":369328,"adult":false},{"id":435261,"adult":false},{"id":18917,"adult":false},{"id":2071,"adult":false},{"id":420276,"adult":false},{"id":55779,"adult":false},{"id":2019,"adult":false},{"id":49734,"adult":false},{"id":249660,"adult":false},{"id":68983,"adult":false},{"id":241393,"adult":false},{"id":404363,"adult":false},{"id":116391,"adult":false},{"id":19912,"adult":false},{"id":1549,"adult":false},{"id":435262,"adult":false},{"id":351331,"adult":true},{"id":435263,"adult":false}],"page":15,"total_pages":144,"total_results":14325}