{"results":[{"id":445522,"adult":false},{"id":224169,"adult":false},{"id":445523,"adult":false},{"id":11167,"adult":false},{"id":5486,"adult":false},{"id":407036,"adult":false},{"id":28055,"adult":false},{"id":27501,"adult":false},{"id":121713,"adult":false},{"id":91181,"adult":false},{"id":426962,"adult":false},{"id":363871,"adult":false},{"id":442662,"adult":false},{"id":27452,"adult":false},{"id":53124,"adult":false},{"id":445525,"adult":false},{"id":445526,"adult":false},{"id":100657,"adult":false},{"id":304801,"adult":false},{"id":398082,"adult":false},{"id":29394,"adult":false},{"id":70741,"adult":false},{"id":48015,"adult":false},{"id":445527,"adult":false},{"id":132346,"adult":false},{"id":28503,"adult":false},{"id":64160,"adult":false},{"id":39861,"adult":false},{"id":29396,"adult":false},{"id":426604,"adult":false},{"id":42689,"adult":false},{"id":347028,"adult":false},{"id":81828,"adult":false},{"id":83322,"adult":false},{"id":188832,"adult":false},{"id":37342,"adult":false},{"id":436995,"adult":false},{"id":436999,"adult":false},{"id":437005,"adult":false},{"id":437008,"adult":false},{"id":437009,"adult":false},{"id":377474,"adult":false},{"id":442668,"adult":false},{"id":200549,"adult":false},{"id":445528,"adult":false},{"id":445529,"adult":false},{"id":64624,"adult":false},{"id":277066,"adult":false},{"id":28438,"adult":false},{"id":93064,"adult":false},{"id":440857,"adult":false},{"id":16019,"adult":false},{"id":19819,"adult":false},{"id":4886,"adult":false},{"id":18573,"adult":false},{"id":45570,"adult":false},{"id":85496,"adult":false},{"id":426936,"adult":false},{"id":36600,"adult":false},{"id":106682,"adult":false},{"id":30934,"adult":false},{"id":79181,"adult":false},{"id":86271,"adult":false},{"id":44251,"adult":false},{"id":162850,"adult":false},{"id":445530,"adult":false},{"id":280019,"adult":false},{"id":425636,"adult":false},{"id":31624,"adult":false},{"id":137426,"adult":false},{"id":17903,"adult":false},{"id":119363,"adult":false},{"id":445531,"adult":false},{"id":109994,"adult":false},{"id":81437,"adult":false},{"id":116227,"adult":false},{"id":29336,"adult":false},{"id":38129,"adult":false},{"id":216189,"adult":false},{"id":110415,"adult":false},{"id":38446,"adult":false},{"id":106679,"adult":false},{"id":33018,"adult":false},{"id":20126,"adult":false},{"id":445532,"adult":false},{"id":267316,"adult":false},{"id":445533,"adult":false},{"id":226106,"adult":false},{"id":445534,"adult":false},{"id":328332,"adult":false},{"id":13552,"adult":false},{"id":48197,"adult":false},{"id":72242,"adult":false},{"id":323465,"adult":false},{"id":85115,"adult":false},{"id":443531,"adult":false},{"id":198287,"adult":false},{"id":88558,"adult":false},{"id":445535,"adult":false},{"id":295943,"adult":false}],"page":84,"total_pages":162,"total_results":16167}