{"results":[{"id":393476,"adult":false},{"id":443424,"adult":false},{"id":443425,"adult":false},{"id":443426,"adult":false},{"id":791,"adult":false},{"id":10048,"adult":false},{"id":443427,"adult":false},{"id":214009,"adult":false},{"id":443428,"adult":false},{"id":326241,"adult":false},{"id":69716,"adult":false},{"id":410951,"adult":false},{"id":340576,"adult":false},{"id":443429,"adult":false},{"id":443430,"adult":true},{"id":443431,"adult":false},{"id":443432,"adult":false},{"id":432703,"adult":false},{"id":443433,"adult":false},{"id":443434,"adult":false},{"id":443435,"adult":true},{"id":443436,"adult":true},{"id":43112,"adult":false},{"id":443437,"adult":false},{"id":443438,"adult":false},{"id":443439,"adult":false},{"id":443440,"adult":true},{"id":443441,"adult":false},{"id":443442,"adult":false},{"id":443443,"adult":false},{"id":5506,"adult":false},{"id":443444,"adult":false},{"id":443445,"adult":false},{"id":443446,"adult":true},{"id":443447,"adult":false},{"id":443448,"adult":false},{"id":443449,"adult":false},{"id":443450,"adult":false},{"id":443451,"adult":true},{"id":375734,"adult":false},{"id":58084,"adult":false},{"id":313430,"adult":false},{"id":443452,"adult":false},{"id":367147,"adult":false},{"id":443453,"adult":false},{"id":51550,"adult":false},{"id":9350,"adult":false},{"id":432515,"adult":false},{"id":402151,"adult":false},{"id":443454,"adult":false},{"id":224633,"adult":false},{"id":378,"adult":false},{"id":443455,"adult":null},{"id":36658,"adult":false},{"id":334684,"adult":false},{"id":443456,"adult":false},{"id":443457,"adult":null},{"id":185377,"adult":false},{"id":443458,"adult":false},{"id":5052,"adult":false},{"id":443459,"adult":null},{"id":48287,"adult":false},{"id":377148,"adult":false},{"id":198803,"adult":false},{"id":443460,"adult":null},{"id":356895,"adult":false},{"id":443461,"adult":false},{"id":15227,"adult":false},{"id":648,"adult":false},{"id":170924,"adult":false},{"id":379117,"adult":false},{"id":400204,"adult":false},{"id":331662,"adult":false},{"id":443462,"adult":null},{"id":443463,"adult":false},{"id":433515,"adult":false},{"id":434790,"adult":false},{"id":169869,"adult":false},{"id":13519,"adult":false},{"id":443464,"adult":null},{"id":254324,"adult":false},{"id":186210,"adult":false},{"id":416149,"adult":false},{"id":443465,"adult":null},{"id":443466,"adult":null},{"id":433600,"adult":false},{"id":120811,"adult":false},{"id":264164,"adult":false},{"id":293121,"adult":false},{"id":403390,"adult":false},{"id":355081,"adult":false},{"id":431804,"adult":false},{"id":431643,"adult":false},{"id":443467,"adult":null},{"id":409564,"adult":false},{"id":432308,"adult":null},{"id":362064,"adult":false},{"id":443468,"adult":null},{"id":325385,"adult":false},{"id":407451,"adult":false}],"page":107,"total_pages":149,"total_results":14854}