{"results":[{"id":416849,"adult":false},{"id":445284,"adult":true},{"id":445285,"adult":false},{"id":19130,"adult":false},{"id":445286,"adult":true},{"id":162811,"adult":false},{"id":277523,"adult":false},{"id":27642,"adult":false},{"id":64342,"adult":false},{"id":445287,"adult":null},{"id":31119,"adult":false},{"id":445288,"adult":null},{"id":97895,"adult":false},{"id":445289,"adult":false},{"id":445290,"adult":false},{"id":95084,"adult":false},{"id":420276,"adult":false},{"id":57785,"adult":false},{"id":38269,"adult":false},{"id":375588,"adult":false},{"id":29412,"adult":false},{"id":838,"adult":false},{"id":941,"adult":false},{"id":239214,"adult":false},{"id":29062,"adult":false},{"id":9989,"adult":false},{"id":367649,"adult":false},{"id":445291,"adult":false},{"id":412432,"adult":false},{"id":283823,"adult":false},{"id":445292,"adult":false},{"id":114893,"adult":false},{"id":123570,"adult":false},{"id":295935,"adult":null},{"id":279789,"adult":false},{"id":445293,"adult":false},{"id":445294,"adult":false},{"id":136469,"adult":false},{"id":344041,"adult":false},{"id":445295,"adult":false},{"id":445296,"adult":false},{"id":445297,"adult":null},{"id":445298,"adult":false},{"id":30359,"adult":false},{"id":455,"adult":false},{"id":116328,"adult":false},{"id":139899,"adult":false},{"id":151961,"adult":false},{"id":367999,"adult":false},{"id":15432,"adult":false},{"id":256375,"adult":false},{"id":246202,"adult":false},{"id":344475,"adult":false},{"id":27876,"adult":false},{"id":41630,"adult":false},{"id":445299,"adult":false},{"id":239329,"adult":false},{"id":61581,"adult":false},{"id":445300,"adult":false},{"id":366257,"adult":false},{"id":69579,"adult":false},{"id":74594,"adult":false},{"id":445301,"adult":false},{"id":77012,"adult":false},{"id":352411,"adult":false},{"id":289506,"adult":false},{"id":442123,"adult":false},{"id":43436,"adult":false},{"id":399648,"adult":false},{"id":284143,"adult":false},{"id":316055,"adult":false},{"id":145000,"adult":false},{"id":346302,"adult":false},{"id":272596,"adult":false},{"id":209271,"adult":false},{"id":9674,"adult":false},{"id":32294,"adult":false},{"id":161543,"adult":false},{"id":43442,"adult":false},{"id":9706,"adult":false},{"id":151211,"adult":false},{"id":592,"adult":false},{"id":106825,"adult":false},{"id":14563,"adult":false},{"id":445302,"adult":false},{"id":13321,"adult":false},{"id":211193,"adult":false},{"id":419224,"adult":false},{"id":345437,"adult":false},{"id":257119,"adult":false},{"id":257164,"adult":false},{"id":109898,"adult":false},{"id":109239,"adult":false},{"id":171019,"adult":false},{"id":445303,"adult":false},{"id":69784,"adult":false},{"id":173797,"adult":false},{"id":74512,"adult":false},{"id":53833,"adult":false},{"id":241497,"adult":false}],"page":71,"total_pages":162,"total_results":16167}