{"results":[{"id":214483,"adult":false},{"id":6961,"adult":false},{"id":220787,"adult":false},{"id":101688,"adult":false},{"id":86347,"adult":false},{"id":338964,"adult":false},{"id":35225,"adult":false},{"id":441831,"adult":false},{"id":50289,"adult":false},{"id":17203,"adult":false},{"id":308471,"adult":false},{"id":352695,"adult":false},{"id":192712,"adult":false},{"id":55061,"adult":false},{"id":108275,"adult":false},{"id":437698,"adult":false},{"id":34479,"adult":false},{"id":376660,"adult":false},{"id":394185,"adult":false},{"id":242059,"adult":false},{"id":209780,"adult":false},{"id":377275,"adult":false},{"id":225831,"adult":false},{"id":76276,"adult":false},{"id":252276,"adult":false},{"id":441833,"adult":false},{"id":286012,"adult":false},{"id":441834,"adult":false},{"id":351079,"adult":false},{"id":422991,"adult":false},{"id":21764,"adult":false},{"id":79101,"adult":false},{"id":435125,"adult":false},{"id":18817,"adult":false},{"id":123111,"adult":false},{"id":25384,"adult":false},{"id":358287,"adult":false},{"id":187862,"adult":false},{"id":47933,"adult":false},{"id":43316,"adult":false},{"id":300467,"adult":false},{"id":137936,"adult":false},{"id":106679,"adult":false},{"id":100224,"adult":false},{"id":295588,"adult":false},{"id":441835,"adult":false},{"id":286737,"adult":false},{"id":286744,"adult":false},{"id":441836,"adult":false},{"id":441837,"adult":false},{"id":113255,"adult":false},{"id":17514,"adult":false},{"id":163387,"adult":false},{"id":441838,"adult":false},{"id":82096,"adult":false},{"id":264961,"adult":false},{"id":441839,"adult":false},{"id":372821,"adult":false},{"id":202530,"adult":false},{"id":25460,"adult":false},{"id":90291,"adult":false},{"id":1627,"adult":false},{"id":382163,"adult":false},{"id":221730,"adult":false},{"id":227973,"adult":false},{"id":441840,"adult":false},{"id":112903,"adult":false},{"id":14843,"adult":false},{"id":258489,"adult":false},{"id":16873,"adult":false},{"id":50544,"adult":false},{"id":365568,"adult":false},{"id":52307,"adult":false},{"id":356389,"adult":false},{"id":6582,"adult":false},{"id":394684,"adult":false},{"id":46595,"adult":false},{"id":348678,"adult":false},{"id":346650,"adult":false},{"id":441841,"adult":true},{"id":428642,"adult":false},{"id":381759,"adult":false},{"id":441842,"adult":false},{"id":305175,"adult":false},{"id":375534,"adult":false},{"id":183079,"adult":false},{"id":13196,"adult":false},{"id":279597,"adult":false},{"id":7345,"adult":false},{"id":15250,"adult":false},{"id":14139,"adult":false},{"id":95008,"adult":false},{"id":316864,"adult":false},{"id":6514,"adult":false},{"id":14636,"adult":false},{"id":5176,"adult":false},{"id":7972,"adult":false},{"id":408874,"adult":false},{"id":13910,"adult":false},{"id":2252,"adult":false}],"page":5,"total_pages":149,"total_results":14854}