{"results":[{"id":434050,"adult":false},{"id":421257,"adult":false},{"id":208303,"adult":false},{"id":54003,"adult":false},{"id":214263,"adult":false},{"id":158219,"adult":false},{"id":90086,"adult":false},{"id":89097,"adult":false},{"id":76171,"adult":false},{"id":110670,"adult":false},{"id":38401,"adult":false},{"id":264763,"adult":false},{"id":437584,"adult":false},{"id":24254,"adult":false},{"id":10114,"adult":false},{"id":437585,"adult":false},{"id":48484,"adult":false},{"id":424643,"adult":false},{"id":95015,"adult":false},{"id":336884,"adult":false},{"id":437586,"adult":false},{"id":54481,"adult":false},{"id":144540,"adult":false},{"id":351964,"adult":false},{"id":412363,"adult":false},{"id":174318,"adult":false},{"id":16455,"adult":false},{"id":163406,"adult":false},{"id":109018,"adult":false},{"id":383559,"adult":false},{"id":245567,"adult":false},{"id":186252,"adult":false},{"id":6312,"adult":false},{"id":1378,"adult":false},{"id":279013,"adult":false},{"id":25373,"adult":false},{"id":39309,"adult":false},{"id":55106,"adult":false},{"id":31355,"adult":false},{"id":407620,"adult":false},{"id":77865,"adult":false},{"id":407627,"adult":false},{"id":26962,"adult":false},{"id":4311,"adult":false},{"id":392536,"adult":false},{"id":355309,"adult":false},{"id":362430,"adult":false},{"id":31703,"adult":false},{"id":72892,"adult":false},{"id":264080,"adult":false},{"id":149374,"adult":false},{"id":208180,"adult":false},{"id":168712,"adult":false},{"id":76036,"adult":false},{"id":323383,"adult":false},{"id":265393,"adult":false},{"id":54637,"adult":false},{"id":437587,"adult":false},{"id":437588,"adult":null},{"id":72956,"adult":false},{"id":145436,"adult":false},{"id":67645,"adult":false},{"id":27175,"adult":false},{"id":260790,"adult":false},{"id":21581,"adult":false},{"id":63100,"adult":false},{"id":21873,"adult":false},{"id":227348,"adult":false},{"id":83041,"adult":false},{"id":36986,"adult":false},{"id":60801,"adult":false},{"id":437589,"adult":false},{"id":258814,"adult":false},{"id":437590,"adult":false},{"id":437591,"adult":false},{"id":322682,"adult":false},{"id":9103,"adult":false},{"id":267066,"adult":false},{"id":437592,"adult":false},{"id":1382,"adult":false},{"id":207270,"adult":false},{"id":310569,"adult":false},{"id":266836,"adult":false},{"id":15395,"adult":false},{"id":437593,"adult":false},{"id":266838,"adult":false},{"id":20935,"adult":false},{"id":266368,"adult":false},{"id":266369,"adult":false},{"id":266713,"adult":false},{"id":266831,"adult":false},{"id":177240,"adult":false},{"id":364691,"adult":false},{"id":142946,"adult":false},{"id":437594,"adult":false},{"id":266367,"adult":false},{"id":368497,"adult":false},{"id":437595,"adult":false},{"id":46265,"adult":true},{"id":9551,"adult":false}],"page":141,"total_pages":144,"total_results":14325}