{"results":[{"id":66896,"adult":false},{"id":131634,"adult":false},{"id":444139,"adult":false},{"id":78045,"adult":false},{"id":448030,"adult":false},{"id":73770,"adult":false},{"id":446820,"adult":false},{"id":80109,"adult":false},{"id":436511,"adult":false},{"id":306041,"adult":false},{"id":346357,"adult":false},{"id":448031,"adult":false},{"id":91979,"adult":false},{"id":2149,"adult":false},{"id":87,"adult":false},{"id":62796,"adult":false},{"id":448033,"adult":false},{"id":14787,"adult":false},{"id":52067,"adult":false},{"id":448034,"adult":false},{"id":75861,"adult":false},{"id":116412,"adult":false},{"id":248504,"adult":false},{"id":448035,"adult":false},{"id":266108,"adult":false},{"id":294325,"adult":null},{"id":197317,"adult":false},{"id":295045,"adult":false},{"id":9440,"adult":false},{"id":9585,"adult":false},{"id":32845,"adult":false},{"id":448036,"adult":false},{"id":180679,"adult":false},{"id":10210,"adult":false},{"id":427597,"adult":false},{"id":5801,"adult":false},{"id":448037,"adult":false},{"id":229331,"adult":false},{"id":9311,"adult":false},{"id":5894,"adult":false},{"id":246426,"adult":false},{"id":448038,"adult":false},{"id":416548,"adult":false},{"id":448039,"adult":false},{"id":416184,"adult":false},{"id":448040,"adult":false},{"id":448041,"adult":false},{"id":448042,"adult":false},{"id":448043,"adult":false},{"id":448044,"adult":false},{"id":71672,"adult":false},{"id":353232,"adult":false},{"id":448045,"adult":false},{"id":3563,"adult":false},{"id":79733,"adult":false},{"id":448046,"adult":false},{"id":49538,"adult":false},{"id":150065,"adult":false},{"id":422649,"adult":false},{"id":448047,"adult":false},{"id":13459,"adult":false},{"id":448048,"adult":false},{"id":448049,"adult":false},{"id":60803,"adult":false},{"id":339964,"adult":false},{"id":253042,"adult":false},{"id":275291,"adult":false},{"id":9540,"adult":false},{"id":315568,"adult":false},{"id":37530,"adult":false},{"id":38317,"adult":false},{"id":176124,"adult":false},{"id":433950,"adult":false},{"id":9757,"adult":false},{"id":448050,"adult":false},{"id":39704,"adult":false},{"id":54898,"adult":false},{"id":19152,"adult":false},{"id":397211,"adult":false},{"id":130736,"adult":false},{"id":365537,"adult":false},{"id":52316,"adult":false},{"id":267292,"adult":false},{"id":248661,"adult":false},{"id":295490,"adult":false},{"id":110830,"adult":false},{"id":448051,"adult":false},{"id":448052,"adult":false},{"id":92647,"adult":false},{"id":64688,"adult":false},{"id":352208,"adult":false},{"id":408422,"adult":false},{"id":139159,"adult":false},{"id":444446,"adult":false},{"id":23752,"adult":false},{"id":214086,"adult":false},{"id":72331,"adult":false},{"id":448053,"adult":false},{"id":247269,"adult":false},{"id":123103,"adult":false}],"page":90,"total_pages":168,"total_results":16730}