{"results":[{"id":234378,"adult":false},{"id":75975,"adult":false},{"id":74098,"adult":false},{"id":219577,"adult":false},{"id":40024,"adult":false},{"id":223027,"adult":false},{"id":40260,"adult":false},{"id":234397,"adult":false},{"id":77566,"adult":false},{"id":223034,"adult":false},{"id":73627,"adult":false},{"id":223021,"adult":false},{"id":40209,"adult":false},{"id":40144,"adult":false},{"id":54179,"adult":false},{"id":234663,"adult":false},{"id":99089,"adult":false},{"id":40164,"adult":false},{"id":223031,"adult":false},{"id":219579,"adult":false},{"id":40533,"adult":false},{"id":72675,"adult":false},{"id":77609,"adult":false},{"id":76009,"adult":false},{"id":74002,"adult":false},{"id":79256,"adult":false},{"id":147716,"adult":false},{"id":228942,"adult":false},{"id":339929,"adult":false},{"id":40470,"adult":false},{"id":223037,"adult":false},{"id":40033,"adult":false},{"id":223032,"adult":false},{"id":234327,"adult":false},{"id":55533,"adult":false},{"id":73676,"adult":false},{"id":39896,"adult":false},{"id":40216,"adult":false},{"id":69096,"adult":false},{"id":40472,"adult":false},{"id":40349,"adult":false},{"id":76008,"adult":false},{"id":72669,"adult":false},{"id":234323,"adult":false},{"id":57233,"adult":false},{"id":363195,"adult":false},{"id":234325,"adult":false},{"id":93653,"adult":false},{"id":223023,"adult":false},{"id":223020,"adult":false},{"id":97917,"adult":false},{"id":236804,"adult":false},{"id":40370,"adult":false},{"id":68625,"adult":false},{"id":283564,"adult":false},{"id":234391,"adult":false},{"id":443380,"adult":false},{"id":53002,"adult":false},{"id":77554,"adult":false},{"id":148687,"adult":false},{"id":76015,"adult":false},{"id":93628,"adult":false},{"id":358328,"adult":false},{"id":40235,"adult":false},{"id":46844,"adult":false},{"id":234396,"adult":false},{"id":77053,"adult":false},{"id":93007,"adult":false},{"id":358725,"adult":false},{"id":43274,"adult":false},{"id":443381,"adult":false},{"id":179280,"adult":false},{"id":39920,"adult":false},{"id":223030,"adult":false},{"id":93014,"adult":false},{"id":223019,"adult":false},{"id":74176,"adult":false},{"id":40046,"adult":false},{"id":234321,"adult":false},{"id":40073,"adult":false},{"id":40212,"adult":false},{"id":234328,"adult":false},{"id":223022,"adult":false},{"id":234375,"adult":false},{"id":94419,"adult":false},{"id":93266,"adult":false},{"id":373251,"adult":false},{"id":92010,"adult":false},{"id":92002,"adult":false},{"id":74530,"adult":false},{"id":224059,"adult":false},{"id":219581,"adult":false},{"id":40232,"adult":false},{"id":70539,"adult":false},{"id":270833,"adult":false},{"id":220353,"adult":false},{"id":73689,"adult":false},{"id":46862,"adult":false},{"id":52973,"adult":false},{"id":68497,"adult":false}],"page":103,"total_pages":149,"total_results":14854}