{"results":[{"id":364002,"adult":false},{"id":84299,"adult":false},{"id":301815,"adult":false},{"id":69865,"adult":false},{"id":99906,"adult":false},{"id":118905,"adult":false},{"id":305692,"adult":false},{"id":188801,"adult":false},{"id":124695,"adult":false},{"id":101504,"adult":false},{"id":25884,"adult":false},{"id":433920,"adult":null},{"id":43902,"adult":false},{"id":8,"adult":false},{"id":433921,"adult":false},{"id":433922,"adult":false},{"id":82143,"adult":false},{"id":829,"adult":false},{"id":183825,"adult":false},{"id":188805,"adult":false},{"id":15867,"adult":false},{"id":354258,"adult":false},{"id":391700,"adult":false},{"id":221239,"adult":false},{"id":57018,"adult":false},{"id":433923,"adult":false},{"id":100259,"adult":false},{"id":84591,"adult":false},{"id":41401,"adult":false},{"id":2164,"adult":false},{"id":64839,"adult":false},{"id":44732,"adult":false},{"id":45610,"adult":false},{"id":9896,"adult":false},{"id":433924,"adult":false},{"id":426022,"adult":true},{"id":243688,"adult":false},{"id":109453,"adult":false},{"id":20019,"adult":false},{"id":8197,"adult":false},{"id":132236,"adult":false},{"id":2637,"adult":false},{"id":433925,"adult":null},{"id":68274,"adult":false},{"id":13336,"adult":false},{"id":433926,"adult":false},{"id":377383,"adult":false},{"id":115580,"adult":false},{"id":49849,"adult":false},{"id":10775,"adult":false},{"id":336935,"adult":false},{"id":137968,"adult":false},{"id":4481,"adult":false},{"id":23437,"adult":false},{"id":13183,"adult":false},{"id":11829,"adult":false},{"id":433927,"adult":false},{"id":294088,"adult":false},{"id":53923,"adult":false},{"id":48728,"adult":false},{"id":39514,"adult":false},{"id":13257,"adult":false},{"id":19,"adult":false},{"id":146216,"adult":false},{"id":433930,"adult":false},{"id":433931,"adult":false},{"id":11647,"adult":false},{"id":287904,"adult":false},{"id":154922,"adult":false},{"id":22976,"adult":false},{"id":52939,"adult":false},{"id":268121,"adult":false},{"id":160251,"adult":false},{"id":343700,"adult":false},{"id":236518,"adult":false},{"id":2616,"adult":false},{"id":9336,"adult":false},{"id":16284,"adult":false},{"id":12236,"adult":false},{"id":366981,"adult":false},{"id":174263,"adult":false},{"id":53016,"adult":false},{"id":43028,"adult":false},{"id":433932,"adult":false},{"id":285205,"adult":false},{"id":35110,"adult":false},{"id":433933,"adult":false},{"id":8367,"adult":false},{"id":81615,"adult":false},{"id":433934,"adult":false},{"id":47439,"adult":false},{"id":314946,"adult":false},{"id":13060,"adult":false},{"id":427777,"adult":false},{"id":1430,"adult":false},{"id":11472,"adult":false},{"id":207449,"adult":false},{"id":8195,"adult":false},{"id":14536,"adult":false},{"id":23385,"adult":false}],"page":87,"total_pages":133,"total_results":13251}