{"results":[{"id":247090,"adult":false},{"id":12087,"adult":false},{"id":237445,"adult":false},{"id":376386,"adult":false},{"id":193840,"adult":false},{"id":109129,"adult":false},{"id":152986,"adult":false},{"id":435856,"adult":false},{"id":29765,"adult":false},{"id":293497,"adult":true},{"id":435857,"adult":false},{"id":146953,"adult":false},{"id":3480,"adult":false},{"id":33644,"adult":false},{"id":1667,"adult":false},{"id":391860,"adult":false},{"id":115838,"adult":false},{"id":10484,"adult":false},{"id":435858,"adult":false},{"id":434920,"adult":false},{"id":3086,"adult":false},{"id":36055,"adult":false},{"id":386160,"adult":true},{"id":336970,"adult":false},{"id":386162,"adult":false},{"id":435859,"adult":false},{"id":430403,"adult":false},{"id":82969,"adult":false},{"id":230532,"adult":false},{"id":435860,"adult":false},{"id":435861,"adult":false},{"id":359552,"adult":false},{"id":83230,"adult":false},{"id":433703,"adult":false},{"id":435862,"adult":false},{"id":296711,"adult":false},{"id":637,"adult":false},{"id":435863,"adult":false},{"id":192984,"adult":true},{"id":9893,"adult":false},{"id":366901,"adult":false},{"id":435865,"adult":true},{"id":333360,"adult":false},{"id":391804,"adult":false},{"id":435866,"adult":false},{"id":435867,"adult":false},{"id":14624,"adult":false},{"id":12089,"adult":false},{"id":168557,"adult":true},{"id":435868,"adult":false},{"id":10212,"adult":false},{"id":435869,"adult":false},{"id":11011,"adult":false},{"id":435870,"adult":false},{"id":435871,"adult":false},{"id":11687,"adult":false},{"id":56715,"adult":false},{"id":9564,"adult":false},{"id":99770,"adult":false},{"id":435872,"adult":false},{"id":2395,"adult":false},{"id":435873,"adult":true},{"id":435874,"adult":false},{"id":37137,"adult":false},{"id":36593,"adult":false},{"id":46124,"adult":false},{"id":9354,"adult":false},{"id":1699,"adult":false},{"id":1996,"adult":false},{"id":18558,"adult":false},{"id":426830,"adult":false},{"id":11452,"adult":false},{"id":305065,"adult":false},{"id":8974,"adult":false},{"id":74,"adult":false},{"id":56418,"adult":false},{"id":37573,"adult":false},{"id":386008,"adult":false},{"id":6037,"adult":false},{"id":52256,"adult":false},{"id":92182,"adult":false},{"id":210105,"adult":false},{"id":79078,"adult":false},{"id":295693,"adult":false},{"id":19725,"adult":false},{"id":48457,"adult":false},{"id":32033,"adult":false},{"id":27741,"adult":false},{"id":121676,"adult":false},{"id":124,"adult":false},{"id":173969,"adult":false},{"id":137971,"adult":false},{"id":302688,"adult":false},{"id":8346,"adult":false},{"id":435876,"adult":false},{"id":425086,"adult":false},{"id":392681,"adult":false},{"id":10704,"adult":false},{"id":411398,"adult":false},{"id":248705,"adult":false}],"page":53,"total_pages":144,"total_results":14325}