{"results":[{"id":433950,"adult":false},{"id":390319,"adult":false},{"id":442532,"adult":false},{"id":46816,"adult":false},{"id":445554,"adult":false},{"id":338546,"adult":false},{"id":445555,"adult":null},{"id":445556,"adult":false},{"id":438524,"adult":false},{"id":368662,"adult":false},{"id":374729,"adult":false},{"id":445557,"adult":false},{"id":408517,"adult":false},{"id":445558,"adult":false},{"id":140088,"adult":false},{"id":421682,"adult":false},{"id":445559,"adult":false},{"id":416252,"adult":false},{"id":445560,"adult":false},{"id":198214,"adult":false},{"id":445561,"adult":null},{"id":46822,"adult":false},{"id":47579,"adult":false},{"id":445562,"adult":false},{"id":212228,"adult":false},{"id":358361,"adult":false},{"id":285525,"adult":false},{"id":347866,"adult":false},{"id":70744,"adult":false},{"id":438439,"adult":null},{"id":443485,"adult":null},{"id":438159,"adult":null},{"id":437919,"adult":null},{"id":443142,"adult":null},{"id":364484,"adult":false},{"id":438288,"adult":null},{"id":442839,"adult":null},{"id":445563,"adult":null},{"id":438289,"adult":null},{"id":497,"adult":false},{"id":371062,"adult":false},{"id":440197,"adult":null},{"id":405909,"adult":false},{"id":38810,"adult":false},{"id":10733,"adult":false},{"id":445564,"adult":false},{"id":445565,"adult":false},{"id":376134,"adult":false},{"id":206800,"adult":false},{"id":445566,"adult":false},{"id":393319,"adult":false},{"id":445567,"adult":false},{"id":72875,"adult":false},{"id":445568,"adult":false},{"id":20352,"adult":false},{"id":332114,"adult":false},{"id":350562,"adult":false},{"id":38031,"adult":false},{"id":136088,"adult":false},{"id":441669,"adult":false},{"id":139262,"adult":false},{"id":61263,"adult":false},{"id":41201,"adult":false},{"id":100805,"adult":false},{"id":297797,"adult":false},{"id":55165,"adult":false},{"id":83533,"adult":false},{"id":38961,"adult":false},{"id":338953,"adult":false},{"id":297946,"adult":false},{"id":421892,"adult":false},{"id":44716,"adult":false},{"id":445569,"adult":null},{"id":72447,"adult":false},{"id":61930,"adult":false},{"id":52629,"adult":false},{"id":58156,"adult":false},{"id":445571,"adult":false},{"id":370567,"adult":false},{"id":445572,"adult":false},{"id":381719,"adult":false},{"id":445573,"adult":null},{"id":433694,"adult":false},{"id":43923,"adult":false},{"id":387808,"adult":false},{"id":445574,"adult":false},{"id":64959,"adult":false},{"id":445575,"adult":null},{"id":430403,"adult":false},{"id":42540,"adult":false},{"id":10772,"adult":false},{"id":445577,"adult":false},{"id":438441,"adult":false},{"id":278990,"adult":false},{"id":46443,"adult":false},{"id":415406,"adult":false},{"id":445578,"adult":false},{"id":438500,"adult":false},{"id":294132,"adult":false},{"id":231601,"adult":false}],"page":86,"total_pages":162,"total_results":16167}