{"results":[{"id":266396,"adult":false},{"id":440988,"adult":null},{"id":344260,"adult":false},{"id":53898,"adult":false},{"id":324300,"adult":false},{"id":15717,"adult":false},{"id":440989,"adult":false},{"id":69340,"adult":false},{"id":440990,"adult":false},{"id":416094,"adult":false},{"id":318277,"adult":false},{"id":255699,"adult":false},{"id":440991,"adult":false},{"id":54291,"adult":false},{"id":25992,"adult":false},{"id":73814,"adult":false},{"id":206277,"adult":false},{"id":291,"adult":false},{"id":418848,"adult":false},{"id":22136,"adult":false},{"id":430826,"adult":false},{"id":97975,"adult":false},{"id":176080,"adult":false},{"id":440992,"adult":false},{"id":419738,"adult":false},{"id":440993,"adult":false},{"id":58294,"adult":false},{"id":22595,"adult":false},{"id":25407,"adult":false},{"id":172520,"adult":false},{"id":11091,"adult":false},{"id":288335,"adult":false},{"id":440994,"adult":false},{"id":364194,"adult":false},{"id":440995,"adult":false},{"id":436664,"adult":false},{"id":436679,"adult":false},{"id":436677,"adult":false},{"id":10193,"adult":false},{"id":223357,"adult":false},{"id":288323,"adult":false},{"id":174353,"adult":false},{"id":192986,"adult":false},{"id":277,"adult":false},{"id":52520,"adult":false},{"id":328318,"adult":false},{"id":440996,"adult":false},{"id":12437,"adult":false},{"id":129418,"adult":false},{"id":79201,"adult":false},{"id":84338,"adult":false},{"id":436596,"adult":false},{"id":171084,"adult":false},{"id":62095,"adult":false},{"id":417868,"adult":false},{"id":228270,"adult":false},{"id":410501,"adult":null},{"id":360800,"adult":false},{"id":209999,"adult":false},{"id":152736,"adult":false},{"id":351895,"adult":false},{"id":365370,"adult":false},{"id":284122,"adult":false},{"id":416499,"adult":false},{"id":383739,"adult":false},{"id":158743,"adult":false},{"id":1995,"adult":false},{"id":363579,"adult":false},{"id":385481,"adult":false},{"id":4495,"adult":false},{"id":8748,"adult":false},{"id":11832,"adult":false},{"id":404789,"adult":false},{"id":14235,"adult":false},{"id":7451,"adult":false},{"id":30636,"adult":false},{"id":14687,"adult":false},{"id":14223,"adult":false},{"id":9955,"adult":false},{"id":80169,"adult":false},{"id":4517,"adult":false},{"id":27693,"adult":false},{"id":13710,"adult":false},{"id":112988,"adult":false},{"id":110398,"adult":false},{"id":4169,"adult":false},{"id":203819,"adult":false},{"id":4512,"adult":false},{"id":56707,"adult":false},{"id":127846,"adult":false},{"id":5393,"adult":false},{"id":2698,"adult":false},{"id":157117,"adult":false},{"id":50634,"adult":false},{"id":440997,"adult":false},{"id":85362,"adult":false},{"id":136698,"adult":false},{"id":62517,"adult":false},{"id":30579,"adult":false},{"id":14019,"adult":false}],"page":125,"total_pages":158,"total_results":15756}