{"results":[{"id":271736,"adult":false},{"id":335051,"adult":false},{"id":228205,"adult":false},{"id":333884,"adult":false},{"id":15414,"adult":false},{"id":157827,"adult":false},{"id":412244,"adult":null},{"id":266030,"adult":false},{"id":307115,"adult":false},{"id":15925,"adult":false},{"id":412138,"adult":null},{"id":271724,"adult":false},{"id":378144,"adult":false},{"id":412236,"adult":null},{"id":103878,"adult":false},{"id":412237,"adult":null},{"id":320201,"adult":false},{"id":99788,"adult":false},{"id":129261,"adult":false},{"id":42289,"adult":false},{"id":412136,"adult":null},{"id":99752,"adult":false},{"id":158287,"adult":false},{"id":104209,"adult":false},{"id":412038,"adult":null},{"id":93743,"adult":false},{"id":262883,"adult":false},{"id":53828,"adult":false},{"id":365942,"adult":false},{"id":46452,"adult":false},{"id":412245,"adult":null},{"id":222297,"adult":false},{"id":103078,"adult":false},{"id":12239,"adult":false},{"id":268230,"adult":false},{"id":106202,"adult":false},{"id":50945,"adult":false},{"id":104090,"adult":false},{"id":412233,"adult":null},{"id":405253,"adult":false},{"id":216457,"adult":false},{"id":107673,"adult":false},{"id":112193,"adult":false},{"id":16444,"adult":false},{"id":328111,"adult":false},{"id":133632,"adult":false},{"id":412246,"adult":null},{"id":104097,"adult":false},{"id":1966,"adult":false},{"id":100098,"adult":false},{"id":431345,"adult":true},{"id":415604,"adult":null},{"id":104616,"adult":false},{"id":1992,"adult":false},{"id":331265,"adult":false},{"id":432599,"adult":false},{"id":372942,"adult":false},{"id":13611,"adult":false},{"id":431331,"adult":true},{"id":173912,"adult":false},{"id":291530,"adult":false},{"id":432600,"adult":false},{"id":412239,"adult":null},{"id":442,"adult":false},{"id":383423,"adult":false},{"id":432602,"adult":false},{"id":409389,"adult":false},{"id":432603,"adult":false},{"id":74525,"adult":false},{"id":428142,"adult":false},{"id":432604,"adult":false},{"id":432605,"adult":false},{"id":12445,"adult":false},{"id":163392,"adult":false},{"id":376412,"adult":false},{"id":692,"adult":false},{"id":432606,"adult":false},{"id":432607,"adult":false},{"id":217175,"adult":false},{"id":4250,"adult":false},{"id":12444,"adult":false},{"id":5548,"adult":false},{"id":354742,"adult":false},{"id":354912,"adult":false},{"id":318470,"adult":false},{"id":432608,"adult":false},{"id":432610,"adult":false},{"id":24513,"adult":false},{"id":431330,"adult":true},{"id":6479,"adult":false},{"id":353616,"adult":false},{"id":432611,"adult":false},{"id":432612,"adult":false},{"id":2728,"adult":false},{"id":392238,"adult":false},{"id":432613,"adult":false},{"id":41415,"adult":false},{"id":71456,"adult":false},{"id":432614,"adult":false},{"id":40026,"adult":false}],"page":9,"total_pages":133,"total_results":13251}