{"results":[{"id":65488,"adult":false},{"id":43321,"adult":false},{"id":74074,"adult":false},{"id":85841,"adult":false},{"id":421383,"adult":false},{"id":212950,"adult":false},{"id":193090,"adult":false},{"id":83412,"adult":false},{"id":380159,"adult":false},{"id":296313,"adult":false},{"id":33754,"adult":false},{"id":43359,"adult":false},{"id":34082,"adult":false},{"id":23325,"adult":false},{"id":96432,"adult":false},{"id":429047,"adult":false},{"id":435363,"adult":false},{"id":21242,"adult":false},{"id":27034,"adult":false},{"id":115834,"adult":false},{"id":419639,"adult":false},{"id":245698,"adult":false},{"id":102470,"adult":false},{"id":71670,"adult":false},{"id":41946,"adult":false},{"id":291696,"adult":false},{"id":374205,"adult":false},{"id":79257,"adult":false},{"id":435364,"adult":false},{"id":411638,"adult":false},{"id":22815,"adult":false},{"id":313556,"adult":false},{"id":435365,"adult":false},{"id":85317,"adult":false},{"id":72782,"adult":false},{"id":291656,"adult":false},{"id":38336,"adult":false},{"id":241483,"adult":false},{"id":327383,"adult":false},{"id":52891,"adult":false},{"id":110502,"adult":false},{"id":170195,"adult":false},{"id":16638,"adult":false},{"id":407039,"adult":false},{"id":118091,"adult":false},{"id":2102,"adult":false},{"id":352403,"adult":false},{"id":36344,"adult":false},{"id":4543,"adult":false},{"id":8490,"adult":false},{"id":39256,"adult":false},{"id":421467,"adult":false},{"id":308544,"adult":false},{"id":57352,"adult":false},{"id":360144,"adult":false},{"id":322626,"adult":false},{"id":45211,"adult":false},{"id":35118,"adult":false},{"id":369186,"adult":false},{"id":365501,"adult":false},{"id":256662,"adult":false},{"id":155688,"adult":false},{"id":347882,"adult":false},{"id":17529,"adult":false},{"id":231540,"adult":false},{"id":435366,"adult":false},{"id":35834,"adult":false},{"id":324849,"adult":false},{"id":377447,"adult":false},{"id":104041,"adult":false},{"id":374511,"adult":false},{"id":412326,"adult":false},{"id":157687,"adult":false},{"id":3027,"adult":false},{"id":1891,"adult":false},{"id":86302,"adult":false},{"id":242835,"adult":false},{"id":137343,"adult":false},{"id":29833,"adult":false},{"id":500,"adult":false},{"id":283329,"adult":false},{"id":25918,"adult":false},{"id":131472,"adult":false},{"id":55292,"adult":false},{"id":266673,"adult":false},{"id":322341,"adult":false},{"id":291384,"adult":false},{"id":369885,"adult":false},{"id":82101,"adult":false},{"id":11,"adult":false},{"id":321384,"adult":false},{"id":339071,"adult":false},{"id":410827,"adult":false},{"id":263453,"adult":false},{"id":296199,"adult":false},{"id":295953,"adult":false},{"id":95,"adult":false},{"id":312022,"adult":false},{"id":11257,"adult":false},{"id":289152,"adult":false}],"page":22,"total_pages":144,"total_results":14325}