{"results":[{"id":309448,"adult":false},{"id":326586,"adult":false},{"id":23020,"adult":false},{"id":433538,"adult":true},{"id":20334,"adult":false},{"id":252674,"adult":false},{"id":410655,"adult":false},{"id":45930,"adult":false},{"id":413490,"adult":false},{"id":599,"adult":false},{"id":427887,"adult":false},{"id":433539,"adult":false},{"id":86186,"adult":false},{"id":129139,"adult":false},{"id":4246,"adult":false},{"id":31421,"adult":false},{"id":14748,"adult":false},{"id":16850,"adult":false},{"id":226,"adult":false},{"id":244596,"adult":false},{"id":379019,"adult":false},{"id":360803,"adult":false},{"id":202886,"adult":false},{"id":433540,"adult":false},{"id":105073,"adult":false},{"id":142944,"adult":false},{"id":433541,"adult":false},{"id":433542,"adult":null},{"id":405815,"adult":false},{"id":381328,"adult":false},{"id":295592,"adult":false},{"id":380028,"adult":false},{"id":17810,"adult":false},{"id":9490,"adult":false},{"id":41474,"adult":false},{"id":309964,"adult":false},{"id":306959,"adult":false},{"id":59852,"adult":false},{"id":328905,"adult":false},{"id":23629,"adult":false},{"id":433543,"adult":false},{"id":433544,"adult":false},{"id":138222,"adult":false},{"id":329466,"adult":false},{"id":186117,"adult":false},{"id":42522,"adult":false},{"id":15026,"adult":false},{"id":38365,"adult":false},{"id":136424,"adult":false},{"id":161491,"adult":false},{"id":11795,"adult":false},{"id":2017,"adult":false},{"id":184679,"adult":false},{"id":378244,"adult":false},{"id":333948,"adult":false},{"id":433545,"adult":false},{"id":433546,"adult":null},{"id":268854,"adult":false},{"id":10939,"adult":false},{"id":127,"adult":false},{"id":266991,"adult":false},{"id":272640,"adult":false},{"id":10779,"adult":false},{"id":148159,"adult":false},{"id":72025,"adult":false},{"id":406115,"adult":false},{"id":360804,"adult":false},{"id":278736,"adult":false},{"id":366913,"adult":false},{"id":297267,"adult":false},{"id":11469,"adult":false},{"id":85543,"adult":false},{"id":424050,"adult":false},{"id":32074,"adult":false},{"id":118802,"adult":false},{"id":19688,"adult":false},{"id":374430,"adult":false},{"id":248933,"adult":false},{"id":384704,"adult":false},{"id":433547,"adult":false},{"id":284289,"adult":false},{"id":43210,"adult":false},{"id":337556,"adult":false},{"id":396770,"adult":false},{"id":126148,"adult":false},{"id":98108,"adult":false},{"id":390524,"adult":false},{"id":358556,"adult":false},{"id":433548,"adult":false},{"id":77570,"adult":false},{"id":11530,"adult":false},{"id":422471,"adult":false},{"id":433549,"adult":false},{"id":433550,"adult":false},{"id":433551,"adult":false},{"id":433553,"adult":false},{"id":196387,"adult":false},{"id":50186,"adult":false},{"id":40933,"adult":false},{"id":433554,"adult":false}],"page":64,"total_pages":133,"total_results":13251}