{"results":[{"id":334543,"adult":false},{"id":96676,"adult":false},{"id":8456,"adult":false},{"id":441789,"adult":false},{"id":418585,"adult":false},{"id":70006,"adult":false},{"id":285848,"adult":false},{"id":100270,"adult":false},{"id":391757,"adult":false},{"id":126784,"adult":false},{"id":321612,"adult":false},{"id":441790,"adult":false},{"id":342588,"adult":false},{"id":418078,"adult":false},{"id":367209,"adult":false},{"id":441791,"adult":false},{"id":36162,"adult":false},{"id":441792,"adult":false},{"id":27863,"adult":false},{"id":91840,"adult":false},{"id":255270,"adult":false},{"id":441793,"adult":false},{"id":139662,"adult":false},{"id":441794,"adult":false},{"id":41823,"adult":false},{"id":118051,"adult":false},{"id":369852,"adult":false},{"id":441795,"adult":true},{"id":425990,"adult":null},{"id":441796,"adult":false},{"id":33452,"adult":false},{"id":441797,"adult":false},{"id":404609,"adult":false},{"id":26175,"adult":false},{"id":441798,"adult":false},{"id":413691,"adult":false},{"id":405851,"adult":false},{"id":441799,"adult":false},{"id":352014,"adult":false},{"id":440794,"adult":false},{"id":379532,"adult":false},{"id":441800,"adult":false},{"id":441801,"adult":false},{"id":306667,"adult":false},{"id":641,"adult":false},{"id":441802,"adult":false},{"id":371476,"adult":false},{"id":360420,"adult":false},{"id":306626,"adult":false},{"id":403368,"adult":false},{"id":345922,"adult":false},{"id":335777,"adult":false},{"id":149087,"adult":false},{"id":2267,"adult":false},{"id":434757,"adult":false},{"id":71303,"adult":false},{"id":441803,"adult":false},{"id":433276,"adult":false},{"id":151533,"adult":false},{"id":155539,"adult":false},{"id":49526,"adult":false},{"id":430988,"adult":false},{"id":293264,"adult":false},{"id":441804,"adult":false},{"id":441805,"adult":false},{"id":441806,"adult":false},{"id":441653,"adult":false},{"id":441807,"adult":false},{"id":143065,"adult":false},{"id":337401,"adult":false},{"id":80012,"adult":false},{"id":288158,"adult":false},{"id":441808,"adult":false},{"id":339967,"adult":false},{"id":177236,"adult":false},{"id":441809,"adult":false},{"id":439032,"adult":false},{"id":14493,"adult":false},{"id":215580,"adult":false},{"id":427751,"adult":false},{"id":440478,"adult":false},{"id":4567,"adult":false},{"id":24796,"adult":false},{"id":264426,"adult":false},{"id":278334,"adult":false},{"id":403372,"adult":false},{"id":416688,"adult":false},{"id":351683,"adult":false},{"id":424466,"adult":false},{"id":441810,"adult":false},{"id":277773,"adult":false},{"id":397859,"adult":false},{"id":441811,"adult":false},{"id":2469,"adult":false},{"id":404036,"adult":false},{"id":377332,"adult":false},{"id":425845,"adult":false},{"id":137609,"adult":false},{"id":367408,"adult":false},{"id":441537,"adult":false}],"page":3,"total_pages":149,"total_results":14854}