{"results":[{"id":33226,"adult":false},{"id":37030,"adult":false},{"id":435132,"adult":false},{"id":9008,"adult":false},{"id":289225,"adult":false},{"id":435133,"adult":false},{"id":327389,"adult":false},{"id":435134,"adult":null},{"id":435135,"adult":false},{"id":1616,"adult":false},{"id":378216,"adult":false},{"id":203665,"adult":false},{"id":435136,"adult":false},{"id":11658,"adult":false},{"id":24417,"adult":false},{"id":434357,"adult":false},{"id":15644,"adult":false},{"id":254031,"adult":false},{"id":9532,"adult":false},{"id":871,"adult":false},{"id":12703,"adult":false},{"id":435137,"adult":false},{"id":259720,"adult":false},{"id":419140,"adult":false},{"id":5693,"adult":false},{"id":147240,"adult":false},{"id":41785,"adult":false},{"id":270313,"adult":false},{"id":68726,"adult":false},{"id":435138,"adult":false},{"id":22785,"adult":false},{"id":257512,"adult":false},{"id":435139,"adult":false},{"id":374856,"adult":false},{"id":435140,"adult":false},{"id":428737,"adult":false},{"id":435141,"adult":false},{"id":361472,"adult":false},{"id":17263,"adult":false},{"id":178172,"adult":false},{"id":386871,"adult":false},{"id":231164,"adult":false},{"id":206349,"adult":false},{"id":435142,"adult":false},{"id":393252,"adult":false},{"id":23451,"adult":false},{"id":435143,"adult":false},{"id":63287,"adult":false},{"id":353081,"adult":false},{"id":14196,"adult":false},{"id":435144,"adult":false},{"id":435145,"adult":false},{"id":12165,"adult":false},{"id":82505,"adult":false},{"id":319318,"adult":false},{"id":363992,"adult":false},{"id":50780,"adult":false},{"id":98638,"adult":false},{"id":262982,"adult":false},{"id":347035,"adult":false},{"id":32206,"adult":false},{"id":401469,"adult":false},{"id":75565,"adult":false},{"id":283552,"adult":false},{"id":68730,"adult":false},{"id":141052,"adult":false},{"id":84188,"adult":false},{"id":284054,"adult":false},{"id":286071,"adult":false},{"id":52878,"adult":false},{"id":382220,"adult":false},{"id":343858,"adult":false},{"id":435146,"adult":false},{"id":46687,"adult":false},{"id":12153,"adult":false},{"id":393457,"adult":false},{"id":11483,"adult":false},{"id":46513,"adult":false},{"id":351211,"adult":false},{"id":10562,"adult":false},{"id":162,"adult":false},{"id":23759,"adult":false},{"id":148284,"adult":false},{"id":13752,"adult":false},{"id":16236,"adult":false},{"id":435147,"adult":false},{"id":119283,"adult":false},{"id":137145,"adult":false},{"id":7508,"adult":false},{"id":49494,"adult":false},{"id":157350,"adult":false},{"id":39414,"adult":false},{"id":369524,"adult":false},{"id":435148,"adult":false},{"id":100684,"adult":false},{"id":434926,"adult":null},{"id":371044,"adult":null},{"id":95191,"adult":false},{"id":41422,"adult":false},{"id":435066,"adult":false}],"page":7,"total_pages":144,"total_results":14325}