{"results":[{"id":19870,"adult":null},{"id":73128,"adult":false},{"id":394355,"adult":false},{"id":41061,"adult":false},{"id":444151,"adult":false},{"id":104711,"adult":false},{"id":5653,"adult":false},{"id":8392,"adult":false},{"id":444152,"adult":false},{"id":444153,"adult":false},{"id":3028,"adult":false},{"id":444154,"adult":false},{"id":344808,"adult":false},{"id":227700,"adult":false},{"id":363709,"adult":false},{"id":444155,"adult":false},{"id":240465,"adult":false},{"id":444156,"adult":false},{"id":90736,"adult":false},{"id":444157,"adult":false},{"id":19712,"adult":null},{"id":210320,"adult":false},{"id":47246,"adult":false},{"id":75176,"adult":null},{"id":87102,"adult":null},{"id":101757,"adult":null},{"id":444158,"adult":false},{"id":118291,"adult":null},{"id":306966,"adult":false},{"id":444159,"adult":false},{"id":376103,"adult":false},{"id":444160,"adult":false},{"id":137697,"adult":false},{"id":45612,"adult":false},{"id":444161,"adult":false},{"id":63101,"adult":false},{"id":112506,"adult":null},{"id":387848,"adult":false},{"id":112505,"adult":null},{"id":82392,"adult":null},{"id":95634,"adult":null},{"id":103063,"adult":null},{"id":76514,"adult":null},{"id":1904,"adult":false},{"id":19168,"adult":null},{"id":18823,"adult":false},{"id":331132,"adult":false},{"id":22852,"adult":null},{"id":26024,"adult":false},{"id":17500,"adult":null},{"id":56699,"adult":null},{"id":56938,"adult":null},{"id":42382,"adult":null},{"id":38245,"adult":null},{"id":38247,"adult":null},{"id":323675,"adult":false},{"id":160293,"adult":false},{"id":31974,"adult":null},{"id":444162,"adult":false},{"id":44842,"adult":null},{"id":444163,"adult":false},{"id":205386,"adult":null},{"id":48660,"adult":false},{"id":80410,"adult":false},{"id":55995,"adult":null},{"id":143476,"adult":false},{"id":15502,"adult":false},{"id":62411,"adult":false},{"id":62419,"adult":false},{"id":62420,"adult":false},{"id":70318,"adult":false},{"id":70320,"adult":false},{"id":70323,"adult":false},{"id":70325,"adult":false},{"id":444164,"adult":false},{"id":70330,"adult":false},{"id":70331,"adult":false},{"id":70332,"adult":false},{"id":444165,"adult":false},{"id":70333,"adult":false},{"id":70334,"adult":false},{"id":70336,"adult":false},{"id":58463,"adult":false},{"id":65859,"adult":false},{"id":70309,"adult":false},{"id":67183,"adult":false},{"id":75089,"adult":false},{"id":423280,"adult":false},{"id":354912,"adult":false},{"id":147281,"adult":false},{"id":155545,"adult":false},{"id":62407,"adult":null},{"id":246448,"adult":false},{"id":415570,"adult":false},{"id":60260,"adult":null},{"id":50991,"adult":false},{"id":444166,"adult":true},{"id":21179,"adult":false},{"id":403887,"adult":false},{"id":415972,"adult":false}],"page":148,"total_pages":149,"total_results":14854}