{"results":[{"id":9886,"adult":false},{"id":105531,"adult":false},{"id":131673,"adult":false},{"id":31600,"adult":false},{"id":63716,"adult":false},{"id":128203,"adult":false},{"id":141021,"adult":false},{"id":121147,"adult":false},{"id":82028,"adult":false},{"id":172040,"adult":false},{"id":448843,"adult":false},{"id":123359,"adult":false},{"id":112456,"adult":false},{"id":129477,"adult":false},{"id":123005,"adult":false},{"id":150229,"adult":false},{"id":94684,"adult":false},{"id":183437,"adult":false},{"id":146404,"adult":false},{"id":448844,"adult":false},{"id":448845,"adult":false},{"id":306966,"adult":false},{"id":42333,"adult":false},{"id":49963,"adult":false},{"id":13120,"adult":false},{"id":94887,"adult":false},{"id":121872,"adult":false},{"id":7085,"adult":false},{"id":383893,"adult":false},{"id":448846,"adult":false},{"id":83186,"adult":false},{"id":448847,"adult":false},{"id":117691,"adult":false},{"id":126786,"adult":false},{"id":168027,"adult":false},{"id":135403,"adult":false},{"id":94104,"adult":false},{"id":138941,"adult":false},{"id":112130,"adult":false},{"id":161064,"adult":false},{"id":448848,"adult":false},{"id":113294,"adult":false},{"id":135531,"adult":false},{"id":448849,"adult":false},{"id":375612,"adult":false},{"id":128061,"adult":false},{"id":2030,"adult":false},{"id":302574,"adult":false},{"id":419224,"adult":false},{"id":226221,"adult":false},{"id":213685,"adult":false},{"id":172250,"adult":false},{"id":76041,"adult":false},{"id":392140,"adult":false},{"id":240073,"adult":false},{"id":60559,"adult":false},{"id":448850,"adult":false},{"id":320914,"adult":false},{"id":448851,"adult":false},{"id":448852,"adult":false},{"id":45454,"adult":false},{"id":85615,"adult":false},{"id":22590,"adult":false},{"id":96222,"adult":false},{"id":222935,"adult":false},{"id":48392,"adult":false},{"id":45317,"adult":false},{"id":309017,"adult":true},{"id":46814,"adult":false},{"id":79863,"adult":false},{"id":80550,"adult":false},{"id":448853,"adult":false},{"id":106446,"adult":false},{"id":19723,"adult":false},{"id":10938,"adult":false},{"id":68878,"adult":false},{"id":438429,"adult":false},{"id":208000,"adult":false},{"id":416590,"adult":false},{"id":28055,"adult":false},{"id":448854,"adult":false},{"id":448856,"adult":false},{"id":411544,"adult":false},{"id":78352,"adult":false},{"id":138860,"adult":false},{"id":448857,"adult":false},{"id":448858,"adult":false},{"id":109038,"adult":false},{"id":448859,"adult":false},{"id":391397,"adult":null},{"id":51515,"adult":false},{"id":65910,"adult":false},{"id":141963,"adult":false},{"id":50370,"adult":false},{"id":440161,"adult":false},{"id":94363,"adult":false},{"id":291771,"adult":false},{"id":74523,"adult":false},{"id":111550,"adult":false},{"id":448860,"adult":false}],"page":142,"total_pages":168,"total_results":16730}