{"results":[{"id":15056,"adult":false},{"id":291328,"adult":false},{"id":2179,"adult":false},{"id":439921,"adult":false},{"id":1590,"adult":false},{"id":351037,"adult":false},{"id":131945,"adult":false},{"id":355493,"adult":false},{"id":9339,"adult":false},{"id":29291,"adult":false},{"id":392011,"adult":false},{"id":329235,"adult":false},{"id":378505,"adult":false},{"id":327513,"adult":false},{"id":439922,"adult":false},{"id":439923,"adult":false},{"id":268282,"adult":false},{"id":72420,"adult":false},{"id":338277,"adult":false},{"id":409522,"adult":false},{"id":12890,"adult":false},{"id":19039,"adult":false},{"id":87217,"adult":false},{"id":27376,"adult":false},{"id":363882,"adult":false},{"id":39214,"adult":false},{"id":144725,"adult":false},{"id":2286,"adult":false},{"id":439927,"adult":false},{"id":199512,"adult":false},{"id":131290,"adult":false},{"id":439928,"adult":false},{"id":6206,"adult":false},{"id":336566,"adult":false},{"id":439929,"adult":false},{"id":439930,"adult":false},{"id":439931,"adult":true},{"id":321465,"adult":false},{"id":48681,"adult":false},{"id":437513,"adult":false},{"id":145327,"adult":false},{"id":439932,"adult":false},{"id":439933,"adult":null},{"id":439934,"adult":false},{"id":30916,"adult":false},{"id":439935,"adult":false},{"id":433845,"adult":false},{"id":163109,"adult":false},{"id":26728,"adult":false},{"id":439936,"adult":false},{"id":439937,"adult":false},{"id":434762,"adult":false},{"id":428058,"adult":false},{"id":439938,"adult":false},{"id":439939,"adult":false},{"id":361517,"adult":false},{"id":439940,"adult":false},{"id":439941,"adult":false},{"id":43747,"adult":false},{"id":418970,"adult":false},{"id":439942,"adult":true},{"id":371024,"adult":false},{"id":439943,"adult":false},{"id":417199,"adult":false},{"id":295541,"adult":false},{"id":439944,"adult":true},{"id":436869,"adult":false},{"id":165208,"adult":false},{"id":379904,"adult":false},{"id":416591,"adult":false},{"id":354380,"adult":false},{"id":244027,"adult":false},{"id":439945,"adult":false},{"id":341947,"adult":false},{"id":382012,"adult":false},{"id":246343,"adult":false},{"id":439946,"adult":false},{"id":291466,"adult":false},{"id":82953,"adult":false},{"id":37399,"adult":false},{"id":439947,"adult":true},{"id":258493,"adult":false},{"id":40364,"adult":false},{"id":424807,"adult":false},{"id":439948,"adult":false},{"id":439949,"adult":false},{"id":209215,"adult":false},{"id":439950,"adult":false},{"id":439951,"adult":false},{"id":433322,"adult":false},{"id":439954,"adult":false},{"id":439955,"adult":false},{"id":58,"adult":false},{"id":51540,"adult":false},{"id":50546,"adult":false},{"id":437327,"adult":false},{"id":248535,"adult":false},{"id":318915,"adult":false},{"id":439956,"adult":true},{"id":366194,"adult":false}],"page":65,"total_pages":158,"total_results":15756}