{"results":[{"id":448552,"adult":false},{"id":320010,"adult":false},{"id":437867,"adult":false},{"id":19255,"adult":false},{"id":408509,"adult":false},{"id":8338,"adult":false},{"id":397852,"adult":false},{"id":444772,"adult":false},{"id":286835,"adult":false},{"id":309942,"adult":false},{"id":86059,"adult":false},{"id":9603,"adult":false},{"id":428406,"adult":false},{"id":54923,"adult":false},{"id":24826,"adult":false},{"id":17143,"adult":false},{"id":79649,"adult":false},{"id":437870,"adult":false},{"id":422153,"adult":false},{"id":31428,"adult":false},{"id":448553,"adult":false},{"id":81835,"adult":false},{"id":43625,"adult":false},{"id":261413,"adult":false},{"id":43742,"adult":false},{"id":4780,"adult":false},{"id":43807,"adult":false},{"id":84303,"adult":false},{"id":149220,"adult":false},{"id":33278,"adult":false},{"id":287574,"adult":false},{"id":64796,"adult":false},{"id":91679,"adult":false},{"id":352720,"adult":false},{"id":198287,"adult":false},{"id":448554,"adult":false},{"id":257895,"adult":false},{"id":51618,"adult":false},{"id":448555,"adult":true},{"id":54299,"adult":false},{"id":96892,"adult":false},{"id":312817,"adult":false},{"id":352498,"adult":false},{"id":306725,"adult":false},{"id":16806,"adult":false},{"id":206312,"adult":false},{"id":369262,"adult":false},{"id":109161,"adult":false},{"id":336188,"adult":false},{"id":339479,"adult":false},{"id":71142,"adult":false},{"id":428795,"adult":false},{"id":77529,"adult":true},{"id":15128,"adult":false},{"id":422511,"adult":true},{"id":380880,"adult":false},{"id":72391,"adult":false},{"id":105432,"adult":false},{"id":448556,"adult":false},{"id":75690,"adult":true},{"id":369264,"adult":false},{"id":345418,"adult":true},{"id":109669,"adult":false},{"id":227156,"adult":false},{"id":301235,"adult":false},{"id":448557,"adult":false},{"id":11498,"adult":false},{"id":101768,"adult":true},{"id":14295,"adult":false},{"id":433433,"adult":true},{"id":90730,"adult":false},{"id":25994,"adult":false},{"id":429203,"adult":false},{"id":37516,"adult":false},{"id":387889,"adult":false},{"id":371517,"adult":false},{"id":13966,"adult":false},{"id":325949,"adult":false},{"id":238234,"adult":false},{"id":348580,"adult":false},{"id":198156,"adult":true},{"id":20294,"adult":false},{"id":26976,"adult":false},{"id":240723,"adult":false},{"id":45628,"adult":false},{"id":21182,"adult":false},{"id":66171,"adult":false},{"id":67660,"adult":false},{"id":75334,"adult":true},{"id":57494,"adult":null},{"id":52272,"adult":false},{"id":441130,"adult":false},{"id":448558,"adult":false},{"id":448559,"adult":false},{"id":52772,"adult":false},{"id":18208,"adult":false},{"id":386349,"adult":false},{"id":32088,"adult":false},{"id":243935,"adult":false},{"id":31955,"adult":false}],"page":123,"total_pages":168,"total_results":16730}