{"results":[{"id":49462,"adult":false},{"id":85500,"adult":false},{"id":413652,"adult":false},{"id":13210,"adult":false},{"id":15856,"adult":false},{"id":443668,"adult":false},{"id":260729,"adult":false},{"id":11431,"adult":false},{"id":20333,"adult":false},{"id":429243,"adult":true},{"id":32563,"adult":false},{"id":56823,"adult":false},{"id":443669,"adult":false},{"id":70586,"adult":false},{"id":97795,"adult":false},{"id":252512,"adult":false},{"id":43837,"adult":false},{"id":198184,"adult":false},{"id":115276,"adult":false},{"id":313421,"adult":null},{"id":117984,"adult":false},{"id":152259,"adult":false},{"id":319895,"adult":null},{"id":157832,"adult":false},{"id":35790,"adult":false},{"id":246080,"adult":false},{"id":228150,"adult":false},{"id":277190,"adult":false},{"id":201088,"adult":false},{"id":80389,"adult":false},{"id":284303,"adult":false},{"id":443670,"adult":false},{"id":250546,"adult":false},{"id":443671,"adult":false},{"id":429249,"adult":true},{"id":260181,"adult":false},{"id":30137,"adult":false},{"id":23439,"adult":false},{"id":5121,"adult":false},{"id":891,"adult":false},{"id":11777,"adult":false},{"id":840,"adult":false},{"id":11519,"adult":false},{"id":601,"adult":false},{"id":15301,"adult":false},{"id":10057,"adult":false},{"id":385557,"adult":false},{"id":170687,"adult":false},{"id":429116,"adult":true},{"id":74465,"adult":false},{"id":100208,"adult":false},{"id":56401,"adult":false},{"id":443672,"adult":false},{"id":198185,"adult":false},{"id":228326,"adult":false},{"id":293262,"adult":false},{"id":36610,"adult":false},{"id":333596,"adult":false},{"id":243644,"adult":false},{"id":102222,"adult":false},{"id":45993,"adult":false},{"id":408256,"adult":false},{"id":225953,"adult":false},{"id":15994,"adult":false},{"id":443673,"adult":false},{"id":417170,"adult":false},{"id":296046,"adult":false},{"id":4955,"adult":false},{"id":43417,"adult":false},{"id":11037,"adult":false},{"id":11005,"adult":false},{"id":11068,"adult":false},{"id":9560,"adult":false},{"id":4269,"adult":false},{"id":782,"adult":false},{"id":28290,"adult":false},{"id":11975,"adult":false},{"id":10336,"adult":false},{"id":8656,"adult":false},{"id":39545,"adult":false},{"id":745,"adult":false},{"id":180,"adult":false},{"id":8619,"adult":false},{"id":57874,"adult":false},{"id":7131,"adult":false},{"id":443674,"adult":false},{"id":16239,"adult":false},{"id":42807,"adult":false},{"id":443675,"adult":false},{"id":9477,"adult":false},{"id":205,"adult":false},{"id":74,"adult":false},{"id":443676,"adult":false},{"id":49849,"adult":false},{"id":4708,"adult":false},{"id":7551,"adult":false},{"id":7211,"adult":false},{"id":42147,"adult":false},{"id":443677,"adult":false},{"id":28501,"adult":false}],"page":118,"total_pages":149,"total_results":14854}