{"results":[{"id":12477,"adult":false},{"id":74205,"adult":false},{"id":435282,"adult":false},{"id":187089,"adult":false},{"id":280840,"adult":false},{"id":435283,"adult":false},{"id":19079,"adult":false},{"id":435284,"adult":false},{"id":435285,"adult":false},{"id":45019,"adult":false},{"id":435286,"adult":false},{"id":410261,"adult":false},{"id":1975,"adult":false},{"id":66034,"adult":false},{"id":1991,"adult":false},{"id":21622,"adult":false},{"id":424889,"adult":false},{"id":654,"adult":false},{"id":13210,"adult":false},{"id":435287,"adult":false},{"id":434930,"adult":false},{"id":435288,"adult":true},{"id":52251,"adult":false},{"id":417321,"adult":false},{"id":63498,"adult":false},{"id":435289,"adult":true},{"id":435290,"adult":true},{"id":435291,"adult":false},{"id":214879,"adult":false},{"id":131957,"adult":false},{"id":434928,"adult":false},{"id":435292,"adult":false},{"id":435293,"adult":true},{"id":434822,"adult":false},{"id":32502,"adult":false},{"id":435294,"adult":true},{"id":435295,"adult":false},{"id":110513,"adult":false},{"id":175161,"adult":false},{"id":435296,"adult":null},{"id":51955,"adult":false},{"id":111037,"adult":false},{"id":435297,"adult":true},{"id":435298,"adult":false},{"id":60994,"adult":false},{"id":47911,"adult":false},{"id":435299,"adult":false},{"id":435300,"adult":false},{"id":243752,"adult":false},{"id":133436,"adult":false},{"id":9458,"adult":false},{"id":329038,"adult":false},{"id":435301,"adult":false},{"id":18773,"adult":false},{"id":362202,"adult":false},{"id":276086,"adult":false},{"id":45040,"adult":false},{"id":435302,"adult":false},{"id":435303,"adult":false},{"id":120409,"adult":false},{"id":375742,"adult":false},{"id":324580,"adult":false},{"id":435304,"adult":false},{"id":435305,"adult":false},{"id":295335,"adult":false},{"id":63943,"adult":false},{"id":423671,"adult":false},{"id":17170,"adult":false},{"id":274778,"adult":false},{"id":435306,"adult":false},{"id":44458,"adult":false},{"id":45965,"adult":false},{"id":345674,"adult":false},{"id":318571,"adult":false},{"id":346910,"adult":false},{"id":435307,"adult":true},{"id":234567,"adult":false},{"id":430119,"adult":false},{"id":366629,"adult":true},{"id":274223,"adult":false},{"id":396058,"adult":true},{"id":329180,"adult":false},{"id":88956,"adult":false},{"id":435308,"adult":false},{"id":340131,"adult":false},{"id":394120,"adult":false},{"id":176890,"adult":false},{"id":80668,"adult":false},{"id":321274,"adult":false},{"id":435309,"adult":false},{"id":32849,"adult":false},{"id":112284,"adult":false},{"id":435310,"adult":false},{"id":375859,"adult":false},{"id":423029,"adult":false},{"id":395991,"adult":false},{"id":422172,"adult":false},{"id":326905,"adult":false},{"id":395499,"adult":false},{"id":435311,"adult":false}],"page":17,"total_pages":144,"total_results":14325}