{"results":[{"id":96092,"adult":false},{"id":439398,"adult":false},{"id":336877,"adult":false},{"id":439399,"adult":false},{"id":250520,"adult":false},{"id":15064,"adult":false},{"id":169,"adult":false},{"id":208478,"adult":false},{"id":28333,"adult":false},{"id":2015,"adult":false},{"id":439400,"adult":false},{"id":339185,"adult":false},{"id":293990,"adult":false},{"id":127090,"adult":false},{"id":345069,"adult":false},{"id":439401,"adult":false},{"id":302890,"adult":false},{"id":101,"adult":false},{"id":439402,"adult":false},{"id":260398,"adult":false},{"id":352186,"adult":false},{"id":319392,"adult":false},{"id":345918,"adult":false},{"id":151048,"adult":false},{"id":314385,"adult":false},{"id":86820,"adult":false},{"id":158518,"adult":false},{"id":439403,"adult":false},{"id":417291,"adult":false},{"id":411837,"adult":false},{"id":332270,"adult":false},{"id":372229,"adult":false},{"id":14161,"adult":false},{"id":215881,"adult":false},{"id":439404,"adult":false},{"id":75869,"adult":false},{"id":955,"adult":false},{"id":439405,"adult":false},{"id":47971,"adult":false},{"id":439406,"adult":false},{"id":394259,"adult":false},{"id":408194,"adult":false},{"id":216015,"adult":false},{"id":439407,"adult":false},{"id":259693,"adult":false},{"id":69902,"adult":false},{"id":41768,"adult":false},{"id":439408,"adult":false},{"id":439409,"adult":false},{"id":138843,"adult":false},{"id":271567,"adult":false},{"id":382813,"adult":false},{"id":439410,"adult":false},{"id":119674,"adult":false},{"id":127847,"adult":false},{"id":439411,"adult":false},{"id":144216,"adult":false},{"id":265220,"adult":false},{"id":299069,"adult":false},{"id":439412,"adult":false},{"id":47954,"adult":false},{"id":41766,"adult":false},{"id":426825,"adult":false},{"id":52532,"adult":false},{"id":36334,"adult":false},{"id":10679,"adult":false},{"id":414598,"adult":false},{"id":439413,"adult":false},{"id":439414,"adult":false},{"id":439415,"adult":false},{"id":418061,"adult":false},{"id":10246,"adult":false},{"id":102784,"adult":false},{"id":193756,"adult":false},{"id":85414,"adult":false},{"id":439416,"adult":false},{"id":13022,"adult":false},{"id":58262,"adult":false},{"id":439417,"adult":false},{"id":424129,"adult":false},{"id":439418,"adult":false},{"id":118010,"adult":false},{"id":341182,"adult":false},{"id":374740,"adult":false},{"id":45657,"adult":false},{"id":435502,"adult":false},{"id":435503,"adult":false},{"id":13794,"adult":false},{"id":439419,"adult":false},{"id":354062,"adult":false},{"id":53668,"adult":false},{"id":69221,"adult":false},{"id":49517,"adult":false},{"id":107918,"adult":false},{"id":48409,"adult":false},{"id":144211,"adult":false},{"id":439420,"adult":false},{"id":402215,"adult":false},{"id":90231,"adult":false},{"id":199575,"adult":false}],"page":48,"total_pages":158,"total_results":15756}