{"results":[{"id":53569,"adult":false},{"id":259129,"adult":false},{"id":443126,"adult":false},{"id":144728,"adult":false},{"id":340402,"adult":false},{"id":68189,"adult":false},{"id":44950,"adult":false},{"id":401359,"adult":false},{"id":155277,"adult":false},{"id":443127,"adult":false},{"id":370870,"adult":false},{"id":356889,"adult":false},{"id":124310,"adult":false},{"id":362045,"adult":false},{"id":440892,"adult":null},{"id":24150,"adult":false},{"id":105768,"adult":false},{"id":277432,"adult":false},{"id":19624,"adult":false},{"id":443128,"adult":false},{"id":20002,"adult":false},{"id":51149,"adult":false},{"id":62213,"adult":false},{"id":426976,"adult":false},{"id":69010,"adult":false},{"id":443129,"adult":false},{"id":443131,"adult":true},{"id":443132,"adult":false},{"id":419331,"adult":false},{"id":388410,"adult":false},{"id":26039,"adult":false},{"id":11881,"adult":false},{"id":434126,"adult":false},{"id":185174,"adult":false},{"id":443133,"adult":false},{"id":295154,"adult":false},{"id":316828,"adult":false},{"id":104476,"adult":false},{"id":27266,"adult":false},{"id":104308,"adult":false},{"id":104704,"adult":false},{"id":32584,"adult":false},{"id":26623,"adult":false},{"id":138730,"adult":false},{"id":403450,"adult":false},{"id":67740,"adult":false},{"id":443135,"adult":false},{"id":2929,"adult":false},{"id":354556,"adult":false},{"id":443136,"adult":false},{"id":2373,"adult":false},{"id":443137,"adult":false},{"id":17240,"adult":false},{"id":443138,"adult":null},{"id":443139,"adult":false},{"id":42785,"adult":false},{"id":376819,"adult":false},{"id":443140,"adult":null},{"id":220772,"adult":false},{"id":239030,"adult":false},{"id":350740,"adult":false},{"id":438524,"adult":false},{"id":443141,"adult":false},{"id":443142,"adult":null},{"id":443143,"adult":false},{"id":2163,"adult":false},{"id":11504,"adult":false},{"id":11442,"adult":false},{"id":12445,"adult":false},{"id":290999,"adult":false},{"id":24774,"adult":false},{"id":10160,"adult":false},{"id":382154,"adult":false},{"id":443144,"adult":false},{"id":407484,"adult":false},{"id":443145,"adult":false},{"id":443146,"adult":false},{"id":389371,"adult":false},{"id":26200,"adult":false},{"id":405120,"adult":false},{"id":36486,"adult":false},{"id":140300,"adult":false},{"id":443147,"adult":false},{"id":368940,"adult":false},{"id":332210,"adult":false},{"id":192625,"adult":false},{"id":655,"adult":false},{"id":270005,"adult":false},{"id":443148,"adult":false},{"id":443149,"adult":false},{"id":497,"adult":false},{"id":268909,"adult":false},{"id":443150,"adult":false},{"id":325789,"adult":false},{"id":309809,"adult":false},{"id":443151,"adult":false},{"id":221368,"adult":false},{"id":331622,"adult":false},{"id":237469,"adult":false},{"id":171006,"adult":false}],"page":88,"total_pages":149,"total_results":14854}