{"results":[{"id":185090,"adult":false},{"id":25744,"adult":false},{"id":26814,"adult":false},{"id":16061,"adult":false},{"id":447998,"adult":false},{"id":447999,"adult":false},{"id":448000,"adult":false},{"id":448001,"adult":false},{"id":448002,"adult":false},{"id":43231,"adult":false},{"id":448003,"adult":false},{"id":126421,"adult":false},{"id":8489,"adult":false},{"id":61016,"adult":false},{"id":41428,"adult":false},{"id":250692,"adult":false},{"id":10370,"adult":false},{"id":218773,"adult":false},{"id":29406,"adult":false},{"id":250694,"adult":false},{"id":250691,"adult":false},{"id":250693,"adult":false},{"id":368667,"adult":false},{"id":368669,"adult":false},{"id":2131,"adult":false},{"id":66104,"adult":false},{"id":448004,"adult":false},{"id":221110,"adult":false},{"id":192145,"adult":false},{"id":448005,"adult":false},{"id":448006,"adult":false},{"id":11854,"adult":false},{"id":292293,"adult":false},{"id":425746,"adult":false},{"id":271115,"adult":false},{"id":333669,"adult":false},{"id":448007,"adult":false},{"id":276024,"adult":false},{"id":448008,"adult":false},{"id":85196,"adult":false},{"id":448009,"adult":false},{"id":13975,"adult":false},{"id":244280,"adult":false},{"id":448010,"adult":false},{"id":412678,"adult":false},{"id":413579,"adult":false},{"id":361128,"adult":false},{"id":243095,"adult":false},{"id":318781,"adult":false},{"id":448011,"adult":false},{"id":16665,"adult":false},{"id":448012,"adult":false},{"id":276008,"adult":false},{"id":448013,"adult":false},{"id":262261,"adult":false},{"id":393112,"adult":false},{"id":37701,"adult":false},{"id":448014,"adult":false},{"id":421176,"adult":false},{"id":348678,"adult":false},{"id":421303,"adult":false},{"id":175223,"adult":false},{"id":17887,"adult":false},{"id":421352,"adult":false},{"id":206647,"adult":false},{"id":381318,"adult":false},{"id":448015,"adult":false},{"id":159824,"adult":false},{"id":3065,"adult":false},{"id":448016,"adult":false},{"id":340485,"adult":false},{"id":119016,"adult":false},{"id":448017,"adult":false},{"id":448018,"adult":false},{"id":257091,"adult":false},{"id":448019,"adult":false},{"id":417877,"adult":false},{"id":318846,"adult":false},{"id":436356,"adult":false},{"id":264999,"adult":false},{"id":448020,"adult":false},{"id":89,"adult":false},{"id":382455,"adult":false},{"id":448021,"adult":false},{"id":448023,"adult":false},{"id":166424,"adult":false},{"id":325945,"adult":false},{"id":338544,"adult":false},{"id":448024,"adult":false},{"id":284293,"adult":false},{"id":448025,"adult":false},{"id":139318,"adult":false},{"id":320007,"adult":false},{"id":339927,"adult":false},{"id":448026,"adult":false},{"id":448027,"adult":false},{"id":274854,"adult":false},{"id":448028,"adult":false},{"id":77461,"adult":false},{"id":448029,"adult":false}],"page":89,"total_pages":168,"total_results":16730}