{"results":[{"id":290999,"adult":false},{"id":10207,"adult":false},{"id":116928,"adult":false},{"id":433900,"adult":false},{"id":160085,"adult":false},{"id":104859,"adult":false},{"id":239530,"adult":false},{"id":6011,"adult":false},{"id":74944,"adult":false},{"id":433901,"adult":false},{"id":74945,"adult":false},{"id":389558,"adult":false},{"id":71881,"adult":false},{"id":253318,"adult":false},{"id":43074,"adult":false},{"id":433902,"adult":false},{"id":168987,"adult":false},{"id":40760,"adult":false},{"id":138391,"adult":false},{"id":433903,"adult":false},{"id":224815,"adult":false},{"id":153710,"adult":false},{"id":433904,"adult":false},{"id":317443,"adult":false},{"id":15794,"adult":false},{"id":7009,"adult":false},{"id":433905,"adult":false},{"id":64690,"adult":false},{"id":401709,"adult":false},{"id":203801,"adult":false},{"id":144407,"adult":false},{"id":263781,"adult":false},{"id":37905,"adult":false},{"id":180271,"adult":false},{"id":1576,"adult":false},{"id":71756,"adult":false},{"id":110847,"adult":false},{"id":110868,"adult":false},{"id":108343,"adult":false},{"id":11324,"adult":false},{"id":300529,"adult":false},{"id":433906,"adult":false},{"id":81896,"adult":false},{"id":372756,"adult":false},{"id":3635,"adult":false},{"id":259195,"adult":false},{"id":433907,"adult":false},{"id":278306,"adult":false},{"id":120,"adult":false},{"id":25212,"adult":false},{"id":433908,"adult":null},{"id":30996,"adult":false},{"id":68829,"adult":false},{"id":134481,"adult":false},{"id":63060,"adult":false},{"id":366260,"adult":false},{"id":433909,"adult":false},{"id":433910,"adult":false},{"id":254572,"adult":false},{"id":68527,"adult":false},{"id":433911,"adult":false},{"id":2106,"adult":false},{"id":270400,"adult":false},{"id":121,"adult":false},{"id":359573,"adult":false},{"id":18785,"adult":false},{"id":35717,"adult":false},{"id":433912,"adult":false},{"id":9655,"adult":false},{"id":433913,"adult":null},{"id":433914,"adult":false},{"id":86643,"adult":false},{"id":38446,"adult":false},{"id":433915,"adult":false},{"id":86644,"adult":false},{"id":41216,"adult":false},{"id":117419,"adult":false},{"id":11680,"adult":false},{"id":192102,"adult":false},{"id":28118,"adult":false},{"id":424774,"adult":false},{"id":50637,"adult":false},{"id":314107,"adult":false},{"id":167543,"adult":false},{"id":264024,"adult":false},{"id":45243,"adult":false},{"id":390833,"adult":false},{"id":162928,"adult":false},{"id":433917,"adult":false},{"id":92493,"adult":false},{"id":173747,"adult":false},{"id":45189,"adult":false},{"id":114089,"adult":false},{"id":433918,"adult":false},{"id":131944,"adult":false},{"id":11164,"adult":false},{"id":28295,"adult":false},{"id":273733,"adult":false},{"id":16038,"adult":false},{"id":433919,"adult":false}],"page":86,"total_pages":133,"total_results":13251}