{"results":[{"id":448543,"adult":false},{"id":33360,"adult":false},{"id":44564,"adult":false},{"id":246393,"adult":false},{"id":96367,"adult":false},{"id":291197,"adult":true},{"id":129112,"adult":false},{"id":218934,"adult":false},{"id":98368,"adult":false},{"id":333727,"adult":false},{"id":111426,"adult":false},{"id":448544,"adult":false},{"id":126323,"adult":false},{"id":223477,"adult":false},{"id":426958,"adult":false},{"id":238615,"adult":false},{"id":1487,"adult":false},{"id":85849,"adult":false},{"id":123913,"adult":false},{"id":42587,"adult":false},{"id":26116,"adult":false},{"id":437865,"adult":false},{"id":349905,"adult":false},{"id":95533,"adult":false},{"id":307112,"adult":false},{"id":298582,"adult":false},{"id":448545,"adult":false},{"id":314220,"adult":false},{"id":434941,"adult":false},{"id":36919,"adult":false},{"id":432381,"adult":false},{"id":167408,"adult":false},{"id":50656,"adult":false},{"id":10484,"adult":false},{"id":432407,"adult":false},{"id":448546,"adult":false},{"id":215646,"adult":false},{"id":386170,"adult":false},{"id":157253,"adult":false},{"id":62867,"adult":false},{"id":30178,"adult":false},{"id":286599,"adult":false},{"id":11428,"adult":false},{"id":448547,"adult":false},{"id":56648,"adult":false},{"id":88,"adult":false},{"id":240794,"adult":false},{"id":184158,"adult":false},{"id":62777,"adult":false},{"id":101987,"adult":false},{"id":448548,"adult":false},{"id":374467,"adult":false},{"id":115972,"adult":false},{"id":27465,"adult":false},{"id":40224,"adult":false},{"id":265791,"adult":false},{"id":353686,"adult":false},{"id":63210,"adult":false},{"id":271794,"adult":false},{"id":1542,"adult":false},{"id":44656,"adult":false},{"id":56801,"adult":false},{"id":81049,"adult":false},{"id":9341,"adult":false},{"id":124854,"adult":false},{"id":52015,"adult":false},{"id":76454,"adult":false},{"id":1936,"adult":false},{"id":448549,"adult":false},{"id":79748,"adult":false},{"id":438768,"adult":false},{"id":105596,"adult":false},{"id":43837,"adult":false},{"id":10939,"adult":false},{"id":931,"adult":false},{"id":70532,"adult":false},{"id":28988,"adult":false},{"id":422763,"adult":false},{"id":199747,"adult":false},{"id":393717,"adult":false},{"id":437425,"adult":false},{"id":448550,"adult":false},{"id":448551,"adult":false},{"id":38541,"adult":false},{"id":231176,"adult":false},{"id":11839,"adult":false},{"id":568,"adult":false},{"id":10020,"adult":false},{"id":408258,"adult":false},{"id":446715,"adult":false},{"id":429451,"adult":false},{"id":429422,"adult":false},{"id":423298,"adult":false},{"id":105121,"adult":false},{"id":340023,"adult":false},{"id":254603,"adult":false},{"id":64720,"adult":false},{"id":55492,"adult":false},{"id":54843,"adult":false},{"id":440593,"adult":false}],"page":122,"total_pages":168,"total_results":16730}