{"results":[{"id":451145,"adult":false},{"id":412571,"adult":false},{"id":106583,"adult":false},{"id":451146,"adult":false},{"id":223848,"adult":false},{"id":15986,"adult":false},{"id":404331,"adult":false},{"id":451147,"adult":false},{"id":47934,"adult":false},{"id":179903,"adult":false},{"id":42013,"adult":false},{"id":291449,"adult":false},{"id":375741,"adult":false},{"id":80292,"adult":false},{"id":321303,"adult":false},{"id":448678,"adult":false},{"id":310949,"adult":false},{"id":342166,"adult":false},{"id":366644,"adult":false},{"id":78800,"adult":false},{"id":10986,"adult":false},{"id":30755,"adult":false},{"id":9426,"adult":false},{"id":395,"adult":false},{"id":12651,"adult":false},{"id":378108,"adult":false},{"id":42593,"adult":false},{"id":31665,"adult":false},{"id":440,"adult":false},{"id":451148,"adult":false},{"id":115762,"adult":false},{"id":451149,"adult":false},{"id":435184,"adult":false},{"id":31957,"adult":false},{"id":11439,"adult":false},{"id":205466,"adult":false},{"id":16911,"adult":false},{"id":451150,"adult":false},{"id":8981,"adult":false},{"id":18122,"adult":false},{"id":50689,"adult":false},{"id":13,"adult":false},{"id":129518,"adult":false},{"id":278892,"adult":false},{"id":448058,"adult":false},{"id":602,"adult":false},{"id":138765,"adult":false},{"id":13501,"adult":false},{"id":451151,"adult":false},{"id":451152,"adult":false},{"id":57500,"adult":false},{"id":451153,"adult":false},{"id":451154,"adult":false},{"id":425796,"adult":false},{"id":264157,"adult":false},{"id":25947,"adult":false},{"id":932,"adult":false},{"id":371486,"adult":false},{"id":169566,"adult":false},{"id":9549,"adult":false},{"id":6947,"adult":false},{"id":451155,"adult":false},{"id":10665,"adult":false},{"id":207625,"adult":false},{"id":428841,"adult":false},{"id":85542,"adult":false},{"id":117792,"adult":false},{"id":9481,"adult":false},{"id":451156,"adult":false},{"id":244688,"adult":false},{"id":451157,"adult":false},{"id":94960,"adult":false},{"id":451158,"adult":false},{"id":237983,"adult":false},{"id":9950,"adult":false},{"id":451159,"adult":false},{"id":451160,"adult":false},{"id":62206,"adult":false},{"id":39524,"adult":false},{"id":10660,"adult":false},{"id":451161,"adult":false},{"id":189767,"adult":false},{"id":32261,"adult":false},{"id":11282,"adult":false},{"id":192826,"adult":false},{"id":352205,"adult":false},{"id":451162,"adult":false},{"id":451163,"adult":false},{"id":89868,"adult":false},{"id":451164,"adult":false},{"id":64109,"adult":false},{"id":69310,"adult":false},{"id":166373,"adult":false},{"id":51996,"adult":false},{"id":192,"adult":false},{"id":9273,"adult":false},{"id":6470,"adult":false},{"id":400340,"adult":false},{"id":293163,"adult":false},{"id":321757,"adult":false}],"page":78,"total_pages":105,"total_results":10420}