{"results":[{"id":391424,"adult":false},{"id":9445,"adult":false},{"id":183944,"adult":false},{"id":15186,"adult":false},{"id":315622,"adult":false},{"id":443436,"adult":true},{"id":412361,"adult":false},{"id":327189,"adult":false},{"id":411663,"adult":false},{"id":144354,"adult":false},{"id":169854,"adult":false},{"id":28387,"adult":false},{"id":144202,"adult":false},{"id":11372,"adult":false},{"id":323052,"adult":false},{"id":450012,"adult":false},{"id":372096,"adult":false},{"id":364733,"adult":false},{"id":10310,"adult":false},{"id":46036,"adult":true},{"id":307257,"adult":false},{"id":438272,"adult":false},{"id":319000,"adult":null},{"id":450013,"adult":true},{"id":109365,"adult":false},{"id":450014,"adult":false},{"id":101342,"adult":false},{"id":192109,"adult":false},{"id":72559,"adult":false},{"id":438273,"adult":false},{"id":10501,"adult":false},{"id":264660,"adult":false},{"id":207703,"adult":false},{"id":7551,"adult":false},{"id":20352,"adult":false},{"id":12144,"adult":false},{"id":367220,"adult":false},{"id":272063,"adult":false},{"id":380669,"adult":false},{"id":291356,"adult":false},{"id":421958,"adult":false},{"id":106774,"adult":false},{"id":198287,"adult":false},{"id":25212,"adult":false},{"id":31074,"adult":false},{"id":7735,"adult":false},{"id":575,"adult":false},{"id":450015,"adult":false},{"id":277213,"adult":true},{"id":157336,"adult":false},{"id":1091,"adult":false},{"id":394499,"adult":false},{"id":14172,"adult":false},{"id":372058,"adult":false},{"id":310307,"adult":false},{"id":257211,"adult":false},{"id":86216,"adult":false},{"id":347630,"adult":false},{"id":415913,"adult":false},{"id":396004,"adult":false},{"id":450016,"adult":true},{"id":450017,"adult":false},{"id":26973,"adult":false},{"id":69351,"adult":false},{"id":449100,"adult":false},{"id":449742,"adult":false},{"id":441071,"adult":false},{"id":305470,"adult":false},{"id":7484,"adult":false},{"id":450018,"adult":true},{"id":450020,"adult":true},{"id":272691,"adult":false},{"id":382509,"adult":false},{"id":10174,"adult":false},{"id":450021,"adult":true},{"id":97899,"adult":false},{"id":254188,"adult":false},{"id":84178,"adult":false},{"id":25403,"adult":false},{"id":311054,"adult":false},{"id":449106,"adult":false},{"id":24170,"adult":false},{"id":32040,"adult":false},{"id":450022,"adult":true},{"id":1059,"adult":false},{"id":12516,"adult":false},{"id":296096,"adult":false},{"id":8282,"adult":false},{"id":1900,"adult":false},{"id":2742,"adult":false},{"id":28942,"adult":false},{"id":97716,"adult":false},{"id":1786,"adult":false},{"id":9538,"adult":false},{"id":177,"adult":false},{"id":41131,"adult":false},{"id":12560,"adult":false},{"id":935,"adult":false},{"id":614,"adult":false},{"id":450023,"adult":true}],"page":1,"total_pages":105,"total_results":10418}