{"results":[{"id":97883,"adult":false},{"id":395511,"adult":false},{"id":65852,"adult":false},{"id":157851,"adult":false},{"id":176153,"adult":false},{"id":380225,"adult":false},{"id":450439,"adult":false},{"id":445105,"adult":false},{"id":2565,"adult":false},{"id":291692,"adult":false},{"id":1394,"adult":false},{"id":450440,"adult":false},{"id":450441,"adult":false},{"id":327701,"adult":false},{"id":443992,"adult":false},{"id":450442,"adult":false},{"id":51112,"adult":false},{"id":20758,"adult":false},{"id":450443,"adult":false},{"id":450444,"adult":false},{"id":450445,"adult":false},{"id":128280,"adult":false},{"id":450446,"adult":false},{"id":450447,"adult":false},{"id":444097,"adult":false},{"id":450448,"adult":false},{"id":12227,"adult":false},{"id":450449,"adult":false},{"id":400020,"adult":false},{"id":450450,"adult":false},{"id":4477,"adult":false},{"id":450451,"adult":false},{"id":12703,"adult":false},{"id":1642,"adult":false},{"id":36934,"adult":false},{"id":380246,"adult":false},{"id":450452,"adult":false},{"id":450453,"adult":false},{"id":9715,"adult":false},{"id":392,"adult":false},{"id":11001,"adult":false},{"id":450454,"adult":false},{"id":450455,"adult":false},{"id":256962,"adult":false},{"id":1417,"adult":false},{"id":16980,"adult":false},{"id":50301,"adult":false},{"id":805,"adult":false},{"id":9428,"adult":false},{"id":3527,"adult":false},{"id":490,"adult":false},{"id":383530,"adult":false},{"id":354442,"adult":false},{"id":450456,"adult":false},{"id":388764,"adult":false},{"id":2575,"adult":false},{"id":363676,"adult":false},{"id":246860,"adult":false},{"id":109,"adult":false},{"id":53335,"adult":false},{"id":4538,"adult":false},{"id":63831,"adult":false},{"id":8333,"adult":false},{"id":853,"adult":false},{"id":11104,"adult":false},{"id":15877,"adult":false},{"id":15600,"adult":false},{"id":94831,"adult":false},{"id":962,"adult":false},{"id":19507,"adult":false},{"id":53094,"adult":false},{"id":32861,"adult":false},{"id":43752,"adult":false},{"id":2487,"adult":false},{"id":127,"adult":false},{"id":211358,"adult":false},{"id":120145,"adult":false},{"id":66032,"adult":false},{"id":586,"adult":false},{"id":94725,"adult":false},{"id":68612,"adult":false},{"id":105003,"adult":false},{"id":1600,"adult":false},{"id":31056,"adult":false},{"id":297733,"adult":false},{"id":925,"adult":false},{"id":251266,"adult":false},{"id":58129,"adult":false},{"id":445475,"adult":false},{"id":376659,"adult":false},{"id":16018,"adult":false},{"id":60646,"adult":false},{"id":59585,"adult":false},{"id":42889,"adult":false},{"id":296867,"adult":false},{"id":347,"adult":false},{"id":27064,"adult":false},{"id":49096,"adult":false},{"id":22596,"adult":false},{"id":309302,"adult":false}],"page":34,"total_pages":105,"total_results":10420}