{"results":[{"id":106115,"adult":false},{"id":53319,"adult":false},{"id":432457,"adult":false},{"id":155797,"adult":false},{"id":330982,"adult":false},{"id":361249,"adult":false},{"id":432943,"adult":false},{"id":362409,"adult":false},{"id":274867,"adult":false},{"id":133790,"adult":false},{"id":428585,"adult":false},{"id":301337,"adult":false},{"id":432944,"adult":false},{"id":353081,"adult":false},{"id":82675,"adult":false},{"id":41414,"adult":false},{"id":97,"adult":false},{"id":21044,"adult":false},{"id":1639,"adult":false},{"id":400157,"adult":false},{"id":383798,"adult":false},{"id":10528,"adult":false},{"id":9817,"adult":false},{"id":432945,"adult":false},{"id":169,"adult":false},{"id":13761,"adult":false},{"id":46247,"adult":false},{"id":12242,"adult":false},{"id":428584,"adult":false},{"id":432946,"adult":false},{"id":381017,"adult":false},{"id":10648,"adult":false},{"id":51548,"adult":false},{"id":161143,"adult":false},{"id":412766,"adult":false},{"id":20760,"adult":false},{"id":385479,"adult":false},{"id":21316,"adult":false},{"id":432947,"adult":false},{"id":79218,"adult":false},{"id":12625,"adult":false},{"id":53553,"adult":false},{"id":928,"adult":false},{"id":197963,"adult":false},{"id":58060,"adult":false},{"id":9037,"adult":false},{"id":386623,"adult":false},{"id":25428,"adult":false},{"id":2698,"adult":false},{"id":45861,"adult":false},{"id":190859,"adult":false},{"id":2295,"adult":false},{"id":370748,"adult":false},{"id":96811,"adult":false},{"id":432948,"adult":false},{"id":412209,"adult":false},{"id":333123,"adult":false},{"id":36210,"adult":false},{"id":16119,"adult":false},{"id":432949,"adult":false},{"id":14128,"adult":false},{"id":15840,"adult":false},{"id":145,"adult":false},{"id":418843,"adult":null},{"id":79379,"adult":false},{"id":2893,"adult":false},{"id":11629,"adult":false},{"id":306,"adult":false},{"id":418844,"adult":null},{"id":246749,"adult":false},{"id":432458,"adult":false},{"id":414,"adult":false},{"id":32064,"adult":false},{"id":11238,"adult":false},{"id":110390,"adult":false},{"id":1562,"adult":false},{"id":432950,"adult":false},{"id":432951,"adult":false},{"id":10404,"adult":false},{"id":25736,"adult":false},{"id":29804,"adult":false},{"id":76681,"adult":false},{"id":17057,"adult":false},{"id":432952,"adult":false},{"id":511,"adult":false},{"id":360179,"adult":false},{"id":14048,"adult":false},{"id":37557,"adult":false},{"id":289891,"adult":false},{"id":432953,"adult":false},{"id":310593,"adult":false},{"id":220674,"adult":false},{"id":245706,"adult":false},{"id":24227,"adult":false},{"id":23172,"adult":false},{"id":11130,"adult":false},{"id":141055,"adult":false},{"id":397722,"adult":false},{"id":432954,"adult":false},{"id":432955,"adult":false}],"page":28,"total_pages":133,"total_results":13251}