{"results":[{"id":201074,"adult":false},{"id":242749,"adult":false},{"id":218092,"adult":false},{"id":193313,"adult":false},{"id":23110,"adult":false},{"id":38454,"adult":false},{"id":214647,"adult":false},{"id":172563,"adult":false},{"id":425914,"adult":false},{"id":400058,"adult":false},{"id":333296,"adult":false},{"id":332025,"adult":false},{"id":348880,"adult":false},{"id":6589,"adult":false},{"id":193414,"adult":false},{"id":60186,"adult":false},{"id":136870,"adult":false},{"id":103054,"adult":false},{"id":103051,"adult":false},{"id":140438,"adult":false},{"id":415488,"adult":false},{"id":309025,"adult":null},{"id":329276,"adult":false},{"id":341874,"adult":false},{"id":327216,"adult":false},{"id":439614,"adult":false},{"id":216823,"adult":false},{"id":254345,"adult":false},{"id":256436,"adult":false},{"id":50357,"adult":false},{"id":128287,"adult":false},{"id":445304,"adult":false},{"id":397698,"adult":false},{"id":319993,"adult":false},{"id":445305,"adult":false},{"id":72400,"adult":false},{"id":193687,"adult":false},{"id":226221,"adult":false},{"id":172250,"adult":false},{"id":76041,"adult":false},{"id":445306,"adult":false},{"id":245775,"adult":false},{"id":445307,"adult":false},{"id":403952,"adult":false},{"id":279968,"adult":false},{"id":157825,"adult":false},{"id":445308,"adult":false},{"id":11009,"adult":false},{"id":219832,"adult":false},{"id":270668,"adult":false},{"id":276843,"adult":false},{"id":445309,"adult":false},{"id":317960,"adult":false},{"id":33258,"adult":false},{"id":252869,"adult":false},{"id":290646,"adult":false},{"id":252168,"adult":false},{"id":297604,"adult":false},{"id":441723,"adult":false},{"id":43922,"adult":false},{"id":395448,"adult":false},{"id":358191,"adult":false},{"id":445310,"adult":false},{"id":65639,"adult":false},{"id":38412,"adult":false},{"id":414028,"adult":false},{"id":402428,"adult":false},{"id":426558,"adult":false},{"id":445311,"adult":false},{"id":443530,"adult":false},{"id":407650,"adult":false},{"id":268735,"adult":false},{"id":397175,"adult":false},{"id":445312,"adult":false},{"id":445313,"adult":false},{"id":407740,"adult":false},{"id":29088,"adult":false},{"id":11367,"adult":false},{"id":445314,"adult":false},{"id":291721,"adult":false},{"id":337337,"adult":false},{"id":255090,"adult":false},{"id":445315,"adult":false},{"id":116570,"adult":false},{"id":425112,"adult":false},{"id":418397,"adult":false},{"id":294562,"adult":false},{"id":2323,"adult":false},{"id":416765,"adult":false},{"id":445316,"adult":false},{"id":445317,"adult":false},{"id":176254,"adult":false},{"id":28173,"adult":false},{"id":26331,"adult":false},{"id":436297,"adult":false},{"id":10226,"adult":false},{"id":55341,"adult":false},{"id":176762,"adult":false},{"id":39535,"adult":false},{"id":441924,"adult":false}],"page":72,"total_pages":162,"total_results":16167}