{"results":[{"id":11765,"adult":false},{"id":55628,"adult":false},{"id":16220,"adult":false},{"id":10982,"adult":false},{"id":46938,"adult":false},{"id":45004,"adult":false},{"id":27463,"adult":false},{"id":36879,"adult":false},{"id":22090,"adult":false},{"id":31690,"adult":false},{"id":41604,"adult":false},{"id":147212,"adult":false},{"id":129941,"adult":false},{"id":447745,"adult":false},{"id":447746,"adult":false},{"id":63984,"adult":false},{"id":437261,"adult":false},{"id":86133,"adult":false},{"id":38701,"adult":false},{"id":511,"adult":false},{"id":447747,"adult":false},{"id":101853,"adult":false},{"id":109667,"adult":false},{"id":447748,"adult":false},{"id":447749,"adult":false},{"id":334762,"adult":false},{"id":37238,"adult":false},{"id":366080,"adult":false},{"id":47796,"adult":false},{"id":18331,"adult":false},{"id":81654,"adult":false},{"id":336882,"adult":false},{"id":286325,"adult":false},{"id":88912,"adult":false},{"id":133827,"adult":false},{"id":355852,"adult":false},{"id":18658,"adult":false},{"id":85609,"adult":false},{"id":14703,"adult":false},{"id":151138,"adult":false},{"id":134998,"adult":false},{"id":57983,"adult":false},{"id":51054,"adult":false},{"id":53194,"adult":false},{"id":47615,"adult":false},{"id":446841,"adult":false},{"id":273840,"adult":false},{"id":42715,"adult":false},{"id":287593,"adult":false},{"id":116875,"adult":false},{"id":23728,"adult":false},{"id":447750,"adult":false},{"id":159256,"adult":false},{"id":90644,"adult":false},{"id":205004,"adult":false},{"id":326320,"adult":false},{"id":143916,"adult":false},{"id":337869,"adult":false},{"id":22694,"adult":false},{"id":90015,"adult":false},{"id":270708,"adult":false},{"id":753,"adult":false},{"id":203763,"adult":false},{"id":48564,"adult":false},{"id":447751,"adult":false},{"id":261478,"adult":false},{"id":45138,"adult":false},{"id":26509,"adult":false},{"id":202886,"adult":false},{"id":11081,"adult":false},{"id":445838,"adult":false},{"id":343473,"adult":false},{"id":95013,"adult":false},{"id":131115,"adult":false},{"id":94468,"adult":false},{"id":95,"adult":false},{"id":31581,"adult":false},{"id":61231,"adult":false},{"id":48267,"adult":false},{"id":26606,"adult":false},{"id":532,"adult":false},{"id":447752,"adult":false},{"id":60948,"adult":false},{"id":424121,"adult":false},{"id":531,"adult":false},{"id":447753,"adult":false},{"id":119619,"adult":false},{"id":530,"adult":false},{"id":60568,"adult":false},{"id":447754,"adult":false},{"id":77467,"adult":false},{"id":87036,"adult":false},{"id":92360,"adult":false},{"id":406992,"adult":false},{"id":447755,"adult":false},{"id":424992,"adult":false},{"id":234567,"adult":false},{"id":13061,"adult":false},{"id":13927,"adult":false},{"id":141528,"adult":false}],"page":63,"total_pages":168,"total_results":16730}