{"results":[{"id":163585,"adult":false},{"id":216134,"adult":false},{"id":14248,"adult":false},{"id":41709,"adult":false},{"id":333112,"adult":false},{"id":444984,"adult":false},{"id":40872,"adult":false},{"id":310,"adult":false},{"id":56734,"adult":false},{"id":920,"adult":false},{"id":118379,"adult":false},{"id":358513,"adult":false},{"id":69161,"adult":false},{"id":358010,"adult":false},{"id":209212,"adult":false},{"id":327641,"adult":false},{"id":443822,"adult":false},{"id":444985,"adult":true},{"id":398929,"adult":false},{"id":378695,"adult":false},{"id":439596,"adult":false},{"id":435348,"adult":false},{"id":415036,"adult":false},{"id":391772,"adult":false},{"id":256569,"adult":false},{"id":351875,"adult":null},{"id":11815,"adult":false},{"id":444986,"adult":false},{"id":441949,"adult":false},{"id":327528,"adult":false},{"id":444988,"adult":false},{"id":219897,"adult":false},{"id":316885,"adult":false},{"id":444989,"adult":false},{"id":380879,"adult":false},{"id":323675,"adult":false},{"id":308409,"adult":false},{"id":416691,"adult":false},{"id":444990,"adult":false},{"id":84427,"adult":false},{"id":411287,"adult":false},{"id":259695,"adult":false},{"id":296313,"adult":false},{"id":68730,"adult":false},{"id":441984,"adult":null},{"id":36763,"adult":false},{"id":352025,"adult":false},{"id":392140,"adult":false},{"id":15206,"adult":false},{"id":212606,"adult":false},{"id":393562,"adult":false},{"id":281623,"adult":false},{"id":66194,"adult":false},{"id":378064,"adult":false},{"id":9016,"adult":false},{"id":10787,"adult":false},{"id":74620,"adult":false},{"id":17709,"adult":false},{"id":64100,"adult":false},{"id":46884,"adult":false},{"id":414969,"adult":false},{"id":326234,"adult":false},{"id":444991,"adult":false},{"id":122126,"adult":false},{"id":8275,"adult":false},{"id":91550,"adult":false},{"id":122134,"adult":false},{"id":334541,"adult":false},{"id":444992,"adult":false},{"id":193984,"adult":false},{"id":393613,"adult":false},{"id":112755,"adult":false},{"id":444993,"adult":false},{"id":134221,"adult":false},{"id":414690,"adult":false},{"id":39196,"adult":false},{"id":45781,"adult":false},{"id":45626,"adult":false},{"id":30126,"adult":false},{"id":31220,"adult":false},{"id":60810,"adult":false},{"id":9821,"adult":false},{"id":68946,"adult":false},{"id":59273,"adult":false},{"id":16048,"adult":false},{"id":421654,"adult":false},{"id":444995,"adult":false},{"id":49190,"adult":false},{"id":87122,"adult":false},{"id":421655,"adult":false},{"id":18282,"adult":false},{"id":679,"adult":false},{"id":72151,"adult":false},{"id":35384,"adult":false},{"id":444996,"adult":false},{"id":396535,"adult":false},{"id":149129,"adult":false},{"id":59977,"adult":false},{"id":99708,"adult":false},{"id":9101,"adult":false}],"page":44,"total_pages":162,"total_results":16167}