{"results":[{"id":448815,"adult":null},{"id":29290,"adult":false},{"id":272221,"adult":false},{"id":62460,"adult":false},{"id":42711,"adult":false},{"id":448816,"adult":false},{"id":140636,"adult":false},{"id":86494,"adult":false},{"id":94248,"adult":false},{"id":3478,"adult":false},{"id":313765,"adult":false},{"id":254427,"adult":false},{"id":168894,"adult":false},{"id":87514,"adult":false},{"id":159546,"adult":false},{"id":26504,"adult":false},{"id":20379,"adult":false},{"id":1594,"adult":false},{"id":79466,"adult":false},{"id":203622,"adult":false},{"id":153183,"adult":false},{"id":2516,"adult":false},{"id":3052,"adult":false},{"id":85975,"adult":false},{"id":121611,"adult":false},{"id":285991,"adult":false},{"id":40956,"adult":false},{"id":75759,"adult":false},{"id":85327,"adult":false},{"id":67627,"adult":false},{"id":406549,"adult":false},{"id":47819,"adult":false},{"id":431572,"adult":false},{"id":29693,"adult":false},{"id":21666,"adult":false},{"id":77654,"adult":false},{"id":28,"adult":false},{"id":46460,"adult":false},{"id":11689,"adult":false},{"id":698,"adult":false},{"id":37923,"adult":false},{"id":696,"adult":false},{"id":54000,"adult":false},{"id":4484,"adult":false},{"id":51543,"adult":false},{"id":11583,"adult":false},{"id":60171,"adult":false},{"id":270674,"adult":false},{"id":225155,"adult":false},{"id":86779,"adult":false},{"id":28722,"adult":false},{"id":409547,"adult":false},{"id":406795,"adult":null},{"id":68206,"adult":false},{"id":406793,"adult":null},{"id":406791,"adult":null},{"id":406799,"adult":null},{"id":406800,"adult":null},{"id":430830,"adult":false},{"id":397113,"adult":false},{"id":363530,"adult":true},{"id":5734,"adult":false},{"id":86854,"adult":true},{"id":433594,"adult":true},{"id":352838,"adult":false},{"id":123379,"adult":true},{"id":448817,"adult":false},{"id":448818,"adult":false},{"id":355184,"adult":true},{"id":5735,"adult":false},{"id":30418,"adult":false},{"id":60607,"adult":false},{"id":160399,"adult":false},{"id":446030,"adult":true},{"id":67305,"adult":false},{"id":217993,"adult":false},{"id":93546,"adult":false},{"id":249575,"adult":false},{"id":265324,"adult":false},{"id":28128,"adult":false},{"id":382490,"adult":false},{"id":423268,"adult":false},{"id":415786,"adult":false},{"id":27127,"adult":false},{"id":672,"adult":false},{"id":191962,"adult":true},{"id":140684,"adult":false},{"id":674,"adult":false},{"id":285581,"adult":false},{"id":419700,"adult":false},{"id":448819,"adult":false},{"id":448820,"adult":false},{"id":202692,"adult":false},{"id":265062,"adult":false},{"id":93207,"adult":true},{"id":448821,"adult":false},{"id":12445,"adult":false},{"id":289642,"adult":true},{"id":448822,"adult":true},{"id":53028,"adult":false}],"page":139,"total_pages":168,"total_results":16730}