{"results":[{"id":124266,"adult":false},{"id":8386,"adult":false},{"id":104308,"adult":false},{"id":11834,"adult":false},{"id":89260,"adult":false},{"id":188924,"adult":false},{"id":440220,"adult":false},{"id":405670,"adult":false},{"id":440221,"adult":null},{"id":15046,"adult":false},{"id":48902,"adult":false},{"id":114958,"adult":false},{"id":24858,"adult":false},{"id":440222,"adult":false},{"id":412621,"adult":false},{"id":162210,"adult":false},{"id":440223,"adult":false},{"id":50928,"adult":false},{"id":337967,"adult":false},{"id":440224,"adult":false},{"id":8209,"adult":false},{"id":386117,"adult":false},{"id":440225,"adult":false},{"id":215794,"adult":false},{"id":440226,"adult":false},{"id":440227,"adult":false},{"id":440228,"adult":false},{"id":7350,"adult":false},{"id":748,"adult":false},{"id":440229,"adult":false},{"id":359245,"adult":false},{"id":333386,"adult":false},{"id":393345,"adult":false},{"id":5425,"adult":false},{"id":440230,"adult":false},{"id":54007,"adult":false},{"id":391709,"adult":false},{"id":50855,"adult":false},{"id":440231,"adult":false},{"id":440232,"adult":false},{"id":50899,"adult":false},{"id":10383,"adult":false},{"id":440233,"adult":false},{"id":359983,"adult":false},{"id":440234,"adult":false},{"id":336664,"adult":false},{"id":440235,"adult":false},{"id":172767,"adult":false},{"id":313230,"adult":false},{"id":124847,"adult":false},{"id":440236,"adult":false},{"id":24701,"adult":false},{"id":136171,"adult":false},{"id":52605,"adult":false},{"id":358952,"adult":false},{"id":413221,"adult":false},{"id":440237,"adult":false},{"id":337556,"adult":false},{"id":119471,"adult":false},{"id":50916,"adult":false},{"id":440238,"adult":false},{"id":326772,"adult":false},{"id":82318,"adult":false},{"id":1702,"adult":false},{"id":440239,"adult":false},{"id":94563,"adult":false},{"id":440240,"adult":false},{"id":88746,"adult":false},{"id":440241,"adult":null},{"id":203268,"adult":false},{"id":19803,"adult":false},{"id":178452,"adult":false},{"id":292841,"adult":false},{"id":425,"adult":false},{"id":118259,"adult":false},{"id":16662,"adult":false},{"id":412389,"adult":null},{"id":168329,"adult":false},{"id":427109,"adult":false},{"id":440242,"adult":false},{"id":421832,"adult":null},{"id":196027,"adult":false},{"id":8355,"adult":false},{"id":80663,"adult":false},{"id":130414,"adult":false},{"id":440243,"adult":false},{"id":440244,"adult":false},{"id":115699,"adult":false},{"id":106919,"adult":false},{"id":36766,"adult":false},{"id":10035,"adult":false},{"id":154089,"adult":false},{"id":440245,"adult":false},{"id":42941,"adult":false},{"id":32657,"adult":false},{"id":29355,"adult":false},{"id":347672,"adult":false},{"id":43148,"adult":false},{"id":169973,"adult":false},{"id":440246,"adult":false}],"page":83,"total_pages":158,"total_results":15756}