{"results":[{"id":11848,"adult":false},{"id":22805,"adult":false},{"id":84178,"adult":false},{"id":18221,"adult":false},{"id":8942,"adult":false},{"id":6961,"adult":false},{"id":336960,"adult":false},{"id":12660,"adult":false},{"id":9722,"adult":false},{"id":22798,"adult":false},{"id":339303,"adult":false},{"id":44638,"adult":false},{"id":108972,"adult":false},{"id":44992,"adult":false},{"id":13787,"adult":false},{"id":177354,"adult":false},{"id":11418,"adult":false},{"id":10897,"adult":false},{"id":408203,"adult":false},{"id":126277,"adult":false},{"id":73935,"adult":false},{"id":13243,"adult":false},{"id":80591,"adult":false},{"id":52371,"adult":false},{"id":317557,"adult":false},{"id":12112,"adult":false},{"id":32593,"adult":false},{"id":41801,"adult":false},{"id":66113,"adult":false},{"id":404503,"adult":false},{"id":9953,"adult":false},{"id":127867,"adult":false},{"id":151478,"adult":false},{"id":306197,"adult":false},{"id":320004,"adult":false},{"id":136850,"adult":false},{"id":499,"adult":false},{"id":224297,"adult":false},{"id":84316,"adult":false},{"id":112,"adult":false},{"id":50183,"adult":false},{"id":78363,"adult":false},{"id":43942,"adult":false},{"id":19294,"adult":false},{"id":251749,"adult":false},{"id":319373,"adult":false},{"id":223946,"adult":false},{"id":293452,"adult":false},{"id":12702,"adult":false},{"id":9583,"adult":false},{"id":447039,"adult":false},{"id":8915,"adult":false},{"id":53596,"adult":false},{"id":329805,"adult":false},{"id":253161,"adult":false},{"id":166666,"adult":false},{"id":86555,"adult":false},{"id":246400,"adult":false},{"id":26290,"adult":false},{"id":154291,"adult":false},{"id":2771,"adult":false},{"id":64586,"adult":false},{"id":18300,"adult":false},{"id":236143,"adult":false},{"id":8928,"adult":false},{"id":306964,"adult":false},{"id":284537,"adult":false},{"id":230266,"adult":false},{"id":376166,"adult":false},{"id":310569,"adult":false},{"id":1919,"adult":false},{"id":311801,"adult":false},{"id":313867,"adult":false},{"id":447040,"adult":false},{"id":122982,"adult":false},{"id":94551,"adult":false},{"id":32579,"adult":false},{"id":7973,"adult":false},{"id":236399,"adult":false},{"id":79777,"adult":false},{"id":384756,"adult":false},{"id":4762,"adult":false},{"id":38542,"adult":false},{"id":13090,"adult":false},{"id":50875,"adult":false},{"id":289153,"adult":false},{"id":30250,"adult":false},{"id":10955,"adult":false},{"id":10183,"adult":false},{"id":9305,"adult":false},{"id":14522,"adult":false},{"id":252728,"adult":false},{"id":36515,"adult":false},{"id":231474,"adult":false},{"id":157351,"adult":false},{"id":300667,"adult":false},{"id":8272,"adult":false},{"id":331836,"adult":false},{"id":121835,"adult":false},{"id":36758,"adult":false}],"page":4,"total_pages":168,"total_results":16730}