{"results":[{"id":189235,"adult":false},{"id":447113,"adult":false},{"id":405882,"adult":false},{"id":113520,"adult":false},{"id":450181,"adult":false},{"id":61689,"adult":false},{"id":119816,"adult":false},{"id":78216,"adult":false},{"id":450182,"adult":false},{"id":60421,"adult":false},{"id":65226,"adult":false},{"id":63539,"adult":false},{"id":10293,"adult":false},{"id":282861,"adult":false},{"id":79039,"adult":false},{"id":65227,"adult":false},{"id":305665,"adult":false},{"id":9323,"adult":false},{"id":6914,"adult":false},{"id":450183,"adult":false},{"id":630,"adult":false},{"id":116982,"adult":false},{"id":84273,"adult":false},{"id":60797,"adult":false},{"id":3484,"adult":false},{"id":151068,"adult":false},{"id":449018,"adult":false},{"id":39781,"adult":false},{"id":298201,"adult":false},{"id":450185,"adult":false},{"id":450186,"adult":false},{"id":399819,"adult":false},{"id":450187,"adult":false},{"id":450188,"adult":false},{"id":15582,"adult":false},{"id":287486,"adult":false},{"id":431204,"adult":false},{"id":379565,"adult":false},{"id":32603,"adult":false},{"id":255871,"adult":false},{"id":269593,"adult":false},{"id":410553,"adult":false},{"id":436307,"adult":false},{"id":279190,"adult":false},{"id":188735,"adult":false},{"id":50929,"adult":false},{"id":132738,"adult":false},{"id":450189,"adult":false},{"id":415476,"adult":false},{"id":431407,"adult":false},{"id":43819,"adult":false},{"id":450190,"adult":false},{"id":79252,"adult":false},{"id":91030,"adult":false},{"id":358923,"adult":false},{"id":450191,"adult":false},{"id":70046,"adult":false},{"id":450192,"adult":false},{"id":389979,"adult":false},{"id":67767,"adult":false},{"id":88677,"adult":false},{"id":450193,"adult":false},{"id":291416,"adult":false},{"id":438271,"adult":false},{"id":79959,"adult":false},{"id":449838,"adult":false},{"id":450194,"adult":false},{"id":136510,"adult":false},{"id":249370,"adult":false},{"id":450195,"adult":false},{"id":392536,"adult":false},{"id":64534,"adult":false},{"id":200773,"adult":false},{"id":443484,"adult":false},{"id":433054,"adult":false},{"id":434038,"adult":false},{"id":417263,"adult":false},{"id":427071,"adult":false},{"id":444713,"adult":false},{"id":37530,"adult":false},{"id":450196,"adult":false},{"id":37416,"adult":false},{"id":216296,"adult":false},{"id":340676,"adult":false},{"id":450197,"adult":false},{"id":450198,"adult":false},{"id":450199,"adult":false},{"id":450200,"adult":false},{"id":157129,"adult":false},{"id":10494,"adult":false},{"id":450201,"adult":false},{"id":8688,"adult":false},{"id":450202,"adult":false},{"id":211411,"adult":false},{"id":416145,"adult":false},{"id":450203,"adult":true},{"id":450204,"adult":false},{"id":17175,"adult":false},{"id":450205,"adult":false},{"id":32528,"adult":false}],"page":16,"total_pages":105,"total_results":10418}