{"results":[{"id":439421,"adult":false},{"id":402324,"adult":false},{"id":225745,"adult":false},{"id":65086,"adult":false},{"id":28519,"adult":false},{"id":439422,"adult":false},{"id":382781,"adult":false},{"id":1523,"adult":false},{"id":439423,"adult":false},{"id":91445,"adult":false},{"id":437961,"adult":false},{"id":439424,"adult":false},{"id":27123,"adult":false},{"id":439426,"adult":false},{"id":416838,"adult":false},{"id":55210,"adult":false},{"id":16624,"adult":false},{"id":439428,"adult":false},{"id":383406,"adult":false},{"id":1592,"adult":false},{"id":37498,"adult":false},{"id":25137,"adult":false},{"id":420982,"adult":false},{"id":26593,"adult":false},{"id":439429,"adult":false},{"id":294993,"adult":false},{"id":152760,"adult":false},{"id":439430,"adult":false},{"id":90785,"adult":false},{"id":437954,"adult":false},{"id":439431,"adult":false},{"id":439432,"adult":false},{"id":436809,"adult":false},{"id":10861,"adult":false},{"id":14919,"adult":false},{"id":286925,"adult":false},{"id":439433,"adult":false},{"id":79992,"adult":false},{"id":439434,"adult":false},{"id":261023,"adult":false},{"id":413661,"adult":false},{"id":2085,"adult":false},{"id":439435,"adult":false},{"id":439436,"adult":false},{"id":361931,"adult":false},{"id":251687,"adult":false},{"id":439441,"adult":false},{"id":439442,"adult":false},{"id":304037,"adult":false},{"id":372415,"adult":false},{"id":217723,"adult":false},{"id":217721,"adult":false},{"id":18925,"adult":false},{"id":439444,"adult":false},{"id":439445,"adult":false},{"id":12271,"adult":false},{"id":87187,"adult":false},{"id":356626,"adult":false},{"id":221731,"adult":false},{"id":83939,"adult":false},{"id":2324,"adult":false},{"id":439446,"adult":false},{"id":9615,"adult":false},{"id":439447,"adult":false},{"id":8324,"adult":false},{"id":44245,"adult":false},{"id":21191,"adult":false},{"id":68116,"adult":false},{"id":18615,"adult":false},{"id":223485,"adult":false},{"id":65793,"adult":false},{"id":10288,"adult":false},{"id":11205,"adult":false},{"id":4689,"adult":false},{"id":9286,"adult":false},{"id":10396,"adult":false},{"id":9950,"adult":false},{"id":146233,"adult":false},{"id":16083,"adult":false},{"id":136701,"adult":false},{"id":11650,"adult":false},{"id":8843,"adult":false},{"id":31810,"adult":false},{"id":3683,"adult":false},{"id":14012,"adult":false},{"id":10008,"adult":false},{"id":11619,"adult":false},{"id":338998,"adult":false},{"id":15008,"adult":false},{"id":284854,"adult":false},{"id":363723,"adult":false},{"id":1381,"adult":false},{"id":10123,"adult":false},{"id":10420,"adult":false},{"id":62977,"adult":false},{"id":264782,"adult":false},{"id":9999,"adult":false},{"id":247172,"adult":false},{"id":20617,"adult":false},{"id":26610,"adult":false}],"page":49,"total_pages":158,"total_results":15756}