{"results":[{"id":15696,"adult":false},{"id":450317,"adult":false},{"id":346034,"adult":false},{"id":407756,"adult":false},{"id":450318,"adult":false},{"id":407577,"adult":false},{"id":328743,"adult":false},{"id":27172,"adult":false},{"id":290283,"adult":false},{"id":3777,"adult":false},{"id":342917,"adult":false},{"id":212077,"adult":false},{"id":51824,"adult":false},{"id":97930,"adult":false},{"id":82384,"adult":false},{"id":10984,"adult":false},{"id":417224,"adult":false},{"id":27139,"adult":false},{"id":181382,"adult":false},{"id":366142,"adult":false},{"id":9582,"adult":false},{"id":27874,"adult":false},{"id":18038,"adult":false},{"id":189197,"adult":false},{"id":71708,"adult":false},{"id":36087,"adult":false},{"id":44407,"adult":false},{"id":281699,"adult":false},{"id":449751,"adult":false},{"id":134463,"adult":false},{"id":450319,"adult":false},{"id":267283,"adult":false},{"id":450320,"adult":false},{"id":344534,"adult":false},{"id":328483,"adult":false},{"id":38009,"adult":false},{"id":287623,"adult":false},{"id":425015,"adult":false},{"id":941,"adult":false},{"id":18818,"adult":false},{"id":450321,"adult":false},{"id":334535,"adult":false},{"id":130694,"adult":false},{"id":449178,"adult":false},{"id":450322,"adult":false},{"id":25645,"adult":false},{"id":338567,"adult":false},{"id":31624,"adult":false},{"id":36217,"adult":false},{"id":35689,"adult":false},{"id":388092,"adult":false},{"id":11808,"adult":false},{"id":331576,"adult":false},{"id":334527,"adult":false},{"id":450323,"adult":false},{"id":5503,"adult":false},{"id":180951,"adult":false},{"id":449547,"adult":false},{"id":87400,"adult":false},{"id":432916,"adult":false},{"id":324573,"adult":false},{"id":13468,"adult":false},{"id":55740,"adult":false},{"id":450324,"adult":false},{"id":126726,"adult":false},{"id":95114,"adult":false},{"id":450325,"adult":false},{"id":5178,"adult":false},{"id":72976,"adult":false},{"id":278316,"adult":false},{"id":111012,"adult":false},{"id":391713,"adult":false},{"id":320343,"adult":false},{"id":413842,"adult":false},{"id":69217,"adult":false},{"id":386827,"adult":false},{"id":450326,"adult":false},{"id":311999,"adult":false},{"id":237439,"adult":false},{"id":10629,"adult":false},{"id":13525,"adult":false},{"id":335187,"adult":false},{"id":6479,"adult":false},{"id":29151,"adult":false},{"id":211645,"adult":false},{"id":4148,"adult":false},{"id":425849,"adult":false},{"id":450327,"adult":false},{"id":293856,"adult":false},{"id":100662,"adult":false},{"id":84166,"adult":false},{"id":246115,"adult":false},{"id":450328,"adult":false},{"id":104156,"adult":false},{"id":77056,"adult":false},{"id":450329,"adult":false},{"id":148885,"adult":false},{"id":450330,"adult":false},{"id":374458,"adult":false},{"id":4688,"adult":false}],"page":26,"total_pages":105,"total_results":10420}