{"results":[{"id":128759,"adult":false},{"id":102762,"adult":false},{"id":389657,"adult":false},{"id":30384,"adult":false},{"id":14113,"adult":false},{"id":345968,"adult":false},{"id":6877,"adult":false},{"id":188093,"adult":false},{"id":13979,"adult":false},{"id":315860,"adult":false},{"id":74074,"adult":false},{"id":425781,"adult":false},{"id":114874,"adult":true},{"id":41393,"adult":false},{"id":80206,"adult":false},{"id":56310,"adult":false},{"id":42230,"adult":false},{"id":61415,"adult":false},{"id":116017,"adult":false},{"id":84558,"adult":false},{"id":85594,"adult":false},{"id":10515,"adult":false},{"id":398587,"adult":null},{"id":235710,"adult":false},{"id":440590,"adult":false},{"id":385375,"adult":true},{"id":355436,"adult":false},{"id":81,"adult":false},{"id":409592,"adult":null},{"id":242828,"adult":false},{"id":440591,"adult":false},{"id":115466,"adult":false},{"id":83389,"adult":false},{"id":68075,"adult":false},{"id":171893,"adult":false},{"id":168327,"adult":false},{"id":210655,"adult":false},{"id":169831,"adult":false},{"id":440592,"adult":false},{"id":401469,"adult":false},{"id":141723,"adult":false},{"id":440593,"adult":false},{"id":241774,"adult":false},{"id":184129,"adult":false},{"id":170196,"adult":false},{"id":292299,"adult":false},{"id":10764,"adult":false},{"id":37797,"adult":false},{"id":15283,"adult":false},{"id":187977,"adult":false},{"id":1688,"adult":false},{"id":15080,"adult":false},{"id":64131,"adult":false},{"id":1541,"adult":false},{"id":67798,"adult":false},{"id":221899,"adult":false},{"id":371283,"adult":false},{"id":166116,"adult":false},{"id":358183,"adult":false},{"id":332383,"adult":false},{"id":332379,"adult":false},{"id":168291,"adult":false},{"id":172599,"adult":false},{"id":129498,"adult":false},{"id":60722,"adult":false},{"id":332377,"adult":false},{"id":70884,"adult":false},{"id":60720,"adult":false},{"id":315542,"adult":false},{"id":60717,"adult":false},{"id":88692,"adult":false},{"id":416777,"adult":false},{"id":325373,"adult":false},{"id":60714,"adult":false},{"id":63454,"adult":false},{"id":400421,"adult":false},{"id":8271,"adult":false},{"id":62083,"adult":false},{"id":332561,"adult":false},{"id":332400,"adult":false},{"id":333578,"adult":false},{"id":332768,"adult":false},{"id":440594,"adult":false},{"id":255383,"adult":false},{"id":68076,"adult":false},{"id":152180,"adult":false},{"id":25778,"adult":false},{"id":402845,"adult":false},{"id":151270,"adult":false},{"id":40639,"adult":false},{"id":325317,"adult":false},{"id":422607,"adult":false},{"id":102855,"adult":false},{"id":67045,"adult":false},{"id":69262,"adult":false},{"id":43704,"adult":false},{"id":172349,"adult":false},{"id":36856,"adult":false},{"id":78053,"adult":false},{"id":345144,"adult":null}],"page":100,"total_pages":158,"total_results":15756}