{"results":[{"id":444422,"adult":false},{"id":29095,"adult":false},{"id":233063,"adult":false},{"id":130938,"adult":false},{"id":444423,"adult":false},{"id":444424,"adult":false},{"id":216789,"adult":false},{"id":323604,"adult":false},{"id":444425,"adult":null},{"id":363126,"adult":false},{"id":207932,"adult":false},{"id":444426,"adult":false},{"id":634,"adult":false},{"id":286465,"adult":false},{"id":168454,"adult":false},{"id":282326,"adult":false},{"id":444427,"adult":null},{"id":406686,"adult":null},{"id":32147,"adult":false},{"id":387426,"adult":false},{"id":444428,"adult":false},{"id":375355,"adult":false},{"id":354287,"adult":false},{"id":417320,"adult":false},{"id":204810,"adult":false},{"id":444429,"adult":false},{"id":63331,"adult":false},{"id":277378,"adult":null},{"id":110127,"adult":false},{"id":444430,"adult":null},{"id":444431,"adult":false},{"id":401546,"adult":false},{"id":313520,"adult":false},{"id":269714,"adult":false},{"id":4225,"adult":false},{"id":259954,"adult":false},{"id":308504,"adult":false},{"id":406685,"adult":null},{"id":406680,"adult":null},{"id":11355,"adult":false},{"id":406678,"adult":null},{"id":444432,"adult":false},{"id":444433,"adult":false},{"id":63988,"adult":false},{"id":144716,"adult":false},{"id":96184,"adult":false},{"id":444434,"adult":false},{"id":435580,"adult":false},{"id":293686,"adult":false},{"id":406670,"adult":null},{"id":306600,"adult":false},{"id":85020,"adult":false},{"id":374331,"adult":false},{"id":257544,"adult":false},{"id":191860,"adult":true},{"id":300668,"adult":false},{"id":51422,"adult":false},{"id":406654,"adult":null},{"id":406640,"adult":null},{"id":185471,"adult":false},{"id":11463,"adult":false},{"id":46871,"adult":false},{"id":825,"adult":false},{"id":202989,"adult":false},{"id":406648,"adult":null},{"id":27567,"adult":false},{"id":89327,"adult":null},{"id":17100,"adult":false},{"id":57023,"adult":false},{"id":16985,"adult":false},{"id":14536,"adult":false},{"id":18239,"adult":false},{"id":225958,"adult":false},{"id":262350,"adult":false},{"id":164721,"adult":null},{"id":167820,"adult":false},{"id":444435,"adult":false},{"id":282888,"adult":false},{"id":408483,"adult":false},{"id":12572,"adult":false},{"id":315984,"adult":false},{"id":242095,"adult":false},{"id":266882,"adult":false},{"id":393457,"adult":false},{"id":428434,"adult":false},{"id":406647,"adult":null},{"id":34637,"adult":false},{"id":444280,"adult":false},{"id":444145,"adult":null},{"id":315893,"adult":false},{"id":22805,"adult":false},{"id":402844,"adult":false},{"id":432887,"adult":false},{"id":367548,"adult":false},{"id":387536,"adult":false},{"id":406644,"adult":null},{"id":406638,"adult":null},{"id":242224,"adult":false},{"id":406643,"adult":null},{"id":14549,"adult":false}],"page":8,"total_pages":162,"total_results":16167}