{"results":[{"id":990,"adult":false},{"id":439518,"adult":false},{"id":72981,"adult":false},{"id":103734,"adult":false},{"id":40751,"adult":false},{"id":317486,"adult":false},{"id":51358,"adult":false},{"id":340023,"adult":false},{"id":439519,"adult":false},{"id":398911,"adult":false},{"id":332714,"adult":false},{"id":286038,"adult":false},{"id":261590,"adult":false},{"id":404785,"adult":false},{"id":22590,"adult":false},{"id":42345,"adult":false},{"id":384798,"adult":false},{"id":31046,"adult":false},{"id":429458,"adult":false},{"id":439520,"adult":false},{"id":30347,"adult":false},{"id":26114,"adult":false},{"id":270469,"adult":false},{"id":439523,"adult":false},{"id":22555,"adult":false},{"id":416149,"adult":false},{"id":43263,"adult":false},{"id":284834,"adult":false},{"id":59238,"adult":false},{"id":412678,"adult":false},{"id":110148,"adult":false},{"id":439524,"adult":false},{"id":29437,"adult":false},{"id":272015,"adult":false},{"id":439525,"adult":true},{"id":88067,"adult":false},{"id":436950,"adult":false},{"id":439526,"adult":false},{"id":11032,"adult":false},{"id":390403,"adult":false},{"id":325409,"adult":false},{"id":304023,"adult":false},{"id":49014,"adult":false},{"id":401089,"adult":false},{"id":23330,"adult":false},{"id":439527,"adult":false},{"id":417320,"adult":false},{"id":439528,"adult":false},{"id":439529,"adult":false},{"id":219611,"adult":false},{"id":439530,"adult":false},{"id":428630,"adult":false},{"id":389677,"adult":false},{"id":82360,"adult":false},{"id":439532,"adult":null},{"id":424339,"adult":true},{"id":439533,"adult":null},{"id":65616,"adult":true},{"id":439534,"adult":false},{"id":437261,"adult":false},{"id":439535,"adult":false},{"id":439536,"adult":false},{"id":439537,"adult":false},{"id":27205,"adult":false},{"id":439538,"adult":false},{"id":439539,"adult":false},{"id":439540,"adult":false},{"id":439541,"adult":false},{"id":439542,"adult":false},{"id":48889,"adult":false},{"id":439543,"adult":false},{"id":438257,"adult":false},{"id":51309,"adult":false},{"id":439544,"adult":false},{"id":439545,"adult":false},{"id":439546,"adult":false},{"id":439547,"adult":false},{"id":33810,"adult":false},{"id":439548,"adult":false},{"id":439549,"adult":false},{"id":202189,"adult":false},{"id":74,"adult":false},{"id":9799,"adult":false},{"id":78356,"adult":false},{"id":121820,"adult":false},{"id":91548,"adult":false},{"id":269646,"adult":false},{"id":126318,"adult":false},{"id":426284,"adult":false},{"id":43571,"adult":false},{"id":62328,"adult":false},{"id":145923,"adult":false},{"id":158529,"adult":false},{"id":225747,"adult":false},{"id":439550,"adult":false},{"id":439551,"adult":false},{"id":584,"adult":false},{"id":44629,"adult":false},{"id":60422,"adult":false},{"id":52663,"adult":false}],"page":52,"total_pages":158,"total_results":15756}