{"results":[{"id":437013,"adult":false},{"id":32033,"adult":false},{"id":88270,"adult":false},{"id":33258,"adult":false},{"id":77657,"adult":true},{"id":112882,"adult":false},{"id":95547,"adult":false},{"id":104960,"adult":false},{"id":361297,"adult":false},{"id":409307,"adult":false},{"id":96758,"adult":false},{"id":403368,"adult":false},{"id":288160,"adult":false},{"id":28268,"adult":false},{"id":18538,"adult":false},{"id":283706,"adult":false},{"id":257345,"adult":false},{"id":59958,"adult":false},{"id":288159,"adult":false},{"id":148584,"adult":false},{"id":50032,"adult":false},{"id":88271,"adult":false},{"id":116353,"adult":false},{"id":415275,"adult":false},{"id":13001,"adult":false},{"id":285136,"adult":false},{"id":24145,"adult":false},{"id":142918,"adult":false},{"id":155348,"adult":false},{"id":117472,"adult":false},{"id":265629,"adult":false},{"id":96721,"adult":false},{"id":117412,"adult":false},{"id":345470,"adult":false},{"id":135335,"adult":false},{"id":337674,"adult":false},{"id":174620,"adult":false},{"id":90677,"adult":false},{"id":62348,"adult":false},{"id":44163,"adult":false},{"id":187117,"adult":false},{"id":89462,"adult":false},{"id":35802,"adult":false},{"id":983,"adult":false},{"id":201553,"adult":false},{"id":5126,"adult":false},{"id":118051,"adult":false},{"id":52047,"adult":false},{"id":14043,"adult":false},{"id":387464,"adult":false},{"id":103658,"adult":false},{"id":447846,"adult":false},{"id":86767,"adult":false},{"id":378385,"adult":false},{"id":12767,"adult":false},{"id":442386,"adult":null},{"id":38978,"adult":false},{"id":432577,"adult":null},{"id":14118,"adult":false},{"id":296312,"adult":false},{"id":360774,"adult":false},{"id":240820,"adult":false},{"id":3437,"adult":false},{"id":446922,"adult":false},{"id":278464,"adult":false},{"id":243472,"adult":false},{"id":11808,"adult":false},{"id":12100,"adult":false},{"id":98635,"adult":false},{"id":355388,"adult":false},{"id":94659,"adult":false},{"id":447847,"adult":false},{"id":27372,"adult":false},{"id":241846,"adult":true},{"id":44552,"adult":false},{"id":447848,"adult":false},{"id":423627,"adult":false},{"id":117496,"adult":false},{"id":271718,"adult":false},{"id":322603,"adult":false},{"id":28270,"adult":false},{"id":686,"adult":false},{"id":4437,"adult":false},{"id":430229,"adult":false},{"id":408647,"adult":false},{"id":334934,"adult":false},{"id":561,"adult":false},{"id":22633,"adult":false},{"id":4836,"adult":false},{"id":447849,"adult":false},{"id":20850,"adult":false},{"id":268989,"adult":false},{"id":63020,"adult":false},{"id":304033,"adult":false},{"id":376083,"adult":false},{"id":735,"adult":false},{"id":27073,"adult":false},{"id":137859,"adult":false},{"id":300311,"adult":false},{"id":13256,"adult":false}],"page":76,"total_pages":168,"total_results":16730}