{"results":[{"id":27103,"adult":false},{"id":432643,"adult":false},{"id":443310,"adult":false},{"id":213,"adult":false},{"id":430181,"adult":false},{"id":54019,"adult":false},{"id":437410,"adult":false},{"id":430177,"adult":true},{"id":241384,"adult":false},{"id":430176,"adult":true},{"id":17099,"adult":false},{"id":420269,"adult":false},{"id":111326,"adult":false},{"id":443311,"adult":false},{"id":147196,"adult":false},{"id":50006,"adult":false},{"id":325253,"adult":false},{"id":110761,"adult":false},{"id":25585,"adult":false},{"id":281007,"adult":false},{"id":16701,"adult":false},{"id":121545,"adult":false},{"id":56596,"adult":false},{"id":4481,"adult":false},{"id":417573,"adult":false},{"id":48329,"adult":false},{"id":44358,"adult":false},{"id":104159,"adult":false},{"id":207827,"adult":false},{"id":37003,"adult":false},{"id":443312,"adult":false},{"id":417555,"adult":false},{"id":26433,"adult":false},{"id":13384,"adult":false},{"id":417420,"adult":false},{"id":177945,"adult":false},{"id":13193,"adult":false},{"id":414598,"adult":false},{"id":443313,"adult":false},{"id":430169,"adult":true},{"id":195390,"adult":false},{"id":58085,"adult":false},{"id":385642,"adult":false},{"id":443314,"adult":false},{"id":75336,"adult":false},{"id":387724,"adult":false},{"id":68825,"adult":false},{"id":396679,"adult":false},{"id":336843,"adult":false},{"id":267792,"adult":false},{"id":50849,"adult":false},{"id":390322,"adult":false},{"id":5625,"adult":false},{"id":383120,"adult":false},{"id":382222,"adult":false},{"id":400547,"adult":false},{"id":11441,"adult":false},{"id":381394,"adult":false},{"id":10986,"adult":false},{"id":158823,"adult":false},{"id":377267,"adult":false},{"id":265481,"adult":false},{"id":190950,"adult":false},{"id":272967,"adult":false},{"id":390415,"adult":false},{"id":50194,"adult":false},{"id":81652,"adult":false},{"id":268613,"adult":false},{"id":50199,"adult":false},{"id":128975,"adult":false},{"id":1487,"adult":false},{"id":212409,"adult":false},{"id":31408,"adult":false},{"id":69909,"adult":false},{"id":128395,"adult":false},{"id":103203,"adult":false},{"id":74217,"adult":false},{"id":415088,"adult":false},{"id":443315,"adult":false},{"id":99329,"adult":false},{"id":181095,"adult":false},{"id":107752,"adult":false},{"id":443316,"adult":false},{"id":87241,"adult":false},{"id":422420,"adult":false},{"id":300147,"adult":false},{"id":423091,"adult":null},{"id":97278,"adult":false},{"id":76037,"adult":false},{"id":323363,"adult":true},{"id":192101,"adult":false},{"id":443317,"adult":false},{"id":409592,"adult":null},{"id":16673,"adult":false},{"id":443318,"adult":false},{"id":142147,"adult":false},{"id":265307,"adult":false},{"id":215566,"adult":false},{"id":423452,"adult":false},{"id":110977,"adult":false}],"page":98,"total_pages":149,"total_results":14854}