{"results":[{"id":101173,"adult":false},{"id":197696,"adult":false},{"id":442275,"adult":false},{"id":272011,"adult":false},{"id":68139,"adult":false},{"id":289191,"adult":false},{"id":442276,"adult":false},{"id":442277,"adult":false},{"id":442278,"adult":false},{"id":11248,"adult":false},{"id":318917,"adult":false},{"id":62316,"adult":false},{"id":353595,"adult":false},{"id":264418,"adult":false},{"id":442279,"adult":false},{"id":37807,"adult":false},{"id":38684,"adult":false},{"id":35636,"adult":false},{"id":95192,"adult":false},{"id":283767,"adult":false},{"id":442280,"adult":false},{"id":427564,"adult":false},{"id":374859,"adult":false},{"id":374999,"adult":false},{"id":72419,"adult":false},{"id":590,"adult":false},{"id":442281,"adult":false},{"id":382512,"adult":false},{"id":839,"adult":false},{"id":280,"adult":false},{"id":442282,"adult":false},{"id":8078,"adult":false},{"id":331,"adult":false},{"id":453,"adult":false},{"id":442283,"adult":false},{"id":44202,"adult":false},{"id":135397,"adult":false},{"id":442284,"adult":false},{"id":26289,"adult":false},{"id":17166,"adult":false},{"id":167663,"adult":false},{"id":293767,"adult":false},{"id":265619,"adult":false},{"id":442285,"adult":false},{"id":8944,"adult":false},{"id":8851,"adult":false},{"id":582,"adult":false},{"id":109410,"adult":false},{"id":442286,"adult":false},{"id":9599,"adult":false},{"id":393727,"adult":false},{"id":442287,"adult":false},{"id":442288,"adult":false},{"id":235238,"adult":false},{"id":16216,"adult":false},{"id":12782,"adult":false},{"id":16442,"adult":false},{"id":43562,"adult":false},{"id":595,"adult":false},{"id":4644,"adult":false},{"id":442289,"adult":false},{"id":151561,"adult":false},{"id":66120,"adult":false},{"id":7295,"adult":false},{"id":412583,"adult":false},{"id":159967,"adult":false},{"id":11234,"adult":false},{"id":13672,"adult":false},{"id":12161,"adult":false},{"id":341343,"adult":false},{"id":330245,"adult":false},{"id":230266,"adult":false},{"id":7555,"adult":false},{"id":43727,"adult":false},{"id":442290,"adult":false},{"id":7351,"adult":false},{"id":222936,"adult":false},{"id":8247,"adult":false},{"id":110391,"adult":false},{"id":8423,"adult":false},{"id":356268,"adult":false},{"id":442291,"adult":false},{"id":328901,"adult":false},{"id":121856,"adult":false},{"id":389630,"adult":false},{"id":108524,"adult":false},{"id":442292,"adult":false},{"id":325346,"adult":false},{"id":1553,"adult":false},{"id":414906,"adult":false},{"id":442293,"adult":false},{"id":273190,"adult":false},{"id":54349,"adult":false},{"id":442294,"adult":false},{"id":43828,"adult":false},{"id":325470,"adult":false},{"id":285070,"adult":false},{"id":106742,"adult":false},{"id":588,"adult":false},{"id":94659,"adult":false}],"page":37,"total_pages":149,"total_results":14854}