{"results":[{"id":9364,"adult":false},{"id":85167,"adult":false},{"id":9293,"adult":false},{"id":447032,"adult":false},{"id":11025,"adult":false},{"id":10758,"adult":false},{"id":340487,"adult":false},{"id":10906,"adult":false},{"id":290762,"adult":false},{"id":310135,"adult":false},{"id":80038,"adult":false},{"id":116605,"adult":false},{"id":164251,"adult":false},{"id":10647,"adult":false},{"id":1641,"adult":false},{"id":13910,"adult":false},{"id":44716,"adult":false},{"id":15359,"adult":false},{"id":293646,"adult":false},{"id":773,"adult":false},{"id":84174,"adult":false},{"id":250124,"adult":false},{"id":447033,"adult":false},{"id":312669,"adult":false},{"id":29948,"adult":false},{"id":11137,"adult":false},{"id":446897,"adult":false},{"id":145850,"adult":false},{"id":292280,"adult":false},{"id":40251,"adult":false},{"id":184751,"adult":null},{"id":78375,"adult":false},{"id":156711,"adult":false},{"id":11879,"adult":false},{"id":205601,"adult":false},{"id":9701,"adult":false},{"id":28342,"adult":false},{"id":447034,"adult":false},{"id":447035,"adult":false},{"id":15019,"adult":false},{"id":381064,"adult":false},{"id":158999,"adult":false},{"id":233639,"adult":false},{"id":45156,"adult":false},{"id":272435,"adult":false},{"id":406838,"adult":null},{"id":6964,"adult":false},{"id":2165,"adult":false},{"id":75802,"adult":false},{"id":119205,"adult":false},{"id":374465,"adult":false},{"id":1382,"adult":false},{"id":30061,"adult":false},{"id":3877,"adult":false},{"id":372411,"adult":false},{"id":8427,"adult":false},{"id":14191,"adult":false},{"id":266040,"adult":false},{"id":121856,"adult":false},{"id":10944,"adult":false},{"id":113160,"adult":false},{"id":13378,"adult":false},{"id":299754,"adult":false},{"id":51996,"adult":false},{"id":407937,"adult":false},{"id":447036,"adult":false},{"id":242828,"adult":false},{"id":23830,"adult":false},{"id":84317,"adult":false},{"id":273895,"adult":false},{"id":209263,"adult":false},{"id":72477,"adult":false},{"id":447038,"adult":false},{"id":1591,"adult":false},{"id":12435,"adult":false},{"id":346672,"adult":false},{"id":14979,"adult":false},{"id":1088,"adult":false},{"id":157360,"adult":false},{"id":274885,"adult":null},{"id":103332,"adult":false},{"id":1845,"adult":false},{"id":2003,"adult":false},{"id":51600,"adult":false},{"id":10900,"adult":false},{"id":19794,"adult":false},{"id":70706,"adult":false},{"id":65496,"adult":false},{"id":10956,"adult":false},{"id":423313,"adult":false},{"id":5951,"adult":false},{"id":9660,"adult":false},{"id":336011,"adult":false},{"id":289222,"adult":false},{"id":100697,"adult":false},{"id":14299,"adult":false},{"id":10188,"adult":false},{"id":10212,"adult":false},{"id":417544,"adult":false},{"id":41556,"adult":false}],"page":2,"total_pages":168,"total_results":16730}