{"results":[{"id":436728,"adult":false},{"id":62213,"adult":false},{"id":29169,"adult":false},{"id":72859,"adult":false},{"id":436729,"adult":null},{"id":79224,"adult":false},{"id":375460,"adult":false},{"id":436730,"adult":false},{"id":203600,"adult":false},{"id":127853,"adult":false},{"id":170206,"adult":false},{"id":417544,"adult":false},{"id":436731,"adult":false},{"id":50239,"adult":false},{"id":436732,"adult":null},{"id":417644,"adult":false},{"id":56815,"adult":false},{"id":9801,"adult":false},{"id":8276,"adult":false},{"id":291425,"adult":false},{"id":175156,"adult":false},{"id":424522,"adult":false},{"id":300667,"adult":false},{"id":265693,"adult":false},{"id":70207,"adult":false},{"id":68079,"adult":false},{"id":388566,"adult":false},{"id":50722,"adult":false},{"id":341850,"adult":false},{"id":424535,"adult":false},{"id":317292,"adult":false},{"id":424528,"adult":false},{"id":20681,"adult":false},{"id":117084,"adult":false},{"id":268673,"adult":false},{"id":53351,"adult":false},{"id":270390,"adult":false},{"id":159375,"adult":false},{"id":376259,"adult":false},{"id":382025,"adult":false},{"id":382027,"adult":false},{"id":382039,"adult":false},{"id":292114,"adult":false},{"id":436734,"adult":true},{"id":292329,"adult":false},{"id":80440,"adult":false},{"id":365429,"adult":false},{"id":419548,"adult":false},{"id":95035,"adult":false},{"id":146201,"adult":false},{"id":84194,"adult":false},{"id":436735,"adult":false},{"id":436736,"adult":false},{"id":238018,"adult":false},{"id":19,"adult":false},{"id":2639,"adult":false},{"id":382778,"adult":false},{"id":424530,"adult":false},{"id":83899,"adult":false},{"id":78086,"adult":false},{"id":424531,"adult":false},{"id":411317,"adult":false},{"id":105633,"adult":false},{"id":407813,"adult":false},{"id":105634,"adult":false},{"id":356336,"adult":false},{"id":9384,"adult":false},{"id":424559,"adult":false},{"id":10417,"adult":false},{"id":137892,"adult":false},{"id":68429,"adult":false},{"id":169006,"adult":false},{"id":5879,"adult":false},{"id":158838,"adult":false},{"id":2655,"adult":false},{"id":300408,"adult":false},{"id":136281,"adult":false},{"id":14114,"adult":false},{"id":41383,"adult":false},{"id":436737,"adult":false},{"id":424557,"adult":false},{"id":238490,"adult":false},{"id":205348,"adult":false},{"id":342677,"adult":false},{"id":367334,"adult":false},{"id":436738,"adult":false},{"id":436739,"adult":false},{"id":391275,"adult":false},{"id":329691,"adult":false},{"id":371775,"adult":false},{"id":130442,"adult":false},{"id":39906,"adult":false},{"id":436740,"adult":false},{"id":22640,"adult":false},{"id":436741,"adult":false},{"id":107408,"adult":false},{"id":260487,"adult":false},{"id":320675,"adult":false},{"id":436742,"adult":false},{"id":38968,"adult":false}],"page":99,"total_pages":144,"total_results":14325}