{"results":[{"id":168399,"adult":false},{"id":252384,"adult":false},{"id":199591,"adult":false},{"id":267449,"adult":false},{"id":257244,"adult":false},{"id":165739,"adult":false},{"id":230407,"adult":false},{"id":669,"adult":false},{"id":189081,"adult":false},{"id":191820,"adult":false},{"id":195796,"adult":false},{"id":157017,"adult":false},{"id":183662,"adult":false},{"id":192210,"adult":false},{"id":164558,"adult":false},{"id":447907,"adult":false},{"id":239877,"adult":false},{"id":101724,"adult":false},{"id":25918,"adult":false},{"id":447908,"adult":false},{"id":182954,"adult":false},{"id":168114,"adult":false},{"id":245949,"adult":false},{"id":245484,"adult":false},{"id":215743,"adult":false},{"id":447909,"adult":false},{"id":322459,"adult":false},{"id":294803,"adult":false},{"id":447910,"adult":false},{"id":334454,"adult":false},{"id":70695,"adult":false},{"id":133449,"adult":false},{"id":447911,"adult":false},{"id":707,"adult":false},{"id":17654,"adult":false},{"id":359018,"adult":false},{"id":251004,"adult":false},{"id":356606,"adult":false},{"id":161334,"adult":false},{"id":350853,"adult":false},{"id":394051,"adult":false},{"id":10363,"adult":false},{"id":413548,"adult":false},{"id":248774,"adult":false},{"id":45912,"adult":false},{"id":48260,"adult":false},{"id":397,"adult":false},{"id":157350,"adult":false},{"id":415767,"adult":false},{"id":364708,"adult":false},{"id":55890,"adult":false},{"id":447912,"adult":false},{"id":244517,"adult":false},{"id":86541,"adult":false},{"id":68718,"adult":false},{"id":4311,"adult":false},{"id":447913,"adult":false},{"id":447914,"adult":false},{"id":411697,"adult":false},{"id":20719,"adult":false},{"id":47648,"adult":false},{"id":313785,"adult":null},{"id":447915,"adult":false},{"id":19673,"adult":false},{"id":1880,"adult":false},{"id":388248,"adult":false},{"id":9338,"adult":false},{"id":437628,"adult":false},{"id":442014,"adult":false},{"id":447916,"adult":false},{"id":212562,"adult":false},{"id":408115,"adult":false},{"id":447917,"adult":false},{"id":26142,"adult":false},{"id":447918,"adult":false},{"id":447919,"adult":false},{"id":346910,"adult":false},{"id":447920,"adult":false},{"id":334531,"adult":false},{"id":132342,"adult":false},{"id":297806,"adult":false},{"id":39384,"adult":false},{"id":270519,"adult":false},{"id":149586,"adult":false},{"id":352162,"adult":false},{"id":122718,"adult":false},{"id":10627,"adult":false},{"id":433247,"adult":false},{"id":447921,"adult":false},{"id":19698,"adult":false},{"id":234556,"adult":false},{"id":360724,"adult":false},{"id":806,"adult":false},{"id":33712,"adult":false},{"id":245855,"adult":false},{"id":291276,"adult":false},{"id":93387,"adult":false},{"id":102651,"adult":false},{"id":327437,"adult":false},{"id":354287,"adult":false}],"page":82,"total_pages":168,"total_results":16730}