{"results":[{"id":210890,"adult":false},{"id":85495,"adult":false},{"id":206471,"adult":false},{"id":446004,"adult":false},{"id":446005,"adult":false},{"id":446006,"adult":false},{"id":21362,"adult":false},{"id":446007,"adult":false},{"id":392629,"adult":false},{"id":446008,"adult":false},{"id":446009,"adult":false},{"id":446010,"adult":false},{"id":43781,"adult":false},{"id":22522,"adult":false},{"id":10414,"adult":false},{"id":446011,"adult":false},{"id":9326,"adult":false},{"id":12133,"adult":false},{"id":359010,"adult":false},{"id":8005,"adult":false},{"id":362585,"adult":false},{"id":432133,"adult":false},{"id":55892,"adult":false},{"id":382190,"adult":false},{"id":103199,"adult":false},{"id":446012,"adult":false},{"id":446013,"adult":false},{"id":446014,"adult":false},{"id":826,"adult":false},{"id":333267,"adult":false},{"id":76826,"adult":false},{"id":8392,"adult":false},{"id":287864,"adult":false},{"id":128,"adult":false},{"id":4977,"adult":false},{"id":5924,"adult":false},{"id":10494,"adult":false},{"id":10991,"adult":false},{"id":415796,"adult":false},{"id":36897,"adult":false},{"id":10228,"adult":false},{"id":446015,"adult":false},{"id":245170,"adult":false},{"id":407388,"adult":null},{"id":324157,"adult":false},{"id":61064,"adult":false},{"id":27085,"adult":false},{"id":12599,"adult":false},{"id":16353,"adult":false},{"id":446016,"adult":false},{"id":43209,"adult":false},{"id":446017,"adult":false},{"id":81443,"adult":false},{"id":17922,"adult":false},{"id":10618,"adult":false},{"id":10619,"adult":false},{"id":5041,"adult":false},{"id":10998,"adult":false},{"id":200,"adult":false},{"id":411,"adult":false},{"id":41186,"adult":false},{"id":2454,"adult":false},{"id":11551,"adult":false},{"id":864,"adult":false},{"id":446018,"adult":false},{"id":386904,"adult":false},{"id":2015,"adult":false},{"id":187511,"adult":false},{"id":305829,"adult":false},{"id":9272,"adult":false},{"id":9353,"adult":false},{"id":11077,"adult":false},{"id":56247,"adult":false},{"id":12233,"adult":false},{"id":446019,"adult":null},{"id":446020,"adult":false},{"id":446021,"adult":false},{"id":9576,"adult":false},{"id":11412,"adult":false},{"id":327122,"adult":false},{"id":245844,"adult":false},{"id":10708,"adult":false},{"id":15739,"adult":false},{"id":9884,"adult":false},{"id":198192,"adult":false},{"id":10663,"adult":false},{"id":58069,"adult":false},{"id":242828,"adult":false},{"id":5155,"adult":false},{"id":3512,"adult":false},{"id":124763,"adult":false},{"id":251211,"adult":false},{"id":163340,"adult":false},{"id":18974,"adult":false},{"id":435189,"adult":false},{"id":437992,"adult":false},{"id":354630,"adult":false},{"id":343672,"adult":false},{"id":440078,"adult":false},{"id":446022,"adult":false}],"page":110,"total_pages":162,"total_results":16167}