{"results":[{"id":446114,"adult":false},{"id":122263,"adult":false},{"id":10478,"adult":false},{"id":290956,"adult":false},{"id":446115,"adult":false},{"id":44086,"adult":false},{"id":362860,"adult":false},{"id":92675,"adult":false},{"id":120591,"adult":false},{"id":446116,"adult":false},{"id":436367,"adult":false},{"id":70846,"adult":false},{"id":204839,"adult":false},{"id":446117,"adult":false},{"id":239513,"adult":false},{"id":54083,"adult":false},{"id":45096,"adult":false},{"id":386038,"adult":false},{"id":10488,"adult":false},{"id":219484,"adult":false},{"id":191800,"adult":false},{"id":122019,"adult":false},{"id":422046,"adult":false},{"id":30921,"adult":false},{"id":52333,"adult":false},{"id":62914,"adult":false},{"id":101745,"adult":false},{"id":437018,"adult":false},{"id":10317,"adult":false},{"id":153490,"adult":false},{"id":29904,"adult":false},{"id":144650,"adult":false},{"id":39908,"adult":false},{"id":446118,"adult":false},{"id":9541,"adult":false},{"id":148049,"adult":false},{"id":37860,"adult":false},{"id":36610,"adult":false},{"id":11629,"adult":false},{"id":446119,"adult":false},{"id":12597,"adult":false},{"id":393831,"adult":false},{"id":220946,"adult":false},{"id":55100,"adult":false},{"id":170251,"adult":false},{"id":60781,"adult":false},{"id":34226,"adult":false},{"id":396048,"adult":false},{"id":9568,"adult":false},{"id":397379,"adult":false},{"id":330115,"adult":false},{"id":37013,"adult":false},{"id":40465,"adult":false},{"id":138099,"adult":false},{"id":13106,"adult":false},{"id":121139,"adult":false},{"id":37532,"adult":false},{"id":294652,"adult":false},{"id":17994,"adult":false},{"id":446120,"adult":false},{"id":418717,"adult":false},{"id":31044,"adult":false},{"id":19790,"adult":false},{"id":384746,"adult":false},{"id":15050,"adult":false},{"id":26747,"adult":false},{"id":346646,"adult":false},{"id":5709,"adult":false},{"id":423246,"adult":false},{"id":30926,"adult":false},{"id":426265,"adult":false},{"id":446121,"adult":false},{"id":189387,"adult":false},{"id":238215,"adult":false},{"id":446122,"adult":false},{"id":266038,"adult":false},{"id":89287,"adult":false},{"id":14047,"adult":false},{"id":9558,"adult":false},{"id":365632,"adult":false},{"id":446123,"adult":false},{"id":37451,"adult":false},{"id":444149,"adult":false},{"id":40251,"adult":false},{"id":446124,"adult":false},{"id":42173,"adult":false},{"id":446125,"adult":false},{"id":439114,"adult":false},{"id":137058,"adult":false},{"id":446126,"adult":false},{"id":402,"adult":false},{"id":140707,"adult":false},{"id":446127,"adult":false},{"id":350798,"adult":false},{"id":437311,"adult":false},{"id":62442,"adult":false},{"id":55401,"adult":false},{"id":75026,"adult":false},{"id":99228,"adult":false},{"id":9778,"adult":false}],"page":117,"total_pages":162,"total_results":16167}