{"results":[{"id":446092,"adult":false},{"id":105234,"adult":false},{"id":446093,"adult":false},{"id":313576,"adult":false},{"id":35792,"adult":false},{"id":245129,"adult":false},{"id":124881,"adult":false},{"id":446094,"adult":false},{"id":137103,"adult":false},{"id":1266,"adult":false},{"id":273325,"adult":false},{"id":58625,"adult":false},{"id":334356,"adult":false},{"id":358886,"adult":false},{"id":273332,"adult":false},{"id":424202,"adult":false},{"id":273322,"adult":false},{"id":416468,"adult":false},{"id":161569,"adult":false},{"id":446095,"adult":false},{"id":428877,"adult":false},{"id":359104,"adult":false},{"id":277324,"adult":false},{"id":428880,"adult":false},{"id":446096,"adult":false},{"id":277335,"adult":false},{"id":435141,"adult":false},{"id":301430,"adult":false},{"id":277246,"adult":false},{"id":259963,"adult":false},{"id":273333,"adult":false},{"id":446097,"adult":false},{"id":273572,"adult":false},{"id":273328,"adult":false},{"id":428876,"adult":false},{"id":446098,"adult":false},{"id":446099,"adult":false},{"id":323723,"adult":false},{"id":188516,"adult":false},{"id":101784,"adult":false},{"id":266956,"adult":false},{"id":408508,"adult":false},{"id":38430,"adult":false},{"id":446100,"adult":false},{"id":446101,"adult":false},{"id":428327,"adult":false},{"id":143983,"adult":false},{"id":280436,"adult":false},{"id":316842,"adult":false},{"id":412031,"adult":false},{"id":208445,"adult":false},{"id":443791,"adult":false},{"id":86303,"adult":false},{"id":446102,"adult":false},{"id":63327,"adult":false},{"id":442576,"adult":null},{"id":115895,"adult":false},{"id":273126,"adult":false},{"id":14506,"adult":false},{"id":275114,"adult":null},{"id":46980,"adult":false},{"id":446103,"adult":false},{"id":97311,"adult":false},{"id":114247,"adult":false},{"id":25237,"adult":false},{"id":38286,"adult":false},{"id":125908,"adult":false},{"id":10098,"adult":false},{"id":382591,"adult":false},{"id":273966,"adult":false},{"id":49292,"adult":false},{"id":425899,"adult":false},{"id":137736,"adult":false},{"id":370687,"adult":false},{"id":399841,"adult":false},{"id":11153,"adult":false},{"id":81774,"adult":false},{"id":446104,"adult":false},{"id":57766,"adult":false},{"id":1551,"adult":false},{"id":446105,"adult":true},{"id":446106,"adult":false},{"id":446107,"adult":false},{"id":13597,"adult":false},{"id":446108,"adult":false},{"id":446109,"adult":true},{"id":11007,"adult":false},{"id":11419,"adult":false},{"id":320288,"adult":false},{"id":14367,"adult":false},{"id":443782,"adult":null},{"id":10925,"adult":false},{"id":432283,"adult":false},{"id":446110,"adult":true},{"id":72834,"adult":false},{"id":446111,"adult":false},{"id":446112,"adult":false},{"id":277713,"adult":false},{"id":120963,"adult":false},{"id":446113,"adult":false}],"page":116,"total_pages":162,"total_results":16167}