{"results":[{"id":74518,"adult":false},{"id":445720,"adult":false},{"id":32449,"adult":false},{"id":419585,"adult":false},{"id":445721,"adult":false},{"id":200709,"adult":false},{"id":442798,"adult":false},{"id":359683,"adult":false},{"id":17761,"adult":false},{"id":419544,"adult":false},{"id":45556,"adult":false},{"id":445722,"adult":false},{"id":68665,"adult":false},{"id":445723,"adult":false},{"id":40353,"adult":false},{"id":56356,"adult":false},{"id":122982,"adult":false},{"id":405945,"adult":false},{"id":124407,"adult":false},{"id":12521,"adult":false},{"id":48246,"adult":false},{"id":374512,"adult":false},{"id":175682,"adult":false},{"id":374511,"adult":false},{"id":209437,"adult":false},{"id":3126,"adult":false},{"id":180268,"adult":false},{"id":384099,"adult":false},{"id":66371,"adult":false},{"id":106943,"adult":false},{"id":409342,"adult":false},{"id":9375,"adult":false},{"id":138567,"adult":false},{"id":185406,"adult":false},{"id":274475,"adult":false},{"id":438466,"adult":false},{"id":445725,"adult":false},{"id":445726,"adult":false},{"id":445727,"adult":false},{"id":428114,"adult":false},{"id":86648,"adult":false},{"id":445728,"adult":false},{"id":109318,"adult":false},{"id":445729,"adult":false},{"id":206400,"adult":false},{"id":445730,"adult":false},{"id":110133,"adult":false},{"id":75883,"adult":false},{"id":104316,"adult":false},{"id":1949,"adult":false},{"id":164120,"adult":false},{"id":375098,"adult":false},{"id":427713,"adult":false},{"id":27422,"adult":false},{"id":209574,"adult":false},{"id":445731,"adult":false},{"id":54384,"adult":false},{"id":27359,"adult":false},{"id":22642,"adult":false},{"id":37209,"adult":false},{"id":369202,"adult":false},{"id":445732,"adult":false},{"id":395457,"adult":false},{"id":87777,"adult":false},{"id":4701,"adult":false},{"id":44361,"adult":false},{"id":52103,"adult":false},{"id":438461,"adult":false},{"id":14275,"adult":false},{"id":748,"adult":false},{"id":407619,"adult":false},{"id":346880,"adult":false},{"id":445733,"adult":false},{"id":157079,"adult":false},{"id":344292,"adult":true},{"id":396362,"adult":false},{"id":445734,"adult":false},{"id":445735,"adult":false},{"id":16331,"adult":false},{"id":119596,"adult":false},{"id":14113,"adult":false},{"id":13099,"adult":false},{"id":355906,"adult":false},{"id":125520,"adult":false},{"id":85612,"adult":false},{"id":124739,"adult":false},{"id":60489,"adult":false},{"id":123730,"adult":false},{"id":263281,"adult":false},{"id":437027,"adult":false},{"id":58049,"adult":false},{"id":445736,"adult":false},{"id":139971,"adult":false},{"id":3159,"adult":false},{"id":28463,"adult":false},{"id":29173,"adult":false},{"id":445737,"adult":false},{"id":73196,"adult":false},{"id":18892,"adult":false},{"id":171002,"adult":false}],"page":94,"total_pages":162,"total_results":16167}