{"results":[{"id":85349,"adult":false},{"id":10796,"adult":false},{"id":26252,"adult":false},{"id":436498,"adult":false},{"id":436499,"adult":false},{"id":39900,"adult":false},{"id":2140,"adult":false},{"id":436500,"adult":false},{"id":304897,"adult":false},{"id":2085,"adult":false},{"id":253307,"adult":false},{"id":420340,"adult":false},{"id":55821,"adult":false},{"id":395298,"adult":false},{"id":307615,"adult":false},{"id":48249,"adult":false},{"id":132935,"adult":false},{"id":347123,"adult":false},{"id":163514,"adult":false},{"id":426488,"adult":false},{"id":230170,"adult":false},{"id":406628,"adult":false},{"id":335085,"adult":false},{"id":27984,"adult":false},{"id":436501,"adult":false},{"id":69960,"adult":false},{"id":64635,"adult":false},{"id":118976,"adult":false},{"id":388584,"adult":false},{"id":119361,"adult":false},{"id":169881,"adult":false},{"id":2277,"adult":false},{"id":19959,"adult":false},{"id":436502,"adult":false},{"id":217973,"adult":null},{"id":1647,"adult":false},{"id":217952,"adult":false},{"id":204962,"adult":false},{"id":57627,"adult":false},{"id":424874,"adult":false},{"id":436503,"adult":false},{"id":122917,"adult":false},{"id":252927,"adult":false},{"id":75334,"adult":true},{"id":62068,"adult":true},{"id":374720,"adult":false},{"id":127123,"adult":false},{"id":292853,"adult":false},{"id":436504,"adult":false},{"id":418780,"adult":true},{"id":20626,"adult":false},{"id":261647,"adult":false},{"id":432135,"adult":false},{"id":38203,"adult":false},{"id":57047,"adult":false},{"id":17047,"adult":false},{"id":436505,"adult":false},{"id":436506,"adult":false},{"id":234979,"adult":false},{"id":67974,"adult":false},{"id":16958,"adult":false},{"id":78409,"adult":false},{"id":436507,"adult":false},{"id":35987,"adult":false},{"id":436508,"adult":true},{"id":436509,"adult":false},{"id":38914,"adult":false},{"id":232372,"adult":false},{"id":251012,"adult":false},{"id":232364,"adult":false},{"id":436510,"adult":false},{"id":5544,"adult":false},{"id":219248,"adult":false},{"id":436511,"adult":false},{"id":43461,"adult":false},{"id":227170,"adult":false},{"id":436512,"adult":null},{"id":18878,"adult":false},{"id":25970,"adult":false},{"id":58129,"adult":false},{"id":352347,"adult":null},{"id":336464,"adult":null},{"id":316745,"adult":false},{"id":434312,"adult":false},{"id":280024,"adult":null},{"id":191386,"adult":false},{"id":386567,"adult":false},{"id":29453,"adult":false},{"id":436513,"adult":false},{"id":210736,"adult":false},{"id":266380,"adult":false},{"id":223993,"adult":false},{"id":436515,"adult":false},{"id":436516,"adult":false},{"id":108831,"adult":false},{"id":436517,"adult":false},{"id":216675,"adult":false},{"id":322333,"adult":false},{"id":411737,"adult":false},{"id":142609,"adult":false}],"page":88,"total_pages":144,"total_results":14325}