{"results":[{"id":261023,"adult":false},{"id":48321,"adult":false},{"id":418098,"adult":false},{"id":74429,"adult":false},{"id":314400,"adult":false},{"id":343795,"adult":false},{"id":275601,"adult":false},{"id":432664,"adult":false},{"id":312327,"adult":false},{"id":261859,"adult":false},{"id":382717,"adult":false},{"id":432665,"adult":false},{"id":353326,"adult":false},{"id":400552,"adult":false},{"id":245698,"adult":false},{"id":355065,"adult":false},{"id":390959,"adult":false},{"id":46504,"adult":false},{"id":145316,"adult":false},{"id":392346,"adult":false},{"id":432666,"adult":false},{"id":9994,"adult":false},{"id":209415,"adult":false},{"id":429977,"adult":false},{"id":254172,"adult":false},{"id":32856,"adult":false},{"id":362155,"adult":false},{"id":11520,"adult":false},{"id":286554,"adult":false},{"id":432667,"adult":false},{"id":310137,"adult":false},{"id":432668,"adult":false},{"id":141528,"adult":false},{"id":362637,"adult":false},{"id":4825,"adult":false},{"id":257211,"adult":false},{"id":233063,"adult":false},{"id":432669,"adult":false},{"id":386100,"adult":false},{"id":367345,"adult":false},{"id":83891,"adult":false},{"id":273477,"adult":false},{"id":245906,"adult":false},{"id":14819,"adult":false},{"id":432670,"adult":false},{"id":363757,"adult":false},{"id":308369,"adult":false},{"id":53229,"adult":false},{"id":432671,"adult":false},{"id":11253,"adult":false},{"id":432672,"adult":false},{"id":339527,"adult":false},{"id":13204,"adult":false},{"id":432673,"adult":false},{"id":16774,"adult":false},{"id":431861,"adult":false},{"id":282297,"adult":false},{"id":14030,"adult":false},{"id":128748,"adult":false},{"id":432674,"adult":false},{"id":361142,"adult":false},{"id":184315,"adult":false},{"id":432675,"adult":false},{"id":432676,"adult":false},{"id":432677,"adult":false},{"id":432678,"adult":false},{"id":432679,"adult":false},{"id":432680,"adult":false},{"id":26452,"adult":false},{"id":104858,"adult":false},{"id":432681,"adult":false},{"id":432682,"adult":null},{"id":432683,"adult":false},{"id":117802,"adult":false},{"id":25647,"adult":false},{"id":432684,"adult":false},{"id":366934,"adult":false},{"id":432685,"adult":false},{"id":63345,"adult":false},{"id":940,"adult":false},{"id":5227,"adult":false},{"id":380436,"adult":false},{"id":432686,"adult":false},{"id":2769,"adult":false},{"id":41279,"adult":false},{"id":173995,"adult":false},{"id":432687,"adult":false},{"id":50474,"adult":false},{"id":420382,"adult":null},{"id":182532,"adult":false},{"id":380655,"adult":false},{"id":432688,"adult":false},{"id":426285,"adult":false},{"id":432689,"adult":false},{"id":431326,"adult":true},{"id":402928,"adult":false},{"id":432690,"adult":false},{"id":430160,"adult":false},{"id":402889,"adult":false},{"id":189918,"adult":false}],"page":13,"total_pages":133,"total_results":13251}