{"results":[{"id":63719,"adult":false},{"id":76523,"adult":false},{"id":282663,"adult":false},{"id":218801,"adult":false},{"id":76521,"adult":false},{"id":447796,"adult":false},{"id":30559,"adult":false},{"id":82362,"adult":false},{"id":64904,"adult":false},{"id":317442,"adult":false},{"id":262063,"adult":false},{"id":447797,"adult":false},{"id":61683,"adult":false},{"id":390357,"adult":false},{"id":27554,"adult":false},{"id":198989,"adult":true},{"id":295545,"adult":false},{"id":447798,"adult":false},{"id":337703,"adult":false},{"id":447799,"adult":false},{"id":307081,"adult":false},{"id":206487,"adult":false},{"id":300433,"adult":false},{"id":289198,"adult":false},{"id":99573,"adult":true},{"id":62981,"adult":false},{"id":32081,"adult":false},{"id":427916,"adult":false},{"id":110702,"adult":false},{"id":248611,"adult":false},{"id":402919,"adult":false},{"id":66546,"adult":false},{"id":407872,"adult":false},{"id":283237,"adult":false},{"id":76793,"adult":false},{"id":284288,"adult":false},{"id":299969,"adult":false},{"id":31494,"adult":false},{"id":42788,"adult":false},{"id":287767,"adult":false},{"id":131323,"adult":false},{"id":134355,"adult":false},{"id":56140,"adult":false},{"id":14312,"adult":true},{"id":198589,"adult":false},{"id":4964,"adult":false},{"id":21575,"adult":false},{"id":16378,"adult":false},{"id":80766,"adult":false},{"id":74903,"adult":false},{"id":80627,"adult":false},{"id":106661,"adult":false},{"id":447800,"adult":false},{"id":18256,"adult":false},{"id":399178,"adult":false},{"id":9462,"adult":false},{"id":33542,"adult":false},{"id":29555,"adult":false},{"id":411632,"adult":false},{"id":12429,"adult":false},{"id":198311,"adult":false},{"id":106703,"adult":false},{"id":70981,"adult":false},{"id":309886,"adult":false},{"id":389488,"adult":false},{"id":20235,"adult":false},{"id":171292,"adult":false},{"id":104313,"adult":false},{"id":430432,"adult":false},{"id":282768,"adult":false},{"id":262903,"adult":false},{"id":36627,"adult":false},{"id":76604,"adult":false},{"id":285176,"adult":false},{"id":16991,"adult":false},{"id":76198,"adult":false},{"id":12143,"adult":false},{"id":167810,"adult":false},{"id":298865,"adult":false},{"id":8866,"adult":false},{"id":156588,"adult":false},{"id":334543,"adult":false},{"id":11212,"adult":false},{"id":422894,"adult":false},{"id":75066,"adult":false},{"id":300425,"adult":false},{"id":447801,"adult":false},{"id":329238,"adult":false},{"id":248212,"adult":false},{"id":260001,"adult":false},{"id":104338,"adult":false},{"id":447802,"adult":false},{"id":276488,"adult":false},{"id":250638,"adult":false},{"id":99999,"adult":false},{"id":126172,"adult":false},{"id":250578,"adult":false},{"id":86260,"adult":false},{"id":254193,"adult":false},{"id":312791,"adult":false}],"page":68,"total_pages":168,"total_results":16730}