{"results":[{"id":447118,"adult":false},{"id":364540,"adult":false},{"id":447119,"adult":false},{"id":422117,"adult":false},{"id":42182,"adult":false},{"id":447120,"adult":false},{"id":447121,"adult":false},{"id":413648,"adult":false},{"id":11535,"adult":false},{"id":361474,"adult":false},{"id":388921,"adult":false},{"id":280101,"adult":false},{"id":85177,"adult":false},{"id":418201,"adult":false},{"id":440460,"adult":false},{"id":447122,"adult":false},{"id":375895,"adult":false},{"id":418437,"adult":false},{"id":447123,"adult":false},{"id":417595,"adult":false},{"id":447124,"adult":false},{"id":324562,"adult":false},{"id":411405,"adult":false},{"id":47971,"adult":false},{"id":447126,"adult":false},{"id":447127,"adult":false},{"id":447128,"adult":false},{"id":447129,"adult":false},{"id":406990,"adult":false},{"id":409306,"adult":false},{"id":11837,"adult":false},{"id":11616,"adult":false},{"id":376660,"adult":false},{"id":2252,"adult":false},{"id":447130,"adult":false},{"id":14,"adult":false},{"id":393520,"adult":false},{"id":447133,"adult":false},{"id":207932,"adult":false},{"id":344268,"adult":false},{"id":381126,"adult":false},{"id":8883,"adult":false},{"id":447136,"adult":false},{"id":447137,"adult":false},{"id":14171,"adult":false},{"id":2085,"adult":false},{"id":280936,"adult":false},{"id":35,"adult":false},{"id":301372,"adult":false},{"id":447138,"adult":false},{"id":374458,"adult":false},{"id":443153,"adult":false},{"id":424488,"adult":false},{"id":339967,"adult":false},{"id":99599,"adult":false},{"id":383280,"adult":false},{"id":4922,"adult":false},{"id":49723,"adult":false},{"id":447139,"adult":false},{"id":195590,"adult":false},{"id":447140,"adult":false},{"id":395383,"adult":false},{"id":432942,"adult":false},{"id":447141,"adult":false},{"id":260514,"adult":false},{"id":356842,"adult":false},{"id":394412,"adult":false},{"id":447142,"adult":false},{"id":394143,"adult":false},{"id":410198,"adult":false},{"id":412201,"adult":false},{"id":430007,"adult":false},{"id":447143,"adult":false},{"id":283591,"adult":false},{"id":436791,"adult":false},{"id":120295,"adult":false},{"id":291351,"adult":false},{"id":361251,"adult":false},{"id":96623,"adult":false},{"id":10198,"adult":false},{"id":395767,"adult":false},{"id":120325,"adult":false},{"id":434616,"adult":false},{"id":76609,"adult":false},{"id":427800,"adult":false},{"id":34327,"adult":false},{"id":447144,"adult":false},{"id":353326,"adult":false},{"id":20408,"adult":false},{"id":354216,"adult":false},{"id":445058,"adult":false},{"id":20417,"adult":false},{"id":16004,"adult":false},{"id":425340,"adult":false},{"id":375183,"adult":false},{"id":18706,"adult":false},{"id":21707,"adult":false},{"id":21708,"adult":false},{"id":155887,"adult":false},{"id":339403,"adult":false}],"page":14,"total_pages":168,"total_results":16730}