{"results":[{"id":433029,"adult":false},{"id":422949,"adult":false},{"id":26955,"adult":false},{"id":433030,"adult":false},{"id":93456,"adult":false},{"id":11663,"adult":false},{"id":191720,"adult":false},{"id":316878,"adult":false},{"id":433031,"adult":false},{"id":425257,"adult":true},{"id":433032,"adult":false},{"id":433033,"adult":false},{"id":433034,"adult":false},{"id":38143,"adult":false},{"id":432244,"adult":null},{"id":955,"adult":false},{"id":284053,"adult":false},{"id":430614,"adult":false},{"id":24188,"adult":false},{"id":241258,"adult":false},{"id":319211,"adult":false},{"id":433035,"adult":false},{"id":430834,"adult":false},{"id":11323,"adult":false},{"id":330897,"adult":false},{"id":24469,"adult":false},{"id":26715,"adult":false},{"id":350778,"adult":false},{"id":322614,"adult":false},{"id":36415,"adult":false},{"id":12314,"adult":false},{"id":19833,"adult":false},{"id":258107,"adult":false},{"id":26018,"adult":false},{"id":402907,"adult":false},{"id":296287,"adult":false},{"id":39414,"adult":false},{"id":328651,"adult":false},{"id":31439,"adult":false},{"id":433036,"adult":false},{"id":338189,"adult":false},{"id":433037,"adult":false},{"id":433038,"adult":null},{"id":42006,"adult":false},{"id":27150,"adult":false},{"id":20220,"adult":false},{"id":1450,"adult":false},{"id":22536,"adult":false},{"id":91530,"adult":false},{"id":433039,"adult":false},{"id":389980,"adult":false},{"id":17954,"adult":false},{"id":433040,"adult":false},{"id":75018,"adult":false},{"id":307110,"adult":false},{"id":52975,"adult":false},{"id":41434,"adult":false},{"id":13927,"adult":false},{"id":21191,"adult":false},{"id":386977,"adult":false},{"id":14749,"adult":false},{"id":386979,"adult":false},{"id":956,"adult":false},{"id":26920,"adult":false},{"id":21407,"adult":false},{"id":287109,"adult":false},{"id":143567,"adult":false},{"id":13926,"adult":false},{"id":101479,"adult":false},{"id":433041,"adult":false},{"id":433042,"adult":false},{"id":433043,"adult":false},{"id":16652,"adult":false},{"id":29917,"adult":false},{"id":16418,"adult":false},{"id":162421,"adult":false},{"id":17658,"adult":false},{"id":397545,"adult":false},{"id":39800,"adult":false},{"id":20083,"adult":false},{"id":217268,"adult":false},{"id":11046,"adult":false},{"id":219386,"adult":false},{"id":254320,"adult":false},{"id":307347,"adult":false},{"id":1949,"adult":false},{"id":432261,"adult":false},{"id":385270,"adult":false},{"id":174473,"adult":false},{"id":141672,"adult":false},{"id":307049,"adult":false},{"id":433044,"adult":false},{"id":307245,"adult":false},{"id":356932,"adult":false},{"id":51183,"adult":false},{"id":266038,"adult":false},{"id":12715,"adult":false},{"id":299805,"adult":false},{"id":41654,"adult":false},{"id":413542,"adult":false}],"page":34,"total_pages":133,"total_results":13251}