{"results":[{"id":168090,"adult":false},{"id":439998,"adult":false},{"id":190847,"adult":false},{"id":436443,"adult":false},{"id":13541,"adult":false},{"id":436195,"adult":false},{"id":199814,"adult":false},{"id":439999,"adult":false},{"id":44892,"adult":false},{"id":8329,"adult":false},{"id":18647,"adult":false},{"id":440000,"adult":false},{"id":299590,"adult":false},{"id":65762,"adult":false},{"id":183507,"adult":false},{"id":389976,"adult":false},{"id":113649,"adult":false},{"id":421074,"adult":false},{"id":387,"adult":false},{"id":2977,"adult":false},{"id":209112,"adult":false},{"id":365756,"adult":false},{"id":17771,"adult":false},{"id":2005,"adult":false},{"id":180951,"adult":false},{"id":331663,"adult":false},{"id":192,"adult":false},{"id":440001,"adult":false},{"id":11416,"adult":false},{"id":89861,"adult":false},{"id":72053,"adult":false},{"id":6312,"adult":false},{"id":15414,"adult":false},{"id":415975,"adult":false},{"id":6502,"adult":false},{"id":4787,"adult":false},{"id":253454,"adult":false},{"id":200101,"adult":false},{"id":160979,"adult":false},{"id":31388,"adult":false},{"id":437859,"adult":false},{"id":29691,"adult":false},{"id":15667,"adult":false},{"id":440002,"adult":false},{"id":435711,"adult":null},{"id":216103,"adult":false},{"id":21316,"adult":false},{"id":115156,"adult":false},{"id":363476,"adult":false},{"id":1251,"adult":false},{"id":72882,"adult":false},{"id":50907,"adult":false},{"id":270946,"adult":false},{"id":428260,"adult":false},{"id":25074,"adult":false},{"id":1581,"adult":false},{"id":38195,"adult":false},{"id":293,"adult":false},{"id":51145,"adult":false},{"id":6691,"adult":false},{"id":440003,"adult":false},{"id":18665,"adult":false},{"id":238715,"adult":false},{"id":440004,"adult":false},{"id":42054,"adult":false},{"id":112059,"adult":false},{"id":1440,"adult":false},{"id":52925,"adult":false},{"id":9072,"adult":false},{"id":42490,"adult":false},{"id":301012,"adult":false},{"id":139314,"adult":false},{"id":48587,"adult":false},{"id":1260,"adult":false},{"id":754,"adult":false},{"id":6641,"adult":false},{"id":25576,"adult":false},{"id":46869,"adult":false},{"id":19344,"adult":false},{"id":18857,"adult":false},{"id":9906,"adult":false},{"id":83795,"adult":false},{"id":4971,"adult":false},{"id":87744,"adult":false},{"id":72140,"adult":false},{"id":49229,"adult":false},{"id":440005,"adult":false},{"id":9697,"adult":false},{"id":8436,"adult":false},{"id":68446,"adult":false},{"id":41419,"adult":false},{"id":373801,"adult":false},{"id":9784,"adult":false},{"id":220980,"adult":false},{"id":9895,"adult":false},{"id":13739,"adult":false},{"id":111763,"adult":false},{"id":512,"adult":false},{"id":1887,"adult":false},{"id":440006,"adult":false}],"page":69,"total_pages":158,"total_results":15756}