{"results":[{"id":443508,"adult":true},{"id":40076,"adult":false},{"id":238959,"adult":false},{"id":443509,"adult":false},{"id":355948,"adult":false},{"id":83136,"adult":false},{"id":443510,"adult":false},{"id":87034,"adult":false},{"id":443511,"adult":false},{"id":443512,"adult":false},{"id":373751,"adult":false},{"id":53244,"adult":false},{"id":297931,"adult":false},{"id":330708,"adult":false},{"id":443513,"adult":false},{"id":371879,"adult":false},{"id":227828,"adult":false},{"id":425822,"adult":false},{"id":57726,"adult":false},{"id":348358,"adult":false},{"id":398430,"adult":false},{"id":11324,"adult":false},{"id":302179,"adult":false},{"id":443514,"adult":false},{"id":98532,"adult":false},{"id":34074,"adult":false},{"id":115782,"adult":false},{"id":348489,"adult":false},{"id":227062,"adult":false},{"id":443515,"adult":false},{"id":34320,"adult":false},{"id":435818,"adult":false},{"id":305241,"adult":false},{"id":18165,"adult":false},{"id":263109,"adult":false},{"id":335486,"adult":false},{"id":415447,"adult":false},{"id":313529,"adult":false},{"id":54803,"adult":false},{"id":52311,"adult":false},{"id":64293,"adult":false},{"id":392271,"adult":false},{"id":9952,"adult":false},{"id":26180,"adult":false},{"id":24913,"adult":false},{"id":37144,"adult":false},{"id":27303,"adult":false},{"id":33408,"adult":false},{"id":50037,"adult":false},{"id":366224,"adult":false},{"id":443516,"adult":false},{"id":62083,"adult":false},{"id":320004,"adult":false},{"id":270155,"adult":false},{"id":443517,"adult":false},{"id":49979,"adult":false},{"id":1993,"adult":false},{"id":19672,"adult":false},{"id":69201,"adult":false},{"id":16006,"adult":false},{"id":35464,"adult":false},{"id":443518,"adult":false},{"id":50073,"adult":false},{"id":28358,"adult":false},{"id":443519,"adult":false},{"id":226675,"adult":false},{"id":417059,"adult":false},{"id":271404,"adult":false},{"id":19016,"adult":false},{"id":322878,"adult":false},{"id":249923,"adult":false},{"id":24881,"adult":false},{"id":262709,"adult":false},{"id":402543,"adult":false},{"id":322248,"adult":false},{"id":443520,"adult":false},{"id":96382,"adult":false},{"id":70068,"adult":false},{"id":33556,"adult":false},{"id":43904,"adult":false},{"id":216425,"adult":false},{"id":443521,"adult":false},{"id":225570,"adult":false},{"id":145135,"adult":false},{"id":271342,"adult":false},{"id":39446,"adult":false},{"id":298737,"adult":false},{"id":51121,"adult":false},{"id":443522,"adult":false},{"id":382572,"adult":false},{"id":9344,"adult":false},{"id":11929,"adult":false},{"id":41884,"adult":false},{"id":23954,"adult":false},{"id":12110,"adult":false},{"id":10474,"adult":false},{"id":11980,"adult":false},{"id":8438,"adult":false},{"id":24625,"adult":false},{"id":241165,"adult":false}],"page":110,"total_pages":149,"total_results":14854}