{"results":[{"id":393731,"adult":false},{"id":236028,"adult":false},{"id":11304,"adult":false},{"id":1040,"adult":false},{"id":200204,"adult":false},{"id":410118,"adult":false},{"id":22559,"adult":false},{"id":442357,"adult":false},{"id":267573,"adult":false},{"id":290098,"adult":false},{"id":22970,"adult":false},{"id":14175,"adult":false},{"id":391698,"adult":false},{"id":14452,"adult":false},{"id":158852,"adult":false},{"id":58096,"adult":false},{"id":442358,"adult":false},{"id":442359,"adult":false},{"id":18916,"adult":false},{"id":442360,"adult":true},{"id":6461,"adult":false},{"id":442361,"adult":false},{"id":8359,"adult":false},{"id":328425,"adult":false},{"id":45963,"adult":false},{"id":58008,"adult":false},{"id":442362,"adult":true},{"id":109846,"adult":false},{"id":337658,"adult":false},{"id":409276,"adult":false},{"id":97316,"adult":false},{"id":442363,"adult":true},{"id":254128,"adult":false},{"id":416866,"adult":false},{"id":263521,"adult":false},{"id":442364,"adult":null},{"id":424661,"adult":false},{"id":417028,"adult":false},{"id":348355,"adult":false},{"id":209379,"adult":false},{"id":390401,"adult":false},{"id":442365,"adult":true},{"id":4627,"adult":false},{"id":49811,"adult":false},{"id":9502,"adult":false},{"id":117875,"adult":false},{"id":92051,"adult":null},{"id":169760,"adult":false},{"id":23260,"adult":false},{"id":257780,"adult":false},{"id":18176,"adult":false},{"id":14400,"adult":false},{"id":21015,"adult":false},{"id":351414,"adult":false},{"id":14847,"adult":false},{"id":22573,"adult":false},{"id":17175,"adult":false},{"id":392816,"adult":false},{"id":64285,"adult":false},{"id":10505,"adult":false},{"id":442366,"adult":false},{"id":361777,"adult":false},{"id":9262,"adult":false},{"id":326285,"adult":false},{"id":13825,"adult":false},{"id":376218,"adult":false},{"id":442367,"adult":false},{"id":380620,"adult":false},{"id":442368,"adult":false},{"id":31624,"adult":false},{"id":442369,"adult":false},{"id":267935,"adult":false},{"id":16409,"adult":false},{"id":380623,"adult":false},{"id":33601,"adult":false},{"id":142611,"adult":false},{"id":176096,"adult":false},{"id":16031,"adult":false},{"id":25766,"adult":false},{"id":442370,"adult":false},{"id":501,"adult":false},{"id":14192,"adult":false},{"id":21861,"adult":false},{"id":8899,"adult":false},{"id":387135,"adult":false},{"id":208393,"adult":false},{"id":31201,"adult":false},{"id":362430,"adult":false},{"id":21145,"adult":false},{"id":12177,"adult":false},{"id":400509,"adult":false},{"id":442371,"adult":false},{"id":411088,"adult":false},{"id":266341,"adult":false},{"id":10264,"adult":false},{"id":425364,"adult":false},{"id":371445,"adult":false},{"id":12085,"adult":false},{"id":442372,"adult":false},{"id":393695,"adult":false}],"page":42,"total_pages":149,"total_results":14854}