{"results":[{"id":341174,"adult":false},{"id":156022,"adult":false},{"id":431572,"adult":false},{"id":438913,"adult":false},{"id":138615,"adult":false},{"id":242310,"adult":false},{"id":438081,"adult":false},{"id":47599,"adult":false},{"id":295421,"adult":false},{"id":245024,"adult":false},{"id":250080,"adult":false},{"id":35940,"adult":false},{"id":441340,"adult":false},{"id":74433,"adult":false},{"id":441683,"adult":false},{"id":386024,"adult":false},{"id":262543,"adult":false},{"id":441849,"adult":false},{"id":290637,"adult":false},{"id":305638,"adult":false},{"id":341077,"adult":false},{"id":14606,"adult":false},{"id":279641,"adult":false},{"id":366851,"adult":false},{"id":19378,"adult":false},{"id":107,"adult":false},{"id":1858,"adult":false},{"id":9472,"adult":false},{"id":25055,"adult":false},{"id":61567,"adult":false},{"id":420478,"adult":false},{"id":3019,"adult":false},{"id":7347,"adult":false},{"id":33020,"adult":false},{"id":29778,"adult":false},{"id":13993,"adult":false},{"id":264263,"adult":false},{"id":440765,"adult":false},{"id":440766,"adult":false},{"id":365109,"adult":false},{"id":227935,"adult":false},{"id":353979,"adult":false},{"id":292625,"adult":false},{"id":374667,"adult":false},{"id":341137,"adult":false},{"id":19029,"adult":false},{"id":64944,"adult":false},{"id":122334,"adult":false},{"id":12691,"adult":false},{"id":62675,"adult":false},{"id":118533,"adult":false},{"id":67420,"adult":false},{"id":49959,"adult":false},{"id":284135,"adult":false},{"id":270303,"adult":false},{"id":6646,"adult":false},{"id":54227,"adult":false},{"id":18887,"adult":false},{"id":203834,"adult":false},{"id":346164,"adult":false},{"id":303113,"adult":false},{"id":437815,"adult":false},{"id":1417,"adult":false},{"id":29108,"adult":false},{"id":301804,"adult":false},{"id":437614,"adult":false},{"id":232613,"adult":false},{"id":28848,"adult":false},{"id":10201,"adult":false},{"id":225503,"adult":false},{"id":19213,"adult":false},{"id":291356,"adult":false},{"id":24351,"adult":false},{"id":50247,"adult":false},{"id":20411,"adult":false},{"id":28690,"adult":false},{"id":10190,"adult":false},{"id":218689,"adult":false},{"id":17317,"adult":false},{"id":1731,"adult":false},{"id":401513,"adult":false},{"id":108405,"adult":false},{"id":441850,"adult":false},{"id":441568,"adult":false},{"id":28276,"adult":false},{"id":135313,"adult":false},{"id":441851,"adult":false},{"id":427680,"adult":false},{"id":440666,"adult":null},{"id":269764,"adult":false},{"id":2832,"adult":false},{"id":364873,"adult":false},{"id":441852,"adult":false},{"id":106,"adult":false},{"id":433386,"adult":false},{"id":56616,"adult":false},{"id":258805,"adult":false},{"id":117404,"adult":false},{"id":73700,"adult":false},{"id":256854,"adult":false}],"page":7,"total_pages":149,"total_results":14854}