{"results":[{"id":111769,"adult":false},{"id":57585,"adult":false},{"id":81344,"adult":false},{"id":126302,"adult":false},{"id":448922,"adult":false},{"id":448923,"adult":false},{"id":89405,"adult":false},{"id":448924,"adult":false},{"id":159774,"adult":false},{"id":77677,"adult":false},{"id":98568,"adult":false},{"id":135664,"adult":false},{"id":93265,"adult":false},{"id":448925,"adult":false},{"id":418001,"adult":false},{"id":283552,"adult":false},{"id":78182,"adult":false},{"id":448926,"adult":true},{"id":391994,"adult":false},{"id":350433,"adult":false},{"id":85341,"adult":false},{"id":79133,"adult":false},{"id":448927,"adult":false},{"id":448928,"adult":false},{"id":428790,"adult":false},{"id":126304,"adult":false},{"id":55215,"adult":false},{"id":180145,"adult":false},{"id":428407,"adult":false},{"id":292014,"adult":false},{"id":265327,"adult":false},{"id":85339,"adult":false},{"id":381319,"adult":false},{"id":448929,"adult":false},{"id":68627,"adult":false},{"id":84422,"adult":false},{"id":448930,"adult":true},{"id":80624,"adult":false},{"id":264903,"adult":false},{"id":283729,"adult":false},{"id":13027,"adult":false},{"id":44603,"adult":false},{"id":114087,"adult":false},{"id":2059,"adult":false},{"id":18158,"adult":false},{"id":448931,"adult":false},{"id":17741,"adult":false},{"id":209262,"adult":false},{"id":428413,"adult":false},{"id":448932,"adult":false},{"id":448933,"adult":false},{"id":432792,"adult":false},{"id":405204,"adult":false},{"id":337682,"adult":false},{"id":290143,"adult":false},{"id":26583,"adult":false},{"id":444454,"adult":false},{"id":58595,"adult":false},{"id":259903,"adult":false},{"id":262118,"adult":false},{"id":446153,"adult":null},{"id":411638,"adult":false},{"id":398807,"adult":null},{"id":387268,"adult":false},{"id":192568,"adult":false},{"id":429463,"adult":false},{"id":360416,"adult":false},{"id":448934,"adult":null},{"id":424105,"adult":false},{"id":301020,"adult":false},{"id":408483,"adult":false},{"id":5544,"adult":false},{"id":160792,"adult":false},{"id":251412,"adult":false},{"id":29694,"adult":false},{"id":43450,"adult":false},{"id":55687,"adult":false},{"id":360415,"adult":false},{"id":442698,"adult":false},{"id":369972,"adult":false},{"id":425124,"adult":false},{"id":448935,"adult":false},{"id":448936,"adult":false},{"id":227714,"adult":false},{"id":57830,"adult":false},{"id":448937,"adult":false},{"id":38992,"adult":false},{"id":20423,"adult":false},{"id":448938,"adult":true},{"id":321347,"adult":false},{"id":333738,"adult":true},{"id":448939,"adult":false},{"id":346722,"adult":false},{"id":342409,"adult":false},{"id":339439,"adult":false},{"id":438018,"adult":false},{"id":448940,"adult":false},{"id":448941,"adult":false},{"id":340712,"adult":false},{"id":448942,"adult":false}],"page":146,"total_pages":168,"total_results":16730}