{"results":[{"id":10007,"adult":false},{"id":389627,"adult":false},{"id":433989,"adult":false},{"id":80184,"adult":false},{"id":97051,"adult":false},{"id":447946,"adult":false},{"id":356298,"adult":false},{"id":322125,"adult":false},{"id":440430,"adult":false},{"id":38319,"adult":false},{"id":325071,"adult":false},{"id":152737,"adult":false},{"id":147,"adult":false},{"id":11421,"adult":false},{"id":329632,"adult":false},{"id":69335,"adult":false},{"id":447947,"adult":false},{"id":13963,"adult":false},{"id":67612,"adult":false},{"id":402113,"adult":false},{"id":442790,"adult":false},{"id":120,"adult":false},{"id":447948,"adult":false},{"id":374555,"adult":false},{"id":14452,"adult":false},{"id":447949,"adult":false},{"id":70815,"adult":false},{"id":56049,"adult":false},{"id":299824,"adult":false},{"id":447950,"adult":false},{"id":185348,"adult":false},{"id":404762,"adult":false},{"id":88060,"adult":false},{"id":71880,"adult":false},{"id":440424,"adult":false},{"id":2022,"adult":false},{"id":447951,"adult":false},{"id":21253,"adult":false},{"id":337844,"adult":false},{"id":11131,"adult":false},{"id":318143,"adult":false},{"id":425622,"adult":false},{"id":338379,"adult":false},{"id":10964,"adult":false},{"id":381015,"adult":false},{"id":662,"adult":false},{"id":122973,"adult":false},{"id":58637,"adult":false},{"id":74113,"adult":false},{"id":141522,"adult":false},{"id":185534,"adult":false},{"id":73872,"adult":false},{"id":10195,"adult":false},{"id":63736,"adult":false},{"id":81010,"adult":false},{"id":383498,"adult":false},{"id":11667,"adult":false},{"id":65034,"adult":false},{"id":447952,"adult":false},{"id":172885,"adult":false},{"id":182657,"adult":false},{"id":59118,"adult":false},{"id":447953,"adult":false},{"id":441930,"adult":null},{"id":70578,"adult":false},{"id":39478,"adult":false},{"id":78381,"adult":false},{"id":9426,"adult":false},{"id":76543,"adult":false},{"id":190113,"adult":false},{"id":447954,"adult":false},{"id":400331,"adult":false},{"id":21950,"adult":false},{"id":86391,"adult":false},{"id":62441,"adult":false},{"id":48138,"adult":false},{"id":78073,"adult":false},{"id":122,"adult":false},{"id":86387,"adult":false},{"id":270367,"adult":false},{"id":73290,"adult":false},{"id":447955,"adult":false},{"id":212161,"adult":false},{"id":185526,"adult":false},{"id":75562,"adult":false},{"id":347200,"adult":false},{"id":65754,"adult":false},{"id":432583,"adult":false},{"id":176159,"adult":false},{"id":103645,"adult":false},{"id":265420,"adult":false},{"id":60779,"adult":false},{"id":165755,"adult":false},{"id":372751,"adult":false},{"id":268660,"adult":false},{"id":99389,"adult":false},{"id":347187,"adult":false},{"id":91550,"adult":false},{"id":389053,"adult":false},{"id":125140,"adult":false}],"page":84,"total_pages":168,"total_results":16730}