{"results":[{"id":103731,"adult":false},{"id":345054,"adult":false},{"id":342878,"adult":false},{"id":437425,"adult":false},{"id":335415,"adult":false},{"id":334536,"adult":false},{"id":335349,"adult":false},{"id":434942,"adult":false},{"id":23050,"adult":false},{"id":6477,"adult":false},{"id":437426,"adult":false},{"id":11536,"adult":false},{"id":854,"adult":false},{"id":43010,"adult":false},{"id":709,"adult":false},{"id":4176,"adult":false},{"id":325391,"adult":false},{"id":437427,"adult":false},{"id":245913,"adult":false},{"id":437428,"adult":false},{"id":25638,"adult":false},{"id":244015,"adult":false},{"id":20499,"adult":false},{"id":10730,"adult":false},{"id":356994,"adult":false},{"id":390358,"adult":false},{"id":31593,"adult":false},{"id":241257,"adult":false},{"id":213535,"adult":false},{"id":328162,"adult":false},{"id":8208,"adult":false},{"id":437429,"adult":false},{"id":296152,"adult":false},{"id":11322,"adult":false},{"id":437430,"adult":false},{"id":12764,"adult":false},{"id":27352,"adult":false},{"id":13581,"adult":false},{"id":437431,"adult":false},{"id":82520,"adult":false},{"id":140122,"adult":false},{"id":12481,"adult":false},{"id":354352,"adult":false},{"id":170517,"adult":false},{"id":437432,"adult":false},{"id":413666,"adult":false},{"id":437433,"adult":false},{"id":437437,"adult":false},{"id":262053,"adult":false},{"id":437438,"adult":false},{"id":338386,"adult":false},{"id":46878,"adult":false},{"id":81518,"adult":false},{"id":315986,"adult":false},{"id":437439,"adult":false},{"id":60225,"adult":false},{"id":12454,"adult":false},{"id":58350,"adult":false},{"id":79215,"adult":false},{"id":392794,"adult":false},{"id":301378,"adult":false},{"id":57956,"adult":false},{"id":354937,"adult":false},{"id":147545,"adult":false},{"id":315987,"adult":false},{"id":51362,"adult":false},{"id":315988,"adult":false},{"id":437440,"adult":false},{"id":254974,"adult":false},{"id":437441,"adult":false},{"id":410212,"adult":false},{"id":437442,"adult":false},{"id":102881,"adult":false},{"id":350005,"adult":false},{"id":437443,"adult":false},{"id":319353,"adult":false},{"id":437444,"adult":false},{"id":331044,"adult":false},{"id":10112,"adult":false},{"id":15655,"adult":false},{"id":226597,"adult":false},{"id":437445,"adult":false},{"id":250480,"adult":false},{"id":38209,"adult":false},{"id":327306,"adult":false},{"id":10009,"adult":false},{"id":9016,"adult":false},{"id":437446,"adult":false},{"id":9994,"adult":false},{"id":309319,"adult":false},{"id":437447,"adult":null},{"id":15400,"adult":false},{"id":437448,"adult":false},{"id":311632,"adult":null},{"id":16250,"adult":false},{"id":437449,"adult":null},{"id":115799,"adult":false},{"id":13905,"adult":false},{"id":437450,"adult":false},{"id":212762,"adult":false}],"page":132,"total_pages":144,"total_results":14325}