{"results":[{"id":24177,"adult":false},{"id":294272,"adult":false},{"id":432970,"adult":false},{"id":432971,"adult":false},{"id":302699,"adult":false},{"id":412201,"adult":false},{"id":296096,"adult":false},{"id":432972,"adult":false},{"id":402744,"adult":null},{"id":295699,"adult":false},{"id":332567,"adult":false},{"id":333386,"adult":false},{"id":424427,"adult":null},{"id":424426,"adult":null},{"id":42988,"adult":false},{"id":423387,"adult":null},{"id":424431,"adult":null},{"id":116463,"adult":false},{"id":413502,"adult":null},{"id":424424,"adult":null},{"id":373314,"adult":false},{"id":422726,"adult":null},{"id":259694,"adult":false},{"id":400123,"adult":false},{"id":412200,"adult":false},{"id":424428,"adult":null},{"id":390882,"adult":false},{"id":51256,"adult":false},{"id":353642,"adult":false},{"id":364433,"adult":false},{"id":318364,"adult":false},{"id":312669,"adult":false},{"id":393863,"adult":false},{"id":42129,"adult":false},{"id":430058,"adult":false},{"id":432973,"adult":null},{"id":432974,"adult":false},{"id":309924,"adult":false},{"id":77726,"adult":null},{"id":376290,"adult":false},{"id":432975,"adult":false},{"id":432976,"adult":false},{"id":5335,"adult":false},{"id":57999,"adult":false},{"id":383799,"adult":false},{"id":68179,"adult":false},{"id":301608,"adult":false},{"id":430830,"adult":false},{"id":432977,"adult":false},{"id":432978,"adult":null},{"id":393857,"adult":false},{"id":410366,"adult":false},{"id":324794,"adult":false},{"id":432979,"adult":false},{"id":432981,"adult":null},{"id":432982,"adult":false},{"id":207052,"adult":false},{"id":238589,"adult":false},{"id":55374,"adult":false},{"id":1957,"adult":false},{"id":428365,"adult":false},{"id":238365,"adult":false},{"id":432983,"adult":false},{"id":353440,"adult":false},{"id":17205,"adult":false},{"id":432984,"adult":false},{"id":356300,"adult":false},{"id":41613,"adult":false},{"id":181312,"adult":false},{"id":124409,"adult":false},{"id":324275,"adult":false},{"id":15380,"adult":false},{"id":347700,"adult":false},{"id":74797,"adult":false},{"id":26430,"adult":false},{"id":374416,"adult":false},{"id":278106,"adult":false},{"id":57110,"adult":false},{"id":27917,"adult":false},{"id":250225,"adult":false},{"id":68788,"adult":false},{"id":381073,"adult":false},{"id":30843,"adult":false},{"id":37486,"adult":false},{"id":65318,"adult":false},{"id":432985,"adult":false},{"id":42324,"adult":false},{"id":86001,"adult":false},{"id":430656,"adult":false},{"id":425254,"adult":null},{"id":287126,"adult":false},{"id":432986,"adult":false},{"id":432987,"adult":false},{"id":406096,"adult":false},{"id":413543,"adult":false},{"id":43030,"adult":false},{"id":358899,"adult":false},{"id":340912,"adult":false},{"id":92422,"adult":false},{"id":383848,"adult":null}],"page":30,"total_pages":133,"total_results":13251}