{"results":[{"id":4629,"adult":false},{"id":366104,"adult":false},{"id":2527,"adult":false},{"id":12186,"adult":false},{"id":302684,"adult":false},{"id":444850,"adult":false},{"id":435259,"adult":false},{"id":444851,"adult":false},{"id":9325,"adult":false},{"id":395769,"adult":false},{"id":77223,"adult":false},{"id":444852,"adult":false},{"id":444853,"adult":false},{"id":210643,"adult":false},{"id":417830,"adult":false},{"id":10198,"adult":false},{"id":396623,"adult":false},{"id":42001,"adult":false},{"id":39142,"adult":false},{"id":434966,"adult":false},{"id":390686,"adult":false},{"id":29030,"adult":false},{"id":308423,"adult":false},{"id":387436,"adult":false},{"id":352217,"adult":false},{"id":10467,"adult":false},{"id":444854,"adult":false},{"id":74766,"adult":false},{"id":375867,"adult":false},{"id":95107,"adult":false},{"id":122857,"adult":false},{"id":20289,"adult":false},{"id":78146,"adult":false},{"id":82687,"adult":false},{"id":187682,"adult":false},{"id":9644,"adult":false},{"id":9395,"adult":false},{"id":41110,"adult":false},{"id":263082,"adult":false},{"id":444855,"adult":false},{"id":444856,"adult":false},{"id":19312,"adult":false},{"id":316023,"adult":false},{"id":11983,"adult":false},{"id":9570,"adult":false},{"id":444857,"adult":false},{"id":108232,"adult":false},{"id":100241,"adult":false},{"id":348896,"adult":false},{"id":369566,"adult":false},{"id":15189,"adult":false},{"id":15867,"adult":false},{"id":444858,"adult":false},{"id":25360,"adult":false},{"id":199173,"adult":null},{"id":18097,"adult":false},{"id":24732,"adult":false},{"id":28190,"adult":false},{"id":4034,"adult":false},{"id":134885,"adult":false},{"id":19762,"adult":false},{"id":444859,"adult":false},{"id":243938,"adult":false},{"id":710,"adult":false},{"id":65573,"adult":false},{"id":525,"adult":false},{"id":57201,"adult":false},{"id":444860,"adult":false},{"id":12888,"adult":false},{"id":444861,"adult":false},{"id":82650,"adult":false},{"id":444862,"adult":false},{"id":46465,"adult":false},{"id":27531,"adult":false},{"id":422347,"adult":false},{"id":15322,"adult":false},{"id":444863,"adult":false},{"id":115301,"adult":false},{"id":408272,"adult":false},{"id":444864,"adult":false},{"id":444865,"adult":false},{"id":332457,"adult":false},{"id":3418,"adult":false},{"id":328111,"adult":false},{"id":65086,"adult":false},{"id":195522,"adult":false},{"id":444866,"adult":false},{"id":373247,"adult":false},{"id":2320,"adult":false},{"id":10568,"adult":false},{"id":11504,"adult":false},{"id":278927,"adult":false},{"id":444867,"adult":false},{"id":3179,"adult":false},{"id":142,"adult":false},{"id":10847,"adult":false},{"id":413028,"adult":false},{"id":5001,"adult":false},{"id":15888,"adult":false},{"id":628,"adult":false}],"page":36,"total_pages":162,"total_results":16167}