{"results":[{"id":109099,"adult":false},{"id":95755,"adult":false},{"id":342253,"adult":false},{"id":435705,"adult":false},{"id":47903,"adult":false},{"id":131947,"adult":false},{"id":440872,"adult":false},{"id":55287,"adult":false},{"id":12633,"adult":false},{"id":136411,"adult":false},{"id":43688,"adult":false},{"id":440873,"adult":false},{"id":403390,"adult":false},{"id":115242,"adult":false},{"id":44916,"adult":false},{"id":240,"adult":false},{"id":11479,"adult":false},{"id":434473,"adult":false},{"id":99010,"adult":false},{"id":437410,"adult":false},{"id":206518,"adult":false},{"id":437408,"adult":false},{"id":242248,"adult":false},{"id":425218,"adult":false},{"id":423594,"adult":false},{"id":888,"adult":false},{"id":375355,"adult":false},{"id":217925,"adult":false},{"id":114606,"adult":false},{"id":418143,"adult":false},{"id":117974,"adult":false},{"id":255083,"adult":false},{"id":360037,"adult":false},{"id":440874,"adult":false},{"id":148627,"adult":null},{"id":440875,"adult":false},{"id":340240,"adult":false},{"id":219302,"adult":false},{"id":22112,"adult":false},{"id":21242,"adult":false},{"id":343284,"adult":false},{"id":154972,"adult":false},{"id":358913,"adult":false},{"id":343809,"adult":false},{"id":241754,"adult":false},{"id":337107,"adult":false},{"id":282035,"adult":false},{"id":215960,"adult":false},{"id":440876,"adult":false},{"id":272157,"adult":false},{"id":440877,"adult":false},{"id":84204,"adult":false},{"id":379171,"adult":false},{"id":154791,"adult":false},{"id":324612,"adult":false},{"id":186233,"adult":false},{"id":42344,"adult":false},{"id":141669,"adult":false},{"id":26676,"adult":false},{"id":357799,"adult":false},{"id":10783,"adult":false},{"id":291270,"adult":false},{"id":281469,"adult":false},{"id":21349,"adult":false},{"id":249916,"adult":false},{"id":440878,"adult":false},{"id":14614,"adult":false},{"id":340357,"adult":false},{"id":337914,"adult":false},{"id":264767,"adult":false},{"id":440879,"adult":false},{"id":154097,"adult":false},{"id":43197,"adult":false},{"id":416691,"adult":false},{"id":11938,"adult":false},{"id":415923,"adult":false},{"id":355595,"adult":false},{"id":440880,"adult":false},{"id":60541,"adult":false},{"id":440881,"adult":false},{"id":76276,"adult":false},{"id":318917,"adult":false},{"id":205962,"adult":false},{"id":328485,"adult":false},{"id":440882,"adult":false},{"id":217187,"adult":false},{"id":422271,"adult":false},{"id":335138,"adult":false},{"id":75365,"adult":false},{"id":37514,"adult":false},{"id":76152,"adult":false},{"id":126766,"adult":false},{"id":241044,"adult":false},{"id":11322,"adult":false},{"id":440883,"adult":false},{"id":364853,"adult":false},{"id":383367,"adult":false},{"id":166791,"adult":false},{"id":308451,"adult":false},{"id":396004,"adult":false}],"page":115,"total_pages":158,"total_results":15756}