{"results":[{"id":60402,"adult":false},{"id":437220,"adult":false},{"id":425283,"adult":false},{"id":154700,"adult":false},{"id":257091,"adult":false},{"id":429191,"adult":false},{"id":432799,"adult":false},{"id":26823,"adult":false},{"id":429732,"adult":false},{"id":51245,"adult":false},{"id":8942,"adult":false},{"id":410655,"adult":false},{"id":84002,"adult":false},{"id":400433,"adult":false},{"id":437221,"adult":false},{"id":437222,"adult":false},{"id":26497,"adult":false},{"id":437223,"adult":false},{"id":15930,"adult":false},{"id":424634,"adult":false},{"id":31444,"adult":false},{"id":114336,"adult":false},{"id":437224,"adult":false},{"id":271667,"adult":false},{"id":33501,"adult":false},{"id":437225,"adult":false},{"id":437226,"adult":null},{"id":306814,"adult":false},{"id":437227,"adult":false},{"id":55241,"adult":false},{"id":437228,"adult":null},{"id":437229,"adult":false},{"id":49813,"adult":false},{"id":437230,"adult":false},{"id":384491,"adult":false},{"id":13205,"adult":false},{"id":405346,"adult":false},{"id":53344,"adult":false},{"id":410796,"adult":false},{"id":431756,"adult":false},{"id":4499,"adult":false},{"id":367619,"adult":false},{"id":72133,"adult":false},{"id":113182,"adult":false},{"id":21382,"adult":false},{"id":105864,"adult":false},{"id":12139,"adult":false},{"id":10217,"adult":false},{"id":437231,"adult":false},{"id":6519,"adult":false},{"id":392820,"adult":false},{"id":10183,"adult":false},{"id":310154,"adult":false},{"id":369578,"adult":null},{"id":410678,"adult":false},{"id":437232,"adult":false},{"id":349193,"adult":false},{"id":431018,"adult":true},{"id":437233,"adult":null},{"id":32513,"adult":false},{"id":163627,"adult":false},{"id":42738,"adult":false},{"id":437234,"adult":false},{"id":258769,"adult":false},{"id":215843,"adult":false},{"id":16284,"adult":false},{"id":437235,"adult":false},{"id":437236,"adult":false},{"id":325686,"adult":false},{"id":437237,"adult":false},{"id":437238,"adult":false},{"id":335374,"adult":true},{"id":13310,"adult":false},{"id":15653,"adult":false},{"id":10837,"adult":false},{"id":413527,"adult":false},{"id":361239,"adult":false},{"id":14903,"adult":false},{"id":340,"adult":false},{"id":26240,"adult":false},{"id":66861,"adult":false},{"id":15163,"adult":false},{"id":294992,"adult":false},{"id":16140,"adult":false},{"id":17659,"adult":false},{"id":73937,"adult":false},{"id":55846,"adult":false},{"id":126503,"adult":false},{"id":40156,"adult":false},{"id":31040,"adult":false},{"id":66762,"adult":false},{"id":112090,"adult":false},{"id":2197,"adult":false},{"id":327023,"adult":false},{"id":319314,"adult":false},{"id":377852,"adult":false},{"id":406298,"adult":false},{"id":26390,"adult":false},{"id":34751,"adult":false},{"id":21755,"adult":false}],"page":124,"total_pages":144,"total_results":14325}