{"results":[{"id":257807,"adult":false},{"id":374471,"adult":false},{"id":334770,"adult":false},{"id":440629,"adult":false},{"id":440630,"adult":false},{"id":259849,"adult":false},{"id":401084,"adult":false},{"id":430343,"adult":false},{"id":16131,"adult":false},{"id":270204,"adult":false},{"id":13970,"adult":false},{"id":180465,"adult":false},{"id":362247,"adult":false},{"id":440631,"adult":false},{"id":33989,"adult":false},{"id":440632,"adult":false},{"id":440633,"adult":false},{"id":440634,"adult":false},{"id":440635,"adult":false},{"id":77642,"adult":false},{"id":440636,"adult":false},{"id":440637,"adult":false},{"id":319999,"adult":false},{"id":282488,"adult":false},{"id":44667,"adult":false},{"id":440639,"adult":false},{"id":384641,"adult":false},{"id":173123,"adult":false},{"id":293205,"adult":false},{"id":440640,"adult":false},{"id":9576,"adult":false},{"id":389045,"adult":false},{"id":307252,"adult":false},{"id":278143,"adult":false},{"id":330494,"adult":false},{"id":279564,"adult":false},{"id":376647,"adult":false},{"id":68062,"adult":null},{"id":277902,"adult":false},{"id":423313,"adult":false},{"id":280308,"adult":false},{"id":440641,"adult":false},{"id":393074,"adult":false},{"id":278019,"adult":false},{"id":278014,"adult":false},{"id":278040,"adult":false},{"id":256378,"adult":false},{"id":278176,"adult":false},{"id":278066,"adult":false},{"id":440642,"adult":false},{"id":430909,"adult":true},{"id":376085,"adult":false},{"id":349314,"adult":false},{"id":278010,"adult":false},{"id":430903,"adult":true},{"id":269696,"adult":false},{"id":278017,"adult":null},{"id":396303,"adult":false},{"id":184800,"adult":false},{"id":430902,"adult":true},{"id":9478,"adult":false},{"id":440643,"adult":false},{"id":440644,"adult":false},{"id":440645,"adult":false},{"id":440646,"adult":false},{"id":388392,"adult":true},{"id":440647,"adult":false},{"id":345915,"adult":false},{"id":120143,"adult":false},{"id":440648,"adult":false},{"id":225689,"adult":true},{"id":20526,"adult":false},{"id":430901,"adult":true},{"id":254736,"adult":false},{"id":342179,"adult":false},{"id":38172,"adult":false},{"id":342183,"adult":false},{"id":440649,"adult":false},{"id":370172,"adult":false},{"id":22021,"adult":false},{"id":86450,"adult":false},{"id":301334,"adult":false},{"id":81446,"adult":false},{"id":440650,"adult":false},{"id":430752,"adult":false},{"id":402938,"adult":false},{"id":440651,"adult":false},{"id":168635,"adult":false},{"id":430900,"adult":true},{"id":86308,"adult":null},{"id":430889,"adult":true},{"id":399051,"adult":false},{"id":440652,"adult":false},{"id":384328,"adult":true},{"id":436107,"adult":false},{"id":440653,"adult":false},{"id":440654,"adult":false},{"id":440655,"adult":false},{"id":427641,"adult":false},{"id":440656,"adult":null}],"page":103,"total_pages":158,"total_results":15756}