{"results":[{"id":8277,"adult":false},{"id":38160,"adult":false},{"id":418402,"adult":false},{"id":26123,"adult":false},{"id":85644,"adult":false},{"id":271173,"adult":false},{"id":32074,"adult":false},{"id":450603,"adult":false},{"id":47280,"adult":false},{"id":375867,"adult":false},{"id":450604,"adult":false},{"id":450605,"adult":false},{"id":286346,"adult":false},{"id":388468,"adult":false},{"id":370978,"adult":false},{"id":68119,"adult":false},{"id":425134,"adult":false},{"id":250326,"adult":false},{"id":587,"adult":false},{"id":5548,"adult":false},{"id":218588,"adult":false},{"id":35888,"adult":false},{"id":150857,"adult":false},{"id":238751,"adult":false},{"id":344945,"adult":false},{"id":139464,"adult":false},{"id":27600,"adult":false},{"id":27599,"adult":false},{"id":73661,"adult":false},{"id":217385,"adult":false},{"id":450606,"adult":false},{"id":18502,"adult":false},{"id":271570,"adult":false},{"id":68291,"adult":false},{"id":140394,"adult":false},{"id":45523,"adult":false},{"id":22072,"adult":false},{"id":27230,"adult":false},{"id":211331,"adult":false},{"id":31648,"adult":false},{"id":12493,"adult":false},{"id":450607,"adult":false},{"id":29963,"adult":false},{"id":42010,"adult":false},{"id":76794,"adult":false},{"id":296936,"adult":false},{"id":294811,"adult":false},{"id":299895,"adult":true},{"id":2176,"adult":false},{"id":418301,"adult":false},{"id":354285,"adult":false},{"id":222523,"adult":false},{"id":83109,"adult":false},{"id":450608,"adult":false},{"id":450609,"adult":false},{"id":279869,"adult":false},{"id":225146,"adult":true},{"id":450610,"adult":false},{"id":252178,"adult":false},{"id":93116,"adult":false},{"id":402423,"adult":false},{"id":34276,"adult":false},{"id":429946,"adult":true},{"id":108003,"adult":false},{"id":36517,"adult":false},{"id":381264,"adult":false},{"id":106020,"adult":false},{"id":450612,"adult":false},{"id":41099,"adult":false},{"id":231497,"adult":false},{"id":131751,"adult":true},{"id":86851,"adult":false},{"id":450613,"adult":false},{"id":450614,"adult":false},{"id":85718,"adult":false},{"id":52793,"adult":null},{"id":450615,"adult":false},{"id":450616,"adult":false},{"id":409505,"adult":null},{"id":393568,"adult":false},{"id":336149,"adult":false},{"id":200857,"adult":null},{"id":236740,"adult":true},{"id":290719,"adult":false},{"id":32941,"adult":false},{"id":450617,"adult":false},{"id":301846,"adult":false},{"id":354748,"adult":false},{"id":355121,"adult":false},{"id":450618,"adult":false},{"id":124557,"adult":false},{"id":202111,"adult":false},{"id":282454,"adult":false},{"id":19349,"adult":false},{"id":7451,"adult":false},{"id":2637,"adult":false},{"id":192102,"adult":false},{"id":246741,"adult":false},{"id":446864,"adult":false},{"id":450619,"adult":false}],"page":45,"total_pages":105,"total_results":10420}