{"results":[{"id":394170,"adult":false},{"id":175484,"adult":false},{"id":314665,"adult":false},{"id":16235,"adult":false},{"id":9103,"adult":false},{"id":450974,"adult":false},{"id":450975,"adult":false},{"id":450976,"adult":false},{"id":440020,"adult":false},{"id":450977,"adult":false},{"id":86791,"adult":false},{"id":450978,"adult":true},{"id":81680,"adult":false},{"id":192350,"adult":false},{"id":450979,"adult":false},{"id":450980,"adult":null},{"id":9352,"adult":false},{"id":450981,"adult":false},{"id":445073,"adult":false},{"id":50356,"adult":false},{"id":19688,"adult":false},{"id":450982,"adult":false},{"id":408824,"adult":false},{"id":11578,"adult":false},{"id":61471,"adult":false},{"id":441472,"adult":false},{"id":132328,"adult":false},{"id":75540,"adult":false},{"id":56872,"adult":false},{"id":12594,"adult":false},{"id":210908,"adult":false},{"id":268531,"adult":false},{"id":66091,"adult":false},{"id":351414,"adult":false},{"id":833,"adult":false},{"id":354556,"adult":false},{"id":384450,"adult":false},{"id":204623,"adult":false},{"id":12627,"adult":false},{"id":417320,"adult":false},{"id":277217,"adult":false},{"id":317333,"adult":false},{"id":448831,"adult":false},{"id":244070,"adult":false},{"id":445178,"adult":false},{"id":240200,"adult":false},{"id":56128,"adult":null},{"id":450983,"adult":false},{"id":308232,"adult":false},{"id":430128,"adult":false},{"id":450984,"adult":false},{"id":450985,"adult":false},{"id":199479,"adult":false},{"id":227156,"adult":false},{"id":450986,"adult":false},{"id":82833,"adult":false},{"id":197455,"adult":false},{"id":48948,"adult":false},{"id":450987,"adult":false},{"id":15788,"adult":false},{"id":402380,"adult":false},{"id":278255,"adult":false},{"id":450988,"adult":false},{"id":341495,"adult":false},{"id":450989,"adult":false},{"id":58659,"adult":false},{"id":28635,"adult":false},{"id":12658,"adult":false},{"id":38157,"adult":false},{"id":450990,"adult":false},{"id":208785,"adult":false},{"id":81349,"adult":false},{"id":23128,"adult":false},{"id":350837,"adult":false},{"id":388882,"adult":false},{"id":450992,"adult":true},{"id":111992,"adult":false},{"id":64720,"adult":false},{"id":450993,"adult":false},{"id":450994,"adult":false},{"id":450995,"adult":false},{"id":450996,"adult":false},{"id":450997,"adult":false},{"id":370482,"adult":false},{"id":450998,"adult":false},{"id":10351,"adult":false},{"id":427573,"adult":false},{"id":405174,"adult":false},{"id":46489,"adult":false},{"id":404516,"adult":false},{"id":450999,"adult":false},{"id":349418,"adult":false},{"id":52877,"adult":false},{"id":451000,"adult":false},{"id":274096,"adult":false},{"id":158558,"adult":false},{"id":451001,"adult":false},{"id":57212,"adult":false},{"id":451002,"adult":false},{"id":451003,"adult":false}],"page":67,"total_pages":105,"total_results":10420}