{"results":[{"id":447584,"adult":false},{"id":26947,"adult":false},{"id":9477,"adult":false},{"id":209367,"adult":false},{"id":146543,"adult":false},{"id":442385,"adult":false},{"id":447585,"adult":false},{"id":447586,"adult":false},{"id":392707,"adult":false},{"id":60159,"adult":false},{"id":214198,"adult":false},{"id":379431,"adult":false},{"id":36643,"adult":false},{"id":447587,"adult":false},{"id":44207,"adult":false},{"id":209415,"adult":false},{"id":92759,"adult":false},{"id":54433,"adult":false},{"id":442401,"adult":false},{"id":447588,"adult":false},{"id":129253,"adult":false},{"id":5950,"adult":false},{"id":73252,"adult":false},{"id":447589,"adult":false},{"id":304441,"adult":false},{"id":23439,"adult":false},{"id":98376,"adult":false},{"id":852,"adult":false},{"id":35664,"adult":false},{"id":368129,"adult":false},{"id":57737,"adult":false},{"id":447590,"adult":false},{"id":10444,"adult":false},{"id":29056,"adult":false},{"id":382780,"adult":false},{"id":447591,"adult":false},{"id":447592,"adult":false},{"id":39154,"adult":false},{"id":46171,"adult":false},{"id":76464,"adult":false},{"id":399404,"adult":false},{"id":150896,"adult":false},{"id":245891,"adult":false},{"id":337365,"adult":false},{"id":408345,"adult":false},{"id":84165,"adult":false},{"id":149134,"adult":false},{"id":62206,"adult":false},{"id":32689,"adult":false},{"id":72956,"adult":false},{"id":76532,"adult":false},{"id":57586,"adult":false},{"id":73873,"adult":false},{"id":4438,"adult":false},{"id":43455,"adult":false},{"id":121239,"adult":false},{"id":143524,"adult":false},{"id":81983,"adult":false},{"id":357038,"adult":false},{"id":142320,"adult":false},{"id":57484,"adult":true},{"id":61891,"adult":false},{"id":334933,"adult":false},{"id":68450,"adult":false},{"id":258802,"adult":false},{"id":447593,"adult":false},{"id":53415,"adult":false},{"id":64678,"adult":false},{"id":447594,"adult":false},{"id":41769,"adult":false},{"id":2517,"adult":false},{"id":127380,"adult":false},{"id":282369,"adult":false},{"id":266948,"adult":false},{"id":56690,"adult":false},{"id":62648,"adult":false},{"id":447595,"adult":false},{"id":10725,"adult":false},{"id":59678,"adult":false},{"id":447596,"adult":false},{"id":340676,"adult":false},{"id":21208,"adult":false},{"id":174928,"adult":false},{"id":270675,"adult":false},{"id":109491,"adult":false},{"id":322766,"adult":false},{"id":77006,"adult":false},{"id":92591,"adult":false},{"id":56481,"adult":false},{"id":109632,"adult":false},{"id":227662,"adult":false},{"id":73937,"adult":false},{"id":77221,"adult":false},{"id":432817,"adult":false},{"id":135598,"adult":false},{"id":21193,"adult":false},{"id":18038,"adult":false},{"id":447597,"adult":false},{"id":123242,"adult":false},{"id":15982,"adult":false}],"page":52,"total_pages":168,"total_results":16730}