{"results":[{"id":97872,"adult":false},{"id":425980,"adult":false},{"id":417644,"adult":false},{"id":336002,"adult":false},{"id":15206,"adult":false},{"id":343078,"adult":false},{"id":65599,"adult":false},{"id":86822,"adult":false},{"id":447922,"adult":null},{"id":48821,"adult":false},{"id":447923,"adult":null},{"id":417198,"adult":false},{"id":42702,"adult":false},{"id":59859,"adult":false},{"id":357681,"adult":false},{"id":447924,"adult":false},{"id":277662,"adult":false},{"id":84284,"adult":false},{"id":92299,"adult":false},{"id":45507,"adult":false},{"id":447925,"adult":false},{"id":8916,"adult":false},{"id":316438,"adult":false},{"id":9923,"adult":false},{"id":41595,"adult":false},{"id":27545,"adult":false},{"id":447926,"adult":false},{"id":403232,"adult":false},{"id":9819,"adult":false},{"id":9005,"adult":false},{"id":447927,"adult":false},{"id":12706,"adult":false},{"id":49975,"adult":false},{"id":162967,"adult":false},{"id":447928,"adult":false},{"id":11779,"adult":false},{"id":447929,"adult":false},{"id":447931,"adult":false},{"id":447932,"adult":false},{"id":447933,"adult":false},{"id":201477,"adult":false},{"id":299707,"adult":true},{"id":5760,"adult":false},{"id":46189,"adult":false},{"id":447934,"adult":false},{"id":447935,"adult":false},{"id":82660,"adult":false},{"id":43034,"adult":false},{"id":173533,"adult":false},{"id":437334,"adult":null},{"id":205463,"adult":false},{"id":37710,"adult":false},{"id":11838,"adult":false},{"id":386382,"adult":false},{"id":47155,"adult":false},{"id":31306,"adult":false},{"id":11206,"adult":false},{"id":403052,"adult":false},{"id":345235,"adult":false},{"id":447936,"adult":false},{"id":9754,"adult":false},{"id":431944,"adult":true},{"id":138697,"adult":false},{"id":146572,"adult":false},{"id":316727,"adult":false},{"id":447937,"adult":false},{"id":15805,"adult":false},{"id":316665,"adult":false},{"id":95342,"adult":false},{"id":437035,"adult":false},{"id":20083,"adult":false},{"id":447938,"adult":false},{"id":13804,"adult":false},{"id":57353,"adult":false},{"id":433244,"adult":false},{"id":351217,"adult":false},{"id":374335,"adult":false},{"id":430406,"adult":false},{"id":420478,"adult":false},{"id":447939,"adult":false},{"id":447940,"adult":false},{"id":36801,"adult":false},{"id":323725,"adult":false},{"id":300324,"adult":false},{"id":8902,"adult":false},{"id":421601,"adult":false},{"id":371560,"adult":false},{"id":447941,"adult":false},{"id":78093,"adult":false},{"id":447942,"adult":false},{"id":447943,"adult":false},{"id":354864,"adult":false},{"id":44989,"adult":false},{"id":13510,"adult":false},{"id":270303,"adult":false},{"id":330732,"adult":false},{"id":447944,"adult":false},{"id":447945,"adult":false},{"id":166184,"adult":false},{"id":13098,"adult":false}],"page":83,"total_pages":168,"total_results":16730}