{"results":[{"id":103028,"adult":false},{"id":336725,"adult":false},{"id":60672,"adult":false},{"id":109279,"adult":false},{"id":302045,"adult":false},{"id":331889,"adult":false},{"id":69025,"adult":false},{"id":211047,"adult":false},{"id":292050,"adult":false},{"id":280236,"adult":false},{"id":214723,"adult":false},{"id":266830,"adult":false},{"id":221838,"adult":false},{"id":408299,"adult":false},{"id":253154,"adult":false},{"id":444647,"adult":false},{"id":444648,"adult":false},{"id":322922,"adult":false},{"id":380592,"adult":false},{"id":56179,"adult":false},{"id":112153,"adult":false},{"id":11397,"adult":false},{"id":165449,"adult":false},{"id":441443,"adult":false},{"id":87469,"adult":false},{"id":437815,"adult":false},{"id":33166,"adult":false},{"id":444649,"adult":false},{"id":361263,"adult":false},{"id":18172,"adult":false},{"id":258363,"adult":false},{"id":339853,"adult":false},{"id":102736,"adult":false},{"id":112241,"adult":false},{"id":444650,"adult":false},{"id":24086,"adult":false},{"id":444652,"adult":false},{"id":24349,"adult":false},{"id":444653,"adult":false},{"id":290218,"adult":false},{"id":291061,"adult":false},{"id":2275,"adult":false},{"id":299600,"adult":false},{"id":444654,"adult":false},{"id":14976,"adult":false},{"id":443854,"adult":false},{"id":298060,"adult":false},{"id":225856,"adult":false},{"id":444655,"adult":false},{"id":282050,"adult":false},{"id":435399,"adult":false},{"id":299197,"adult":false},{"id":126809,"adult":false},{"id":308550,"adult":false},{"id":16888,"adult":false},{"id":331446,"adult":false},{"id":444656,"adult":false},{"id":300108,"adult":false},{"id":111505,"adult":false},{"id":444657,"adult":false},{"id":308866,"adult":false},{"id":267576,"adult":false},{"id":8488,"adult":false},{"id":444658,"adult":false},{"id":296545,"adult":false},{"id":285849,"adult":false},{"id":372253,"adult":false},{"id":300979,"adult":false},{"id":14462,"adult":false},{"id":412014,"adult":false},{"id":121244,"adult":false},{"id":171513,"adult":false},{"id":64994,"adult":false},{"id":143865,"adult":false},{"id":301766,"adult":false},{"id":298066,"adult":false},{"id":67827,"adult":null},{"id":52832,"adult":false},{"id":7737,"adult":false},{"id":305811,"adult":false},{"id":310307,"adult":false},{"id":416098,"adult":false},{"id":308556,"adult":false},{"id":9890,"adult":false},{"id":257287,"adult":false},{"id":54948,"adult":false},{"id":146198,"adult":false},{"id":43804,"adult":false},{"id":10684,"adult":false},{"id":200054,"adult":false},{"id":403605,"adult":false},{"id":63019,"adult":false},{"id":1389,"adult":false},{"id":242327,"adult":false},{"id":69437,"adult":false},{"id":8470,"adult":false},{"id":130183,"adult":false},{"id":254286,"adult":false},{"id":327356,"adult":false},{"id":374432,"adult":false}],"page":25,"total_pages":162,"total_results":16167}