{"results":[{"id":264335,"adult":false},{"id":446223,"adult":false},{"id":448887,"adult":false},{"id":81704,"adult":false},{"id":36815,"adult":false},{"id":333133,"adult":false},{"id":79464,"adult":false},{"id":448888,"adult":false},{"id":56537,"adult":false},{"id":108147,"adult":false},{"id":8738,"adult":false},{"id":380627,"adult":false},{"id":212043,"adult":false},{"id":56761,"adult":false},{"id":65946,"adult":false},{"id":85444,"adult":false},{"id":257813,"adult":false},{"id":74406,"adult":false},{"id":448889,"adult":false},{"id":448890,"adult":false},{"id":14372,"adult":false},{"id":85743,"adult":false},{"id":71830,"adult":false},{"id":34023,"adult":false},{"id":448891,"adult":false},{"id":10427,"adult":false},{"id":9626,"adult":false},{"id":448892,"adult":false},{"id":53299,"adult":false},{"id":448893,"adult":false},{"id":61346,"adult":false},{"id":81033,"adult":false},{"id":441492,"adult":false},{"id":85438,"adult":false},{"id":448894,"adult":false},{"id":78488,"adult":false},{"id":376003,"adult":false},{"id":446762,"adult":false},{"id":72370,"adult":false},{"id":448895,"adult":false},{"id":80845,"adult":false},{"id":78365,"adult":false},{"id":79082,"adult":false},{"id":254461,"adult":false},{"id":80169,"adult":false},{"id":275328,"adult":false},{"id":76013,"adult":false},{"id":100341,"adult":false},{"id":448896,"adult":false},{"id":274259,"adult":false},{"id":75624,"adult":false},{"id":436932,"adult":false},{"id":94047,"adult":false},{"id":69775,"adult":false},{"id":73661,"adult":false},{"id":95179,"adult":false},{"id":438088,"adult":false},{"id":169917,"adult":false},{"id":122382,"adult":false},{"id":52643,"adult":false},{"id":77635,"adult":false},{"id":448897,"adult":false},{"id":248535,"adult":false},{"id":70878,"adult":false},{"id":141976,"adult":false},{"id":448898,"adult":null},{"id":448899,"adult":false},{"id":448900,"adult":false},{"id":76340,"adult":false},{"id":319315,"adult":false},{"id":96751,"adult":false},{"id":204922,"adult":false},{"id":402692,"adult":false},{"id":232739,"adult":false},{"id":63197,"adult":false},{"id":225886,"adult":false},{"id":227159,"adult":false},{"id":271793,"adult":false},{"id":448901,"adult":true},{"id":124733,"adult":false},{"id":118340,"adult":false},{"id":198663,"adult":false},{"id":254904,"adult":false},{"id":79894,"adult":false},{"id":390801,"adult":false},{"id":25359,"adult":false},{"id":336062,"adult":false},{"id":338766,"adult":false},{"id":74360,"adult":false},{"id":290599,"adult":false},{"id":391048,"adult":false},{"id":350520,"adult":false},{"id":428793,"adult":false},{"id":411088,"adult":false},{"id":423,"adult":false},{"id":74817,"adult":false},{"id":448903,"adult":false},{"id":401910,"adult":true},{"id":448904,"adult":null},{"id":229297,"adult":false}],"page":144,"total_pages":168,"total_results":16730}