{"results":[{"id":23730,"adult":false},{"id":5799,"adult":true},{"id":45693,"adult":false},{"id":267466,"adult":false},{"id":437515,"adult":false},{"id":214,"adult":false},{"id":347031,"adult":false},{"id":36839,"adult":false},{"id":428687,"adult":false},{"id":304802,"adult":false},{"id":441669,"adult":false},{"id":140720,"adult":false},{"id":331473,"adult":false},{"id":395435,"adult":false},{"id":307128,"adult":false},{"id":447067,"adult":false},{"id":5768,"adult":false},{"id":12914,"adult":false},{"id":399035,"adult":false},{"id":358721,"adult":false},{"id":256159,"adult":false},{"id":84170,"adult":false},{"id":339969,"adult":false},{"id":137420,"adult":false},{"id":183149,"adult":false},{"id":26113,"adult":false},{"id":265189,"adult":false},{"id":447068,"adult":false},{"id":363676,"adult":false},{"id":100357,"adult":false},{"id":63695,"adult":false},{"id":399931,"adult":false},{"id":438747,"adult":false},{"id":157336,"adult":false},{"id":321612,"adult":false},{"id":381288,"adult":false},{"id":444757,"adult":false},{"id":81558,"adult":false},{"id":390051,"adult":false},{"id":331214,"adult":false},{"id":400885,"adult":false},{"id":382154,"adult":false},{"id":60308,"adult":false},{"id":38493,"adult":false},{"id":394714,"adult":false},{"id":175528,"adult":false},{"id":243684,"adult":false},{"id":445718,"adult":false},{"id":27123,"adult":false},{"id":79771,"adult":false},{"id":57512,"adult":false},{"id":273096,"adult":false},{"id":370928,"adult":false},{"id":336691,"adult":false},{"id":215794,"adult":false},{"id":51911,"adult":false},{"id":418622,"adult":false},{"id":200145,"adult":false},{"id":445760,"adult":null},{"id":243660,"adult":false},{"id":428899,"adult":null},{"id":8747,"adult":false},{"id":262866,"adult":false},{"id":106378,"adult":false},{"id":12424,"adult":false},{"id":210933,"adult":false},{"id":50903,"adult":false},{"id":168672,"adult":false},{"id":420662,"adult":false},{"id":60420,"adult":false},{"id":77987,"adult":false},{"id":269559,"adult":false},{"id":46510,"adult":false},{"id":447070,"adult":false},{"id":86764,"adult":false},{"id":27445,"adult":false},{"id":431265,"adult":false},{"id":59967,"adult":false},{"id":75780,"adult":false},{"id":431403,"adult":false},{"id":256274,"adult":false},{"id":151368,"adult":false},{"id":295709,"adult":false},{"id":94771,"adult":false},{"id":352342,"adult":false},{"id":201043,"adult":false},{"id":404381,"adult":false},{"id":265055,"adult":null},{"id":236735,"adult":false},{"id":18015,"adult":false},{"id":347797,"adult":false},{"id":392390,"adult":false},{"id":376290,"adult":false},{"id":175825,"adult":false},{"id":16516,"adult":false},{"id":55947,"adult":false},{"id":447071,"adult":false},{"id":323929,"adult":false},{"id":356502,"adult":false},{"id":3082,"adult":false}],"page":9,"total_pages":168,"total_results":16730}