{"results":[{"id":127483,"adult":false},{"id":110997,"adult":false},{"id":122832,"adult":false},{"id":200978,"adult":false},{"id":18098,"adult":false},{"id":438798,"adult":false},{"id":131948,"adult":false},{"id":445738,"adult":false},{"id":227149,"adult":false},{"id":88983,"adult":false},{"id":16234,"adult":false},{"id":445739,"adult":false},{"id":106813,"adult":false},{"id":44412,"adult":false},{"id":445740,"adult":false},{"id":425972,"adult":false},{"id":69758,"adult":false},{"id":105989,"adult":false},{"id":54577,"adult":false},{"id":64088,"adult":false},{"id":158905,"adult":false},{"id":9538,"adult":false},{"id":416211,"adult":false},{"id":445741,"adult":false},{"id":1645,"adult":false},{"id":423868,"adult":false},{"id":135812,"adult":false},{"id":445742,"adult":false},{"id":14449,"adult":false},{"id":54342,"adult":false},{"id":117146,"adult":false},{"id":408858,"adult":false},{"id":62956,"adult":false},{"id":197,"adult":false},{"id":24239,"adult":false},{"id":110092,"adult":false},{"id":398752,"adult":false},{"id":105854,"adult":false},{"id":445743,"adult":false},{"id":26491,"adult":false},{"id":207936,"adult":false},{"id":445744,"adult":false},{"id":55261,"adult":false},{"id":99438,"adult":false},{"id":48289,"adult":false},{"id":381034,"adult":false},{"id":64900,"adult":false},{"id":336455,"adult":false},{"id":15804,"adult":false},{"id":853,"adult":false},{"id":445745,"adult":false},{"id":9798,"adult":false},{"id":40427,"adult":false},{"id":108463,"adult":false},{"id":315669,"adult":false},{"id":42229,"adult":false},{"id":327900,"adult":false},{"id":29184,"adult":false},{"id":445746,"adult":false},{"id":87736,"adult":false},{"id":445747,"adult":false},{"id":4638,"adult":false},{"id":434833,"adult":false},{"id":416407,"adult":false},{"id":947,"adult":false},{"id":171671,"adult":false},{"id":445748,"adult":false},{"id":227935,"adult":false},{"id":109636,"adult":false},{"id":104711,"adult":false},{"id":190382,"adult":false},{"id":8619,"adult":false},{"id":445749,"adult":false},{"id":146521,"adult":false},{"id":445750,"adult":false},{"id":336652,"adult":false},{"id":10024,"adult":false},{"id":445751,"adult":false},{"id":32300,"adult":false},{"id":254904,"adult":false},{"id":90770,"adult":false},{"id":445752,"adult":false},{"id":10220,"adult":false},{"id":225466,"adult":false},{"id":58574,"adult":false},{"id":377862,"adult":false},{"id":29351,"adult":false},{"id":108106,"adult":false},{"id":329203,"adult":false},{"id":9522,"adult":false},{"id":3175,"adult":false},{"id":438521,"adult":false},{"id":19501,"adult":false},{"id":395571,"adult":false},{"id":40383,"adult":false},{"id":14703,"adult":false},{"id":426247,"adult":false},{"id":66664,"adult":false},{"id":68446,"adult":false},{"id":445753,"adult":false}],"page":95,"total_pages":162,"total_results":16167}