{"results":[{"id":42691,"adult":false},{"id":76234,"adult":false},{"id":9503,"adult":false},{"id":444514,"adult":false},{"id":10906,"adult":false},{"id":26773,"adult":false},{"id":36134,"adult":false},{"id":1722,"adult":false},{"id":231265,"adult":false},{"id":256475,"adult":false},{"id":12403,"adult":false},{"id":635,"adult":false},{"id":28644,"adult":false},{"id":17532,"adult":false},{"id":277834,"adult":false},{"id":32872,"adult":false},{"id":437270,"adult":false},{"id":375928,"adult":null},{"id":375940,"adult":null},{"id":375943,"adult":null},{"id":444515,"adult":false},{"id":375931,"adult":null},{"id":375937,"adult":null},{"id":387448,"adult":false},{"id":375939,"adult":null},{"id":9348,"adult":false},{"id":4475,"adult":false},{"id":16866,"adult":false},{"id":56263,"adult":false},{"id":375942,"adult":null},{"id":375947,"adult":null},{"id":27391,"adult":false},{"id":15671,"adult":false},{"id":33788,"adult":false},{"id":17740,"adult":false},{"id":74397,"adult":false},{"id":73152,"adult":false},{"id":28524,"adult":false},{"id":76030,"adult":false},{"id":444516,"adult":false},{"id":31126,"adult":false},{"id":21575,"adult":false},{"id":415838,"adult":false},{"id":24951,"adult":false},{"id":13455,"adult":false},{"id":18947,"adult":false},{"id":415228,"adult":false},{"id":11646,"adult":false},{"id":26738,"adult":false},{"id":122224,"adult":false},{"id":1879,"adult":false},{"id":444517,"adult":false},{"id":10664,"adult":false},{"id":444518,"adult":false},{"id":14977,"adult":false},{"id":1908,"adult":false},{"id":42316,"adult":false},{"id":52893,"adult":false},{"id":382892,"adult":false},{"id":35164,"adult":false},{"id":444519,"adult":false},{"id":296494,"adult":false},{"id":36405,"adult":false},{"id":22136,"adult":false},{"id":20766,"adult":false},{"id":20782,"adult":false},{"id":11302,"adult":false},{"id":20618,"adult":false},{"id":37746,"adult":false},{"id":444520,"adult":false},{"id":35716,"adult":false},{"id":340849,"adult":false},{"id":15159,"adult":false},{"id":444521,"adult":false},{"id":444522,"adult":false},{"id":422359,"adult":false},{"id":444523,"adult":false},{"id":378297,"adult":true},{"id":157663,"adult":false},{"id":444524,"adult":false},{"id":412452,"adult":false},{"id":45961,"adult":false},{"id":165027,"adult":false},{"id":51971,"adult":false},{"id":286650,"adult":false},{"id":35686,"adult":false},{"id":49853,"adult":false},{"id":1632,"adult":false},{"id":47075,"adult":false},{"id":24833,"adult":false},{"id":17538,"adult":false},{"id":42973,"adult":false},{"id":226139,"adult":false},{"id":433051,"adult":false},{"id":402693,"adult":false},{"id":220873,"adult":false},{"id":122803,"adult":false},{"id":37269,"adult":false},{"id":212092,"adult":false},{"id":444525,"adult":false}],"page":14,"total_pages":162,"total_results":16167}