{"results":[{"id":117237,"adult":false},{"id":297333,"adult":false},{"id":378485,"adult":false},{"id":113782,"adult":false},{"id":46819,"adult":false},{"id":2863,"adult":false},{"id":942,"adult":false},{"id":943,"adult":false},{"id":226934,"adult":false},{"id":191648,"adult":false},{"id":234004,"adult":false},{"id":193689,"adult":false},{"id":434149,"adult":false},{"id":434150,"adult":false},{"id":282631,"adult":false},{"id":272820,"adult":false},{"id":262682,"adult":false},{"id":46957,"adult":false},{"id":24256,"adult":false},{"id":434151,"adult":false},{"id":25147,"adult":false},{"id":56202,"adult":false},{"id":39702,"adult":false},{"id":336776,"adult":false},{"id":434152,"adult":null},{"id":140248,"adult":false},{"id":336666,"adult":false},{"id":17317,"adult":false},{"id":10937,"adult":false},{"id":428143,"adult":false},{"id":80620,"adult":false},{"id":20411,"adult":false},{"id":31139,"adult":false},{"id":315846,"adult":false},{"id":2289,"adult":false},{"id":223402,"adult":false},{"id":372570,"adult":false},{"id":429298,"adult":null},{"id":123792,"adult":true},{"id":420240,"adult":false},{"id":362516,"adult":true},{"id":434153,"adult":false},{"id":105583,"adult":false},{"id":23936,"adult":false},{"id":398387,"adult":false},{"id":28625,"adult":false},{"id":88421,"adult":false},{"id":407522,"adult":false},{"id":327646,"adult":false},{"id":434154,"adult":false},{"id":434155,"adult":false},{"id":329124,"adult":false},{"id":12619,"adult":false},{"id":429435,"adult":false},{"id":302013,"adult":false},{"id":434156,"adult":false},{"id":434157,"adult":false},{"id":434158,"adult":false},{"id":248,"adult":false},{"id":434159,"adult":false},{"id":430783,"adult":false},{"id":434161,"adult":false},{"id":58233,"adult":false},{"id":14054,"adult":false},{"id":434162,"adult":false},{"id":434163,"adult":false},{"id":387303,"adult":false},{"id":59568,"adult":true},{"id":434164,"adult":false},{"id":13573,"adult":false},{"id":20357,"adult":false},{"id":417155,"adult":false},{"id":18239,"adult":false},{"id":209350,"adult":false},{"id":41488,"adult":false},{"id":11196,"adult":false},{"id":434165,"adult":false},{"id":340876,"adult":false},{"id":347410,"adult":false},{"id":70286,"adult":false},{"id":289269,"adult":false},{"id":112648,"adult":false},{"id":434166,"adult":false},{"id":434167,"adult":false},{"id":434168,"adult":false},{"id":434169,"adult":false},{"id":434172,"adult":null},{"id":434173,"adult":false},{"id":103847,"adult":false},{"id":282357,"adult":false},{"id":434174,"adult":true},{"id":360649,"adult":false},{"id":434175,"adult":false},{"id":164518,"adult":false},{"id":261676,"adult":false},{"id":273135,"adult":false},{"id":28673,"adult":false},{"id":58295,"adult":false},{"id":302,"adult":false},{"id":28200,"adult":false}],"page":98,"total_pages":133,"total_results":13251}