{"results":[{"id":39100,"adult":false},{"id":263794,"adult":false},{"id":118556,"adult":false},{"id":253290,"adult":false},{"id":333616,"adult":null},{"id":39148,"adult":false},{"id":120475,"adult":false},{"id":336853,"adult":false},{"id":39323,"adult":false},{"id":320613,"adult":false},{"id":10789,"adult":false},{"id":38594,"adult":false},{"id":137830,"adult":false},{"id":362105,"adult":false},{"id":12963,"adult":false},{"id":348867,"adult":false},{"id":348870,"adult":false},{"id":348868,"adult":false},{"id":258099,"adult":false},{"id":116776,"adult":false},{"id":145527,"adult":false},{"id":159389,"adult":false},{"id":26349,"adult":false},{"id":39145,"adult":false},{"id":362294,"adult":false},{"id":362295,"adult":null},{"id":255289,"adult":false},{"id":346705,"adult":false},{"id":18095,"adult":false},{"id":345264,"adult":false},{"id":345218,"adult":false},{"id":43945,"adult":false},{"id":362296,"adult":false},{"id":200671,"adult":false},{"id":261475,"adult":false},{"id":314570,"adult":false},{"id":309319,"adult":false},{"id":261474,"adult":false},{"id":47892,"adult":false},{"id":228108,"adult":false},{"id":284838,"adult":false},{"id":127280,"adult":false},{"id":362297,"adult":null},{"id":261478,"adult":false},{"id":49521,"adult":false},{"id":362298,"adult":false},{"id":86578,"adult":false},{"id":119949,"adult":false},{"id":188927,"adult":false},{"id":1691,"adult":false},{"id":355389,"adult":false},{"id":346387,"adult":false},{"id":327614,"adult":false},{"id":353064,"adult":false},{"id":347509,"adult":false},{"id":120038,"adult":false},{"id":120039,"adult":false},{"id":120042,"adult":false},{"id":120017,"adult":false},{"id":120027,"adult":false},{"id":120025,"adult":false},{"id":120022,"adult":false},{"id":120000,"adult":false},{"id":4348,"adult":false},{"id":346401,"adult":false},{"id":714,"adult":false},{"id":281238,"adult":false},{"id":358505,"adult":false},{"id":41903,"adult":false},{"id":98223,"adult":false},{"id":49863,"adult":false},{"id":8079,"adult":false},{"id":229759,"adult":false},{"id":125420,"adult":false},{"id":5768,"adult":false},{"id":18303,"adult":false},{"id":49158,"adult":false},{"id":20294,"adult":false},{"id":32831,"adult":false},{"id":362299,"adult":false},{"id":22543,"adult":false},{"id":12273,"adult":false},{"id":314800,"adult":false},{"id":17097,"adult":false},{"id":18398,"adult":false},{"id":158852,"adult":false},{"id":362300,"adult":null},{"id":192162,"adult":false},{"id":362301,"adult":null},{"id":362302,"adult":null},{"id":343070,"adult":false},{"id":362303,"adult":null},{"id":362304,"adult":false},{"id":177294,"adult":false},{"id":94533,"adult":false},{"id":63403,"adult":false},{"id":75507,"adult":false},{"id":292040,"adult":false},{"id":76493,"adult":false},{"id":349045,"adult":false}],"page":14,"total_pages":108,"total_results":10774}