{"results":[{"id":24428,"adult":false},{"id":20304,"adult":false},{"id":1125,"adult":false},{"id":45390,"adult":false},{"id":222664,"adult":false},{"id":695,"adult":false},{"id":98280,"adult":false},{"id":222661,"adult":false},{"id":10153,"adult":false},{"id":308504,"adult":false},{"id":20301,"adult":false},{"id":43711,"adult":false},{"id":29698,"adult":false},{"id":9871,"adult":false},{"id":72559,"adult":false},{"id":13475,"adult":false},{"id":178587,"adult":false},{"id":41360,"adult":false},{"id":11013,"adult":false},{"id":90807,"adult":false},{"id":24804,"adult":false},{"id":19206,"adult":false},{"id":44023,"adult":false},{"id":104394,"adult":false},{"id":222475,"adult":false},{"id":94561,"adult":false},{"id":11460,"adult":false},{"id":164886,"adult":false},{"id":204294,"adult":false},{"id":89821,"adult":false},{"id":39254,"adult":false},{"id":33743,"adult":false},{"id":11888,"adult":false},{"id":76117,"adult":false},{"id":33735,"adult":false},{"id":147106,"adult":false},{"id":263471,"adult":false},{"id":156294,"adult":false},{"id":341997,"adult":false},{"id":332995,"adult":false},{"id":109843,"adult":false},{"id":264572,"adult":false},{"id":208150,"adult":false},{"id":66113,"adult":false},{"id":216027,"adult":false},{"id":287903,"adult":false},{"id":341998,"adult":false},{"id":23483,"adult":false},{"id":118984,"adult":false},{"id":149871,"adult":false},{"id":271256,"adult":false},{"id":292374,"adult":false},{"id":165148,"adult":false},{"id":51876,"adult":false},{"id":49852,"adult":false},{"id":177101,"adult":false},{"id":341999,"adult":false},{"id":232761,"adult":false},{"id":100617,"adult":false},{"id":21370,"adult":false},{"id":264467,"adult":false},{"id":310127,"adult":false},{"id":342000,"adult":false},{"id":229297,"adult":false},{"id":263452,"adult":false},{"id":59619,"adult":false},{"id":38853,"adult":false},{"id":38854,"adult":false},{"id":63658,"adult":false},{"id":63652,"adult":false},{"id":75,"adult":false},{"id":38855,"adult":false},{"id":250760,"adult":null},{"id":63653,"adult":false},{"id":63655,"adult":false},{"id":63649,"adult":false},{"id":65754,"adult":false},{"id":342001,"adult":false},{"id":12412,"adult":false},{"id":342002,"adult":false},{"id":16324,"adult":false},{"id":21357,"adult":false},{"id":29787,"adult":false},{"id":342003,"adult":false},{"id":47931,"adult":false},{"id":7347,"adult":false},{"id":315009,"adult":false},{"id":323661,"adult":false},{"id":63823,"adult":false},{"id":69440,"adult":false},{"id":69441,"adult":false},{"id":282296,"adult":false},{"id":15102,"adult":false},{"id":206408,"adult":false},{"id":109424,"adult":false},{"id":16523,"adult":false},{"id":155288,"adult":false},{"id":21512,"adult":false},{"id":222462,"adult":false},{"id":286709,"adult":false}],"page":98,"total_pages":103,"total_results":10276}