{"results":[{"id":11,"adult":false},{"id":314327,"adult":false},{"id":11980,"adult":false},{"id":178,"adult":false},{"id":280145,"adult":false},{"id":3293,"adult":false},{"id":204922,"adult":false},{"id":68718,"adult":false},{"id":550,"adult":false},{"id":318354,"adult":false},{"id":98566,"adult":false},{"id":49014,"adult":false},{"id":111272,"adult":false},{"id":50619,"adult":false},{"id":263471,"adult":false},{"id":56415,"adult":false},{"id":315496,"adult":false},{"id":65639,"adult":false},{"id":37686,"adult":false},{"id":184225,"adult":true},{"id":50515,"adult":false},{"id":57119,"adult":false},{"id":318355,"adult":null},{"id":58219,"adult":false},{"id":174890,"adult":false},{"id":49950,"adult":false},{"id":300983,"adult":false},{"id":40805,"adult":false},{"id":20526,"adult":false},{"id":41216,"adult":false},{"id":318356,"adult":false},{"id":38303,"adult":false},{"id":42889,"adult":false},{"id":318357,"adult":false},{"id":104185,"adult":false},{"id":8277,"adult":false},{"id":316560,"adult":false},{"id":193580,"adult":false},{"id":41592,"adult":false},{"id":216907,"adult":false},{"id":59065,"adult":false},{"id":20873,"adult":false},{"id":307647,"adult":false},{"id":34803,"adult":false},{"id":156507,"adult":false},{"id":264660,"adult":false},{"id":51985,"adult":false},{"id":35552,"adult":false},{"id":291608,"adult":false},{"id":60293,"adult":false},{"id":117646,"adult":false},{"id":148652,"adult":false},{"id":182578,"adult":false},{"id":42246,"adult":false},{"id":15582,"adult":false},{"id":23169,"adult":false},{"id":222899,"adult":false},{"id":188947,"adult":false},{"id":80787,"adult":false},{"id":318358,"adult":null},{"id":31116,"adult":false},{"id":318359,"adult":false},{"id":170522,"adult":false},{"id":318360,"adult":false},{"id":53964,"adult":false},{"id":36414,"adult":false},{"id":318361,"adult":false},{"id":283698,"adult":false},{"id":318362,"adult":false},{"id":313662,"adult":false},{"id":51170,"adult":false},{"id":318363,"adult":true},{"id":7980,"adult":false},{"id":10384,"adult":false},{"id":318364,"adult":false},{"id":318365,"adult":false},{"id":192210,"adult":false},{"id":9341,"adult":false},{"id":117467,"adult":false},{"id":209189,"adult":false},{"id":259072,"adult":false},{"id":4597,"adult":false},{"id":19004,"adult":false},{"id":292188,"adult":false},{"id":10315,"adult":false},{"id":280106,"adult":false},{"id":318367,"adult":false},{"id":12187,"adult":false},{"id":117877,"adult":false},{"id":318368,"adult":false},{"id":71719,"adult":false},{"id":316456,"adult":false},{"id":9530,"adult":false},{"id":26820,"adult":false},{"id":10898,"adult":false},{"id":87428,"adult":false},{"id":19164,"adult":false},{"id":297637,"adult":false},{"id":306834,"adult":false},{"id":42468,"adult":false}],"page":3,"total_pages":120,"total_results":11995}