{"results":[{"id":56866,"adult":false},{"id":77568,"adult":false},{"id":272418,"adult":false},{"id":332293,"adult":null},{"id":312292,"adult":false},{"id":16017,"adult":false},{"id":20967,"adult":false},{"id":332294,"adult":false},{"id":11649,"adult":false},{"id":288105,"adult":false},{"id":332295,"adult":false},{"id":3767,"adult":false},{"id":332296,"adult":false},{"id":332297,"adult":false},{"id":332298,"adult":false},{"id":194727,"adult":false},{"id":58857,"adult":false},{"id":33060,"adult":false},{"id":155084,"adult":false},{"id":256203,"adult":false},{"id":332299,"adult":false},{"id":44264,"adult":false},{"id":24954,"adult":false},{"id":166424,"adult":false},{"id":285185,"adult":null},{"id":29717,"adult":false},{"id":271395,"adult":null},{"id":332300,"adult":false},{"id":63891,"adult":false},{"id":332302,"adult":false},{"id":102899,"adult":false},{"id":22947,"adult":false},{"id":253639,"adult":false},{"id":79,"adult":false},{"id":72137,"adult":false},{"id":271821,"adult":false},{"id":308626,"adult":false},{"id":64685,"adult":false},{"id":11196,"adult":false},{"id":332303,"adult":false},{"id":195919,"adult":false},{"id":61831,"adult":null},{"id":296398,"adult":false},{"id":43460,"adult":false},{"id":229884,"adult":false},{"id":329632,"adult":false},{"id":16034,"adult":false},{"id":332304,"adult":false},{"id":11937,"adult":false},{"id":57453,"adult":false},{"id":38410,"adult":false},{"id":31858,"adult":false},{"id":64537,"adult":false},{"id":256876,"adult":false},{"id":46025,"adult":false},{"id":30142,"adult":false},{"id":321,"adult":false},{"id":299244,"adult":false},{"id":297400,"adult":false},{"id":146148,"adult":false},{"id":9895,"adult":false},{"id":332305,"adult":false},{"id":10440,"adult":false},{"id":323722,"adult":false},{"id":332306,"adult":false},{"id":270773,"adult":false},{"id":302291,"adult":false},{"id":330402,"adult":false},{"id":3780,"adult":false},{"id":873,"adult":false},{"id":330403,"adult":false},{"id":332307,"adult":false},{"id":270770,"adult":false},{"id":329475,"adult":false},{"id":330399,"adult":false},{"id":144442,"adult":false},{"id":52480,"adult":false},{"id":8587,"adult":false},{"id":19494,"adult":false},{"id":256745,"adult":false},{"id":209318,"adult":false},{"id":140045,"adult":false},{"id":36557,"adult":false},{"id":260778,"adult":false},{"id":104378,"adult":false},{"id":329135,"adult":false},{"id":332308,"adult":false},{"id":273866,"adult":false},{"id":13527,"adult":false},{"id":265027,"adult":false},{"id":10680,"adult":false},{"id":26291,"adult":false},{"id":330409,"adult":false},{"id":189054,"adult":false},{"id":14896,"adult":false},{"id":41925,"adult":false},{"id":332309,"adult":false},{"id":98369,"adult":false},{"id":332310,"adult":false},{"id":226001,"adult":false}],"page":82,"total_pages":129,"total_results":12871}