{"results":[{"id":16201,"adult":false},{"id":121735,"adult":false},{"id":253015,"adult":false},{"id":142118,"adult":false},{"id":250950,"adult":false},{"id":86099,"adult":false},{"id":121814,"adult":false},{"id":115509,"adult":false},{"id":46754,"adult":false},{"id":186068,"adult":false},{"id":258397,"adult":false},{"id":16048,"adult":false},{"id":85495,"adult":false},{"id":301985,"adult":false},{"id":332989,"adult":false},{"id":126326,"adult":false},{"id":243578,"adult":false},{"id":245899,"adult":false},{"id":245896,"adult":false},{"id":245122,"adult":false},{"id":227749,"adult":false},{"id":62035,"adult":false},{"id":216306,"adult":false},{"id":229350,"adult":false},{"id":77345,"adult":false},{"id":259954,"adult":false},{"id":330432,"adult":false},{"id":330189,"adult":false},{"id":330430,"adult":false},{"id":288485,"adult":false},{"id":104643,"adult":false},{"id":10803,"adult":false},{"id":255289,"adult":false},{"id":33340,"adult":false},{"id":229254,"adult":false},{"id":82448,"adult":false},{"id":155663,"adult":false},{"id":308504,"adult":false},{"id":60996,"adult":false},{"id":123348,"adult":false},{"id":253297,"adult":false},{"id":332990,"adult":false},{"id":314634,"adult":false},{"id":271472,"adult":null},{"id":37533,"adult":false},{"id":332991,"adult":false},{"id":80307,"adult":false},{"id":126950,"adult":false},{"id":276022,"adult":false},{"id":106747,"adult":false},{"id":332992,"adult":false},{"id":257678,"adult":false},{"id":93979,"adult":false},{"id":1970,"adult":false},{"id":272,"adult":false},{"id":332993,"adult":false},{"id":108723,"adult":false},{"id":48584,"adult":false},{"id":22094,"adult":false},{"id":81853,"adult":false},{"id":75204,"adult":false},{"id":42184,"adult":false},{"id":172226,"adult":false},{"id":332994,"adult":false},{"id":123069,"adult":false},{"id":8816,"adult":false},{"id":20283,"adult":false},{"id":28294,"adult":false},{"id":224987,"adult":false},{"id":332995,"adult":false},{"id":332996,"adult":false},{"id":319837,"adult":null},{"id":47746,"adult":false},{"id":67772,"adult":false},{"id":306465,"adult":false},{"id":18774,"adult":false},{"id":3087,"adult":false},{"id":97157,"adult":false},{"id":79042,"adult":false},{"id":39369,"adult":false},{"id":146184,"adult":false},{"id":12157,"adult":false},{"id":234893,"adult":false},{"id":288907,"adult":false},{"id":209927,"adult":false},{"id":144340,"adult":false},{"id":173728,"adult":false},{"id":60392,"adult":false},{"id":272552,"adult":false},{"id":223,"adult":false},{"id":36329,"adult":false},{"id":140613,"adult":false},{"id":91979,"adult":false},{"id":30766,"adult":false},{"id":332997,"adult":false},{"id":51450,"adult":false},{"id":262060,"adult":false},{"id":332998,"adult":false},{"id":13751,"adult":false},{"id":62867,"adult":false}],"page":128,"total_pages":129,"total_results":12871}