{"results":[{"id":189,"adult":false},{"id":325569,"adult":false},{"id":268499,"adult":false},{"id":266457,"adult":false},{"id":215935,"adult":false},{"id":46238,"adult":false},{"id":114128,"adult":false},{"id":302116,"adult":false},{"id":99040,"adult":false},{"id":237863,"adult":false},{"id":218031,"adult":false},{"id":233198,"adult":false},{"id":227339,"adult":false},{"id":60125,"adult":false},{"id":325401,"adult":false},{"id":163590,"adult":false},{"id":313322,"adult":false},{"id":24953,"adult":false},{"id":1647,"adult":false},{"id":218334,"adult":false},{"id":135983,"adult":false},{"id":36674,"adult":false},{"id":18225,"adult":false},{"id":582,"adult":false},{"id":290049,"adult":false},{"id":180840,"adult":false},{"id":54011,"adult":false},{"id":262131,"adult":false},{"id":325570,"adult":null},{"id":146239,"adult":false},{"id":26691,"adult":false},{"id":294056,"adult":null},{"id":325571,"adult":false},{"id":301812,"adult":false},{"id":24873,"adult":false},{"id":497,"adult":false},{"id":70903,"adult":false},{"id":298,"adult":false},{"id":325572,"adult":false},{"id":11686,"adult":false},{"id":104334,"adult":false},{"id":28605,"adult":false},{"id":287538,"adult":false},{"id":12783,"adult":false},{"id":24230,"adult":false},{"id":65249,"adult":false},{"id":325573,"adult":false},{"id":55871,"adult":false},{"id":17001,"adult":false},{"id":318192,"adult":false},{"id":77248,"adult":false},{"id":325574,"adult":false},{"id":16791,"adult":false},{"id":63323,"adult":false},{"id":22832,"adult":false},{"id":8976,"adult":false},{"id":50507,"adult":false},{"id":304197,"adult":false},{"id":44731,"adult":false},{"id":148380,"adult":false},{"id":63020,"adult":false},{"id":3511,"adult":false},{"id":170657,"adult":false},{"id":220746,"adult":false},{"id":9318,"adult":false},{"id":14065,"adult":false},{"id":14187,"adult":false},{"id":55023,"adult":false},{"id":9642,"adult":false},{"id":83860,"adult":false},{"id":192342,"adult":false},{"id":325385,"adult":false},{"id":841,"adult":false},{"id":238858,"adult":false},{"id":262682,"adult":false},{"id":430,"adult":false},{"id":45452,"adult":false},{"id":9397,"adult":false},{"id":191034,"adult":false},{"id":46707,"adult":false},{"id":29101,"adult":false},{"id":13256,"adult":false},{"id":41387,"adult":false},{"id":53163,"adult":false},{"id":285738,"adult":false},{"id":47648,"adult":false},{"id":36973,"adult":false},{"id":73417,"adult":false},{"id":11573,"adult":false},{"id":135047,"adult":false},{"id":243234,"adult":false},{"id":216682,"adult":false},{"id":182314,"adult":false},{"id":106136,"adult":false},{"id":212378,"adult":false},{"id":37958,"adult":false},{"id":28018,"adult":false},{"id":127493,"adult":false},{"id":255718,"adult":false},{"id":5237,"adult":false}],"page":6,"total_pages":112,"total_results":11193}