{"results":[{"id":187369,"adult":false},{"id":187364,"adult":false},{"id":173749,"adult":false},{"id":187195,"adult":false},{"id":107897,"adult":false},{"id":66978,"adult":false},{"id":64361,"adult":false},{"id":187358,"adult":false},{"id":182878,"adult":false},{"id":169809,"adult":false},{"id":299042,"adult":false},{"id":187355,"adult":false},{"id":64885,"adult":false},{"id":187354,"adult":false},{"id":171400,"adult":false},{"id":9544,"adult":false},{"id":187351,"adult":false},{"id":66019,"adult":false},{"id":187348,"adult":false},{"id":187346,"adult":false},{"id":169499,"adult":false},{"id":187345,"adult":false},{"id":16077,"adult":false},{"id":284680,"adult":null},{"id":10185,"adult":false},{"id":165021,"adult":false},{"id":12212,"adult":false},{"id":90565,"adult":false},{"id":187341,"adult":false},{"id":308638,"adult":false},{"id":126780,"adult":false},{"id":48743,"adult":false},{"id":187337,"adult":false},{"id":58797,"adult":false},{"id":2048,"adult":false},{"id":14003,"adult":false},{"id":355514,"adult":false},{"id":64311,"adult":false},{"id":177,"adult":false},{"id":174771,"adult":false},{"id":40486,"adult":false},{"id":121477,"adult":false},{"id":243739,"adult":false},{"id":355515,"adult":false},{"id":17218,"adult":false},{"id":54979,"adult":false},{"id":207475,"adult":false},{"id":251271,"adult":false},{"id":354473,"adult":false},{"id":355516,"adult":false},{"id":309924,"adult":false},{"id":1635,"adult":false},{"id":146828,"adult":false},{"id":14117,"adult":false},{"id":355517,"adult":false},{"id":355518,"adult":false},{"id":38721,"adult":false},{"id":320892,"adult":false},{"id":355519,"adult":false},{"id":200580,"adult":false},{"id":331592,"adult":false},{"id":123365,"adult":false},{"id":45312,"adult":false},{"id":97999,"adult":false},{"id":42879,"adult":false},{"id":193318,"adult":false},{"id":355520,"adult":false},{"id":314223,"adult":false},{"id":355521,"adult":false},{"id":290821,"adult":false},{"id":18281,"adult":false},{"id":44190,"adult":false},{"id":118286,"adult":false},{"id":355522,"adult":false},{"id":22611,"adult":false},{"id":27437,"adult":false},{"id":83542,"adult":false},{"id":22595,"adult":false},{"id":1724,"adult":false},{"id":355523,"adult":false},{"id":31858,"adult":false},{"id":339245,"adult":false},{"id":53357,"adult":false},{"id":347946,"adult":false},{"id":9449,"adult":false},{"id":353898,"adult":false},{"id":16726,"adult":false},{"id":26173,"adult":false},{"id":364,"adult":false},{"id":8080,"adult":false},{"id":9886,"adult":false},{"id":9438,"adult":false},{"id":73316,"adult":false},{"id":1786,"adult":false},{"id":131634,"adult":false},{"id":87388,"adult":false},{"id":9416,"adult":false},{"id":259233,"adult":false},{"id":355524,"adult":false},{"id":355525,"adult":false}],"page":54,"total_pages":100,"total_results":9908}