{"results":[{"id":350314,"adult":true},{"id":216457,"adult":false},{"id":350315,"adult":false},{"id":350316,"adult":true},{"id":44593,"adult":false},{"id":350317,"adult":true},{"id":350318,"adult":true},{"id":350319,"adult":true},{"id":128475,"adult":false},{"id":39843,"adult":false},{"id":26932,"adult":false},{"id":350320,"adult":true},{"id":111237,"adult":false},{"id":232884,"adult":false},{"id":122516,"adult":false},{"id":350321,"adult":null},{"id":159014,"adult":false},{"id":350322,"adult":false},{"id":113594,"adult":false},{"id":350323,"adult":false},{"id":49522,"adult":false},{"id":350324,"adult":false},{"id":214215,"adult":false},{"id":350325,"adult":true},{"id":138199,"adult":false},{"id":143569,"adult":false},{"id":186976,"adult":false},{"id":34763,"adult":false},{"id":350326,"adult":false},{"id":350327,"adult":true},{"id":186729,"adult":false},{"id":350328,"adult":true},{"id":234446,"adult":false},{"id":350329,"adult":false},{"id":350330,"adult":true},{"id":350331,"adult":false},{"id":285158,"adult":false},{"id":350332,"adult":true},{"id":350333,"adult":false},{"id":996,"adult":false},{"id":11677,"adult":false},{"id":350334,"adult":false},{"id":350335,"adult":true},{"id":206289,"adult":false},{"id":105045,"adult":false},{"id":350336,"adult":true},{"id":196862,"adult":false},{"id":200957,"adult":false},{"id":308753,"adult":false},{"id":350337,"adult":true},{"id":350338,"adult":false},{"id":159500,"adult":false},{"id":350339,"adult":false},{"id":350340,"adult":false},{"id":32014,"adult":false},{"id":204768,"adult":false},{"id":350341,"adult":null},{"id":196480,"adult":false},{"id":350342,"adult":null},{"id":43030,"adult":false},{"id":350343,"adult":false},{"id":313074,"adult":false},{"id":204853,"adult":false},{"id":350344,"adult":true},{"id":191482,"adult":false},{"id":174865,"adult":false},{"id":350345,"adult":false},{"id":350346,"adult":true},{"id":28396,"adult":false},{"id":350347,"adult":true},{"id":137315,"adult":false},{"id":259292,"adult":false},{"id":350348,"adult":true},{"id":23962,"adult":false},{"id":350349,"adult":false},{"id":97598,"adult":false},{"id":214099,"adult":false},{"id":350350,"adult":true},{"id":200341,"adult":false},{"id":350351,"adult":false},{"id":76669,"adult":false},{"id":185446,"adult":false},{"id":145738,"adult":false},{"id":350352,"adult":true},{"id":350353,"adult":false},{"id":350354,"adult":true},{"id":195173,"adult":false},{"id":350355,"adult":true},{"id":350356,"adult":true},{"id":149085,"adult":false},{"id":350357,"adult":null},{"id":1880,"adult":false},{"id":328,"adult":false},{"id":350358,"adult":false},{"id":350359,"adult":true},{"id":186991,"adult":false},{"id":350360,"adult":true},{"id":350361,"adult":false},{"id":203814,"adult":false},{"id":350362,"adult":false}],"page":49,"total_pages":103,"total_results":10231}