{"results":[{"id":5630,"adult":false},{"id":9744,"adult":false},{"id":27144,"adult":false},{"id":1709,"adult":false},{"id":7555,"adult":false},{"id":173710,"adult":false},{"id":34233,"adult":false},{"id":98435,"adult":false},{"id":111425,"adult":false},{"id":6699,"adult":false},{"id":123186,"adult":false},{"id":345323,"adult":false},{"id":104573,"adult":false},{"id":18252,"adult":false},{"id":116636,"adult":false},{"id":11038,"adult":false},{"id":349517,"adult":null},{"id":32597,"adult":false},{"id":312886,"adult":null},{"id":330474,"adult":null},{"id":177271,"adult":false},{"id":10536,"adult":false},{"id":43959,"adult":false},{"id":106378,"adult":false},{"id":282404,"adult":false},{"id":9654,"adult":false},{"id":305206,"adult":false},{"id":300433,"adult":false},{"id":301642,"adult":false},{"id":58085,"adult":false},{"id":298026,"adult":false},{"id":339292,"adult":false},{"id":353932,"adult":false},{"id":33427,"adult":false},{"id":224453,"adult":false},{"id":107167,"adult":false},{"id":10025,"adult":false},{"id":353933,"adult":false},{"id":353934,"adult":false},{"id":47956,"adult":false},{"id":19325,"adult":false},{"id":183258,"adult":false},{"id":21379,"adult":false},{"id":18224,"adult":false},{"id":22259,"adult":false},{"id":353935,"adult":false},{"id":353936,"adult":false},{"id":179254,"adult":false},{"id":353937,"adult":false},{"id":342878,"adult":false},{"id":330927,"adult":false},{"id":329805,"adult":false},{"id":43461,"adult":false},{"id":141334,"adult":null},{"id":353938,"adult":false},{"id":309167,"adult":false},{"id":146713,"adult":false},{"id":353939,"adult":false},{"id":353940,"adult":false},{"id":139651,"adult":false},{"id":155676,"adult":false},{"id":180644,"adult":false},{"id":353941,"adult":false},{"id":352354,"adult":false},{"id":48383,"adult":false},{"id":287487,"adult":false},{"id":124739,"adult":false},{"id":297636,"adult":false},{"id":346672,"adult":false},{"id":25525,"adult":false},{"id":295011,"adult":false},{"id":86506,"adult":false},{"id":272669,"adult":false},{"id":40264,"adult":false},{"id":353942,"adult":false},{"id":64729,"adult":true},{"id":252151,"adult":false},{"id":26451,"adult":false},{"id":253807,"adult":false},{"id":58520,"adult":false},{"id":228490,"adult":false},{"id":7180,"adult":false},{"id":353943,"adult":false},{"id":13351,"adult":false},{"id":353944,"adult":false},{"id":15655,"adult":false},{"id":15400,"adult":false},{"id":261339,"adult":false},{"id":259540,"adult":false},{"id":266058,"adult":false},{"id":11293,"adult":false},{"id":966,"adult":false},{"id":324344,"adult":false},{"id":353945,"adult":false},{"id":6072,"adult":false},{"id":33278,"adult":false},{"id":353946,"adult":false},{"id":250714,"adult":false},{"id":60089,"adult":false},{"id":295486,"adult":false}],"page":67,"total_pages":89,"total_results":8876}