{"results":[{"id":1059,"adult":false},{"id":8494,"adult":false},{"id":335602,"adult":false},{"id":44833,"adult":false},{"id":370269,"adult":false},{"id":370270,"adult":false},{"id":9255,"adult":false},{"id":328264,"adult":false},{"id":304529,"adult":false},{"id":370271,"adult":false},{"id":367412,"adult":false},{"id":370272,"adult":false},{"id":20504,"adult":false},{"id":163622,"adult":false},{"id":370273,"adult":false},{"id":197276,"adult":false},{"id":69782,"adult":false},{"id":370274,"adult":false},{"id":370275,"adult":false},{"id":370276,"adult":false},{"id":110390,"adult":false},{"id":370277,"adult":false},{"id":5176,"adult":false},{"id":292739,"adult":null},{"id":370278,"adult":false},{"id":267790,"adult":false},{"id":370279,"adult":false},{"id":370280,"adult":false},{"id":300979,"adult":false},{"id":370281,"adult":false},{"id":370283,"adult":false},{"id":370284,"adult":false},{"id":74643,"adult":false},{"id":370285,"adult":false},{"id":370286,"adult":false},{"id":370287,"adult":null},{"id":61791,"adult":false},{"id":363085,"adult":false},{"id":370289,"adult":false}],"page":101,"total_pages":101,"total_results":10039}