{"results":[{"id":110128,"adult":false},{"id":52355,"adult":false},{"id":320001,"adult":false},{"id":53793,"adult":false},{"id":19273,"adult":false},{"id":244509,"adult":false},{"id":14569,"adult":false},{"id":45756,"adult":false},{"id":173294,"adult":false},{"id":177552,"adult":false},{"id":46081,"adult":false},{"id":170125,"adult":false},{"id":54518,"adult":false},{"id":324152,"adult":false},{"id":72901,"adult":false},{"id":220289,"adult":false},{"id":84337,"adult":false},{"id":183407,"adult":false},{"id":305787,"adult":false},{"id":324153,"adult":false},{"id":186833,"adult":false},{"id":324154,"adult":false},{"id":324155,"adult":false},{"id":324156,"adult":false},{"id":127651,"adult":false},{"id":31005,"adult":false},{"id":1571,"adult":false},{"id":186254,"adult":false},{"id":231001,"adult":false},{"id":12230,"adult":false},{"id":13654,"adult":false},{"id":308632,"adult":false},{"id":86834,"adult":false},{"id":84892,"adult":false},{"id":45682,"adult":false},{"id":32657,"adult":false},{"id":59347,"adult":false},{"id":41658,"adult":false},{"id":324157,"adult":false},{"id":159092,"adult":false},{"id":122232,"adult":false},{"id":259956,"adult":false},{"id":167581,"adult":false},{"id":324158,"adult":false},{"id":23356,"adult":false},{"id":86618,"adult":false},{"id":32961,"adult":false},{"id":324159,"adult":false},{"id":318040,"adult":false},{"id":141015,"adult":false},{"id":73546,"adult":false},{"id":12650,"adult":false},{"id":324160,"adult":false},{"id":217923,"adult":false},{"id":673,"adult":false},{"id":79777,"adult":false},{"id":162738,"adult":false},{"id":13885,"adult":false},{"id":243,"adult":false},{"id":242613,"adult":false},{"id":324161,"adult":false},{"id":242607,"adult":false},{"id":83706,"adult":false},{"id":11224,"adult":false},{"id":112203,"adult":false},{"id":14128,"adult":false},{"id":16119,"adult":false},{"id":18736,"adult":false},{"id":55181,"adult":false},{"id":55241,"adult":false},{"id":33166,"adult":false},{"id":68831,"adult":null},{"id":324162,"adult":false},{"id":187263,"adult":false},{"id":50548,"adult":false},{"id":103608,"adult":false},{"id":21385,"adult":false},{"id":18375,"adult":false},{"id":117942,"adult":false},{"id":324163,"adult":false},{"id":213224,"adult":false},{"id":89792,"adult":false},{"id":111190,"adult":false},{"id":579,"adult":false},{"id":462,"adult":false},{"id":197276,"adult":false},{"id":106631,"adult":false},{"id":38843,"adult":false},{"id":19241,"adult":false},{"id":929,"adult":false},{"id":841,"adult":false},{"id":118406,"adult":false},{"id":48186,"adult":false},{"id":40807,"adult":false},{"id":324166,"adult":false},{"id":277253,"adult":false},{"id":228492,"adult":false},{"id":16222,"adult":false},{"id":316390,"adult":false},{"id":6537,"adult":false}],"page":64,"total_pages":117,"total_results":11629}