{"results":[{"id":189680,"adult":false},{"id":183258,"adult":false},{"id":9710,"adult":false},{"id":6477,"adult":false},{"id":14103,"adult":false},{"id":268712,"adult":false},{"id":367976,"adult":false},{"id":23398,"adult":false},{"id":123005,"adult":false},{"id":82628,"adult":false},{"id":63736,"adult":false},{"id":251321,"adult":false},{"id":103577,"adult":false},{"id":137196,"adult":false},{"id":14105,"adult":false},{"id":19160,"adult":false},{"id":55301,"adult":false},{"id":344830,"adult":false},{"id":280951,"adult":false},{"id":263482,"adult":false},{"id":314065,"adult":false},{"id":756,"adult":false},{"id":341174,"adult":false},{"id":240906,"adult":false},{"id":126442,"adult":false},{"id":337167,"adult":false},{"id":280115,"adult":false},{"id":14458,"adult":false},{"id":13248,"adult":false},{"id":86341,"adult":false},{"id":11352,"adult":false},{"id":222267,"adult":false},{"id":218406,"adult":false},{"id":269046,"adult":false},{"id":342295,"adult":false},{"id":3035,"adult":false},{"id":340884,"adult":false},{"id":266659,"adult":false},{"id":300424,"adult":false},{"id":332539,"adult":false},{"id":13399,"adult":false},{"id":15821,"adult":false},{"id":216541,"adult":false},{"id":44766,"adult":false},{"id":319978,"adult":false},{"id":373892,"adult":false},{"id":240832,"adult":false},{"id":369469,"adult":false},{"id":367931,"adult":false},{"id":367934,"adult":false},{"id":327495,"adult":false},{"id":91586,"adult":false},{"id":239563,"adult":false},{"id":70160,"adult":false},{"id":261815,"adult":false},{"id":3077,"adult":false},{"id":10808,"adult":false},{"id":346729,"adult":false},{"id":307023,"adult":false},{"id":28205,"adult":false},{"id":3074,"adult":false},{"id":128,"adult":false},{"id":242512,"adult":false},{"id":95627,"adult":false},{"id":3103,"adult":false},{"id":134768,"adult":false},{"id":155474,"adult":false},{"id":2171,"adult":false},{"id":56440,"adult":false},{"id":124157,"adult":false},{"id":361854,"adult":false},{"id":24357,"adult":false},{"id":42192,"adult":false},{"id":22097,"adult":false},{"id":278901,"adult":false},{"id":373893,"adult":false},{"id":170689,"adult":false},{"id":145660,"adult":false},{"id":46983,"adult":false},{"id":1273,"adult":false},{"id":10800,"adult":false},{"id":23127,"adult":false},{"id":230161,"adult":false},{"id":45662,"adult":false},{"id":98168,"adult":false},{"id":268357,"adult":false},{"id":275298,"adult":false},{"id":134623,"adult":false},{"id":152760,"adult":false},{"id":82690,"adult":false},{"id":242643,"adult":false},{"id":322456,"adult":false},{"id":280996,"adult":false},{"id":282921,"adult":false},{"id":373894,"adult":false},{"id":278709,"adult":null},{"id":282296,"adult":false},{"id":373895,"adult":false},{"id":40704,"adult":null},{"id":373897,"adult":false}],"page":69,"total_pages":108,"total_results":10739}