{"results":[{"id":348484,"adult":false},{"id":295674,"adult":false},{"id":68735,"adult":false},{"id":332985,"adult":false},{"id":274787,"adult":false},{"id":48755,"adult":false},{"id":348485,"adult":false},{"id":348486,"adult":false},{"id":213121,"adult":false},{"id":348487,"adult":false},{"id":348488,"adult":false},{"id":348489,"adult":false},{"id":83866,"adult":false},{"id":40833,"adult":false},{"id":348490,"adult":false},{"id":34314,"adult":false},{"id":16405,"adult":false},{"id":348491,"adult":false},{"id":348492,"adult":false},{"id":345178,"adult":false},{"id":51488,"adult":false},{"id":273886,"adult":false},{"id":348493,"adult":false},{"id":266310,"adult":false},{"id":223806,"adult":false},{"id":276928,"adult":false},{"id":4252,"adult":false},{"id":14163,"adult":false},{"id":245473,"adult":false},{"id":167668,"adult":false},{"id":17702,"adult":false},{"id":309924,"adult":false},{"id":121140,"adult":false},{"id":330078,"adult":false},{"id":294423,"adult":false},{"id":313877,"adult":false},{"id":211795,"adult":false},{"id":348494,"adult":false},{"id":157916,"adult":false},{"id":18395,"adult":false},{"id":348495,"adult":false},{"id":14750,"adult":false},{"id":47370,"adult":false},{"id":104974,"adult":false},{"id":39464,"adult":false},{"id":86533,"adult":false},{"id":348496,"adult":false},{"id":348497,"adult":false},{"id":308077,"adult":false},{"id":138,"adult":false},{"id":348498,"adult":false},{"id":348499,"adult":false},{"id":214979,"adult":false},{"id":3035,"adult":false},{"id":28120,"adult":false},{"id":98577,"adult":false},{"id":40687,"adult":false},{"id":348500,"adult":false},{"id":348501,"adult":false},{"id":254273,"adult":false},{"id":348502,"adult":false},{"id":345547,"adult":false},{"id":348503,"adult":false},{"id":348504,"adult":false},{"id":265458,"adult":false},{"id":302077,"adult":false},{"id":348505,"adult":false},{"id":348506,"adult":false},{"id":348507,"adult":false},{"id":348508,"adult":false},{"id":348509,"adult":false},{"id":348510,"adult":false},{"id":348511,"adult":false},{"id":21355,"adult":false},{"id":348512,"adult":false},{"id":348513,"adult":false},{"id":348514,"adult":false},{"id":348515,"adult":false},{"id":348516,"adult":false},{"id":348517,"adult":false},{"id":301074,"adult":false},{"id":348518,"adult":false},{"id":257179,"adult":false},{"id":348519,"adult":false},{"id":46314,"adult":false},{"id":348520,"adult":false},{"id":348521,"adult":false},{"id":348522,"adult":false},{"id":348523,"adult":false},{"id":67174,"adult":false},{"id":348524,"adult":false},{"id":54763,"adult":false},{"id":786,"adult":false},{"id":348525,"adult":false},{"id":317464,"adult":false},{"id":121483,"adult":false},{"id":320104,"adult":false},{"id":348526,"adult":false},{"id":259720,"adult":false},{"id":279144,"adult":false}],"page":79,"total_pages":86,"total_results":8586}