{"results":[{"id":71872,"adult":false},{"id":190469,"adult":false},{"id":160,"adult":false},{"id":129865,"adult":false},{"id":94570,"adult":false},{"id":150778,"adult":false},{"id":39586,"adult":true},{"id":348305,"adult":true},{"id":348306,"adult":false},{"id":31608,"adult":false},{"id":348307,"adult":false},{"id":775,"adult":false},{"id":319565,"adult":false},{"id":348308,"adult":false},{"id":5698,"adult":false},{"id":962,"adult":false},{"id":64586,"adult":false},{"id":643,"adult":false},{"id":13244,"adult":false},{"id":39585,"adult":true},{"id":309760,"adult":false},{"id":28966,"adult":false},{"id":127074,"adult":false},{"id":1492,"adult":false},{"id":60086,"adult":false},{"id":348309,"adult":false},{"id":4951,"adult":false},{"id":348310,"adult":false},{"id":348311,"adult":false},{"id":9100,"adult":false},{"id":106865,"adult":false},{"id":348312,"adult":false},{"id":1294,"adult":false},{"id":245252,"adult":false},{"id":10068,"adult":false},{"id":653,"adult":false},{"id":975,"adult":false},{"id":1257,"adult":false},{"id":126439,"adult":false},{"id":258294,"adult":false},{"id":84330,"adult":false},{"id":8892,"adult":false},{"id":1546,"adult":false},{"id":13368,"adult":false},{"id":84200,"adult":false},{"id":268899,"adult":false},{"id":1588,"adult":false},{"id":317144,"adult":false},{"id":10065,"adult":false},{"id":1698,"adult":false},{"id":284,"adult":false},{"id":13802,"adult":false},{"id":187252,"adult":false},{"id":235984,"adult":false},{"id":11542,"adult":false},{"id":11930,"adult":false},{"id":18644,"adult":false},{"id":51052,"adult":false},{"id":316322,"adult":false},{"id":3175,"adult":false},{"id":348313,"adult":false},{"id":2454,"adult":false},{"id":289,"adult":false},{"id":11425,"adult":false},{"id":850,"adult":false},{"id":14836,"adult":false},{"id":521,"adult":false},{"id":104854,"adult":false},{"id":39584,"adult":true},{"id":935,"adult":false},{"id":10719,"adult":false},{"id":17979,"adult":false},{"id":18642,"adult":false},{"id":38810,"adult":false},{"id":11419,"adult":false},{"id":20067,"adult":false},{"id":51851,"adult":false},{"id":62214,"adult":false},{"id":348314,"adult":false},{"id":927,"adult":false},{"id":14057,"adult":false},{"id":8871,"adult":false},{"id":135046,"adult":false},{"id":145247,"adult":false},{"id":22267,"adult":false},{"id":47354,"adult":false},{"id":256080,"adult":false},{"id":8951,"adult":false},{"id":293262,"adult":false},{"id":7944,"adult":false},{"id":73723,"adult":false},{"id":127594,"adult":false},{"id":76077,"adult":false},{"id":54757,"adult":false},{"id":9479,"adult":false},{"id":11395,"adult":false},{"id":348315,"adult":false},{"id":23367,"adult":false},{"id":1580,"adult":false},{"id":1366,"adult":false}],"page":71,"total_pages":86,"total_results":8586}