{"results":[{"id":326946,"adult":false},{"id":326947,"adult":false},{"id":326948,"adult":false},{"id":326949,"adult":false},{"id":326950,"adult":false},{"id":311012,"adult":false},{"id":326951,"adult":false},{"id":189571,"adult":false},{"id":139274,"adult":false},{"id":326952,"adult":false},{"id":82939,"adult":false},{"id":54600,"adult":false},{"id":279229,"adult":false},{"id":132554,"adult":false},{"id":326953,"adult":false},{"id":160693,"adult":false},{"id":16026,"adult":false},{"id":60464,"adult":false},{"id":259954,"adult":false},{"id":29043,"adult":false},{"id":71018,"adult":false},{"id":225671,"adult":false},{"id":300900,"adult":false},{"id":326954,"adult":false},{"id":54601,"adult":false},{"id":297544,"adult":false},{"id":270643,"adult":false},{"id":257353,"adult":false},{"id":266031,"adult":false},{"id":291608,"adult":false},{"id":49516,"adult":false},{"id":218016,"adult":false},{"id":286873,"adult":false},{"id":326955,"adult":false},{"id":314882,"adult":false},{"id":326956,"adult":false},{"id":314874,"adult":false},{"id":40361,"adult":false},{"id":315188,"adult":false},{"id":74286,"adult":false},{"id":60465,"adult":false},{"id":326957,"adult":false},{"id":147994,"adult":false},{"id":165366,"adult":false},{"id":47675,"adult":false},{"id":84021,"adult":false},{"id":51879,"adult":false},{"id":326958,"adult":false},{"id":305741,"adult":false},{"id":300715,"adult":false},{"id":280084,"adult":false},{"id":326959,"adult":false},{"id":273870,"adult":false},{"id":292638,"adult":false},{"id":280154,"adult":false},{"id":264045,"adult":false},{"id":35686,"adult":false},{"id":32640,"adult":false},{"id":324810,"adult":false},{"id":6116,"adult":false},{"id":254261,"adult":false},{"id":308533,"adult":false},{"id":43231,"adult":false},{"id":307002,"adult":false},{"id":280172,"adult":false},{"id":320912,"adult":false},{"id":115464,"adult":false},{"id":260778,"adult":false},{"id":326960,"adult":null},{"id":299525,"adult":false},{"id":21058,"adult":false},{"id":176769,"adult":false},{"id":290719,"adult":false},{"id":54607,"adult":false},{"id":326961,"adult":null},{"id":75571,"adult":false},{"id":56857,"adult":false},{"id":326962,"adult":false},{"id":80880,"adult":false},{"id":273846,"adult":false},{"id":326963,"adult":false},{"id":64311,"adult":false},{"id":202215,"adult":false},{"id":34763,"adult":false},{"id":80878,"adult":false},{"id":28993,"adult":false},{"id":326964,"adult":false},{"id":326965,"adult":false},{"id":262436,"adult":false},{"id":54609,"adult":false},{"id":80833,"adult":false},{"id":326966,"adult":false},{"id":326967,"adult":false},{"id":295539,"adult":false},{"id":326968,"adult":false},{"id":54610,"adult":false},{"id":23788,"adult":false},{"id":326969,"adult":false},{"id":74930,"adult":false},{"id":44919,"adult":false}],"page":76,"total_pages":112,"total_results":11193}