{"results":[{"id":218736,"adult":false},{"id":330234,"adult":false},{"id":164531,"adult":false},{"id":330236,"adult":false},{"id":330238,"adult":false},{"id":330239,"adult":false},{"id":77494,"adult":false},{"id":330240,"adult":false},{"id":216778,"adult":false},{"id":330242,"adult":false},{"id":17700,"adult":false},{"id":56896,"adult":false},{"id":330243,"adult":false},{"id":306127,"adult":null},{"id":330244,"adult":false},{"id":251208,"adult":false},{"id":330245,"adult":false},{"id":61952,"adult":false},{"id":330246,"adult":false},{"id":120554,"adult":false},{"id":238378,"adult":false},{"id":78949,"adult":false},{"id":330249,"adult":false},{"id":330250,"adult":false},{"id":148853,"adult":false},{"id":330251,"adult":false},{"id":330252,"adult":false},{"id":78956,"adult":false},{"id":330253,"adult":false},{"id":159824,"adult":false},{"id":318033,"adult":false},{"id":330254,"adult":false},{"id":13401,"adult":false},{"id":330255,"adult":false},{"id":78959,"adult":false},{"id":330256,"adult":false},{"id":330257,"adult":false},{"id":295111,"adult":false},{"id":78962,"adult":false},{"id":330258,"adult":false},{"id":330259,"adult":false},{"id":134350,"adult":false},{"id":266102,"adult":false},{"id":82407,"adult":false},{"id":39259,"adult":false},{"id":313634,"adult":false},{"id":162557,"adult":false},{"id":330260,"adult":false},{"id":181866,"adult":false},{"id":276697,"adult":false},{"id":1626,"adult":false},{"id":173220,"adult":false},{"id":157350,"adult":false},{"id":330261,"adult":false},{"id":304086,"adult":null},{"id":330262,"adult":false},{"id":330263,"adult":false},{"id":76844,"adult":false},{"id":330264,"adult":false},{"id":330265,"adult":false},{"id":257249,"adult":false},{"id":330266,"adult":false},{"id":78954,"adult":false},{"id":78945,"adult":false},{"id":8077,"adult":false},{"id":330267,"adult":false},{"id":78948,"adult":false},{"id":49106,"adult":false},{"id":330268,"adult":false},{"id":68719,"adult":false},{"id":330269,"adult":false},{"id":63607,"adult":false},{"id":78991,"adult":false},{"id":330270,"adult":false},{"id":63651,"adult":false},{"id":279210,"adult":false},{"id":330271,"adult":false},{"id":13567,"adult":false},{"id":78946,"adult":false},{"id":89659,"adult":false},{"id":24913,"adult":false},{"id":203835,"adult":false},{"id":201085,"adult":false},{"id":308409,"adult":false},{"id":66428,"adult":false},{"id":19305,"adult":false},{"id":330272,"adult":false},{"id":77020,"adult":false},{"id":330273,"adult":false},{"id":330274,"adult":false},{"id":1675,"adult":false},{"id":134228,"adult":false},{"id":36759,"adult":false},{"id":11003,"adult":false},{"id":10484,"adult":false},{"id":330275,"adult":false},{"id":78879,"adult":false},{"id":11790,"adult":false},{"id":197602,"adult":false},{"id":284486,"adult":false}],"page":115,"total_pages":123,"total_results":12300}