{"results":[{"id":364828,"adult":false},{"id":82279,"adult":false},{"id":364829,"adult":false},{"id":57695,"adult":false},{"id":20803,"adult":false},{"id":29056,"adult":false},{"id":48395,"adult":false},{"id":364830,"adult":false},{"id":50136,"adult":false},{"id":364831,"adult":false},{"id":19066,"adult":false},{"id":282673,"adult":false},{"id":227719,"adult":false},{"id":9771,"adult":false},{"id":290764,"adult":false},{"id":249987,"adult":false},{"id":220920,"adult":false},{"id":70322,"adult":false},{"id":209266,"adult":false},{"id":61054,"adult":false},{"id":318259,"adult":false},{"id":36677,"adult":false},{"id":197467,"adult":false},{"id":24150,"adult":false},{"id":197476,"adult":false},{"id":200379,"adult":false},{"id":275043,"adult":false},{"id":45657,"adult":false},{"id":319089,"adult":false},{"id":11678,"adult":false},{"id":9423,"adult":false},{"id":354912,"adult":false},{"id":10192,"adult":false},{"id":25501,"adult":false},{"id":320586,"adult":false},{"id":260513,"adult":false},{"id":261103,"adult":false},{"id":302699,"adult":false},{"id":30588,"adult":false},{"id":44532,"adult":false},{"id":108660,"adult":false},{"id":34059,"adult":false},{"id":61548,"adult":false},{"id":158329,"adult":false},{"id":20289,"adult":false},{"id":3072,"adult":false},{"id":354251,"adult":false},{"id":77469,"adult":false},{"id":18274,"adult":false},{"id":347236,"adult":false},{"id":283425,"adult":false},{"id":124571,"adult":false},{"id":41774,"adult":false},{"id":98279,"adult":false},{"id":219681,"adult":false},{"id":31686,"adult":false},{"id":13683,"adult":false},{"id":11412,"adult":false},{"id":14215,"adult":false},{"id":364832,"adult":false},{"id":9504,"adult":false},{"id":17938,"adult":false},{"id":314385,"adult":false},{"id":15029,"adult":false},{"id":11107,"adult":false},{"id":40039,"adult":false},{"id":161,"adult":false},{"id":289097,"adult":false},{"id":79186,"adult":false},{"id":712,"adult":false},{"id":10684,"adult":false},{"id":18389,"adult":false},{"id":364833,"adult":false},{"id":3482,"adult":false},{"id":23518,"adult":false},{"id":161158,"adult":false},{"id":364834,"adult":false},{"id":270514,"adult":null},{"id":157321,"adult":false},{"id":252845,"adult":false},{"id":271797,"adult":null},{"id":303440,"adult":null},{"id":317018,"adult":false},{"id":321028,"adult":null},{"id":14703,"adult":false},{"id":285702,"adult":true},{"id":329217,"adult":null},{"id":13617,"adult":false},{"id":346634,"adult":null},{"id":339833,"adult":null},{"id":336468,"adult":null},{"id":36878,"adult":false},{"id":75358,"adult":false},{"id":799,"adult":false},{"id":364835,"adult":false},{"id":364836,"adult":false},{"id":294132,"adult":false},{"id":364837,"adult":false},{"id":283109,"adult":false},{"id":274395,"adult":false}],"page":43,"total_pages":85,"total_results":8453}