{"results":[{"id":184322,"adult":false},{"id":25736,"adult":false},{"id":79421,"adult":false},{"id":698,"adult":false},{"id":324782,"adult":false},{"id":19173,"adult":false},{"id":10601,"adult":false},{"id":675,"adult":false},{"id":7326,"adult":false},{"id":2105,"adult":false},{"id":324783,"adult":false},{"id":11484,"adult":false},{"id":81576,"adult":false},{"id":7191,"adult":false},{"id":324784,"adult":false},{"id":203590,"adult":null},{"id":12836,"adult":false},{"id":3078,"adult":false},{"id":324785,"adult":false},{"id":244316,"adult":false},{"id":95775,"adult":false},{"id":324786,"adult":false},{"id":879,"adult":false},{"id":187061,"adult":false},{"id":186007,"adult":false},{"id":324787,"adult":false},{"id":24105,"adult":false},{"id":26537,"adult":false},{"id":256690,"adult":false},{"id":50934,"adult":false},{"id":38584,"adult":false},{"id":40246,"adult":false},{"id":30059,"adult":false},{"id":138908,"adult":false},{"id":14963,"adult":false},{"id":13400,"adult":false},{"id":43755,"adult":false},{"id":73877,"adult":null},{"id":173917,"adult":false},{"id":46044,"adult":false},{"id":54097,"adult":false},{"id":81803,"adult":false},{"id":324788,"adult":false},{"id":4824,"adult":false},{"id":20504,"adult":false},{"id":269223,"adult":false},{"id":23916,"adult":false},{"id":324789,"adult":false},{"id":854,"adult":false},{"id":167996,"adult":false},{"id":324790,"adult":null},{"id":324791,"adult":false},{"id":83601,"adult":false},{"id":78954,"adult":false},{"id":223365,"adult":false},{"id":324792,"adult":null},{"id":78748,"adult":false},{"id":324793,"adult":null},{"id":226663,"adult":false},{"id":324794,"adult":false},{"id":256959,"adult":false},{"id":324795,"adult":null},{"id":174953,"adult":false},{"id":11156,"adult":false},{"id":95632,"adult":true},{"id":278318,"adult":false},{"id":17819,"adult":false},{"id":255629,"adult":false},{"id":324796,"adult":false},{"id":68913,"adult":false},{"id":9312,"adult":false},{"id":129456,"adult":false},{"id":9823,"adult":false},{"id":40170,"adult":false},{"id":112691,"adult":false},{"id":85926,"adult":false},{"id":324797,"adult":false},{"id":324798,"adult":false},{"id":72886,"adult":false},{"id":103014,"adult":false},{"id":69009,"adult":false},{"id":13836,"adult":false},{"id":265510,"adult":false},{"id":49009,"adult":false},{"id":277558,"adult":false},{"id":26547,"adult":false},{"id":131859,"adult":false},{"id":13397,"adult":false},{"id":324799,"adult":false},{"id":44267,"adult":false},{"id":132183,"adult":false},{"id":324800,"adult":false},{"id":45473,"adult":false},{"id":8091,"adult":false},{"id":26811,"adult":false},{"id":269785,"adult":false},{"id":324801,"adult":false},{"id":321725,"adult":false},{"id":86124,"adult":false},{"id":324802,"adult":false}],"page":92,"total_pages":117,"total_results":11629}