{"results":[{"id":65840,"adult":false},{"id":325801,"adult":false},{"id":72991,"adult":false},{"id":115487,"adult":false},{"id":95727,"adult":false},{"id":113936,"adult":false},{"id":318470,"adult":false},{"id":64269,"adult":false},{"id":2994,"adult":false},{"id":20379,"adult":false},{"id":148084,"adult":false},{"id":361388,"adult":false},{"id":361389,"adult":false},{"id":361390,"adult":null},{"id":316715,"adult":false},{"id":268668,"adult":false},{"id":330276,"adult":false},{"id":361391,"adult":false},{"id":79381,"adult":false},{"id":18408,"adult":false},{"id":96054,"adult":false},{"id":361392,"adult":false},{"id":346272,"adult":false},{"id":361393,"adult":false},{"id":72697,"adult":false},{"id":280276,"adult":false},{"id":361394,"adult":false},{"id":74216,"adult":false},{"id":298392,"adult":false},{"id":270750,"adult":false},{"id":55544,"adult":false},{"id":345930,"adult":false},{"id":41110,"adult":false},{"id":357161,"adult":false},{"id":12539,"adult":false},{"id":94702,"adult":false},{"id":175411,"adult":false},{"id":21630,"adult":false},{"id":361395,"adult":false},{"id":294781,"adult":null},{"id":293781,"adult":false},{"id":361396,"adult":false},{"id":361397,"adult":false},{"id":209714,"adult":false},{"id":296618,"adult":false},{"id":84295,"adult":false},{"id":361398,"adult":false},{"id":204633,"adult":false},{"id":337260,"adult":false},{"id":38412,"adult":false},{"id":283990,"adult":false},{"id":361399,"adult":null},{"id":269602,"adult":false},{"id":242065,"adult":false},{"id":129374,"adult":false},{"id":361400,"adult":false},{"id":307527,"adult":false},{"id":289153,"adult":false},{"id":15906,"adult":false},{"id":336972,"adult":false},{"id":169025,"adult":false},{"id":289728,"adult":false},{"id":15165,"adult":false},{"id":361401,"adult":false},{"id":224233,"adult":false},{"id":361402,"adult":false},{"id":16296,"adult":false},{"id":806,"adult":false},{"id":358630,"adult":false},{"id":39899,"adult":false},{"id":12685,"adult":false},{"id":11286,"adult":false},{"id":361403,"adult":false},{"id":10017,"adult":false},{"id":298619,"adult":false},{"id":60451,"adult":false},{"id":352370,"adult":false},{"id":10650,"adult":false},{"id":15056,"adult":false},{"id":361404,"adult":false},{"id":108713,"adult":false},{"id":316015,"adult":false},{"id":10781,"adult":false},{"id":11309,"adult":false},{"id":10649,"adult":false},{"id":356094,"adult":false},{"id":25781,"adult":false},{"id":350931,"adult":false},{"id":296366,"adult":false},{"id":45609,"adult":false},{"id":307479,"adult":false},{"id":361405,"adult":false},{"id":112471,"adult":false},{"id":64265,"adult":false},{"id":23566,"adult":false},{"id":361406,"adult":false},{"id":271234,"adult":false},{"id":89484,"adult":false},{"id":53278,"adult":false},{"id":361408,"adult":false}],"page":81,"total_pages":98,"total_results":9775}