{"results":[{"id":369849,"adult":false},{"id":276208,"adult":false},{"id":369850,"adult":false},{"id":369851,"adult":false},{"id":69361,"adult":false},{"id":117023,"adult":false},{"id":25950,"adult":false},{"id":369852,"adult":false},{"id":117493,"adult":false},{"id":68756,"adult":false},{"id":28512,"adult":false},{"id":369853,"adult":false},{"id":365273,"adult":false},{"id":42685,"adult":false},{"id":110415,"adult":false},{"id":30709,"adult":false},{"id":16638,"adult":false},{"id":22383,"adult":false},{"id":369854,"adult":false},{"id":10644,"adult":false},{"id":369855,"adult":false},{"id":99934,"adult":false},{"id":87063,"adult":false},{"id":73511,"adult":false},{"id":136368,"adult":false},{"id":37757,"adult":false},{"id":379,"adult":false},{"id":238302,"adult":false},{"id":369856,"adult":null},{"id":58875,"adult":false},{"id":9806,"adult":false},{"id":132313,"adult":false},{"id":369857,"adult":false},{"id":117410,"adult":false},{"id":56193,"adult":false},{"id":93164,"adult":false},{"id":369858,"adult":false},{"id":193687,"adult":false},{"id":30892,"adult":false},{"id":1788,"adult":false},{"id":14787,"adult":false},{"id":19143,"adult":false},{"id":199753,"adult":false},{"id":43361,"adult":false},{"id":42143,"adult":false},{"id":68638,"adult":false},{"id":62838,"adult":false},{"id":24696,"adult":false},{"id":296367,"adult":false},{"id":58522,"adult":false},{"id":278236,"adult":false},{"id":235437,"adult":false},{"id":101292,"adult":false},{"id":859,"adult":false},{"id":11412,"adult":false},{"id":14729,"adult":false},{"id":287233,"adult":false},{"id":94851,"adult":false},{"id":20323,"adult":false},{"id":9095,"adult":false},{"id":369859,"adult":false},{"id":66277,"adult":false},{"id":9291,"adult":false},{"id":58518,"adult":false},{"id":10715,"adult":false},{"id":9969,"adult":false},{"id":37582,"adult":false},{"id":24558,"adult":false},{"id":282023,"adult":false},{"id":21622,"adult":false},{"id":73723,"adult":false},{"id":67967,"adult":false},{"id":2280,"adult":false},{"id":81590,"adult":false},{"id":220091,"adult":false},{"id":9700,"adult":false},{"id":261558,"adult":false},{"id":65213,"adult":false},{"id":31201,"adult":false},{"id":330220,"adult":false},{"id":197950,"adult":false},{"id":129418,"adult":false},{"id":100632,"adult":false},{"id":50674,"adult":false},{"id":60293,"adult":false},{"id":2157,"adult":false},{"id":16007,"adult":false},{"id":28484,"adult":false},{"id":267999,"adult":false},{"id":65211,"adult":false},{"id":43956,"adult":false},{"id":12092,"adult":false},{"id":12,"adult":false},{"id":130090,"adult":false},{"id":50209,"adult":false},{"id":9325,"adult":false},{"id":10009,"adult":false},{"id":369860,"adult":false},{"id":287322,"adult":false},{"id":12230,"adult":false}],"page":79,"total_pages":101,"total_results":10039}