{"results":[{"id":353595,"adult":false},{"id":62267,"adult":false},{"id":224141,"adult":false},{"id":8425,"adult":false},{"id":9842,"adult":false},{"id":266035,"adult":false},{"id":33155,"adult":false},{"id":353596,"adult":false},{"id":35052,"adult":false},{"id":332177,"adult":false},{"id":172847,"adult":false},{"id":254918,"adult":false},{"id":244903,"adult":false},{"id":11164,"adult":false},{"id":10680,"adult":false},{"id":8736,"adult":false},{"id":105206,"adult":false},{"id":343981,"adult":false},{"id":353597,"adult":false},{"id":527,"adult":false},{"id":353598,"adult":false},{"id":89568,"adult":false},{"id":353599,"adult":false},{"id":123018,"adult":false},{"id":131979,"adult":false},{"id":71476,"adult":false},{"id":12405,"adult":false},{"id":32152,"adult":false},{"id":128111,"adult":false},{"id":8380,"adult":false},{"id":110994,"adult":false},{"id":353600,"adult":false},{"id":127746,"adult":false},{"id":11454,"adult":false},{"id":262642,"adult":false},{"id":353601,"adult":false},{"id":90125,"adult":false},{"id":353602,"adult":false},{"id":10594,"adult":false},{"id":353603,"adult":false},{"id":245107,"adult":false},{"id":347674,"adult":false},{"id":222649,"adult":false},{"id":24166,"adult":false},{"id":353604,"adult":false},{"id":12488,"adult":false},{"id":353605,"adult":false},{"id":1782,"adult":false},{"id":19109,"adult":false},{"id":67703,"adult":false},{"id":41003,"adult":false},{"id":214602,"adult":false},{"id":982,"adult":false},{"id":115037,"adult":false},{"id":353606,"adult":false},{"id":342174,"adult":false},{"id":176867,"adult":false},{"id":353607,"adult":null},{"id":188070,"adult":false},{"id":76010,"adult":false},{"id":225634,"adult":false},{"id":1433,"adult":false},{"id":19177,"adult":false},{"id":102201,"adult":false},{"id":353608,"adult":false},{"id":2084,"adult":false},{"id":353609,"adult":false},{"id":330421,"adult":false},{"id":153336,"adult":false},{"id":353610,"adult":false},{"id":353612,"adult":false},{"id":22258,"adult":false},{"id":353613,"adult":false},{"id":13542,"adult":false},{"id":353614,"adult":false},{"id":9560,"adult":false},{"id":30723,"adult":false},{"id":297946,"adult":false},{"id":353615,"adult":null},{"id":16347,"adult":false},{"id":347337,"adult":false},{"id":107671,"adult":false},{"id":293179,"adult":false},{"id":225703,"adult":false},{"id":225489,"adult":false},{"id":61476,"adult":false},{"id":9417,"adult":false},{"id":215119,"adult":false},{"id":162662,"adult":false},{"id":339304,"adult":false},{"id":62016,"adult":false},{"id":2687,"adult":false},{"id":300424,"adult":false},{"id":203696,"adult":false},{"id":72693,"adult":false},{"id":53827,"adult":false},{"id":353616,"adult":false},{"id":307111,"adult":null},{"id":323704,"adult":false},{"id":40920,"adult":false}],"page":53,"total_pages":89,"total_results":8876}