{"results":[{"id":301629,"adult":false},{"id":305689,"adult":null},{"id":354625,"adult":false},{"id":28519,"adult":false},{"id":354626,"adult":false},{"id":347969,"adult":false},{"id":101793,"adult":false},{"id":112344,"adult":false},{"id":354592,"adult":false},{"id":86812,"adult":false},{"id":3033,"adult":false},{"id":354608,"adult":false},{"id":18840,"adult":false},{"id":192341,"adult":false},{"id":303867,"adult":false},{"id":246006,"adult":false},{"id":53486,"adult":false},{"id":310133,"adult":false},{"id":109907,"adult":false},{"id":354627,"adult":true},{"id":282346,"adult":false},{"id":354628,"adult":false},{"id":284674,"adult":false},{"id":348952,"adult":false},{"id":223702,"adult":false},{"id":354629,"adult":false},{"id":109001,"adult":false},{"id":354630,"adult":false},{"id":354631,"adult":false},{"id":342588,"adult":false},{"id":354632,"adult":false},{"id":354633,"adult":false},{"id":334531,"adult":false},{"id":289035,"adult":false},{"id":353378,"adult":false},{"id":292579,"adult":false},{"id":309304,"adult":false},{"id":153158,"adult":false},{"id":260186,"adult":false},{"id":48514,"adult":false},{"id":354480,"adult":null},{"id":354634,"adult":false},{"id":11324,"adult":false},{"id":354635,"adult":false},{"id":16236,"adult":false},{"id":10399,"adult":false},{"id":347701,"adult":false},{"id":2321,"adult":false},{"id":347304,"adult":false},{"id":269588,"adult":false},{"id":277597,"adult":false},{"id":26103,"adult":false},{"id":2193,"adult":false},{"id":26725,"adult":false},{"id":354636,"adult":false},{"id":280674,"adult":false},{"id":825,"adult":false},{"id":281952,"adult":false},{"id":289029,"adult":false},{"id":231136,"adult":false},{"id":354637,"adult":false},{"id":36843,"adult":false},{"id":348169,"adult":false},{"id":28752,"adult":false},{"id":136070,"adult":false},{"id":354638,"adult":false},{"id":354639,"adult":false},{"id":99758,"adult":false},{"id":326947,"adult":false},{"id":354597,"adult":false},{"id":354640,"adult":false},{"id":76341,"adult":false},{"id":29601,"adult":false},{"id":354641,"adult":false},{"id":78486,"adult":false},{"id":354642,"adult":false},{"id":354643,"adult":false},{"id":314642,"adult":false},{"id":187117,"adult":false},{"id":20929,"adult":false},{"id":354644,"adult":false},{"id":354645,"adult":false},{"id":120467,"adult":false},{"id":353585,"adult":false},{"id":110490,"adult":false},{"id":354646,"adult":false},{"id":36353,"adult":false},{"id":220881,"adult":false},{"id":182560,"adult":false},{"id":354647,"adult":false},{"id":44880,"adult":false},{"id":354648,"adult":false},{"id":354649,"adult":false},{"id":354650,"adult":false},{"id":354651,"adult":false},{"id":354652,"adult":false},{"id":354653,"adult":false},{"id":354654,"adult":false},{"id":331949,"adult":null},{"id":354655,"adult":null}],"page":1,"total_pages":100,"total_results":9908}