{"results":[{"id":325989,"adult":false},{"id":345303,"adult":false},{"id":198436,"adult":false},{"id":278857,"adult":false},{"id":51711,"adult":false},{"id":73678,"adult":false},{"id":345304,"adult":false},{"id":253363,"adult":false},{"id":272878,"adult":false},{"id":117799,"adult":false},{"id":126475,"adult":false},{"id":306286,"adult":false},{"id":225728,"adult":false},{"id":68722,"adult":false},{"id":264999,"adult":false},{"id":21803,"adult":false},{"id":21896,"adult":false},{"id":345305,"adult":false},{"id":328247,"adult":false},{"id":31936,"adult":false},{"id":345306,"adult":false},{"id":345307,"adult":false},{"id":254193,"adult":false},{"id":51052,"adult":false},{"id":10515,"adult":false},{"id":289824,"adult":false},{"id":14128,"adult":false},{"id":16119,"adult":false},{"id":8703,"adult":false},{"id":11625,"adult":false},{"id":216015,"adult":false},{"id":345308,"adult":false},{"id":99770,"adult":false},{"id":345309,"adult":false},{"id":9369,"adult":false},{"id":9318,"adult":false},{"id":27944,"adult":false},{"id":315364,"adult":false},{"id":2320,"adult":false},{"id":345310,"adult":false},{"id":146113,"adult":false},{"id":66434,"adult":false},{"id":128307,"adult":false},{"id":35275,"adult":false},{"id":154047,"adult":false},{"id":261370,"adult":false},{"id":205000,"adult":false},{"id":66427,"adult":false},{"id":66305,"adult":false},{"id":345311,"adult":false},{"id":66389,"adult":false},{"id":66391,"adult":false},{"id":88322,"adult":false},{"id":36519,"adult":false},{"id":345312,"adult":false},{"id":180222,"adult":false},{"id":211065,"adult":false},{"id":41640,"adult":false},{"id":345313,"adult":false},{"id":43549,"adult":false},{"id":227081,"adult":false},{"id":38517,"adult":false},{"id":43693,"adult":false},{"id":28032,"adult":false},{"id":67058,"adult":false},{"id":245906,"adult":false},{"id":345314,"adult":false},{"id":203076,"adult":false},{"id":58784,"adult":false},{"id":2771,"adult":false},{"id":212455,"adult":false},{"id":345315,"adult":false},{"id":156584,"adult":false},{"id":56281,"adult":false},{"id":245268,"adult":false},{"id":17318,"adult":false},{"id":345316,"adult":false},{"id":345317,"adult":false},{"id":601,"adult":false},{"id":19463,"adult":false},{"id":344404,"adult":false},{"id":345318,"adult":false},{"id":345319,"adult":false},{"id":317744,"adult":false},{"id":70556,"adult":false},{"id":89689,"adult":false},{"id":345320,"adult":false},{"id":345321,"adult":false},{"id":14478,"adult":false},{"id":23715,"adult":false},{"id":54442,"adult":false},{"id":101737,"adult":false},{"id":39690,"adult":false},{"id":345322,"adult":false},{"id":13491,"adult":false},{"id":53751,"adult":false},{"id":345323,"adult":false},{"id":345324,"adult":false},{"id":291870,"adult":false},{"id":345325,"adult":false}],"page":36,"total_pages":111,"total_results":11023}