{"results":[{"id":260127,"adult":false},{"id":143993,"adult":false},{"id":15531,"adult":false},{"id":187938,"adult":false},{"id":96786,"adult":false},{"id":50808,"adult":false},{"id":73395,"adult":false},{"id":97735,"adult":false},{"id":142282,"adult":false},{"id":268212,"adult":false},{"id":91644,"adult":false},{"id":263855,"adult":false},{"id":7085,"adult":false},{"id":194798,"adult":false},{"id":93496,"adult":false},{"id":309921,"adult":false},{"id":352566,"adult":false},{"id":333658,"adult":false},{"id":13192,"adult":false},{"id":38812,"adult":false},{"id":293771,"adult":false},{"id":42058,"adult":false},{"id":12537,"adult":false},{"id":347849,"adult":false},{"id":296313,"adult":false},{"id":313628,"adult":false},{"id":284674,"adult":false},{"id":350852,"adult":null},{"id":352512,"adult":false},{"id":32600,"adult":false},{"id":352567,"adult":false},{"id":192,"adult":false},{"id":32654,"adult":false},{"id":473,"adult":false},{"id":76451,"adult":false},{"id":352568,"adult":false},{"id":352569,"adult":false},{"id":11048,"adult":false},{"id":269098,"adult":false},{"id":14062,"adult":false},{"id":352570,"adult":false},{"id":352571,"adult":false},{"id":345820,"adult":false},{"id":348012,"adult":null},{"id":59957,"adult":false},{"id":309654,"adult":false},{"id":347785,"adult":null},{"id":32318,"adult":false},{"id":265208,"adult":false},{"id":283389,"adult":false},{"id":41118,"adult":false},{"id":306255,"adult":false},{"id":323051,"adult":false},{"id":325358,"adult":false},{"id":81778,"adult":false},{"id":54912,"adult":false},{"id":241554,"adult":false},{"id":54008,"adult":false},{"id":39303,"adult":false},{"id":2168,"adult":false},{"id":149730,"adult":false},{"id":119801,"adult":false},{"id":14207,"adult":false},{"id":308504,"adult":false},{"id":321751,"adult":false},{"id":271718,"adult":false},{"id":10428,"adult":false},{"id":14118,"adult":false},{"id":352572,"adult":false},{"id":49947,"adult":false},{"id":298312,"adult":false},{"id":201085,"adult":false},{"id":78133,"adult":false},{"id":352573,"adult":false},{"id":352574,"adult":false},{"id":319311,"adult":false},{"id":352575,"adult":false},{"id":352576,"adult":false},{"id":4732,"adult":false},{"id":216541,"adult":false},{"id":138941,"adult":false},{"id":22829,"adult":false},{"id":9045,"adult":false},{"id":24965,"adult":false},{"id":32543,"adult":false},{"id":319309,"adult":false},{"id":168259,"adult":false},{"id":319203,"adult":false},{"id":319323,"adult":false},{"id":319318,"adult":false},{"id":305655,"adult":false},{"id":273799,"adult":false},{"id":352577,"adult":false},{"id":213711,"adult":false},{"id":319302,"adult":false},{"id":152760,"adult":false},{"id":40718,"adult":false},{"id":352578,"adult":false},{"id":268920,"adult":false},{"id":28373,"adult":false}],"page":3,"total_pages":89,"total_results":8876}