{"results":[{"id":60237,"adult":false},{"id":44830,"adult":false},{"id":69851,"adult":false},{"id":82250,"adult":false},{"id":84716,"adult":false},{"id":13958,"adult":false},{"id":38052,"adult":false},{"id":25999,"adult":false},{"id":18183,"adult":false},{"id":358207,"adult":false},{"id":228576,"adult":false},{"id":28498,"adult":false},{"id":230032,"adult":false},{"id":1485,"adult":false},{"id":30906,"adult":false},{"id":358210,"adult":false},{"id":61862,"adult":false},{"id":213461,"adult":false},{"id":19728,"adult":false},{"id":11842,"adult":false},{"id":56613,"adult":false},{"id":345031,"adult":false},{"id":43400,"adult":false},{"id":347495,"adult":false},{"id":83973,"adult":false},{"id":358512,"adult":false},{"id":24225,"adult":false},{"id":114583,"adult":false},{"id":255837,"adult":false},{"id":264491,"adult":false},{"id":23997,"adult":false},{"id":57722,"adult":false},{"id":363026,"adult":false},{"id":221909,"adult":false},{"id":104831,"adult":false},{"id":363027,"adult":false},{"id":56539,"adult":false},{"id":98326,"adult":false},{"id":110154,"adult":false},{"id":44671,"adult":false},{"id":363028,"adult":false},{"id":63140,"adult":false},{"id":91921,"adult":false},{"id":124093,"adult":false},{"id":363029,"adult":false},{"id":361154,"adult":false},{"id":363030,"adult":false},{"id":198395,"adult":true},{"id":363031,"adult":false},{"id":345036,"adult":false},{"id":352505,"adult":false},{"id":334188,"adult":false},{"id":275001,"adult":false},{"id":260266,"adult":false},{"id":363032,"adult":false},{"id":282346,"adult":false},{"id":110173,"adult":false},{"id":243831,"adult":false},{"id":36446,"adult":false},{"id":256569,"adult":false},{"id":363033,"adult":false},{"id":10543,"adult":false},{"id":6415,"adult":false},{"id":354441,"adult":false},{"id":363034,"adult":true},{"id":363035,"adult":null},{"id":363036,"adult":false},{"id":363037,"adult":false},{"id":363038,"adult":false},{"id":13678,"adult":false},{"id":363039,"adult":false},{"id":363040,"adult":false},{"id":363041,"adult":false},{"id":197294,"adult":false},{"id":363042,"adult":true},{"id":363043,"adult":false},{"id":305769,"adult":false},{"id":363044,"adult":false},{"id":363045,"adult":false},{"id":363046,"adult":false},{"id":339678,"adult":false},{"id":294562,"adult":false},{"id":12602,"adult":false},{"id":236009,"adult":false},{"id":76772,"adult":false},{"id":72669,"adult":false},{"id":72680,"adult":false},{"id":72675,"adult":false},{"id":72679,"adult":false},{"id":39892,"adult":false},{"id":73139,"adult":false},{"id":103962,"adult":false},{"id":1483,"adult":false},{"id":318598,"adult":null},{"id":14289,"adult":false},{"id":14438,"adult":false},{"id":6520,"adult":false},{"id":9093,"adult":false},{"id":55061,"adult":false},{"id":250535,"adult":false}],"page":55,"total_pages":108,"total_results":10774}