{"results":[{"id":356466,"adult":false},{"id":295881,"adult":false},{"id":65865,"adult":true},{"id":201749,"adult":false},{"id":45003,"adult":false},{"id":19657,"adult":false},{"id":356467,"adult":false},{"id":15419,"adult":false}],"page":100,"total_pages":100,"total_results":9908}