{"results":[{"id":104755,"adult":false},{"id":553,"adult":false},{"id":19995,"adult":false},{"id":97,"adult":false},{"id":771,"adult":false},{"id":24,"adult":false},{"id":393,"adult":false},{"id":68722,"adult":false},{"id":1487,"adult":false},{"id":22025,"adult":false},{"id":25808,"adult":false},{"id":362744,"adult":false},{"id":69,"adult":false},{"id":71642,"adult":false},{"id":115782,"adult":false},{"id":362745,"adult":false},{"id":12589,"adult":false},{"id":362746,"adult":true},{"id":49529,"adult":false},{"id":362747,"adult":false},{"id":362748,"adult":true},{"id":35197,"adult":false},{"id":37665,"adult":false},{"id":12179,"adult":false},{"id":14684,"adult":false},{"id":362749,"adult":false},{"id":24153,"adult":false},{"id":222355,"adult":false},{"id":362750,"adult":false},{"id":296752,"adult":false},{"id":12578,"adult":false},{"id":362751,"adult":true},{"id":362752,"adult":null},{"id":362753,"adult":false},{"id":362754,"adult":false},{"id":106136,"adult":false},{"id":356665,"adult":null},{"id":138697,"adult":false},{"id":192141,"adult":false},{"id":362755,"adult":false},{"id":20443,"adult":false},{"id":11830,"adult":false},{"id":36867,"adult":false},{"id":362756,"adult":false},{"id":60236,"adult":false},{"id":27245,"adult":false},{"id":362757,"adult":false},{"id":58233,"adult":false},{"id":9486,"adult":false},{"id":353463,"adult":false},{"id":9366,"adult":false},{"id":362758,"adult":false},{"id":791,"adult":false},{"id":82147,"adult":false},{"id":88751,"adult":false},{"id":48819,"adult":false},{"id":185025,"adult":false},{"id":93230,"adult":false},{"id":216015,"adult":false},{"id":72545,"adult":false},{"id":18176,"adult":false},{"id":362759,"adult":false},{"id":10066,"adult":false},{"id":46075,"adult":false},{"id":362760,"adult":false},{"id":17086,"adult":false},{"id":19482,"adult":false},{"id":141,"adult":false},{"id":227651,"adult":false},{"id":129139,"adult":false},{"id":361043,"adult":false},{"id":358916,"adult":false},{"id":59034,"adult":false},{"id":298653,"adult":false},{"id":24803,"adult":false},{"id":193612,"adult":false},{"id":42171,"adult":false},{"id":275060,"adult":false},{"id":10161,"adult":false},{"id":208134,"adult":false},{"id":199556,"adult":false},{"id":8247,"adult":false},{"id":32584,"adult":false},{"id":160068,"adult":false},{"id":10488,"adult":false},{"id":169881,"adult":false},{"id":197101,"adult":false},{"id":122906,"adult":false},{"id":13460,"adult":false},{"id":103958,"adult":false},{"id":77948,"adult":false},{"id":76757,"adult":false},{"id":36912,"adult":false},{"id":362761,"adult":false},{"id":193613,"adult":false},{"id":246713,"adult":false},{"id":64565,"adult":false},{"id":203154,"adult":false},{"id":329,"adult":false},{"id":673,"adult":false}],"page":41,"total_pages":108,"total_results":10774}