{"results":[{"id":367174,"adult":false},{"id":267057,"adult":false},{"id":12837,"adult":false},{"id":67767,"adult":false},{"id":362719,"adult":null},{"id":368625,"adult":null},{"id":368654,"adult":false},{"id":671,"adult":false},{"id":3542,"adult":false},{"id":129635,"adult":false},{"id":820,"adult":false},{"id":285061,"adult":false},{"id":368655,"adult":false},{"id":672,"adult":false},{"id":6914,"adult":false},{"id":274854,"adult":false},{"id":1246,"adult":false},{"id":9626,"adult":false},{"id":673,"adult":false},{"id":24395,"adult":false},{"id":10592,"adult":false},{"id":15237,"adult":false},{"id":48408,"adult":false},{"id":368656,"adult":false},{"id":14594,"adult":false},{"id":320039,"adult":false},{"id":268718,"adult":false},{"id":674,"adult":false},{"id":239690,"adult":false},{"id":43523,"adult":false},{"id":202198,"adult":false},{"id":170729,"adult":false},{"id":84324,"adult":false},{"id":43824,"adult":false},{"id":16561,"adult":false},{"id":36362,"adult":false},{"id":14241,"adult":false},{"id":9407,"adult":false},{"id":47869,"adult":false},{"id":14171,"adult":false},{"id":32058,"adult":false},{"id":14838,"adult":false},{"id":23718,"adult":false},{"id":11573,"adult":false},{"id":72997,"adult":false},{"id":52949,"adult":false},{"id":111302,"adult":false},{"id":290803,"adult":false},{"id":46119,"adult":false},{"id":368657,"adult":false},{"id":83723,"adult":false},{"id":67659,"adult":false},{"id":40953,"adult":false},{"id":118131,"adult":false},{"id":44857,"adult":false},{"id":26425,"adult":false},{"id":172097,"adult":false},{"id":331464,"adult":false},{"id":55058,"adult":false},{"id":95683,"adult":false},{"id":321697,"adult":false},{"id":122845,"adult":false},{"id":675,"adult":false},{"id":114872,"adult":false},{"id":79959,"adult":false},{"id":206375,"adult":false},{"id":242963,"adult":false},{"id":159845,"adult":false},{"id":133482,"adult":false},{"id":767,"adult":false},{"id":214962,"adult":false},{"id":166560,"adult":false},{"id":59167,"adult":false},{"id":328425,"adult":false},{"id":107779,"adult":false},{"id":12444,"adult":false},{"id":42811,"adult":false},{"id":12445,"adult":false},{"id":37691,"adult":false},{"id":353267,"adult":false},{"id":368658,"adult":false},{"id":44587,"adult":false},{"id":18513,"adult":false},{"id":190227,"adult":false},{"id":198204,"adult":false},{"id":31678,"adult":false},{"id":214210,"adult":false},{"id":72856,"adult":false},{"id":258034,"adult":false},{"id":65203,"adult":false},{"id":41638,"adult":false},{"id":13549,"adult":false},{"id":1816,"adult":false},{"id":47817,"adult":false},{"id":148866,"adult":false},{"id":36147,"adult":false},{"id":50610,"adult":false},{"id":142046,"adult":false},{"id":190346,"adult":false},{"id":146800,"adult":false}],"page":1,"total_pages":101,"total_results":10039}