{"results":[{"id":364814,"adult":false},{"id":316300,"adult":false},{"id":365185,"adult":false},{"id":363683,"adult":false},{"id":121,"adult":false},{"id":370740,"adult":false},{"id":104308,"adult":false},{"id":370741,"adult":false},{"id":359056,"adult":false},{"id":370742,"adult":null},{"id":10952,"adult":false},{"id":52688,"adult":false},{"id":37433,"adult":false},{"id":370743,"adult":null},{"id":365762,"adult":false},{"id":367852,"adult":false},{"id":9624,"adult":false},{"id":329833,"adult":false},{"id":370745,"adult":false},{"id":346927,"adult":false},{"id":266000,"adult":false},{"id":370746,"adult":null},{"id":177699,"adult":false},{"id":46835,"adult":false},{"id":2976,"adult":false},{"id":142322,"adult":false},{"id":309809,"adult":false},{"id":370747,"adult":null},{"id":370748,"adult":false},{"id":1427,"adult":false},{"id":32998,"adult":false},{"id":39895,"adult":false},{"id":25793,"adult":false},{"id":370749,"adult":null},{"id":346224,"adult":false},{"id":370752,"adult":null},{"id":17703,"adult":false},{"id":274982,"adult":false},{"id":245706,"adult":false},{"id":370753,"adult":false},{"id":343668,"adult":false},{"id":370754,"adult":false},{"id":46757,"adult":false},{"id":370755,"adult":false},{"id":137698,"adult":false},{"id":370756,"adult":false},{"id":285792,"adult":null},{"id":369820,"adult":false},{"id":325419,"adult":false},{"id":370757,"adult":false},{"id":314220,"adult":false},{"id":217412,"adult":false},{"id":63831,"adult":false},{"id":264746,"adult":false},{"id":9870,"adult":false},{"id":6106,"adult":false},{"id":4176,"adult":false},{"id":252067,"adult":false},{"id":370758,"adult":false},{"id":200085,"adult":false},{"id":79042,"adult":false},{"id":214074,"adult":false},{"id":370759,"adult":false},{"id":370760,"adult":false},{"id":11775,"adult":false},{"id":297188,"adult":false},{"id":197950,"adult":false},{"id":370761,"adult":false},{"id":15263,"adult":false},{"id":4823,"adult":false},{"id":329910,"adult":null},{"id":370762,"adult":false},{"id":251,"adult":false},{"id":214030,"adult":false},{"id":370763,"adult":false},{"id":338,"adult":false},{"id":801,"adult":false},{"id":36143,"adult":false},{"id":621,"adult":false},{"id":134264,"adult":false},{"id":9740,"adult":false},{"id":8009,"adult":false},{"id":370764,"adult":false},{"id":11450,"adult":false},{"id":11474,"adult":false},{"id":370765,"adult":false},{"id":9869,"adult":false},{"id":838,"adult":false},{"id":370766,"adult":null},{"id":2322,"adult":false},{"id":366315,"adult":false},{"id":15301,"adult":false},{"id":595,"adult":false},{"id":59468,"adult":false},{"id":370767,"adult":false},{"id":873,"adult":false},{"id":315129,"adult":false},{"id":370768,"adult":false},{"id":12584,"adult":false},{"id":37199,"adult":false}],"page":7,"total_pages":97,"total_results":9613}