{"results":[{"id":47580,"adult":false},{"id":1088,"adult":false},{"id":51486,"adult":false},{"id":128642,"adult":false},{"id":17130,"adult":false},{"id":41282,"adult":false},{"id":19952,"adult":false},{"id":257375,"adult":false},{"id":15278,"adult":false},{"id":24065,"adult":false},{"id":144678,"adult":false},{"id":191148,"adult":null},{"id":50621,"adult":false},{"id":36108,"adult":false},{"id":196595,"adult":false},{"id":277821,"adult":false},{"id":10944,"adult":false},{"id":13787,"adult":false},{"id":36758,"adult":false},{"id":713,"adult":false},{"id":2891,"adult":false},{"id":65015,"adult":false},{"id":148144,"adult":false},{"id":27367,"adult":false},{"id":282977,"adult":false},{"id":65203,"adult":false},{"id":144717,"adult":false},{"id":196598,"adult":false},{"id":291083,"adult":false},{"id":80091,"adult":false},{"id":49975,"adult":false},{"id":40573,"adult":false},{"id":157306,"adult":false},{"id":80158,"adult":false},{"id":298551,"adult":false},{"id":66117,"adult":false},{"id":123839,"adult":false},{"id":65692,"adult":false},{"id":182651,"adult":false},{"id":80094,"adult":false},{"id":80080,"adult":false},{"id":46919,"adult":false},{"id":106124,"adult":false},{"id":171295,"adult":false},{"id":154375,"adult":false},{"id":157360,"adult":false},{"id":130750,"adult":false},{"id":14904,"adult":false},{"id":159034,"adult":false},{"id":285192,"adult":false},{"id":145410,"adult":false},{"id":110687,"adult":false},{"id":64586,"adult":false},{"id":47655,"adult":false},{"id":75469,"adult":false},{"id":119976,"adult":false},{"id":324490,"adult":false},{"id":120035,"adult":false},{"id":326837,"adult":false},{"id":120015,"adult":false},{"id":326838,"adult":false},{"id":73133,"adult":false},{"id":115166,"adult":false},{"id":326839,"adult":false},{"id":120018,"adult":false},{"id":86723,"adult":false},{"id":36826,"adult":false},{"id":326840,"adult":false},{"id":11879,"adult":false},{"id":9491,"adult":false},{"id":1089,"adult":false},{"id":184020,"adult":false},{"id":326841,"adult":false},{"id":155953,"adult":false},{"id":160041,"adult":false},{"id":58376,"adult":false},{"id":203139,"adult":false},{"id":240809,"adult":false},{"id":219173,"adult":false},{"id":287482,"adult":false},{"id":52903,"adult":false},{"id":81466,"adult":false},{"id":55913,"adult":false},{"id":166414,"adult":false},{"id":28067,"adult":false},{"id":293302,"adult":false},{"id":98487,"adult":false},{"id":142751,"adult":false},{"id":278703,"adult":false},{"id":70859,"adult":false},{"id":13526,"adult":false},{"id":8665,"adult":false},{"id":48865,"adult":false},{"id":12550,"adult":false},{"id":12162,"adult":false},{"id":97630,"adult":false},{"id":309543,"adult":null},{"id":316002,"adult":false},{"id":130993,"adult":false},{"id":159137,"adult":false}],"page":66,"total_pages":112,"total_results":11193}