{"results":[{"id":317299,"adult":false},{"id":104241,"adult":false},{"id":58423,"adult":null},{"id":5255,"adult":false},{"id":245972,"adult":false},{"id":247731,"adult":false},{"id":296225,"adult":false},{"id":9282,"adult":false},{"id":321013,"adult":false},{"id":30298,"adult":false},{"id":299207,"adult":false},{"id":9381,"adult":false},{"id":9490,"adult":false},{"id":242352,"adult":true},{"id":321014,"adult":false},{"id":46512,"adult":false},{"id":27352,"adult":false},{"id":10313,"adult":false},{"id":290060,"adult":false},{"id":118497,"adult":false},{"id":148758,"adult":false},{"id":125392,"adult":false},{"id":7249,"adult":false},{"id":12889,"adult":false},{"id":671,"adult":false},{"id":41066,"adult":false},{"id":171813,"adult":false},{"id":432,"adult":false},{"id":91697,"adult":false},{"id":94899,"adult":false},{"id":294008,"adult":false},{"id":70511,"adult":false},{"id":124825,"adult":false},{"id":160411,"adult":true},{"id":165131,"adult":true},{"id":2248,"adult":false},{"id":298609,"adult":false},{"id":195269,"adult":false},{"id":221622,"adult":false},{"id":15379,"adult":false},{"id":12764,"adult":false},{"id":89188,"adult":false},{"id":43063,"adult":false},{"id":321015,"adult":false},{"id":10919,"adult":false},{"id":168545,"adult":false},{"id":10423,"adult":false},{"id":87228,"adult":false},{"id":201061,"adult":false},{"id":223564,"adult":false},{"id":8843,"adult":false},{"id":143757,"adult":false},{"id":288280,"adult":false},{"id":52760,"adult":false},{"id":9877,"adult":false},{"id":159613,"adult":false},{"id":9436,"adult":false},{"id":9456,"adult":false},{"id":89475,"adult":false},{"id":166378,"adult":false},{"id":101471,"adult":false},{"id":115225,"adult":false},{"id":230161,"adult":false},{"id":321016,"adult":false},{"id":141290,"adult":false},{"id":138908,"adult":false},{"id":136795,"adult":false},{"id":239430,"adult":false},{"id":245713,"adult":null},{"id":245326,"adult":false},{"id":96623,"adult":false},{"id":118657,"adult":false},{"id":178106,"adult":false},{"id":155474,"adult":false},{"id":244500,"adult":false},{"id":235480,"adult":false},{"id":164394,"adult":true},{"id":165369,"adult":false},{"id":259363,"adult":false},{"id":305615,"adult":false},{"id":146136,"adult":false},{"id":10975,"adult":false},{"id":74261,"adult":false},{"id":12782,"adult":false},{"id":87805,"adult":false},{"id":144200,"adult":false},{"id":22586,"adult":false},{"id":141102,"adult":false},{"id":254263,"adult":false},{"id":166844,"adult":false},{"id":49953,"adult":false},{"id":97459,"adult":false},{"id":91430,"adult":false},{"id":52984,"adult":false},{"id":8050,"adult":false},{"id":108125,"adult":false},{"id":96677,"adult":false},{"id":105764,"adult":false},{"id":179892,"adult":false},{"id":122198,"adult":false}],"page":95,"total_pages":120,"total_results":11995}