{"results":[{"id":148652,"adult":false},{"id":24476,"adult":false},{"id":148093,"adult":false},{"id":351917,"adult":false},{"id":344200,"adult":false},{"id":3167,"adult":false},{"id":46976,"adult":false},{"id":129333,"adult":false},{"id":351918,"adult":false},{"id":115436,"adult":false},{"id":351919,"adult":false},{"id":351920,"adult":false},{"id":194951,"adult":false},{"id":323370,"adult":false},{"id":93418,"adult":false},{"id":296917,"adult":false},{"id":103322,"adult":false},{"id":351921,"adult":false},{"id":161767,"adult":null},{"id":244536,"adult":false},{"id":351922,"adult":false},{"id":196446,"adult":false},{"id":2048,"adult":false},{"id":10699,"adult":false},{"id":114155,"adult":false},{"id":46436,"adult":false},{"id":63046,"adult":false},{"id":9392,"adult":false},{"id":23429,"adult":false},{"id":10134,"adult":false},{"id":137475,"adult":false}],"page":103,"total_pages":103,"total_results":10231}