{"results":[{"id":239523,"adult":false},{"id":360352,"adult":false},{"id":256886,"adult":false},{"id":9626,"adult":false},{"id":229756,"adult":false},{"id":271948,"adult":false},{"id":167420,"adult":false},{"id":218,"adult":false},{"id":115646,"adult":false},{"id":360353,"adult":false},{"id":25430,"adult":false},{"id":9610,"adult":false},{"id":151826,"adult":false},{"id":9387,"adult":false},{"id":200654,"adult":false},{"id":176086,"adult":false},{"id":29880,"adult":false},{"id":108348,"adult":false},{"id":118889,"adult":false},{"id":163907,"adult":false},{"id":51568,"adult":false},{"id":23050,"adult":false},{"id":37698,"adult":false},{"id":61645,"adult":false},{"id":360354,"adult":false},{"id":360355,"adult":false},{"id":348443,"adult":false},{"id":339427,"adult":false},{"id":346910,"adult":false},{"id":12140,"adult":false},{"id":199420,"adult":false},{"id":9494,"adult":false},{"id":128914,"adult":false},{"id":72358,"adult":false},{"id":360356,"adult":false},{"id":262183,"adult":false},{"id":355649,"adult":false},{"id":355425,"adult":false},{"id":11353,"adult":false},{"id":213746,"adult":false},{"id":355422,"adult":false},{"id":1621,"adult":false},{"id":355650,"adult":false},{"id":90,"adult":false},{"id":360357,"adult":false},{"id":96,"adult":false},{"id":66824,"adult":false},{"id":280180,"adult":false},{"id":360358,"adult":false},{"id":306,"adult":false},{"id":360359,"adult":false},{"id":10136,"adult":false},{"id":155,"adult":false},{"id":276839,"adult":false},{"id":145278,"adult":false},{"id":360360,"adult":false},{"id":10708,"adult":false},{"id":355401,"adult":false},{"id":231819,"adult":false},{"id":360361,"adult":false},{"id":10120,"adult":false},{"id":324820,"adult":false},{"id":283839,"adult":false},{"id":210185,"adult":false},{"id":244581,"adult":false},{"id":360362,"adult":null},{"id":53023,"adult":false},{"id":355423,"adult":false},{"id":44249,"adult":false},{"id":30240,"adult":false},{"id":24674,"adult":false},{"id":18223,"adult":false},{"id":41922,"adult":false},{"id":326922,"adult":false},{"id":360363,"adult":false},{"id":3033,"adult":false},{"id":3152,"adult":false},{"id":360364,"adult":false},{"id":108386,"adult":false},{"id":26987,"adult":false},{"id":73614,"adult":false},{"id":146243,"adult":false},{"id":164251,"adult":false},{"id":128645,"adult":false},{"id":47619,"adult":false},{"id":73252,"adult":false},{"id":254023,"adult":false},{"id":21950,"adult":false},{"id":21922,"adult":false},{"id":346723,"adult":false},{"id":234212,"adult":false},{"id":358883,"adult":false},{"id":262789,"adult":false},{"id":356777,"adult":false},{"id":121691,"adult":false},{"id":51821,"adult":false},{"id":2048,"adult":false},{"id":324480,"adult":false},{"id":602,"adult":false},{"id":42192,"adult":false}],"page":28,"total_pages":98,"total_results":9775}