{"results":[{"id":9574,"adult":false},{"id":9457,"adult":false},{"id":2277,"adult":false},{"id":10628,"adult":false},{"id":27326,"adult":false},{"id":1979,"adult":false},{"id":4513,"adult":false},{"id":8247,"adult":false},{"id":297189,"adult":false},{"id":2454,"adult":false},{"id":10200,"adult":false},{"id":7980,"adult":false},{"id":252838,"adult":false},{"id":9896,"adult":false},{"id":19,"adult":false},{"id":244264,"adult":false},{"id":144920,"adult":false},{"id":11557,"adult":false},{"id":338268,"adult":false},{"id":338269,"adult":false},{"id":338270,"adult":false},{"id":18176,"adult":false},{"id":112999,"adult":false},{"id":337914,"adult":false},{"id":338271,"adult":false},{"id":9737,"adult":false},{"id":336214,"adult":false},{"id":15900,"adult":false},{"id":158015,"adult":false},{"id":338272,"adult":false},{"id":60898,"adult":false},{"id":290131,"adult":false},{"id":338273,"adult":false},{"id":284301,"adult":false},{"id":338274,"adult":false},{"id":338275,"adult":false},{"id":281180,"adult":false},{"id":15901,"adult":false},{"id":15278,"adult":false},{"id":197,"adult":false},{"id":194843,"adult":false},{"id":338276,"adult":false},{"id":338277,"adult":false},{"id":338278,"adult":false},{"id":323618,"adult":false},{"id":338279,"adult":null},{"id":235470,"adult":false},{"id":15902,"adult":false},{"id":314987,"adult":false},{"id":338280,"adult":false},{"id":232726,"adult":false},{"id":278310,"adult":false},{"id":338281,"adult":false},{"id":14664,"adult":false},{"id":920,"adult":false},{"id":338282,"adult":false},{"id":9605,"adult":false},{"id":300424,"adult":false},{"id":68737,"adult":false},{"id":262500,"adult":false},{"id":336377,"adult":null},{"id":330900,"adult":false},{"id":11674,"adult":false},{"id":79579,"adult":false},{"id":33539,"adult":false},{"id":814,"adult":false},{"id":23903,"adult":false},{"id":60897,"adult":false},{"id":72972,"adult":false},{"id":81003,"adult":false},{"id":12244,"adult":false},{"id":45772,"adult":false},{"id":57089,"adult":false},{"id":7516,"adult":false},{"id":118612,"adult":false},{"id":335844,"adult":false},{"id":21683,"adult":false},{"id":12902,"adult":false},{"id":30074,"adult":false},{"id":21956,"adult":false},{"id":20558,"adult":false},{"id":16390,"adult":false},{"id":338283,"adult":false},{"id":24615,"adult":false},{"id":60293,"adult":false},{"id":13354,"adult":false},{"id":279873,"adult":false},{"id":13640,"adult":false},{"id":9956,"adult":false},{"id":12903,"adult":false},{"id":134623,"adult":false},{"id":245881,"adult":false},{"id":151535,"adult":false},{"id":286387,"adult":false},{"id":314387,"adult":false},{"id":287233,"adult":false},{"id":10957,"adult":false},{"id":269149,"adult":false},{"id":322052,"adult":null},{"id":327225,"adult":false}],"page":13,"total_pages":106,"total_results":10547}