{"results":[{"id":49399,"adult":false},{"id":105877,"adult":false},{"id":49026,"adult":false},{"id":11209,"adult":false},{"id":245695,"adult":false},{"id":68736,"adult":false},{"id":258030,"adult":false},{"id":46883,"adult":false},{"id":55934,"adult":false},{"id":57503,"adult":false},{"id":337548,"adult":false},{"id":337549,"adult":false},{"id":337550,"adult":false},{"id":12178,"adult":false},{"id":277662,"adult":false},{"id":337551,"adult":false},{"id":284354,"adult":false},{"id":133565,"adult":false},{"id":77076,"adult":false},{"id":29380,"adult":false},{"id":247620,"adult":false},{"id":37724,"adult":false},{"id":16559,"adult":false},{"id":133566,"adult":false},{"id":38033,"adult":false},{"id":133567,"adult":false},{"id":43546,"adult":false},{"id":61562,"adult":false},{"id":337552,"adult":false},{"id":145132,"adult":false},{"id":43884,"adult":false},{"id":1977,"adult":false},{"id":12717,"adult":false},{"id":19123,"adult":false},{"id":13669,"adult":false},{"id":60539,"adult":false},{"id":168210,"adult":false},{"id":120478,"adult":false},{"id":28978,"adult":false},{"id":34145,"adult":false},{"id":1673,"adult":false},{"id":14745,"adult":false},{"id":298864,"adult":false},{"id":10280,"adult":false},{"id":337553,"adult":false},{"id":9599,"adult":false},{"id":14980,"adult":false},{"id":10012,"adult":false},{"id":101725,"adult":false},{"id":135219,"adult":false},{"id":14836,"adult":false},{"id":17,"adult":false},{"id":37534,"adult":false},{"id":299702,"adult":false},{"id":54700,"adult":false},{"id":794,"adult":false},{"id":10766,"adult":false},{"id":10768,"adult":false},{"id":8984,"adult":false},{"id":11015,"adult":false},{"id":29426,"adult":false},{"id":197255,"adult":false},{"id":66182,"adult":false},{"id":337554,"adult":false},{"id":11082,"adult":false},{"id":22072,"adult":false},{"id":9479,"adult":false},{"id":31013,"adult":false},{"id":337555,"adult":false},{"id":20432,"adult":false},{"id":10315,"adult":false},{"id":17577,"adult":false},{"id":30926,"adult":false},{"id":50671,"adult":false},{"id":14557,"adult":false},{"id":24648,"adult":false},{"id":12149,"adult":false},{"id":11152,"adult":false},{"id":12212,"adult":false},{"id":10292,"adult":false},{"id":73588,"adult":false},{"id":20410,"adult":false},{"id":10790,"adult":false},{"id":12096,"adult":false},{"id":25754,"adult":false},{"id":127594,"adult":false},{"id":171764,"adult":false},{"id":328976,"adult":false},{"id":563,"adult":false},{"id":43931,"adult":false},{"id":135130,"adult":false},{"id":15495,"adult":false},{"id":58428,"adult":false},{"id":581,"adult":false},{"id":241912,"adult":false},{"id":337556,"adult":false},{"id":202549,"adult":false},{"id":200845,"adult":false},{"id":175774,"adult":false},{"id":337557,"adult":null}],"page":90,"total_pages":102,"total_results":10168}