{"results":[{"id":71172,"adult":false},{"id":10093,"adult":false},{"id":331100,"adult":false},{"id":283708,"adult":false},{"id":18966,"adult":false},{"id":19064,"adult":false},{"id":116269,"adult":false},{"id":323967,"adult":false},{"id":297291,"adult":false},{"id":232175,"adult":false},{"id":274820,"adult":false},{"id":15005,"adult":false},{"id":15319,"adult":false},{"id":44629,"adult":false},{"id":78044,"adult":false},{"id":330521,"adult":null},{"id":330520,"adult":null},{"id":330519,"adult":null},{"id":330518,"adult":null},{"id":261278,"adult":false},{"id":330517,"adult":null},{"id":330516,"adult":null},{"id":330514,"adult":null},{"id":21630,"adult":false},{"id":24985,"adult":false},{"id":331101,"adult":null},{"id":330359,"adult":null},{"id":330357,"adult":null},{"id":330353,"adult":null},{"id":13989,"adult":false},{"id":260100,"adult":false},{"id":330126,"adult":false},{"id":331102,"adult":false},{"id":331103,"adult":false},{"id":11898,"adult":false},{"id":14475,"adult":false},{"id":60422,"adult":false},{"id":22211,"adult":false},{"id":151882,"adult":false},{"id":29473,"adult":false},{"id":315148,"adult":false},{"id":254578,"adult":false},{"id":32513,"adult":false},{"id":13633,"adult":false},{"id":331104,"adult":false},{"id":331105,"adult":false},{"id":166452,"adult":false},{"id":331106,"adult":false},{"id":331107,"adult":false},{"id":331108,"adult":false},{"id":181283,"adult":false},{"id":331109,"adult":null},{"id":331110,"adult":false},{"id":329793,"adult":null},{"id":4140,"adult":false},{"id":254023,"adult":false},{"id":272691,"adult":false},{"id":331111,"adult":null},{"id":298581,"adult":false},{"id":328587,"adult":false},{"id":264999,"adult":false},{"id":271674,"adult":false},{"id":306482,"adult":false},{"id":49754,"adult":false},{"id":128207,"adult":false},{"id":10079,"adult":false},{"id":220240,"adult":false},{"id":206126,"adult":false},{"id":14976,"adult":false},{"id":212751,"adult":false},{"id":331112,"adult":false},{"id":93088,"adult":false},{"id":322456,"adult":false},{"id":179614,"adult":false},{"id":265194,"adult":false},{"id":9952,"adult":false},{"id":146010,"adult":false},{"id":331113,"adult":false},{"id":6917,"adult":false},{"id":43409,"adult":false},{"id":112659,"adult":false},{"id":331114,"adult":false},{"id":270886,"adult":false},{"id":228968,"adult":false},{"id":268238,"adult":false},{"id":331115,"adult":false},{"id":138376,"adult":false},{"id":11349,"adult":false},{"id":52077,"adult":false},{"id":227325,"adult":false},{"id":331116,"adult":false},{"id":14052,"adult":false},{"id":150117,"adult":false},{"id":36239,"adult":false},{"id":9346,"adult":false},{"id":10288,"adult":false},{"id":252822,"adult":false},{"id":249021,"adult":false},{"id":305141,"adult":false},{"id":269650,"adult":false}],"page":20,"total_pages":129,"total_results":12871}