{"results":[{"id":210079,"adult":false},{"id":354207,"adult":false},{"id":14821,"adult":false},{"id":19114,"adult":false},{"id":354208,"adult":false},{"id":15347,"adult":false},{"id":17143,"adult":false},{"id":354209,"adult":false},{"id":124349,"adult":false},{"id":15603,"adult":false},{"id":228820,"adult":false},{"id":354210,"adult":false},{"id":41801,"adult":false},{"id":284284,"adult":false},{"id":60477,"adult":false},{"id":354211,"adult":false},{"id":114750,"adult":false},{"id":177559,"adult":false},{"id":321668,"adult":false},{"id":354212,"adult":false},{"id":307144,"adult":false},{"id":21997,"adult":false},{"id":4839,"adult":false},{"id":354214,"adult":false},{"id":120319,"adult":false},{"id":258655,"adult":false},{"id":354215,"adult":false},{"id":9671,"adult":false},{"id":81,"adult":false},{"id":52153,"adult":false},{"id":354216,"adult":false},{"id":11223,"adult":false},{"id":20919,"adult":false},{"id":354217,"adult":false},{"id":35564,"adult":false},{"id":46420,"adult":false},{"id":12477,"adult":false},{"id":10030,"adult":false},{"id":9846,"adult":false},{"id":115046,"adult":false},{"id":11005,"adult":false},{"id":13223,"adult":false},{"id":354218,"adult":false},{"id":20334,"adult":false},{"id":20210,"adult":false},{"id":11548,"adult":false},{"id":11703,"adult":false},{"id":12498,"adult":false},{"id":334394,"adult":false},{"id":1730,"adult":false},{"id":10873,"adult":false},{"id":36685,"adult":false},{"id":31509,"adult":false},{"id":258008,"adult":false},{"id":354219,"adult":false},{"id":354220,"adult":false},{"id":28420,"adult":false},{"id":39434,"adult":false},{"id":10427,"adult":false},{"id":29514,"adult":false},{"id":354221,"adult":false},{"id":14943,"adult":false},{"id":72687,"adult":false},{"id":92341,"adult":false},{"id":86469,"adult":false},{"id":14016,"adult":false},{"id":218212,"adult":false},{"id":25536,"adult":false},{"id":45871,"adult":false},{"id":354222,"adult":false},{"id":242828,"adult":false},{"id":25664,"adult":false},{"id":319622,"adult":false},{"id":333639,"adult":false},{"id":60282,"adult":false},{"id":12543,"adult":false},{"id":354223,"adult":false},{"id":45464,"adult":false},{"id":354224,"adult":false},{"id":354225,"adult":true},{"id":354226,"adult":false},{"id":354227,"adult":false},{"id":354228,"adult":null},{"id":354229,"adult":false},{"id":354230,"adult":false},{"id":110560,"adult":false},{"id":38305,"adult":false},{"id":81703,"adult":false},{"id":69454,"adult":false},{"id":2696,"adult":false},{"id":191421,"adult":false},{"id":234212,"adult":false},{"id":43088,"adult":false},{"id":354231,"adult":false},{"id":110629,"adult":false},{"id":244117,"adult":false},{"id":277617,"adult":false},{"id":111125,"adult":false},{"id":260678,"adult":false},{"id":314129,"adult":false}],"page":81,"total_pages":89,"total_results":8876}