{"results":[{"id":360711,"adult":false},{"id":613,"adult":false},{"id":562,"adult":false},{"id":1573,"adult":false},{"id":359271,"adult":false},{"id":310849,"adult":false},{"id":1572,"adult":false},{"id":19978,"adult":false},{"id":338947,"adult":false},{"id":360208,"adult":null},{"id":68718,"adult":false},{"id":330414,"adult":false},{"id":8840,"adult":false},{"id":263471,"adult":false},{"id":373102,"adult":false},{"id":3522,"adult":false},{"id":64690,"adult":false},{"id":100042,"adult":false},{"id":369315,"adult":false},{"id":137113,"adult":false},{"id":156022,"adult":false},{"id":107846,"adult":false},{"id":120475,"adult":false},{"id":360998,"adult":false},{"id":453,"adult":false},{"id":28761,"adult":false},{"id":160324,"adult":false},{"id":63673,"adult":false},{"id":168699,"adult":false},{"id":16969,"adult":false},{"id":68141,"adult":false},{"id":330420,"adult":false},{"id":369357,"adult":false},{"id":208036,"adult":false},{"id":209680,"adult":false},{"id":357563,"adult":false},{"id":353879,"adult":false},{"id":10388,"adult":false},{"id":131871,"adult":false},{"id":8094,"adult":false},{"id":169510,"adult":false},{"id":745,"adult":false},{"id":49047,"adult":false},{"id":373103,"adult":false},{"id":373104,"adult":false},{"id":371115,"adult":false},{"id":373105,"adult":false},{"id":143498,"adult":false},{"id":373106,"adult":true},{"id":78695,"adult":false},{"id":228066,"adult":false},{"id":373107,"adult":true},{"id":926,"adult":false},{"id":373108,"adult":false},{"id":68514,"adult":false},{"id":66983,"adult":false},{"id":199905,"adult":false},{"id":373109,"adult":false},{"id":31598,"adult":false},{"id":373110,"adult":false},{"id":366894,"adult":false},{"id":371438,"adult":null},{"id":373111,"adult":false},{"id":11067,"adult":false},{"id":2924,"adult":false},{"id":361131,"adult":false},{"id":8247,"adult":false},{"id":5503,"adult":false},{"id":373112,"adult":false},{"id":332706,"adult":false},{"id":346938,"adult":false},{"id":95658,"adult":false},{"id":35379,"adult":false},{"id":345317,"adult":false},{"id":343683,"adult":false},{"id":373113,"adult":false},{"id":343241,"adult":false},{"id":324809,"adult":false},{"id":331082,"adult":false},{"id":187563,"adult":false},{"id":51806,"adult":false},{"id":30142,"adult":false},{"id":132585,"adult":false},{"id":221519,"adult":false},{"id":332474,"adult":false},{"id":334625,"adult":false},{"id":331436,"adult":false},{"id":258967,"adult":false},{"id":295747,"adult":false},{"id":346683,"adult":false},{"id":95234,"adult":false},{"id":84084,"adult":false},{"id":373114,"adult":true},{"id":373115,"adult":false},{"id":344707,"adult":false},{"id":237741,"adult":false},{"id":166389,"adult":false},{"id":285,"adult":false},{"id":373116,"adult":true},{"id":2080,"adult":false}],"page":28,"total_pages":108,"total_results":10739}