{"results":[{"id":339992,"adult":false},{"id":332689,"adult":false},{"id":274855,"adult":false},{"id":178725,"adult":false},{"id":293070,"adult":false},{"id":295964,"adult":false},{"id":339993,"adult":false},{"id":220882,"adult":false},{"id":125177,"adult":false},{"id":339994,"adult":false},{"id":44163,"adult":false},{"id":70509,"adult":true},{"id":168885,"adult":false},{"id":8292,"adult":false},{"id":339995,"adult":false},{"id":339996,"adult":false},{"id":339997,"adult":false},{"id":43503,"adult":false},{"id":51996,"adult":false},{"id":1241,"adult":false},{"id":339998,"adult":false},{"id":339999,"adult":false},{"id":340000,"adult":false},{"id":340001,"adult":false},{"id":25462,"adult":false},{"id":104542,"adult":false},{"id":135663,"adult":false},{"id":66061,"adult":false},{"id":93905,"adult":false},{"id":340002,"adult":false},{"id":318912,"adult":false},{"id":191936,"adult":false},{"id":313252,"adult":null},{"id":180091,"adult":false},{"id":275845,"adult":null},{"id":312350,"adult":null},{"id":194601,"adult":false},{"id":174303,"adult":false},{"id":311369,"adult":null},{"id":20497,"adult":false},{"id":194604,"adult":false},{"id":162331,"adult":false},{"id":30183,"adult":false},{"id":194603,"adult":false},{"id":340003,"adult":false},{"id":39125,"adult":false},{"id":340004,"adult":false},{"id":98977,"adult":false},{"id":289394,"adult":false},{"id":340005,"adult":false},{"id":49522,"adult":false},{"id":340006,"adult":false},{"id":4461,"adult":false},{"id":45435,"adult":false},{"id":31334,"adult":false},{"id":1771,"adult":false},{"id":133919,"adult":false},{"id":10279,"adult":false},{"id":8841,"adult":false},{"id":1921,"adult":false},{"id":16899,"adult":false},{"id":3030,"adult":false},{"id":258514,"adult":false},{"id":32047,"adult":false},{"id":27578,"adult":false},{"id":138103,"adult":false},{"id":9738,"adult":false},{"id":45317,"adult":false},{"id":97434,"adult":false},{"id":28053,"adult":false},{"id":159344,"adult":false},{"id":136795,"adult":false},{"id":76493,"adult":false},{"id":89838,"adult":false},{"id":52377,"adult":false},{"id":279314,"adult":false},{"id":9746,"adult":false},{"id":340007,"adult":false},{"id":20766,"adult":false},{"id":328070,"adult":false},{"id":332272,"adult":null},{"id":340008,"adult":false},{"id":36492,"adult":false},{"id":296122,"adult":false},{"id":14676,"adult":false},{"id":172237,"adult":false},{"id":10596,"adult":false},{"id":12501,"adult":false},{"id":174322,"adult":false},{"id":175948,"adult":false},{"id":39067,"adult":false},{"id":1576,"adult":false},{"id":42785,"adult":false},{"id":62755,"adult":false},{"id":10741,"adult":false},{"id":60555,"adult":false},{"id":340010,"adult":null},{"id":11626,"adult":false},{"id":154270,"adult":false},{"id":40172,"adult":false}],"page":101,"total_pages":106,"total_results":10547}