{"results":[{"id":70600,"adult":true},{"id":60519,"adult":true},{"id":177637,"adult":true},{"id":76338,"adult":false},{"id":342528,"adult":false},{"id":564,"adult":false},{"id":9913,"adult":false},{"id":13935,"adult":false},{"id":360727,"adult":false},{"id":31214,"adult":false},{"id":272101,"adult":false},{"id":82675,"adult":false},{"id":360728,"adult":false},{"id":360729,"adult":false},{"id":45243,"adult":false},{"id":360730,"adult":false},{"id":260346,"adult":false},{"id":222050,"adult":false},{"id":360731,"adult":false},{"id":84021,"adult":false},{"id":34840,"adult":false},{"id":114002,"adult":false},{"id":360732,"adult":false},{"id":298,"adult":false},{"id":9877,"adult":false},{"id":360733,"adult":false},{"id":360734,"adult":false},{"id":11133,"adult":false},{"id":9738,"adult":false},{"id":1979,"adult":false},{"id":280762,"adult":false},{"id":85347,"adult":false},{"id":18239,"adult":false},{"id":24021,"adult":false},{"id":50619,"adult":false},{"id":50620,"adult":false},{"id":354074,"adult":false},{"id":360735,"adult":false},{"id":135,"adult":false},{"id":42523,"adult":false},{"id":356914,"adult":false},{"id":54630,"adult":false},{"id":31642,"adult":false},{"id":185158,"adult":false},{"id":155757,"adult":false},{"id":10669,"adult":false},{"id":114018,"adult":false},{"id":287524,"adult":false},{"id":331332,"adult":null},{"id":360736,"adult":null},{"id":57656,"adult":false},{"id":47270,"adult":false},{"id":87957,"adult":false},{"id":31355,"adult":false},{"id":182750,"adult":false},{"id":360737,"adult":false},{"id":23527,"adult":false},{"id":356147,"adult":false},{"id":41987,"adult":false},{"id":359732,"adult":false},{"id":46723,"adult":false},{"id":220202,"adult":false},{"id":275134,"adult":false},{"id":9378,"adult":false},{"id":63924,"adult":false},{"id":46841,"adult":false},{"id":33447,"adult":false},{"id":360738,"adult":false},{"id":52804,"adult":true},{"id":360739,"adult":false},{"id":334897,"adult":false},{"id":360740,"adult":null},{"id":256917,"adult":false},{"id":197244,"adult":false},{"id":338087,"adult":false},{"id":229173,"adult":false},{"id":317193,"adult":false},{"id":338088,"adult":false},{"id":75360,"adult":true},{"id":360741,"adult":false},{"id":2789,"adult":false},{"id":360742,"adult":false},{"id":360743,"adult":false},{"id":28272,"adult":false},{"id":9812,"adult":false},{"id":584,"adult":false},{"id":360744,"adult":false},{"id":323660,"adult":false},{"id":21967,"adult":false},{"id":9615,"adult":false},{"id":360746,"adult":false},{"id":360747,"adult":false},{"id":360748,"adult":false},{"id":360749,"adult":false},{"id":360750,"adult":false},{"id":360751,"adult":false},{"id":76176,"adult":false},{"id":360752,"adult":null},{"id":39060,"adult":false},{"id":360755,"adult":false}],"page":49,"total_pages":98,"total_results":9775}