{"results":[{"id":4234,"adult":false},{"id":316226,"adult":false},{"id":41446,"adult":false},{"id":40032,"adult":false},{"id":16132,"adult":false},{"id":175796,"adult":false},{"id":88945,"adult":false},{"id":351520,"adult":false},{"id":38651,"adult":false},{"id":49706,"adult":false},{"id":296137,"adult":false},{"id":18238,"adult":false},{"id":25377,"adult":false},{"id":351521,"adult":false},{"id":284164,"adult":false},{"id":58060,"adult":false},{"id":137871,"adult":false},{"id":85674,"adult":false},{"id":121901,"adult":false},{"id":118354,"adult":false},{"id":106902,"adult":false},{"id":87558,"adult":false},{"id":194765,"adult":false},{"id":351522,"adult":false},{"id":107122,"adult":false},{"id":131413,"adult":false},{"id":198908,"adult":false},{"id":110957,"adult":false},{"id":351523,"adult":false},{"id":230767,"adult":false},{"id":351524,"adult":false},{"id":71179,"adult":false},{"id":112587,"adult":false},{"id":64246,"adult":false},{"id":296159,"adult":false},{"id":273516,"adult":false},{"id":79249,"adult":false},{"id":351525,"adult":false},{"id":15667,"adult":false},{"id":95448,"adult":false},{"id":51281,"adult":false},{"id":351526,"adult":false},{"id":97618,"adult":false},{"id":60775,"adult":false},{"id":274439,"adult":false},{"id":96239,"adult":false},{"id":136616,"adult":false},{"id":290612,"adult":false},{"id":258152,"adult":false},{"id":236306,"adult":false},{"id":82980,"adult":false},{"id":351527,"adult":true},{"id":351528,"adult":false},{"id":266007,"adult":false},{"id":282994,"adult":false},{"id":351529,"adult":false},{"id":278042,"adult":false},{"id":109104,"adult":false},{"id":232144,"adult":false},{"id":148278,"adult":false},{"id":248099,"adult":false},{"id":351530,"adult":false},{"id":97560,"adult":false},{"id":194083,"adult":false},{"id":184940,"adult":false},{"id":247049,"adult":false},{"id":43672,"adult":false},{"id":351531,"adult":false},{"id":351532,"adult":false},{"id":301005,"adult":false},{"id":53916,"adult":false},{"id":351533,"adult":false},{"id":351534,"adult":false},{"id":351535,"adult":false},{"id":336930,"adult":false},{"id":351536,"adult":false},{"id":278225,"adult":false},{"id":351537,"adult":false},{"id":16916,"adult":false},{"id":297021,"adult":false},{"id":351538,"adult":false},{"id":152359,"adult":false},{"id":351539,"adult":false},{"id":122440,"adult":false},{"id":280194,"adult":false},{"id":17961,"adult":false},{"id":227895,"adult":false},{"id":53474,"adult":false},{"id":240190,"adult":null},{"id":35881,"adult":false},{"id":308174,"adult":false},{"id":317272,"adult":false},{"id":351540,"adult":false},{"id":351541,"adult":false},{"id":75720,"adult":false},{"id":351542,"adult":false},{"id":253835,"adult":false},{"id":351543,"adult":false},{"id":351544,"adult":false},{"id":73122,"adult":false}],"page":87,"total_pages":103,"total_results":10231}