{"results":[{"id":232018,"adult":false},{"id":33544,"adult":false},{"id":307578,"adult":false},{"id":48929,"adult":false},{"id":66564,"adult":false},{"id":345008,"adult":false},{"id":131242,"adult":false},{"id":345009,"adult":false},{"id":917,"adult":false},{"id":41053,"adult":false},{"id":164810,"adult":false},{"id":310840,"adult":false},{"id":11228,"adult":false},{"id":72576,"adult":false},{"id":110847,"adult":false},{"id":47853,"adult":false},{"id":54510,"adult":false},{"id":159439,"adult":false},{"id":300917,"adult":false},{"id":304217,"adult":false},{"id":109484,"adult":false},{"id":344437,"adult":null},{"id":114711,"adult":false},{"id":97326,"adult":false},{"id":110868,"adult":false},{"id":180617,"adult":false},{"id":143543,"adult":false},{"id":297727,"adult":false},{"id":171494,"adult":false},{"id":76682,"adult":false},{"id":80484,"adult":false},{"id":345010,"adult":false},{"id":627,"adult":false},{"id":345011,"adult":false},{"id":82243,"adult":false},{"id":337182,"adult":false},{"id":48922,"adult":false},{"id":121594,"adult":false},{"id":86130,"adult":false},{"id":198674,"adult":false},{"id":297898,"adult":false},{"id":306370,"adult":false},{"id":57563,"adult":false},{"id":20622,"adult":false},{"id":110846,"adult":false},{"id":190215,"adult":false},{"id":243826,"adult":false},{"id":96732,"adult":false},{"id":112053,"adult":false},{"id":210923,"adult":false},{"id":33103,"adult":false},{"id":101834,"adult":false},{"id":116854,"adult":false},{"id":345012,"adult":false},{"id":26237,"adult":false},{"id":103865,"adult":false},{"id":136216,"adult":false},{"id":264405,"adult":false},{"id":169567,"adult":false},{"id":35751,"adult":false},{"id":44420,"adult":false},{"id":60389,"adult":false},{"id":64864,"adult":false},{"id":103429,"adult":false},{"id":103236,"adult":false},{"id":103558,"adult":false},{"id":121129,"adult":false},{"id":180271,"adult":false},{"id":212048,"adult":false},{"id":47861,"adult":false},{"id":104722,"adult":false},{"id":12259,"adult":false},{"id":21459,"adult":false},{"id":71756,"adult":false},{"id":101747,"adult":false},{"id":103931,"adult":false},{"id":108377,"adult":false},{"id":117788,"adult":false},{"id":118347,"adult":false},{"id":285363,"adult":false},{"id":87697,"adult":false},{"id":96162,"adult":false},{"id":97335,"adult":false},{"id":108338,"adult":false},{"id":278577,"adult":false},{"id":38022,"adult":false},{"id":78819,"adult":false},{"id":96158,"adult":false},{"id":142139,"adult":false},{"id":144407,"adult":false},{"id":150731,"adult":false},{"id":299139,"adult":false},{"id":303966,"adult":false},{"id":33104,"adult":false},{"id":345013,"adult":false},{"id":45325,"adult":false},{"id":25059,"adult":false},{"id":343362,"adult":false},{"id":345014,"adult":false},{"id":63539,"adult":false}],"page":22,"total_pages":111,"total_results":11023}