{"results":[{"id":283121,"adult":false},{"id":106096,"adult":false},{"id":336829,"adult":false},{"id":127037,"adult":false},{"id":287037,"adult":false},{"id":179139,"adult":false},{"id":109678,"adult":false},{"id":156412,"adult":false},{"id":33787,"adult":false},{"id":336830,"adult":false},{"id":144973,"adult":false},{"id":129828,"adult":false},{"id":53178,"adult":false},{"id":54773,"adult":false},{"id":193653,"adult":false},{"id":264239,"adult":false},{"id":158820,"adult":false},{"id":284053,"adult":false},{"id":180534,"adult":false},{"id":284054,"adult":false},{"id":216482,"adult":false},{"id":228872,"adult":false},{"id":316813,"adult":false},{"id":246596,"adult":false},{"id":283995,"adult":false},{"id":267201,"adult":false},{"id":206074,"adult":false},{"id":336831,"adult":null},{"id":72394,"adult":false},{"id":269185,"adult":false},{"id":36564,"adult":false},{"id":25678,"adult":false},{"id":264290,"adult":false},{"id":336832,"adult":null},{"id":9770,"adult":false},{"id":336833,"adult":false},{"id":16998,"adult":false},{"id":25500,"adult":false},{"id":106098,"adult":false},{"id":46801,"adult":false},{"id":197531,"adult":false},{"id":163867,"adult":false},{"id":5922,"adult":false},{"id":109035,"adult":false},{"id":271054,"adult":false},{"id":33587,"adult":false},{"id":309742,"adult":false},{"id":54649,"adult":false},{"id":336834,"adult":false},{"id":10044,"adult":false},{"id":336835,"adult":false},{"id":336836,"adult":false},{"id":33603,"adult":false},{"id":29424,"adult":false},{"id":336837,"adult":false},{"id":336838,"adult":false},{"id":336839,"adult":false},{"id":269033,"adult":null},{"id":336840,"adult":false},{"id":242584,"adult":false},{"id":325293,"adult":false},{"id":269243,"adult":false},{"id":336841,"adult":false},{"id":336842,"adult":false},{"id":336843,"adult":false},{"id":38626,"adult":false},{"id":283782,"adult":false},{"id":336844,"adult":false},{"id":234136,"adult":false},{"id":288683,"adult":false},{"id":115738,"adult":false},{"id":56687,"adult":false},{"id":336845,"adult":false},{"id":225713,"adult":false},{"id":336846,"adult":false},{"id":336847,"adult":false},{"id":81515,"adult":false},{"id":203706,"adult":false},{"id":330319,"adult":false},{"id":2696,"adult":false},{"id":134752,"adult":false},{"id":110358,"adult":false},{"id":81661,"adult":false},{"id":46751,"adult":false},{"id":336848,"adult":false},{"id":148622,"adult":false},{"id":29450,"adult":false},{"id":63705,"adult":false},{"id":82737,"adult":false},{"id":336849,"adult":false},{"id":279171,"adult":false},{"id":12733,"adult":false},{"id":83081,"adult":false},{"id":64745,"adult":false},{"id":91422,"adult":false},{"id":336850,"adult":false},{"id":336851,"adult":null},{"id":48650,"adult":false},{"id":1778,"adult":false},{"id":336852,"adult":false}],"page":50,"total_pages":102,"total_results":10168}