{"results":[{"id":29263,"adult":false},{"id":81346,"adult":false},{"id":19214,"adult":false},{"id":4267,"adult":false},{"id":50838,"adult":false},{"id":42223,"adult":false},{"id":51488,"adult":false},{"id":323321,"adult":null},{"id":42238,"adult":false},{"id":15401,"adult":false},{"id":323322,"adult":false},{"id":267523,"adult":false},{"id":25355,"adult":false},{"id":105329,"adult":false},{"id":36682,"adult":false},{"id":61820,"adult":false},{"id":105332,"adult":false},{"id":15142,"adult":false},{"id":321409,"adult":false},{"id":199575,"adult":false},{"id":321445,"adult":false},{"id":323323,"adult":false},{"id":231154,"adult":false},{"id":321460,"adult":false},{"id":321424,"adult":false},{"id":321436,"adult":false},{"id":22805,"adult":false},{"id":7095,"adult":false},{"id":303810,"adult":false},{"id":321024,"adult":false},{"id":200112,"adult":false},{"id":323324,"adult":false},{"id":323325,"adult":false},{"id":18882,"adult":false},{"id":119961,"adult":false},{"id":105,"adult":false},{"id":165,"adult":false},{"id":26594,"adult":false},{"id":196,"adult":false},{"id":105331,"adult":false},{"id":105327,"adult":false},{"id":8867,"adult":false},{"id":56272,"adult":false},{"id":46401,"adult":false},{"id":9557,"adult":false},{"id":295250,"adult":false},{"id":86668,"adult":false},{"id":318043,"adult":false},{"id":62941,"adult":false},{"id":308167,"adult":false},{"id":175886,"adult":false},{"id":22059,"adult":false},{"id":31203,"adult":false},{"id":13056,"adult":false},{"id":106355,"adult":false},{"id":125253,"adult":false},{"id":185787,"adult":false},{"id":154399,"adult":false},{"id":272694,"adult":false},{"id":323326,"adult":false},{"id":126897,"adult":false},{"id":323327,"adult":false},{"id":49874,"adult":false},{"id":318057,"adult":false},{"id":603,"adult":false},{"id":323328,"adult":false},{"id":199933,"adult":false},{"id":104519,"adult":false},{"id":56780,"adult":false},{"id":323329,"adult":false},{"id":131271,"adult":false},{"id":134371,"adult":false},{"id":36843,"adult":false},{"id":323330,"adult":false},{"id":323331,"adult":false},{"id":323332,"adult":false},{"id":257200,"adult":false},{"id":286301,"adult":false},{"id":49295,"adult":false},{"id":292762,"adult":null},{"id":1686,"adult":false},{"id":323333,"adult":false},{"id":223632,"adult":false},{"id":567,"adult":false},{"id":323334,"adult":false},{"id":214074,"adult":false},{"id":108297,"adult":false},{"id":128767,"adult":false},{"id":323335,"adult":false},{"id":136190,"adult":false},{"id":323336,"adult":false},{"id":138103,"adult":false},{"id":189068,"adult":false},{"id":115721,"adult":false},{"id":38952,"adult":false},{"id":288281,"adult":false},{"id":323337,"adult":false},{"id":73,"adult":false},{"id":257374,"adult":false},{"id":237188,"adult":false}],"page":34,"total_pages":117,"total_results":11629}