{"results":[{"id":15284,"adult":false},{"id":16154,"adult":false},{"id":54433,"adult":false},{"id":59480,"adult":false},{"id":60159,"adult":false},{"id":228720,"adult":false},{"id":36154,"adult":false},{"id":287590,"adult":false},{"id":353810,"adult":false},{"id":11234,"adult":false},{"id":123678,"adult":false},{"id":353811,"adult":false},{"id":353812,"adult":false},{"id":353813,"adult":false},{"id":265289,"adult":false},{"id":282012,"adult":false},{"id":274586,"adult":false},{"id":334648,"adult":false},{"id":263185,"adult":false},{"id":34314,"adult":false},{"id":37030,"adult":false},{"id":3103,"adult":false},{"id":290752,"adult":false},{"id":10185,"adult":false},{"id":40251,"adult":false},{"id":1690,"adult":false},{"id":12212,"adult":false},{"id":353814,"adult":false},{"id":30793,"adult":false},{"id":261020,"adult":false},{"id":316061,"adult":false},{"id":64725,"adult":false},{"id":353815,"adult":false},{"id":300706,"adult":false},{"id":149159,"adult":false},{"id":13666,"adult":false},{"id":64679,"adult":false},{"id":353816,"adult":false},{"id":95775,"adult":false},{"id":56092,"adult":false},{"id":343249,"adult":false},{"id":38726,"adult":false},{"id":97697,"adult":false},{"id":43515,"adult":false},{"id":44829,"adult":false},{"id":353817,"adult":null},{"id":43514,"adult":false},{"id":38683,"adult":false},{"id":38697,"adult":false},{"id":13982,"adult":false},{"id":353818,"adult":null},{"id":133714,"adult":false},{"id":26639,"adult":false},{"id":287787,"adult":true},{"id":68823,"adult":false},{"id":113043,"adult":false},{"id":79139,"adult":false},{"id":29739,"adult":false},{"id":353820,"adult":false},{"id":353821,"adult":false},{"id":89450,"adult":false},{"id":70506,"adult":false},{"id":22747,"adult":false},{"id":353822,"adult":false},{"id":226365,"adult":false},{"id":15206,"adult":false},{"id":77631,"adult":false},{"id":353823,"adult":false},{"id":353824,"adult":false},{"id":353825,"adult":false},{"id":107311,"adult":false},{"id":37587,"adult":false},{"id":41827,"adult":false},{"id":353826,"adult":false},{"id":202322,"adult":null},{"id":353827,"adult":false},{"id":353828,"adult":false},{"id":44157,"adult":false},{"id":353829,"adult":false},{"id":353830,"adult":false},{"id":351059,"adult":false},{"id":353831,"adult":false},{"id":353832,"adult":false},{"id":353833,"adult":false},{"id":353834,"adult":false},{"id":353835,"adult":false},{"id":183361,"adult":false},{"id":11020,"adult":false},{"id":353836,"adult":false},{"id":353837,"adult":false},{"id":353838,"adult":false},{"id":76002,"adult":false},{"id":353839,"adult":false},{"id":325976,"adult":false},{"id":353840,"adult":false},{"id":323432,"adult":false},{"id":353841,"adult":false},{"id":353842,"adult":false},{"id":40993,"adult":false},{"id":353843,"adult":false}],"page":63,"total_pages":89,"total_results":8876}