{"results":[{"id":18080,"adult":false},{"id":21970,"adult":false},{"id":170033,"adult":false},{"id":34723,"adult":false},{"id":25445,"adult":false},{"id":367195,"adult":false},{"id":4587,"adult":false},{"id":81539,"adult":false},{"id":11158,"adult":false},{"id":58995,"adult":false},{"id":25943,"adult":false},{"id":15943,"adult":false},{"id":367196,"adult":false},{"id":37204,"adult":false},{"id":367197,"adult":false},{"id":367198,"adult":false},{"id":230352,"adult":false},{"id":361931,"adult":false},{"id":12484,"adult":false},{"id":347832,"adult":false},{"id":179510,"adult":null},{"id":367199,"adult":false},{"id":28302,"adult":false},{"id":275195,"adult":false},{"id":16304,"adult":false},{"id":2095,"adult":false},{"id":248653,"adult":false},{"id":8456,"adult":false},{"id":367200,"adult":null},{"id":367201,"adult":true},{"id":367202,"adult":false},{"id":96676,"adult":false},{"id":49642,"adult":false},{"id":197607,"adult":false},{"id":367203,"adult":false},{"id":73861,"adult":false},{"id":367204,"adult":false},{"id":367205,"adult":false},{"id":367206,"adult":false},{"id":58794,"adult":false},{"id":227257,"adult":false},{"id":367207,"adult":false},{"id":22825,"adult":false},{"id":367208,"adult":null},{"id":364443,"adult":false},{"id":367209,"adult":false},{"id":367210,"adult":false},{"id":6028,"adult":false},{"id":58879,"adult":false},{"id":253570,"adult":true},{"id":344854,"adult":false},{"id":165481,"adult":false},{"id":36691,"adult":false},{"id":200008,"adult":false},{"id":348140,"adult":false},{"id":4193,"adult":false},{"id":41474,"adult":false},{"id":41477,"adult":false},{"id":41482,"adult":false},{"id":41486,"adult":false},{"id":17810,"adult":false},{"id":363679,"adult":false},{"id":367211,"adult":false},{"id":19912,"adult":false},{"id":322508,"adult":false},{"id":280002,"adult":false},{"id":11282,"adult":false},{"id":306108,"adult":false},{"id":367212,"adult":false},{"id":55465,"adult":false},{"id":269714,"adult":false},{"id":300908,"adult":false},{"id":213033,"adult":false},{"id":367213,"adult":false},{"id":16652,"adult":false},{"id":5470,"adult":false},{"id":38322,"adult":false},{"id":28597,"adult":false},{"id":337948,"adult":false},{"id":323661,"adult":false},{"id":41579,"adult":false},{"id":18948,"adult":false},{"id":256924,"adult":false},{"id":312995,"adult":false},{"id":171375,"adult":false},{"id":347946,"adult":false},{"id":10380,"adult":false},{"id":14636,"adult":false},{"id":322536,"adult":null},{"id":356201,"adult":false},{"id":27653,"adult":false},{"id":31473,"adult":false},{"id":40208,"adult":false},{"id":20215,"adult":false},{"id":60668,"adult":false},{"id":214219,"adult":false},{"id":23520,"adult":false},{"id":10660,"adult":false},{"id":10075,"adult":false},{"id":367214,"adult":null}],"page":61,"total_pages":108,"total_results":10787}