{"results":[{"id":117,"adult":false},{"id":11583,"adult":false},{"id":9870,"adult":false},{"id":47817,"adult":false},{"id":248674,"adult":false},{"id":67350,"adult":false},{"id":200511,"adult":false},{"id":62648,"adult":false},{"id":39152,"adult":false},{"id":350846,"adult":false},{"id":1575,"adult":false},{"id":34991,"adult":false},{"id":59112,"adult":false},{"id":317940,"adult":false},{"id":42617,"adult":false},{"id":361664,"adult":false},{"id":131292,"adult":false},{"id":61968,"adult":false},{"id":42258,"adult":false},{"id":201085,"adult":false},{"id":39154,"adult":false},{"id":7291,"adult":false},{"id":440,"adult":false},{"id":67305,"adult":false},{"id":221732,"adult":false},{"id":222936,"adult":false},{"id":24615,"adult":false},{"id":82563,"adult":false},{"id":360339,"adult":false},{"id":445,"adult":false},{"id":257346,"adult":false},{"id":6620,"adult":false},{"id":333348,"adult":false},{"id":266294,"adult":false},{"id":362381,"adult":false},{"id":260435,"adult":false},{"id":253476,"adult":false},{"id":225217,"adult":false},{"id":1553,"adult":false},{"id":362008,"adult":false},{"id":12542,"adult":false},{"id":344227,"adult":false},{"id":13667,"adult":false},{"id":290011,"adult":true},{"id":359746,"adult":false},{"id":362382,"adult":false},{"id":20473,"adult":false},{"id":31016,"adult":false},{"id":29228,"adult":false},{"id":362383,"adult":false},{"id":488,"adult":false},{"id":362384,"adult":false},{"id":362385,"adult":false},{"id":32044,"adult":false},{"id":337484,"adult":false},{"id":340969,"adult":false},{"id":267999,"adult":false},{"id":16279,"adult":false},{"id":337915,"adult":false},{"id":228973,"adult":false},{"id":23538,"adult":false},{"id":337492,"adult":false},{"id":294156,"adult":false},{"id":3176,"adult":false},{"id":203946,"adult":false},{"id":16302,"adult":false},{"id":253287,"adult":false},{"id":176118,"adult":false},{"id":11637,"adult":false},{"id":10172,"adult":false},{"id":362386,"adult":null},{"id":362387,"adult":false},{"id":362388,"adult":false},{"id":17993,"adult":false},{"id":362389,"adult":false},{"id":306547,"adult":false},{"id":24410,"adult":false},{"id":362390,"adult":false},{"id":358908,"adult":false},{"id":362392,"adult":false},{"id":362393,"adult":false},{"id":775,"adult":false},{"id":147879,"adult":false},{"id":15957,"adult":false},{"id":40478,"adult":false},{"id":10640,"adult":false},{"id":299889,"adult":false},{"id":362394,"adult":false},{"id":20620,"adult":false},{"id":36763,"adult":false},{"id":49476,"adult":false},{"id":246741,"adult":false},{"id":108790,"adult":false},{"id":48484,"adult":false},{"id":319373,"adult":false},{"id":87911,"adult":false},{"id":9886,"adult":false},{"id":361493,"adult":false},{"id":149443,"adult":false},{"id":357681,"adult":false}],"page":21,"total_pages":108,"total_results":10774}