{"results":[{"id":74100,"adult":false},{"id":266603,"adult":false},{"id":266564,"adult":false},{"id":256324,"adult":false},{"id":41301,"adult":false},{"id":257445,"adult":false},{"id":364149,"adult":true},{"id":364150,"adult":false},{"id":364151,"adult":false},{"id":364152,"adult":null},{"id":46876,"adult":false},{"id":364153,"adult":false},{"id":364154,"adult":false},{"id":257211,"adult":false},{"id":190896,"adult":false},{"id":3082,"adult":false},{"id":364155,"adult":false},{"id":233063,"adult":false},{"id":362826,"adult":false},{"id":209262,"adult":false},{"id":353555,"adult":false},{"id":364156,"adult":false},{"id":364157,"adult":null},{"id":364158,"adult":null},{"id":364159,"adult":false},{"id":286554,"adult":false},{"id":122917,"adult":false},{"id":234165,"adult":false},{"id":13538,"adult":false},{"id":277217,"adult":false},{"id":360112,"adult":false},{"id":14367,"adult":false},{"id":7520,"adult":false},{"id":358632,"adult":false},{"id":9768,"adult":false},{"id":23942,"adult":false},{"id":3062,"adult":false},{"id":65403,"adult":false},{"id":356898,"adult":false},{"id":114594,"adult":false},{"id":31633,"adult":false},{"id":268691,"adult":false},{"id":1944,"adult":false},{"id":39831,"adult":false},{"id":364160,"adult":false},{"id":2087,"adult":false},{"id":29931,"adult":false},{"id":363281,"adult":false},{"id":329440,"adult":false},{"id":297640,"adult":false},{"id":300792,"adult":false},{"id":796,"adult":false},{"id":364161,"adult":false},{"id":286339,"adult":false},{"id":364162,"adult":false},{"id":20471,"adult":false},{"id":364163,"adult":false},{"id":364164,"adult":false},{"id":31355,"adult":false},{"id":364165,"adult":false},{"id":179641,"adult":false},{"id":364166,"adult":false},{"id":364167,"adult":false},{"id":364168,"adult":false},{"id":24873,"adult":false},{"id":126593,"adult":false},{"id":137303,"adult":false},{"id":14373,"adult":false},{"id":300090,"adult":false},{"id":188229,"adult":false},{"id":26263,"adult":false},{"id":13939,"adult":false},{"id":10625,"adult":false},{"id":11859,"adult":false},{"id":113076,"adult":false},{"id":289349,"adult":false},{"id":100782,"adult":false},{"id":364169,"adult":false},{"id":93755,"adult":false},{"id":364170,"adult":false},{"id":315894,"adult":false},{"id":40354,"adult":false},{"id":18553,"adult":false},{"id":13342,"adult":false},{"id":364171,"adult":false},{"id":364172,"adult":false},{"id":562,"adult":false},{"id":1573,"adult":false},{"id":1572,"adult":false},{"id":105110,"adult":false},{"id":1571,"adult":false},{"id":138858,"adult":false},{"id":364173,"adult":false},{"id":5852,"adult":false},{"id":85,"adult":false},{"id":364174,"adult":false},{"id":87,"adult":false},{"id":15876,"adult":false},{"id":11091,"adult":false},{"id":89,"adult":false}],"page":9,"total_pages":85,"total_results":8453}