{"results":[{"id":78308,"adult":false},{"id":134812,"adult":false},{"id":66305,"adult":false},{"id":257387,"adult":false},{"id":324167,"adult":false},{"id":43619,"adult":false},{"id":324168,"adult":false},{"id":324169,"adult":false},{"id":324170,"adult":false},{"id":315292,"adult":false},{"id":91396,"adult":false},{"id":324171,"adult":false},{"id":222578,"adult":false},{"id":55281,"adult":false},{"id":324172,"adult":false},{"id":156467,"adult":false},{"id":190740,"adult":false},{"id":206213,"adult":false},{"id":324173,"adult":false},{"id":25796,"adult":false},{"id":135817,"adult":false},{"id":232610,"adult":false},{"id":157297,"adult":false},{"id":324174,"adult":false},{"id":17408,"adult":false},{"id":13491,"adult":false},{"id":159932,"adult":false},{"id":77123,"adult":false},{"id":303295,"adult":null},{"id":324175,"adult":false},{"id":42250,"adult":false},{"id":37122,"adult":false},{"id":324176,"adult":false},{"id":112450,"adult":false},{"id":291956,"adult":false},{"id":135330,"adult":false},{"id":146203,"adult":false},{"id":204877,"adult":null},{"id":74197,"adult":false},{"id":71682,"adult":false},{"id":301894,"adult":false},{"id":11906,"adult":false},{"id":316932,"adult":false},{"id":140394,"adult":false},{"id":131689,"adult":false},{"id":33676,"adult":false},{"id":18188,"adult":false},{"id":324177,"adult":false},{"id":90270,"adult":false},{"id":324178,"adult":false},{"id":44191,"adult":false},{"id":181502,"adult":false},{"id":254446,"adult":false},{"id":167032,"adult":false},{"id":225574,"adult":false},{"id":324179,"adult":false},{"id":324180,"adult":false},{"id":212812,"adult":false},{"id":14527,"adult":false},{"id":324181,"adult":false},{"id":296102,"adult":false},{"id":104413,"adult":false},{"id":282248,"adult":false},{"id":150651,"adult":false},{"id":236629,"adult":false},{"id":293970,"adult":false},{"id":78560,"adult":false},{"id":324182,"adult":null},{"id":66406,"adult":false},{"id":183443,"adult":false},{"id":167733,"adult":false},{"id":18374,"adult":false},{"id":14024,"adult":false},{"id":112443,"adult":false},{"id":308714,"adult":false},{"id":324183,"adult":false},{"id":98066,"adult":false},{"id":144340,"adult":false},{"id":19792,"adult":false},{"id":41704,"adult":false},{"id":205891,"adult":false},{"id":324184,"adult":false},{"id":26895,"adult":false},{"id":175283,"adult":false},{"id":324185,"adult":false},{"id":69059,"adult":false},{"id":37995,"adult":false},{"id":134350,"adult":false},{"id":55505,"adult":false},{"id":73731,"adult":false},{"id":18015,"adult":false},{"id":151285,"adult":false},{"id":42187,"adult":false},{"id":42185,"adult":false},{"id":10842,"adult":false},{"id":28422,"adult":false},{"id":91972,"adult":false},{"id":35040,"adult":false},{"id":324186,"adult":false},{"id":14753,"adult":false}],"page":65,"total_pages":117,"total_results":11629}