{"results":[{"id":121355,"adult":false},{"id":8386,"adult":false},{"id":74181,"adult":false},{"id":351656,"adult":false},{"id":351657,"adult":false},{"id":24935,"adult":false},{"id":223946,"adult":false},{"id":23616,"adult":false},{"id":351658,"adult":false},{"id":351659,"adult":false},{"id":2246,"adult":false},{"id":323020,"adult":false},{"id":351660,"adult":false},{"id":230129,"adult":false},{"id":152747,"adult":false},{"id":38319,"adult":false},{"id":265019,"adult":false},{"id":39103,"adult":false},{"id":351661,"adult":false},{"id":107846,"adult":false},{"id":351662,"adult":false},{"id":351663,"adult":false},{"id":102362,"adult":false},{"id":44251,"adult":false},{"id":351664,"adult":false},{"id":26451,"adult":false},{"id":323925,"adult":false},{"id":9611,"adult":false},{"id":11123,"adult":false},{"id":259480,"adult":false},{"id":291863,"adult":false},{"id":34433,"adult":false},{"id":351665,"adult":false},{"id":2459,"adult":false},{"id":322470,"adult":false},{"id":256474,"adult":false},{"id":532,"adult":false},{"id":205587,"adult":false},{"id":10139,"adult":false},{"id":351666,"adult":false},{"id":61371,"adult":false},{"id":66182,"adult":false},{"id":152756,"adult":false},{"id":30618,"adult":false},{"id":11172,"adult":false},{"id":52775,"adult":false},{"id":10393,"adult":false},{"id":13183,"adult":false},{"id":351667,"adult":false},{"id":67697,"adult":false},{"id":50647,"adult":false},{"id":117050,"adult":false},{"id":12429,"adult":false},{"id":227700,"adult":false},{"id":97365,"adult":false},{"id":93383,"adult":false},{"id":152522,"adult":false},{"id":9461,"adult":false},{"id":24010,"adult":false},{"id":10142,"adult":false},{"id":157350,"adult":false},{"id":14359,"adult":false},{"id":351668,"adult":false},{"id":291423,"adult":false},{"id":8966,"adult":false},{"id":209263,"adult":false},{"id":9776,"adult":false},{"id":351669,"adult":false},{"id":324308,"adult":false},{"id":113833,"adult":false},{"id":351670,"adult":false},{"id":233678,"adult":false},{"id":10027,"adult":false},{"id":351671,"adult":false},{"id":164447,"adult":false},{"id":351672,"adult":false},{"id":36850,"adult":false},{"id":48987,"adult":false},{"id":8961,"adult":false},{"id":337881,"adult":null},{"id":351673,"adult":false},{"id":140229,"adult":false},{"id":147843,"adult":false},{"id":315839,"adult":false},{"id":43458,"adult":false},{"id":351674,"adult":null},{"id":15371,"adult":false},{"id":9057,"adult":false},{"id":59212,"adult":false},{"id":239367,"adult":false},{"id":39758,"adult":false},{"id":329992,"adult":null},{"id":277355,"adult":false},{"id":270043,"adult":false},{"id":263116,"adult":false},{"id":272742,"adult":false},{"id":58063,"adult":false},{"id":24771,"adult":false},{"id":270105,"adult":false},{"id":340363,"adult":null}],"page":92,"total_pages":103,"total_results":10231}