{"results":[{"id":254578,"adult":false},{"id":136405,"adult":false},{"id":159707,"adult":false},{"id":1362,"adult":false},{"id":319993,"adult":false},{"id":363707,"adult":false},{"id":367991,"adult":false},{"id":29740,"adult":false},{"id":342831,"adult":false},{"id":63186,"adult":false},{"id":26810,"adult":false},{"id":270511,"adult":false},{"id":198375,"adult":false},{"id":142025,"adult":false},{"id":54271,"adult":false},{"id":60131,"adult":false},{"id":355156,"adult":false},{"id":18901,"adult":false},{"id":275858,"adult":false},{"id":55241,"adult":false},{"id":69561,"adult":false},{"id":12253,"adult":false},{"id":118931,"adult":false},{"id":71288,"adult":false},{"id":69381,"adult":false},{"id":38142,"adult":false},{"id":44086,"adult":false},{"id":79707,"adult":false},{"id":85842,"adult":false},{"id":123007,"adult":false},{"id":252844,"adult":false},{"id":288313,"adult":false},{"id":220289,"adult":false},{"id":36132,"adult":false},{"id":47656,"adult":false},{"id":44826,"adult":false},{"id":61533,"adult":false},{"id":40611,"adult":false},{"id":82482,"adult":false},{"id":41281,"adult":false},{"id":243233,"adult":false},{"id":218691,"adult":false},{"id":79015,"adult":false},{"id":83337,"adult":false},{"id":103692,"adult":false},{"id":276829,"adult":false},{"id":106438,"adult":false},{"id":299513,"adult":false},{"id":97132,"adult":false},{"id":216040,"adult":false},{"id":50321,"adult":false},{"id":23587,"adult":false},{"id":74308,"adult":false},{"id":273895,"adult":false},{"id":308160,"adult":false},{"id":243901,"adult":false},{"id":23047,"adult":false},{"id":86687,"adult":false},{"id":326322,"adult":null},{"id":158,"adult":false},{"id":287,"adult":false},{"id":68684,"adult":false},{"id":277685,"adult":false},{"id":354279,"adult":false},{"id":122684,"adult":false},{"id":367992,"adult":false},{"id":100683,"adult":false},{"id":80467,"adult":false},{"id":221548,"adult":false},{"id":135812,"adult":false},{"id":1125,"adult":false},{"id":74879,"adult":false},{"id":14963,"adult":false},{"id":10384,"adult":false},{"id":333381,"adult":false},{"id":9013,"adult":false},{"id":197493,"adult":false},{"id":367993,"adult":false},{"id":303542,"adult":false},{"id":87504,"adult":false},{"id":745,"adult":false},{"id":77953,"adult":false},{"id":95755,"adult":false},{"id":62552,"adult":false},{"id":71864,"adult":false},{"id":15596,"adult":false},{"id":128614,"adult":false},{"id":261461,"adult":false},{"id":24889,"adult":false},{"id":5651,"adult":false},{"id":46837,"adult":false},{"id":32331,"adult":false},{"id":128,"adult":false},{"id":343247,"adult":false},{"id":86501,"adult":false},{"id":5157,"adult":false},{"id":11557,"adult":false},{"id":10021,"adult":false},{"id":213551,"adult":false},{"id":70425,"adult":false}],"page":95,"total_pages":108,"total_results":10787}