{"results":[{"id":15143,"adult":false},{"id":16562,"adult":false},{"id":333346,"adult":false},{"id":19458,"adult":false},{"id":343405,"adult":false},{"id":92272,"adult":false},{"id":18835,"adult":false},{"id":232606,"adult":false},{"id":218440,"adult":false},{"id":52882,"adult":false},{"id":232604,"adult":false},{"id":64316,"adult":false},{"id":10582,"adult":false},{"id":91745,"adult":false},{"id":27418,"adult":false},{"id":247691,"adult":false},{"id":171848,"adult":null},{"id":10583,"adult":false},{"id":239861,"adult":false},{"id":311630,"adult":false},{"id":343406,"adult":false},{"id":341830,"adult":false},{"id":309425,"adult":false},{"id":196849,"adult":false},{"id":341828,"adult":false},{"id":343407,"adult":false},{"id":343408,"adult":false},{"id":38172,"adult":false},{"id":341831,"adult":false},{"id":343409,"adult":false},{"id":38173,"adult":false},{"id":284152,"adult":false},{"id":10584,"adult":false},{"id":343410,"adult":false},{"id":81112,"adult":false},{"id":326854,"adult":false},{"id":342536,"adult":false},{"id":12585,"adult":false},{"id":343411,"adult":false},{"id":343412,"adult":false},{"id":10580,"adult":false},{"id":102923,"adult":false},{"id":25504,"adult":false},{"id":12501,"adult":false},{"id":56095,"adult":false},{"id":29710,"adult":false},{"id":18486,"adult":false},{"id":295595,"adult":false},{"id":261023,"adult":false},{"id":14451,"adult":false},{"id":143,"adult":false},{"id":155503,"adult":false},{"id":26932,"adult":false},{"id":455,"adult":false},{"id":9326,"adult":false},{"id":58233,"adult":false},{"id":343413,"adult":false},{"id":52043,"adult":false},{"id":343414,"adult":null},{"id":32287,"adult":false},{"id":805,"adult":false},{"id":343415,"adult":false},{"id":42137,"adult":false},{"id":272461,"adult":false},{"id":31034,"adult":false},{"id":338,"adult":false},{"id":79751,"adult":false},{"id":342581,"adult":false},{"id":191599,"adult":false},{"id":206174,"adult":false},{"id":57635,"adult":false},{"id":117258,"adult":false},{"id":9504,"adult":false},{"id":143360,"adult":false},{"id":37585,"adult":false},{"id":330781,"adult":false},{"id":82216,"adult":false},{"id":80741,"adult":false},{"id":11382,"adult":false},{"id":50216,"adult":false},{"id":44179,"adult":false},{"id":28978,"adult":false},{"id":27144,"adult":false},{"id":259300,"adult":false},{"id":14449,"adult":false},{"id":5175,"adult":false},{"id":112160,"adult":false},{"id":11828,"adult":false},{"id":5174,"adult":false},{"id":26480,"adult":false},{"id":342165,"adult":false},{"id":31372,"adult":false},{"id":272106,"adult":false},{"id":86331,"adult":false},{"id":321635,"adult":false},{"id":31374,"adult":false},{"id":245200,"adult":false},{"id":76729,"adult":false},{"id":31378,"adult":false},{"id":343416,"adult":false}],"page":40,"total_pages":95,"total_results":9488}