{"results":[{"id":13834,"adult":false},{"id":49520,"adult":false},{"id":269650,"adult":false},{"id":298248,"adult":false},{"id":201716,"adult":false},{"id":278646,"adult":false},{"id":1689,"adult":false},{"id":154538,"adult":false},{"id":61313,"adult":false},{"id":367215,"adult":false},{"id":10585,"adult":false},{"id":56033,"adult":false},{"id":367216,"adult":false},{"id":11395,"adult":false},{"id":14922,"adult":false},{"id":31503,"adult":false},{"id":11624,"adult":false},{"id":21533,"adult":false},{"id":12429,"adult":false},{"id":128270,"adult":false},{"id":58423,"adult":null},{"id":100,"adult":false},{"id":9609,"adult":false},{"id":21954,"adult":false},{"id":346815,"adult":false},{"id":38563,"adult":false},{"id":249922,"adult":false},{"id":38661,"adult":false},{"id":230821,"adult":false},{"id":260867,"adult":false},{"id":81486,"adult":false},{"id":290751,"adult":false},{"id":108872,"adult":false},{"id":241843,"adult":false},{"id":46261,"adult":false},{"id":11597,"adult":false},{"id":135877,"adult":false},{"id":10337,"adult":false},{"id":9559,"adult":false},{"id":10052,"adult":false},{"id":1090,"adult":false},{"id":10896,"adult":false},{"id":256103,"adult":false},{"id":744,"adult":false},{"id":109431,"adult":false},{"id":367217,"adult":false},{"id":8072,"adult":false},{"id":165538,"adult":false},{"id":246745,"adult":false},{"id":325220,"adult":false},{"id":165169,"adult":false},{"id":347552,"adult":false},{"id":239568,"adult":false},{"id":64526,"adult":false},{"id":286517,"adult":false},{"id":99861,"adult":false},{"id":82825,"adult":false},{"id":315055,"adult":false},{"id":367218,"adult":false},{"id":212986,"adult":false},{"id":59049,"adult":false},{"id":233904,"adult":false},{"id":41488,"adult":false},{"id":27441,"adult":false},{"id":367219,"adult":false},{"id":42194,"adult":false},{"id":310985,"adult":false},{"id":45169,"adult":false},{"id":14398,"adult":false},{"id":69029,"adult":false},{"id":347530,"adult":false},{"id":230453,"adult":false},{"id":347780,"adult":false},{"id":347781,"adult":false},{"id":347777,"adult":false},{"id":347784,"adult":false},{"id":308032,"adult":false},{"id":367220,"adult":false},{"id":367221,"adult":false},{"id":97256,"adult":null},{"id":367222,"adult":null},{"id":123380,"adult":false},{"id":367223,"adult":false},{"id":11497,"adult":false},{"id":14874,"adult":false},{"id":161315,"adult":false},{"id":367224,"adult":false},{"id":367225,"adult":false},{"id":367226,"adult":false},{"id":322781,"adult":false},{"id":157389,"adult":false},{"id":360247,"adult":false},{"id":85230,"adult":false},{"id":305790,"adult":false},{"id":23805,"adult":false},{"id":46031,"adult":false},{"id":144049,"adult":false},{"id":367227,"adult":false},{"id":239248,"adult":false},{"id":358996,"adult":false}],"page":62,"total_pages":108,"total_results":10787}