{"results":[{"id":36567,"adult":false},{"id":10590,"adult":false},{"id":283094,"adult":false},{"id":335700,"adult":false},{"id":354957,"adult":false},{"id":354958,"adult":false},{"id":300589,"adult":false},{"id":333548,"adult":false},{"id":274479,"adult":false},{"id":9994,"adult":false},{"id":61238,"adult":false},{"id":270224,"adult":false},{"id":956,"adult":false},{"id":350641,"adult":false},{"id":346471,"adult":false},{"id":116982,"adult":false},{"id":81003,"adult":false},{"id":198518,"adult":false},{"id":6073,"adult":false},{"id":283106,"adult":null},{"id":10559,"adult":false},{"id":283111,"adult":null},{"id":352931,"adult":false},{"id":6524,"adult":false},{"id":97020,"adult":false},{"id":354959,"adult":false},{"id":225582,"adult":false},{"id":354960,"adult":false},{"id":36593,"adult":false},{"id":37137,"adult":false},{"id":249934,"adult":false},{"id":1059,"adult":false},{"id":5689,"adult":false},{"id":11839,"adult":false},{"id":22999,"adult":false},{"id":24918,"adult":false},{"id":10341,"adult":false},{"id":3777,"adult":false},{"id":123763,"adult":false},{"id":180202,"adult":false},{"id":353989,"adult":false},{"id":354961,"adult":false},{"id":354962,"adult":false},{"id":31501,"adult":false},{"id":150015,"adult":false},{"id":354963,"adult":null},{"id":354964,"adult":false},{"id":354965,"adult":false},{"id":350558,"adult":false},{"id":46189,"adult":false},{"id":130808,"adult":false},{"id":15263,"adult":false},{"id":50828,"adult":false},{"id":26593,"adult":false},{"id":26185,"adult":false},{"id":301789,"adult":false},{"id":229771,"adult":false},{"id":93295,"adult":false},{"id":354966,"adult":false},{"id":193006,"adult":false},{"id":27396,"adult":false},{"id":163485,"adult":false},{"id":354967,"adult":false},{"id":9570,"adult":false},{"id":149233,"adult":false},{"id":354968,"adult":false},{"id":126415,"adult":false},{"id":354969,"adult":false},{"id":15961,"adult":false},{"id":52721,"adult":false},{"id":189759,"adult":false},{"id":43721,"adult":false},{"id":259545,"adult":false},{"id":195015,"adult":false},{"id":320006,"adult":false},{"id":28053,"adult":false},{"id":195165,"adult":false},{"id":9506,"adult":false},{"id":228736,"adult":false},{"id":195159,"adult":false},{"id":167032,"adult":false},{"id":636,"adult":false},{"id":10166,"adult":false},{"id":244316,"adult":false},{"id":195164,"adult":false},{"id":195168,"adult":false},{"id":195184,"adult":false},{"id":195175,"adult":false},{"id":61834,"adult":false},{"id":245169,"adult":false},{"id":1923,"adult":false},{"id":195240,"adult":false},{"id":232285,"adult":false},{"id":354970,"adult":false},{"id":135906,"adult":false},{"id":332015,"adult":false},{"id":284457,"adult":false},{"id":168643,"adult":false},{"id":354971,"adult":false},{"id":12109,"adult":false}],"page":22,"total_pages":100,"total_results":9908}