{"results":[{"id":244260,"adult":false},{"id":48516,"adult":false},{"id":265602,"adult":false},{"id":345412,"adult":false},{"id":87502,"adult":false},{"id":177677,"adult":false},{"id":149107,"adult":false},{"id":344498,"adult":null},{"id":102683,"adult":null},{"id":138843,"adult":false},{"id":250546,"adult":false},{"id":51248,"adult":false},{"id":38183,"adult":false},{"id":289416,"adult":false},{"id":157544,"adult":false},{"id":129187,"adult":false},{"id":67111,"adult":false},{"id":31246,"adult":false},{"id":132137,"adult":false},{"id":13557,"adult":false},{"id":267806,"adult":false},{"id":345413,"adult":false},{"id":345414,"adult":false},{"id":262549,"adult":false},{"id":151310,"adult":false},{"id":345415,"adult":false},{"id":60207,"adult":false},{"id":7278,"adult":false},{"id":265666,"adult":false},{"id":79623,"adult":false},{"id":588,"adult":false},{"id":89132,"adult":false},{"id":166424,"adult":false},{"id":2667,"adult":false},{"id":345416,"adult":false},{"id":345417,"adult":false},{"id":36267,"adult":false},{"id":345418,"adult":true},{"id":251555,"adult":false},{"id":19913,"adult":false},{"id":340304,"adult":false},{"id":329253,"adult":false},{"id":204260,"adult":false},{"id":345419,"adult":false},{"id":83420,"adult":false},{"id":252328,"adult":false},{"id":55767,"adult":false},{"id":67328,"adult":false},{"id":61128,"adult":false},{"id":86613,"adult":false},{"id":320247,"adult":false},{"id":17692,"adult":false},{"id":345420,"adult":false},{"id":16414,"adult":false},{"id":228967,"adult":false},{"id":63341,"adult":false},{"id":132706,"adult":false},{"id":16413,"adult":false},{"id":70670,"adult":false},{"id":345421,"adult":false},{"id":35560,"adult":true},{"id":76392,"adult":false},{"id":8653,"adult":false},{"id":222313,"adult":false},{"id":67113,"adult":false},{"id":278380,"adult":false},{"id":95,"adult":false},{"id":203115,"adult":false},{"id":345422,"adult":false},{"id":9410,"adult":false},{"id":70617,"adult":true},{"id":345423,"adult":true},{"id":9257,"adult":false},{"id":202423,"adult":false},{"id":345424,"adult":true},{"id":45125,"adult":true},{"id":25248,"adult":false},{"id":345425,"adult":true},{"id":345426,"adult":false},{"id":261112,"adult":false},{"id":288141,"adult":false},{"id":10875,"adult":false},{"id":345427,"adult":false},{"id":345428,"adult":true},{"id":345429,"adult":false},{"id":11430,"adult":false},{"id":345430,"adult":false},{"id":21755,"adult":false},{"id":4248,"adult":false},{"id":345431,"adult":false},{"id":4256,"adult":false},{"id":345432,"adult":false},{"id":21786,"adult":false},{"id":140,"adult":false},{"id":16048,"adult":false},{"id":10569,"adult":false},{"id":92989,"adult":false},{"id":19118,"adult":false},{"id":9671,"adult":false},{"id":319304,"adult":false}],"page":43,"total_pages":111,"total_results":11023}