{"results":[{"id":121923,"adult":false},{"id":332976,"adult":false},{"id":343261,"adult":false},{"id":11053,"adult":false},{"id":11055,"adult":false},{"id":57154,"adult":false},{"id":343262,"adult":false},{"id":11160,"adult":false},{"id":24831,"adult":false},{"id":317442,"adult":false},{"id":343263,"adult":false},{"id":13613,"adult":false},{"id":26638,"adult":false},{"id":312793,"adult":false},{"id":116478,"adult":false},{"id":319396,"adult":false},{"id":194,"adult":false},{"id":8429,"adult":false},{"id":343264,"adult":false},{"id":31646,"adult":false},{"id":19698,"adult":false},{"id":43746,"adult":false},{"id":308447,"adult":false},{"id":276908,"adult":false},{"id":23919,"adult":false},{"id":180097,"adult":false},{"id":315429,"adult":false},{"id":75915,"adult":false},{"id":343265,"adult":false},{"id":343266,"adult":false},{"id":125908,"adult":false},{"id":78734,"adult":false},{"id":260678,"adult":false},{"id":98634,"adult":false},{"id":180403,"adult":false},{"id":99306,"adult":false},{"id":95137,"adult":false},{"id":49570,"adult":false},{"id":95273,"adult":false},{"id":43213,"adult":false},{"id":268979,"adult":false},{"id":279233,"adult":false},{"id":282519,"adult":false},{"id":343267,"adult":false},{"id":284079,"adult":false},{"id":241794,"adult":false},{"id":175484,"adult":false},{"id":343268,"adult":false},{"id":343269,"adult":false},{"id":343270,"adult":false},{"id":343271,"adult":false},{"id":32585,"adult":false},{"id":258864,"adult":false},{"id":219281,"adult":false},{"id":343272,"adult":false},{"id":343273,"adult":false},{"id":291871,"adult":false},{"id":343274,"adult":false},{"id":343275,"adult":false},{"id":43764,"adult":false},{"id":343276,"adult":false},{"id":304845,"adult":false},{"id":182909,"adult":false},{"id":343277,"adult":false},{"id":36599,"adult":false},{"id":39929,"adult":false},{"id":298868,"adult":false},{"id":131785,"adult":false},{"id":41828,"adult":false},{"id":328186,"adult":false},{"id":343278,"adult":false},{"id":80518,"adult":false},{"id":24137,"adult":false},{"id":41769,"adult":false},{"id":23048,"adult":false},{"id":36218,"adult":false},{"id":323661,"adult":false},{"id":10018,"adult":false},{"id":343279,"adult":false},{"id":10576,"adult":false},{"id":186118,"adult":true},{"id":334000,"adult":false},{"id":53929,"adult":false},{"id":285014,"adult":false},{"id":285018,"adult":false},{"id":238307,"adult":false},{"id":12662,"adult":false},{"id":50850,"adult":false},{"id":18596,"adult":false},{"id":132110,"adult":false},{"id":287631,"adult":false},{"id":166654,"adult":false},{"id":40377,"adult":false},{"id":340792,"adult":false},{"id":17037,"adult":false},{"id":59115,"adult":false},{"id":185526,"adult":false},{"id":254200,"adult":false},{"id":13378,"adult":false},{"id":26477,"adult":false}],"page":34,"total_pages":95,"total_results":9488}