{"results":[{"id":9565,"adult":false},{"id":318007,"adult":false},{"id":316839,"adult":false},{"id":317923,"adult":false},{"id":160064,"adult":false},{"id":19596,"adult":false},{"id":268,"adult":false},{"id":20174,"adult":false},{"id":9615,"adult":false},{"id":11495,"adult":false},{"id":17889,"adult":false},{"id":85188,"adult":false},{"id":41535,"adult":false},{"id":3525,"adult":false},{"id":196500,"adult":false},{"id":276724,"adult":false},{"id":31516,"adult":false},{"id":87925,"adult":false},{"id":270403,"adult":false},{"id":19254,"adult":false},{"id":106397,"adult":false},{"id":341759,"adult":false},{"id":318703,"adult":false},{"id":37820,"adult":false},{"id":72032,"adult":false},{"id":19243,"adult":false},{"id":25221,"adult":false},{"id":1124,"adult":false},{"id":1164,"adult":false},{"id":224908,"adult":false},{"id":14837,"adult":false},{"id":341760,"adult":null},{"id":341761,"adult":false},{"id":29175,"adult":false},{"id":84110,"adult":false},{"id":37079,"adult":false},{"id":511,"adult":false},{"id":79395,"adult":false},{"id":313359,"adult":false},{"id":265851,"adult":false},{"id":39127,"adult":false},{"id":341762,"adult":null},{"id":132369,"adult":false},{"id":53979,"adult":false},{"id":316410,"adult":false},{"id":318864,"adult":false},{"id":10794,"adult":false},{"id":11293,"adult":false},{"id":9574,"adult":false},{"id":72370,"adult":false},{"id":26300,"adult":false},{"id":68721,"adult":false},{"id":54985,"adult":false},{"id":14452,"adult":false},{"id":10559,"adult":false},{"id":72331,"adult":false},{"id":71115,"adult":false},{"id":199556,"adult":false},{"id":137548,"adult":false},{"id":16921,"adult":false},{"id":43954,"adult":false},{"id":341763,"adult":false},{"id":10908,"adult":false},{"id":18974,"adult":false},{"id":283691,"adult":false},{"id":582,"adult":false},{"id":54166,"adult":false},{"id":278334,"adult":false},{"id":914,"adult":false},{"id":341769,"adult":false},{"id":53172,"adult":false},{"id":161249,"adult":false},{"id":11216,"adult":false},{"id":82277,"adult":false},{"id":10316,"adult":false},{"id":50137,"adult":false},{"id":30276,"adult":false},{"id":312701,"adult":false},{"id":341770,"adult":false},{"id":82059,"adult":false},{"id":104954,"adult":false},{"id":30277,"adult":false},{"id":694,"adult":false},{"id":9571,"adult":false},{"id":76808,"adult":false},{"id":341773,"adult":false},{"id":341774,"adult":false},{"id":68718,"adult":false},{"id":23168,"adult":false},{"id":10280,"adult":false},{"id":37735,"adult":false},{"id":75736,"adult":false},{"id":205936,"adult":false},{"id":41436,"adult":false},{"id":37799,"adult":false},{"id":11708,"adult":false},{"id":1735,"adult":false},{"id":251,"adult":false},{"id":341776,"adult":false},{"id":22094,"adult":false}],"page":83,"total_pages":103,"total_results":10276}