{"results":[{"id":344574,"adult":false},{"id":291257,"adult":false},{"id":344627,"adult":true},{"id":190163,"adult":false},{"id":261168,"adult":false},{"id":344643,"adult":false},{"id":9361,"adult":false},{"id":18816,"adult":false},{"id":22994,"adult":false},{"id":344644,"adult":null},{"id":91867,"adult":false},{"id":332569,"adult":null},{"id":344645,"adult":false},{"id":9631,"adult":false},{"id":344646,"adult":false},{"id":344647,"adult":null},{"id":344649,"adult":false},{"id":25025,"adult":false},{"id":9802,"adult":false},{"id":76341,"adult":false},{"id":344650,"adult":null},{"id":344651,"adult":false},{"id":311034,"adult":false},{"id":344652,"adult":null},{"id":344653,"adult":false},{"id":344654,"adult":false},{"id":344655,"adult":false},{"id":344656,"adult":false},{"id":99237,"adult":false},{"id":151105,"adult":false},{"id":140908,"adult":false},{"id":344657,"adult":false},{"id":80090,"adult":false},{"id":322771,"adult":false},{"id":329827,"adult":false},{"id":344658,"adult":false},{"id":62742,"adult":false},{"id":117533,"adult":false},{"id":60438,"adult":false},{"id":134636,"adult":false},{"id":344659,"adult":null},{"id":344660,"adult":false},{"id":208917,"adult":false},{"id":187285,"adult":false},{"id":194166,"adult":false},{"id":250852,"adult":false},{"id":344661,"adult":false},{"id":343990,"adult":false},{"id":197185,"adult":false},{"id":61369,"adult":false},{"id":344662,"adult":true},{"id":155394,"adult":false},{"id":1902,"adult":false},{"id":274478,"adult":false},{"id":13692,"adult":false},{"id":66469,"adult":false},{"id":13501,"adult":false},{"id":250066,"adult":false},{"id":30999,"adult":false},{"id":49351,"adult":false},{"id":68215,"adult":false},{"id":344663,"adult":false},{"id":136080,"adult":false},{"id":344664,"adult":null},{"id":102932,"adult":false},{"id":222318,"adult":false},{"id":343943,"adult":false},{"id":297244,"adult":false},{"id":207703,"adult":false},{"id":10447,"adult":false},{"id":319340,"adult":false},{"id":74929,"adult":false},{"id":322464,"adult":false},{"id":270343,"adult":false},{"id":14869,"adult":false},{"id":296313,"adult":false},{"id":435,"adult":false},{"id":276160,"adult":false},{"id":344415,"adult":true},{"id":344665,"adult":true},{"id":148284,"adult":false},{"id":219170,"adult":false},{"id":344666,"adult":true},{"id":344667,"adult":true},{"id":344668,"adult":true},{"id":57928,"adult":true},{"id":344669,"adult":true},{"id":58172,"adult":true},{"id":58174,"adult":true},{"id":6415,"adult":false},{"id":58175,"adult":true},{"id":58180,"adult":true},{"id":58181,"adult":true},{"id":344670,"adult":true},{"id":332177,"adult":false},{"id":228165,"adult":false},{"id":265297,"adult":false},{"id":344671,"adult":false},{"id":302660,"adult":false},{"id":344672,"adult":false}],"page":1,"total_pages":111,"total_results":11023}