{"results":[{"id":352748,"adult":false},{"id":9327,"adult":false},{"id":217775,"adult":false},{"id":506,"adult":false},{"id":135735,"adult":false},{"id":10200,"adult":false},{"id":207933,"adult":false},{"id":113544,"adult":false},{"id":251671,"adult":false},{"id":300981,"adult":false},{"id":9913,"adult":false},{"id":338421,"adult":false},{"id":11219,"adult":false},{"id":578,"adult":false},{"id":43616,"adult":false},{"id":336111,"adult":false},{"id":293082,"adult":false},{"id":60859,"adult":false},{"id":12556,"adult":false},{"id":272072,"adult":false},{"id":11455,"adult":false},{"id":85741,"adult":false},{"id":18696,"adult":false},{"id":249366,"adult":false},{"id":348119,"adult":false},{"id":343667,"adult":false},{"id":352749,"adult":false},{"id":11017,"adult":false},{"id":297544,"adult":false},{"id":11590,"adult":false},{"id":302828,"adult":false},{"id":343418,"adult":false},{"id":44773,"adult":false},{"id":84316,"adult":false},{"id":13988,"adult":false},{"id":40655,"adult":false},{"id":6521,"adult":false},{"id":352750,"adult":false},{"id":4174,"adult":false},{"id":80682,"adult":false},{"id":352751,"adult":false},{"id":113440,"adult":false},{"id":241254,"adult":false},{"id":40589,"adult":false},{"id":231526,"adult":false},{"id":67785,"adult":false},{"id":8738,"adult":false},{"id":14673,"adult":false},{"id":49618,"adult":false},{"id":280390,"adult":false},{"id":26578,"adult":false},{"id":117646,"adult":false},{"id":57743,"adult":false},{"id":26479,"adult":false},{"id":15052,"adult":false},{"id":298093,"adult":false},{"id":12177,"adult":false},{"id":14635,"adult":false},{"id":264026,"adult":false},{"id":115096,"adult":false},{"id":63986,"adult":false},{"id":40238,"adult":false},{"id":329750,"adult":false},{"id":3877,"adult":false},{"id":20085,"adult":false},{"id":31017,"adult":false},{"id":260973,"adult":false},{"id":146578,"adult":false},{"id":1672,"adult":false},{"id":116272,"adult":false},{"id":199928,"adult":false},{"id":159638,"adult":false},{"id":43657,"adult":false},{"id":41522,"adult":false},{"id":18307,"adult":false},{"id":20453,"adult":false},{"id":96350,"adult":false},{"id":255390,"adult":false},{"id":345547,"adult":false},{"id":352752,"adult":false},{"id":27901,"adult":false},{"id":1688,"adult":false},{"id":14849,"adult":false},{"id":306819,"adult":false},{"id":126267,"adult":false},{"id":76306,"adult":false},{"id":31997,"adult":false},{"id":50401,"adult":false},{"id":31703,"adult":false},{"id":352753,"adult":false},{"id":252656,"adult":false},{"id":38621,"adult":false},{"id":162531,"adult":false},{"id":352754,"adult":false},{"id":306969,"adult":false},{"id":179187,"adult":false},{"id":254200,"adult":false},{"id":352755,"adult":false},{"id":9825,"adult":false},{"id":309245,"adult":false}],"page":14,"total_pages":89,"total_results":8876}