{"results":[{"id":299748,"adult":false},{"id":369643,"adult":false},{"id":195487,"adult":false},{"id":60567,"adult":false},{"id":281644,"adult":false},{"id":124023,"adult":false},{"id":133494,"adult":false},{"id":369644,"adult":true},{"id":163937,"adult":false},{"id":23945,"adult":false},{"id":89552,"adult":false},{"id":15691,"adult":false},{"id":267460,"adult":false},{"id":36929,"adult":false},{"id":123776,"adult":false},{"id":134859,"adult":false},{"id":86444,"adult":false},{"id":345628,"adult":false},{"id":369646,"adult":false},{"id":369647,"adult":false},{"id":276647,"adult":false},{"id":40490,"adult":false},{"id":121869,"adult":false},{"id":369648,"adult":false},{"id":369649,"adult":false},{"id":93064,"adult":false},{"id":4476,"adult":false},{"id":179587,"adult":false},{"id":151366,"adult":false},{"id":105509,"adult":false},{"id":7305,"adult":false},{"id":325358,"adult":false},{"id":369650,"adult":false},{"id":23939,"adult":false},{"id":112459,"adult":false},{"id":24734,"adult":false},{"id":53027,"adult":false},{"id":16790,"adult":false},{"id":125769,"adult":false},{"id":10146,"adult":false},{"id":286558,"adult":false},{"id":128044,"adult":false},{"id":369651,"adult":false},{"id":369652,"adult":false},{"id":48129,"adult":false},{"id":20307,"adult":false},{"id":68347,"adult":false},{"id":220690,"adult":false},{"id":11955,"adult":false},{"id":181753,"adult":false},{"id":219839,"adult":false},{"id":257049,"adult":false},{"id":358008,"adult":false},{"id":77246,"adult":false},{"id":11426,"adult":false},{"id":46688,"adult":false},{"id":229185,"adult":false},{"id":51836,"adult":false},{"id":369653,"adult":false},{"id":9717,"adult":false},{"id":27342,"adult":false},{"id":71582,"adult":false},{"id":35144,"adult":false},{"id":369654,"adult":false},{"id":140605,"adult":false},{"id":369655,"adult":false},{"id":17820,"adult":false},{"id":9507,"adult":false},{"id":369656,"adult":false},{"id":369657,"adult":false},{"id":327743,"adult":false},{"id":369658,"adult":false},{"id":84937,"adult":false},{"id":303903,"adult":false},{"id":369659,"adult":false},{"id":60332,"adult":false},{"id":93291,"adult":false},{"id":350505,"adult":false},{"id":343412,"adult":false},{"id":369660,"adult":false},{"id":346307,"adult":false},{"id":205311,"adult":false},{"id":11654,"adult":false},{"id":812,"adult":false},{"id":108544,"adult":false},{"id":46907,"adult":false},{"id":369661,"adult":false},{"id":303872,"adult":false},{"id":57302,"adult":false},{"id":338273,"adult":false},{"id":231474,"adult":false},{"id":30974,"adult":false},{"id":74666,"adult":false},{"id":369662,"adult":false},{"id":9328,"adult":false},{"id":19268,"adult":false},{"id":363015,"adult":false},{"id":203801,"adult":false},{"id":55557,"adult":false},{"id":13206,"adult":false}],"page":64,"total_pages":101,"total_results":10039}