{"results":[{"id":299522,"adult":false},{"id":279558,"adult":false},{"id":267259,"adult":false},{"id":280732,"adult":false},{"id":289195,"adult":false},{"id":286652,"adult":false},{"id":286645,"adult":false},{"id":303731,"adult":false},{"id":111536,"adult":false},{"id":268526,"adult":false},{"id":315397,"adult":false},{"id":254299,"adult":false},{"id":237601,"adult":false},{"id":10308,"adult":false},{"id":37134,"adult":false},{"id":314062,"adult":false},{"id":76456,"adult":false},{"id":275152,"adult":false},{"id":26516,"adult":false},{"id":266568,"adult":false},{"id":332180,"adult":false},{"id":36291,"adult":false},{"id":275291,"adult":false},{"id":101331,"adult":false},{"id":313550,"adult":false},{"id":37512,"adult":false},{"id":5590,"adult":false},{"id":313897,"adult":false},{"id":313896,"adult":false},{"id":303639,"adult":false},{"id":290824,"adult":false},{"id":10755,"adult":false},{"id":256702,"adult":false},{"id":333968,"adult":false},{"id":18773,"adult":false},{"id":2269,"adult":false},{"id":661,"adult":false},{"id":108970,"adult":false},{"id":242987,"adult":false},{"id":249966,"adult":false},{"id":326530,"adult":false},{"id":251022,"adult":false},{"id":343129,"adult":null},{"id":705,"adult":false},{"id":55067,"adult":false},{"id":334829,"adult":false},{"id":122270,"adult":false},{"id":109380,"adult":false},{"id":129123,"adult":false},{"id":46919,"adult":false},{"id":266429,"adult":false},{"id":295626,"adult":false},{"id":31696,"adult":false},{"id":12193,"adult":false},{"id":3685,"adult":false},{"id":40082,"adult":false},{"id":16871,"adult":false},{"id":8869,"adult":false},{"id":21930,"adult":false},{"id":15092,"adult":false},{"id":363472,"adult":null},{"id":363473,"adult":false},{"id":47898,"adult":false},{"id":67736,"adult":false},{"id":10424,"adult":false},{"id":9282,"adult":false},{"id":44568,"adult":false},{"id":10395,"adult":false},{"id":124091,"adult":false},{"id":363474,"adult":false},{"id":1049,"adult":false},{"id":6149,"adult":false},{"id":236111,"adult":false},{"id":39276,"adult":false},{"id":61807,"adult":false},{"id":161868,"adult":false},{"id":9451,"adult":false},{"id":174453,"adult":false},{"id":45935,"adult":false},{"id":19742,"adult":false},{"id":119168,"adult":false},{"id":363475,"adult":null},{"id":184619,"adult":false},{"id":363476,"adult":false},{"id":35580,"adult":false},{"id":363477,"adult":false},{"id":363478,"adult":false},{"id":2962,"adult":false},{"id":14451,"adult":false},{"id":363479,"adult":false},{"id":363480,"adult":false},{"id":363481,"adult":false},{"id":60669,"adult":false},{"id":363482,"adult":false},{"id":363483,"adult":false},{"id":292182,"adult":false},{"id":236628,"adult":false},{"id":221902,"adult":false},{"id":363484,"adult":false},{"id":254474,"adult":false}],"page":80,"total_pages":108,"total_results":10774}