{"results":[{"id":42747,"adult":false},{"id":11614,"adult":false},{"id":75506,"adult":false},{"id":39903,"adult":false},{"id":9031,"adult":false},{"id":10295,"adult":false},{"id":49124,"adult":true},{"id":130267,"adult":false},{"id":190691,"adult":false},{"id":139730,"adult":false},{"id":244509,"adult":false},{"id":81870,"adult":false},{"id":11829,"adult":false},{"id":188468,"adult":false},{"id":341195,"adult":false},{"id":1407,"adult":false},{"id":271048,"adult":false},{"id":9394,"adult":false},{"id":336259,"adult":false},{"id":341196,"adult":false},{"id":245984,"adult":false},{"id":10922,"adult":false},{"id":341197,"adult":false},{"id":46216,"adult":true},{"id":341198,"adult":false},{"id":313358,"adult":false},{"id":341199,"adult":false},{"id":39415,"adult":false},{"id":52506,"adult":false},{"id":341200,"adult":false},{"id":263200,"adult":false},{"id":561,"adult":false},{"id":315899,"adult":false},{"id":19659,"adult":false},{"id":341201,"adult":false},{"id":37222,"adult":false},{"id":341202,"adult":false},{"id":195383,"adult":false},{"id":8842,"adult":false},{"id":160564,"adult":false},{"id":341203,"adult":false},{"id":289716,"adult":false},{"id":301351,"adult":false},{"id":341204,"adult":false},{"id":335078,"adult":false},{"id":277968,"adult":false},{"id":315263,"adult":false},{"id":9541,"adult":false},{"id":325579,"adult":false},{"id":341205,"adult":false},{"id":83538,"adult":false},{"id":341206,"adult":false},{"id":281249,"adult":false},{"id":101086,"adult":false},{"id":120,"adult":false},{"id":315584,"adult":false},{"id":327894,"adult":false},{"id":341207,"adult":false},{"id":111445,"adult":false},{"id":243684,"adult":false},{"id":5762,"adult":false},{"id":101088,"adult":false},{"id":341208,"adult":false},{"id":18700,"adult":false},{"id":341209,"adult":false},{"id":214525,"adult":false},{"id":68849,"adult":false},{"id":341210,"adult":false},{"id":321657,"adult":false},{"id":287649,"adult":false},{"id":341211,"adult":false},{"id":341212,"adult":false},{"id":252886,"adult":false},{"id":341213,"adult":false},{"id":341214,"adult":false},{"id":207356,"adult":false},{"id":80572,"adult":false},{"id":341215,"adult":false},{"id":52826,"adult":false},{"id":10179,"adult":false},{"id":149634,"adult":false},{"id":296500,"adult":false},{"id":83350,"adult":false},{"id":83357,"adult":false},{"id":146753,"adult":false},{"id":101264,"adult":false},{"id":341216,"adult":false},{"id":29805,"adult":false},{"id":253583,"adult":false},{"id":266030,"adult":false},{"id":341217,"adult":null},{"id":261526,"adult":false},{"id":23964,"adult":false},{"id":153695,"adult":false},{"id":341218,"adult":false},{"id":341219,"adult":false},{"id":337097,"adult":false},{"id":14053,"adult":false},{"id":146581,"adult":false},{"id":341220,"adult":false}],"page":58,"total_pages":103,"total_results":10276}