{"results":[{"id":372872,"adult":false},{"id":372873,"adult":false},{"id":67639,"adult":false},{"id":372874,"adult":false},{"id":372875,"adult":false},{"id":94660,"adult":false},{"id":372876,"adult":false},{"id":115,"adult":false},{"id":57294,"adult":false},{"id":372451,"adult":false},{"id":12229,"adult":false},{"id":372877,"adult":false},{"id":32054,"adult":false},{"id":366654,"adult":false},{"id":557,"adult":false},{"id":558,"adult":false},{"id":290,"adult":false},{"id":372878,"adult":false},{"id":559,"adult":false},{"id":22556,"adult":false},{"id":335265,"adult":false},{"id":102382,"adult":false},{"id":372879,"adult":false},{"id":1930,"adult":false},{"id":372880,"adult":false},{"id":367536,"adult":false},{"id":372881,"adult":false},{"id":336882,"adult":false},{"id":372882,"adult":false},{"id":68444,"adult":false},{"id":372883,"adult":false},{"id":356191,"adult":false},{"id":372884,"adult":false},{"id":117570,"adult":false},{"id":176703,"adult":null},{"id":369058,"adult":false},{"id":372885,"adult":false},{"id":363479,"adult":false},{"id":366631,"adult":false},{"id":11062,"adult":false},{"id":365194,"adult":false},{"id":283398,"adult":false},{"id":11477,"adult":false},{"id":266735,"adult":false},{"id":274128,"adult":false},{"id":171349,"adult":false},{"id":372886,"adult":false},{"id":22504,"adult":false},{"id":372887,"adult":false},{"id":372888,"adult":false},{"id":49071,"adult":false},{"id":267503,"adult":false},{"id":302802,"adult":false},{"id":53716,"adult":false},{"id":171344,"adult":false},{"id":271397,"adult":false},{"id":372889,"adult":false},{"id":372890,"adult":false},{"id":372891,"adult":false},{"id":372892,"adult":false},{"id":372893,"adult":false},{"id":372894,"adult":false},{"id":120467,"adult":false},{"id":372895,"adult":false},{"id":137566,"adult":false},{"id":252695,"adult":false},{"id":372896,"adult":false},{"id":9646,"adult":false},{"id":51143,"adult":false},{"id":367961,"adult":false},{"id":372897,"adult":false},{"id":372898,"adult":false},{"id":372899,"adult":false},{"id":372900,"adult":false},{"id":335444,"adult":false},{"id":372901,"adult":false},{"id":372902,"adult":false},{"id":293933,"adult":false},{"id":368638,"adult":false},{"id":363501,"adult":null},{"id":372903,"adult":false},{"id":1872,"adult":false},{"id":365544,"adult":false},{"id":236338,"adult":false},{"id":186935,"adult":false},{"id":98567,"adult":false},{"id":372904,"adult":false},{"id":334991,"adult":false},{"id":202449,"adult":false},{"id":232471,"adult":false},{"id":76843,"adult":false},{"id":119185,"adult":false},{"id":42585,"adult":false},{"id":318093,"adult":false},{"id":23516,"adult":false},{"id":207307,"adult":false},{"id":217436,"adult":false},{"id":266647,"adult":false},{"id":352490,"adult":false},{"id":50527,"adult":false}],"page":15,"total_pages":108,"total_results":10739}