{"results":[{"id":182843,"adult":false},{"id":1660,"adult":false},{"id":75076,"adult":false},{"id":325030,"adult":null},{"id":37080,"adult":false},{"id":19978,"adult":false},{"id":33691,"adult":false},{"id":325031,"adult":false},{"id":27371,"adult":false},{"id":8090,"adult":false},{"id":69537,"adult":false},{"id":325032,"adult":false},{"id":306758,"adult":false},{"id":38493,"adult":false},{"id":268171,"adult":false},{"id":10730,"adult":false},{"id":26638,"adult":false},{"id":245015,"adult":false},{"id":159523,"adult":false},{"id":283670,"adult":false},{"id":131176,"adult":false},{"id":254201,"adult":false},{"id":325033,"adult":false},{"id":581,"adult":false},{"id":9759,"adult":false},{"id":21786,"adult":false},{"id":249973,"adult":false},{"id":8920,"adult":false},{"id":325034,"adult":false},{"id":185181,"adult":false},{"id":158907,"adult":false},{"id":47583,"adult":false},{"id":57413,"adult":false},{"id":10220,"adult":false},{"id":45998,"adult":false},{"id":244761,"adult":false},{"id":44005,"adult":false},{"id":30810,"adult":false},{"id":325035,"adult":false},{"id":282983,"adult":false},{"id":19082,"adult":false},{"id":11450,"adult":false},{"id":278226,"adult":null},{"id":146523,"adult":false},{"id":160847,"adult":false},{"id":14822,"adult":false},{"id":184187,"adult":false},{"id":58694,"adult":false},{"id":5618,"adult":false},{"id":245071,"adult":false},{"id":40585,"adult":false},{"id":42177,"adult":false},{"id":186685,"adult":false},{"id":64301,"adult":false},{"id":325036,"adult":false},{"id":79305,"adult":false},{"id":160085,"adult":false},{"id":295099,"adult":false},{"id":325037,"adult":false},{"id":101031,"adult":false},{"id":319633,"adult":false},{"id":81534,"adult":false},{"id":51259,"adult":false},{"id":66943,"adult":false},{"id":16409,"adult":false},{"id":37943,"adult":false},{"id":14384,"adult":false},{"id":112430,"adult":false},{"id":968,"adult":false},{"id":41226,"adult":false},{"id":306278,"adult":false},{"id":45649,"adult":false},{"id":325038,"adult":false},{"id":320767,"adult":false},{"id":17692,"adult":false},{"id":28050,"adult":false},{"id":92233,"adult":false},{"id":99449,"adult":false},{"id":136576,"adult":false},{"id":315413,"adult":false},{"id":281228,"adult":false},{"id":81827,"adult":false},{"id":92751,"adult":false},{"id":26503,"adult":false},{"id":2118,"adult":false},{"id":90342,"adult":false},{"id":106155,"adult":false},{"id":15466,"adult":false},{"id":28209,"adult":false},{"id":202662,"adult":false},{"id":286325,"adult":false},{"id":198833,"adult":false},{"id":286329,"adult":false},{"id":79261,"adult":false},{"id":287593,"adult":false},{"id":79262,"adult":false},{"id":318038,"adult":false},{"id":290907,"adult":false},{"id":237210,"adult":false},{"id":290935,"adult":false}],"page":100,"total_pages":117,"total_results":11629}