{"results":[{"id":13760,"adult":false},{"id":32688,"adult":false},{"id":10156,"adult":false},{"id":341810,"adult":false},{"id":31654,"adult":false},{"id":341811,"adult":false},{"id":341812,"adult":null},{"id":148993,"adult":false},{"id":321200,"adult":false},{"id":341813,"adult":false},{"id":9503,"adult":false},{"id":10882,"adult":false},{"id":415,"adult":false},{"id":341815,"adult":false},{"id":18212,"adult":false},{"id":11006,"adult":false},{"id":12092,"adult":false},{"id":12705,"adult":false},{"id":100179,"adult":false},{"id":341816,"adult":false},{"id":15120,"adult":false},{"id":341817,"adult":false},{"id":27063,"adult":true},{"id":300480,"adult":false},{"id":9613,"adult":false},{"id":92705,"adult":false},{"id":129978,"adult":false},{"id":10010,"adult":false},{"id":20933,"adult":false},{"id":180054,"adult":false},{"id":189197,"adult":false},{"id":55694,"adult":false},{"id":52323,"adult":false},{"id":341818,"adult":false},{"id":9732,"adult":false},{"id":11798,"adult":false},{"id":129763,"adult":false},{"id":30543,"adult":false},{"id":91314,"adult":false},{"id":341819,"adult":false},{"id":11430,"adult":false},{"id":336687,"adult":false},{"id":199481,"adult":false},{"id":10895,"adult":false},{"id":341820,"adult":false},{"id":87524,"adult":false},{"id":84184,"adult":false},{"id":13205,"adult":false},{"id":87521,"adult":false},{"id":333483,"adult":true},{"id":341821,"adult":false},{"id":21356,"adult":false},{"id":10163,"adult":false},{"id":264318,"adult":false},{"id":341822,"adult":false},{"id":286435,"adult":false},{"id":322061,"adult":false},{"id":77806,"adult":true},{"id":232962,"adult":false},{"id":341823,"adult":false},{"id":11674,"adult":false},{"id":85969,"adult":false},{"id":152846,"adult":false},{"id":9078,"adult":false},{"id":4569,"adult":false},{"id":86220,"adult":false},{"id":39643,"adult":true},{"id":29078,"adult":false},{"id":152906,"adult":false},{"id":24309,"adult":false},{"id":39314,"adult":false},{"id":45184,"adult":false},{"id":13343,"adult":false},{"id":6,"adult":false},{"id":266184,"adult":false},{"id":23020,"adult":false},{"id":341824,"adult":true},{"id":341825,"adult":false},{"id":316290,"adult":true},{"id":9021,"adult":false},{"id":46852,"adult":false},{"id":242093,"adult":false},{"id":190362,"adult":false},{"id":341826,"adult":false},{"id":341827,"adult":true},{"id":54418,"adult":false},{"id":10548,"adult":false},{"id":129758,"adult":false},{"id":91481,"adult":false},{"id":126473,"adult":false},{"id":341828,"adult":false},{"id":341829,"adult":false},{"id":287527,"adult":false},{"id":9471,"adult":false},{"id":11525,"adult":false},{"id":129976,"adult":false},{"id":236310,"adult":false},{"id":252,"adult":false},{"id":90219,"adult":false},{"id":118957,"adult":false}],"page":87,"total_pages":103,"total_results":10276}