{"results":[{"id":8645,"adult":false},{"id":39254,"adult":false},{"id":13190,"adult":false},{"id":108079,"adult":false},{"id":74623,"adult":false},{"id":359685,"adult":false},{"id":85320,"adult":true},{"id":85311,"adult":false},{"id":338767,"adult":false},{"id":222481,"adult":null},{"id":74619,"adult":false},{"id":74617,"adult":false},{"id":9778,"adult":false},{"id":10194,"adult":false},{"id":11391,"adult":false},{"id":359686,"adult":false},{"id":257015,"adult":false},{"id":74622,"adult":false},{"id":59965,"adult":false},{"id":103758,"adult":false},{"id":169,"adult":false},{"id":335216,"adult":false},{"id":74621,"adult":false},{"id":11389,"adult":false},{"id":254024,"adult":false},{"id":97430,"adult":false},{"id":359687,"adult":null},{"id":359688,"adult":false},{"id":11390,"adult":false},{"id":11336,"adult":false},{"id":359690,"adult":false},{"id":15498,"adult":false},{"id":356898,"adult":false},{"id":292112,"adult":false},{"id":15499,"adult":false},{"id":359691,"adult":false},{"id":334922,"adult":false},{"id":12269,"adult":false},{"id":99229,"adult":false},{"id":11392,"adult":false},{"id":343803,"adult":false},{"id":359692,"adult":false},{"id":839,"adult":false},{"id":359693,"adult":false},{"id":304613,"adult":false},{"id":359694,"adult":false},{"id":12712,"adult":false},{"id":15539,"adult":false},{"id":359695,"adult":false},{"id":359696,"adult":false},{"id":14580,"adult":false},{"id":184314,"adult":false},{"id":60724,"adult":false},{"id":15537,"adult":false},{"id":1092,"adult":false},{"id":12549,"adult":false},{"id":81322,"adult":false},{"id":1365,"adult":false},{"id":191772,"adult":false},{"id":590,"adult":false},{"id":256876,"adult":false},{"id":86817,"adult":false},{"id":90560,"adult":false},{"id":41355,"adult":false},{"id":38783,"adult":false},{"id":359697,"adult":false},{"id":198546,"adult":false},{"id":13199,"adult":false},{"id":359698,"adult":false},{"id":359699,"adult":false},{"id":359700,"adult":false},{"id":66597,"adult":false},{"id":9526,"adult":false},{"id":359701,"adult":false},{"id":26725,"adult":false},{"id":359702,"adult":false},{"id":17365,"adult":false},{"id":65888,"adult":false},{"id":299898,"adult":false},{"id":299901,"adult":false},{"id":299908,"adult":false},{"id":359703,"adult":false},{"id":299906,"adult":false},{"id":299889,"adult":false},{"id":242916,"adult":false},{"id":320678,"adult":false},{"id":359704,"adult":false},{"id":294562,"adult":false},{"id":206203,"adult":false},{"id":281968,"adult":false},{"id":235830,"adult":false},{"id":359705,"adult":false},{"id":359706,"adult":false},{"id":359707,"adult":true},{"id":359708,"adult":false},{"id":338157,"adult":false},{"id":273599,"adult":false},{"id":359709,"adult":false},{"id":332606,"adult":false},{"id":126342,"adult":true}],"page":110,"total_pages":112,"total_results":11114}