{"results":[{"id":351177,"adult":false},{"id":351178,"adult":false},{"id":9624,"adult":false},{"id":351179,"adult":false},{"id":1378,"adult":false},{"id":276729,"adult":false},{"id":9768,"adult":false},{"id":26275,"adult":false},{"id":120856,"adult":false},{"id":351180,"adult":false},{"id":281955,"adult":false},{"id":12684,"adult":false},{"id":36998,"adult":false},{"id":351181,"adult":true},{"id":19762,"adult":false},{"id":139851,"adult":false},{"id":351182,"adult":false},{"id":28802,"adult":false},{"id":309299,"adult":false},{"id":12572,"adult":false},{"id":351183,"adult":false},{"id":28520,"adult":false},{"id":36691,"adult":false},{"id":40041,"adult":false},{"id":340255,"adult":false},{"id":1895,"adult":false},{"id":580,"adult":false},{"id":283445,"adult":false},{"id":31068,"adult":false},{"id":341174,"adult":false},{"id":324538,"adult":false},{"id":282983,"adult":false},{"id":23830,"adult":false},{"id":56323,"adult":false},{"id":4513,"adult":false},{"id":351185,"adult":false},{"id":14042,"adult":false},{"id":351186,"adult":false},{"id":351187,"adult":false},{"id":340382,"adult":false},{"id":29611,"adult":false},{"id":244801,"adult":false},{"id":18990,"adult":false},{"id":11791,"adult":false},{"id":77678,"adult":false},{"id":266647,"adult":false},{"id":37929,"adult":false},{"id":329909,"adult":false},{"id":351188,"adult":false},{"id":351189,"adult":false},{"id":31383,"adult":false},{"id":7183,"adult":false},{"id":136263,"adult":false},{"id":341041,"adult":false},{"id":310567,"adult":false},{"id":67687,"adult":false},{"id":351190,"adult":false},{"id":129459,"adult":false},{"id":207517,"adult":false},{"id":40969,"adult":false},{"id":255925,"adult":false},{"id":344120,"adult":false},{"id":351191,"adult":false},{"id":322479,"adult":false},{"id":68735,"adult":false},{"id":351192,"adult":false},{"id":1562,"adult":false},{"id":138731,"adult":false},{"id":328425,"adult":false},{"id":323272,"adult":false},{"id":170,"adult":false},{"id":264968,"adult":false},{"id":351193,"adult":false},{"id":275601,"adult":false},{"id":283223,"adult":false},{"id":351194,"adult":false},{"id":274857,"adult":false},{"id":248705,"adult":false},{"id":38695,"adult":false},{"id":43527,"adult":false},{"id":265099,"adult":false},{"id":336395,"adult":false},{"id":337339,"adult":false},{"id":301351,"adult":false},{"id":351195,"adult":false},{"id":312221,"adult":false},{"id":351196,"adult":false},{"id":229746,"adult":false},{"id":314402,"adult":false},{"id":351197,"adult":false},{"id":330764,"adult":false},{"id":351198,"adult":false},{"id":351199,"adult":false},{"id":11383,"adult":false},{"id":234862,"adult":false},{"id":351200,"adult":false},{"id":321910,"adult":false},{"id":351201,"adult":false},{"id":59955,"adult":false},{"id":351202,"adult":false}],"page":75,"total_pages":103,"total_results":10231}