{"results":[{"id":279183,"adult":false},{"id":343047,"adult":false},{"id":270010,"adult":false},{"id":306964,"adult":false},{"id":154400,"adult":false},{"id":315196,"adult":false},{"id":42702,"adult":false},{"id":10249,"adult":false},{"id":50348,"adult":false},{"id":116639,"adult":false},{"id":8676,"adult":false},{"id":287235,"adult":false},{"id":343048,"adult":false},{"id":343049,"adult":false},{"id":343050,"adult":true},{"id":23514,"adult":false},{"id":20933,"adult":false},{"id":27103,"adult":false},{"id":343051,"adult":null},{"id":343052,"adult":false},{"id":11625,"adult":false},{"id":13184,"adult":false},{"id":9385,"adult":false},{"id":9663,"adult":false},{"id":343053,"adult":false},{"id":82478,"adult":false},{"id":69526,"adult":false},{"id":282288,"adult":false},{"id":173937,"adult":false},{"id":99721,"adult":false},{"id":203,"adult":false},{"id":1284,"adult":false},{"id":9429,"adult":false},{"id":59034,"adult":false},{"id":652,"adult":false},{"id":63074,"adult":false},{"id":277,"adult":false},{"id":46825,"adult":false},{"id":7131,"adult":false},{"id":343054,"adult":false},{"id":56551,"adult":false},{"id":55748,"adult":false},{"id":11081,"adult":false},{"id":797,"adult":false},{"id":62575,"adult":false},{"id":335182,"adult":false},{"id":324794,"adult":false},{"id":231037,"adult":false},{"id":7451,"adult":false},{"id":343055,"adult":false},{"id":5966,"adult":false},{"id":56803,"adult":false},{"id":7303,"adult":false},{"id":2048,"adult":false},{"id":64825,"adult":false},{"id":13320,"adult":false},{"id":57017,"adult":false},{"id":343056,"adult":false},{"id":315009,"adult":false},{"id":267508,"adult":false},{"id":9398,"adult":false},{"id":343057,"adult":false},{"id":57917,"adult":false},{"id":64479,"adult":false},{"id":32092,"adult":false},{"id":9548,"adult":false},{"id":343058,"adult":false},{"id":46031,"adult":false},{"id":12547,"adult":false},{"id":337733,"adult":false},{"id":12654,"adult":false},{"id":151590,"adult":false},{"id":9416,"adult":false},{"id":157212,"adult":false},{"id":343059,"adult":false},{"id":53424,"adult":false},{"id":308165,"adult":false},{"id":168138,"adult":false},{"id":20558,"adult":false},{"id":276699,"adult":false},{"id":53234,"adult":false},{"id":302960,"adult":false},{"id":343061,"adult":false},{"id":343062,"adult":false},{"id":343063,"adult":false},{"id":343064,"adult":false},{"id":318564,"adult":false},{"id":343065,"adult":false},{"id":19064,"adult":false},{"id":67900,"adult":false},{"id":24634,"adult":false},{"id":343066,"adult":false},{"id":343067,"adult":false},{"id":17761,"adult":false},{"id":65157,"adult":false},{"id":232955,"adult":false},{"id":152581,"adult":false},{"id":270129,"adult":false},{"id":105222,"adult":false},{"id":249817,"adult":false}],"page":23,"total_pages":95,"total_results":9488}