{"results":[{"id":75040,"adult":false},{"id":63157,"adult":false},{"id":128237,"adult":false},{"id":96597,"adult":false},{"id":45225,"adult":false},{"id":42318,"adult":false},{"id":48260,"adult":false},{"id":197158,"adult":false},{"id":94754,"adult":false},{"id":34835,"adult":false},{"id":100215,"adult":false},{"id":71097,"adult":false},{"id":9643,"adult":false},{"id":17097,"adult":false},{"id":10310,"adult":false},{"id":44991,"adult":false},{"id":48633,"adult":false},{"id":52371,"adult":false},{"id":19362,"adult":false},{"id":360432,"adult":false},{"id":17638,"adult":false},{"id":38368,"adult":false},{"id":1429,"adult":false},{"id":360433,"adult":false},{"id":250225,"adult":false},{"id":21060,"adult":false},{"id":1018,"adult":false},{"id":9310,"adult":false},{"id":35830,"adult":false},{"id":41183,"adult":false},{"id":298660,"adult":false},{"id":379,"adult":false},{"id":75685,"adult":false},{"id":360434,"adult":false},{"id":267183,"adult":null},{"id":9504,"adult":false},{"id":265169,"adult":false},{"id":16433,"adult":false},{"id":111796,"adult":false},{"id":324930,"adult":false},{"id":25059,"adult":false},{"id":353375,"adult":false},{"id":360435,"adult":false},{"id":360436,"adult":false},{"id":14857,"adult":false},{"id":76543,"adult":false},{"id":359459,"adult":false},{"id":334440,"adult":false},{"id":354903,"adult":false},{"id":360437,"adult":false},{"id":313557,"adult":false},{"id":360438,"adult":false},{"id":319075,"adult":false},{"id":188166,"adult":false},{"id":251577,"adult":false},{"id":114034,"adult":false},{"id":191294,"adult":false},{"id":17,"adult":false},{"id":203833,"adult":false},{"id":6320,"adult":false},{"id":86184,"adult":false},{"id":123772,"adult":false},{"id":77495,"adult":false},{"id":284303,"adult":false},{"id":187647,"adult":false},{"id":298312,"adult":false},{"id":44326,"adult":false},{"id":360439,"adult":false},{"id":26762,"adult":false},{"id":72086,"adult":false},{"id":324064,"adult":false},{"id":276902,"adult":false},{"id":360440,"adult":false},{"id":360441,"adult":false},{"id":223425,"adult":false},{"id":18971,"adult":false},{"id":360442,"adult":false},{"id":220289,"adult":false},{"id":180147,"adult":false},{"id":214081,"adult":false},{"id":322842,"adult":false},{"id":12408,"adult":false},{"id":360443,"adult":false},{"id":3052,"adult":false},{"id":25001,"adult":false},{"id":282430,"adult":false},{"id":285843,"adult":false},{"id":360444,"adult":false},{"id":17701,"adult":false},{"id":360445,"adult":null},{"id":360446,"adult":false},{"id":356221,"adult":false},{"id":27329,"adult":false},{"id":360447,"adult":false},{"id":18633,"adult":false},{"id":360448,"adult":false},{"id":71592,"adult":false},{"id":360449,"adult":false},{"id":312023,"adult":false},{"id":71880,"adult":false}],"page":35,"total_pages":98,"total_results":9775}