{"results":[{"id":362611,"adult":false},{"id":77875,"adult":false},{"id":362613,"adult":false},{"id":41733,"adult":false},{"id":362617,"adult":false},{"id":82687,"adult":false},{"id":362618,"adult":true},{"id":123377,"adult":false},{"id":324679,"adult":false},{"id":332500,"adult":false},{"id":71157,"adult":false},{"id":350548,"adult":false},{"id":78206,"adult":false},{"id":362619,"adult":false},{"id":345134,"adult":false},{"id":122089,"adult":false},{"id":251860,"adult":false},{"id":362620,"adult":false},{"id":356174,"adult":false},{"id":241247,"adult":true},{"id":287084,"adult":false},{"id":89185,"adult":false},{"id":308187,"adult":false},{"id":283366,"adult":false},{"id":84175,"adult":false},{"id":270487,"adult":false},{"id":292285,"adult":false},{"id":362621,"adult":null},{"id":356556,"adult":false},{"id":60747,"adult":false},{"id":110733,"adult":false},{"id":328483,"adult":false},{"id":121703,"adult":false},{"id":82139,"adult":false},{"id":76249,"adult":false},{"id":103332,"adult":false},{"id":38683,"adult":false},{"id":362622,"adult":false},{"id":63582,"adult":false},{"id":299337,"adult":false},{"id":337245,"adult":false},{"id":112949,"adult":false},{"id":208592,"adult":false},{"id":361979,"adult":false},{"id":280652,"adult":false},{"id":362623,"adult":false},{"id":355115,"adult":false},{"id":129815,"adult":false},{"id":320051,"adult":false},{"id":20949,"adult":false},{"id":203696,"adult":false},{"id":362624,"adult":false},{"id":128311,"adult":false},{"id":14483,"adult":false},{"id":20947,"adult":false},{"id":362625,"adult":false},{"id":63580,"adult":false},{"id":257091,"adult":false},{"id":64392,"adult":false},{"id":362626,"adult":false},{"id":316272,"adult":false},{"id":311277,"adult":false},{"id":360629,"adult":false},{"id":35215,"adult":false},{"id":15423,"adult":false},{"id":51413,"adult":false},{"id":351037,"adult":false},{"id":362627,"adult":true},{"id":43717,"adult":false},{"id":243938,"adult":false},{"id":149845,"adult":false},{"id":5038,"adult":false},{"id":362628,"adult":false},{"id":84184,"adult":false},{"id":195960,"adult":false},{"id":21078,"adult":false},{"id":70586,"adult":false},{"id":54227,"adult":false},{"id":362629,"adult":false},{"id":65760,"adult":false},{"id":194237,"adult":false},{"id":55292,"adult":false},{"id":4421,"adult":false},{"id":362630,"adult":false},{"id":47108,"adult":false},{"id":194242,"adult":false},{"id":42246,"adult":false},{"id":43959,"adult":false},{"id":69794,"adult":false},{"id":20423,"adult":false},{"id":15657,"adult":false},{"id":80384,"adult":false},{"id":287491,"adult":false},{"id":15451,"adult":false},{"id":20410,"adult":false},{"id":42194,"adult":false},{"id":63700,"adult":false},{"id":164695,"adult":false},{"id":243536,"adult":false},{"id":30074,"adult":false}],"page":34,"total_pages":108,"total_results":10774}