{"results":[{"id":371810,"adult":false},{"id":9592,"adult":false},{"id":72551,"adult":false},{"id":232721,"adult":false},{"id":86065,"adult":false},{"id":263497,"adult":false},{"id":179826,"adult":false},{"id":14280,"adult":false},{"id":371811,"adult":false},{"id":1269,"adult":false},{"id":6637,"adult":false},{"id":116218,"adult":false},{"id":121814,"adult":false},{"id":2759,"adult":false},{"id":26173,"adult":false},{"id":3432,"adult":false},{"id":787,"adult":false},{"id":371812,"adult":false},{"id":43933,"adult":false},{"id":4566,"adult":false},{"id":358890,"adult":false},{"id":103261,"adult":false},{"id":371813,"adult":false},{"id":10087,"adult":false},{"id":76544,"adult":false},{"id":369245,"adult":false},{"id":368006,"adult":false},{"id":1494,"adult":false},{"id":49298,"adult":false},{"id":128767,"adult":false},{"id":240832,"adult":false},{"id":353501,"adult":false},{"id":369564,"adult":false},{"id":368371,"adult":false},{"id":356783,"adult":false},{"id":361519,"adult":false},{"id":9646,"adult":false},{"id":14565,"adult":false},{"id":371814,"adult":false},{"id":23736,"adult":false},{"id":319373,"adult":false},{"id":338927,"adult":false},{"id":66120,"adult":false},{"id":115527,"adult":false},{"id":49693,"adult":false},{"id":319340,"adult":false},{"id":280880,"adult":false},{"id":255540,"adult":false},{"id":371815,"adult":false},{"id":49583,"adult":false},{"id":8871,"adult":false},{"id":68381,"adult":false},{"id":4464,"adult":false},{"id":366148,"adult":false},{"id":371816,"adult":false},{"id":295591,"adult":false},{"id":232285,"adult":false},{"id":280097,"adult":false},{"id":371817,"adult":false},{"id":366630,"adult":false},{"id":220115,"adult":false},{"id":371818,"adult":false},{"id":371819,"adult":false},{"id":371820,"adult":false},{"id":10096,"adult":false},{"id":371821,"adult":false},{"id":371822,"adult":false},{"id":142884,"adult":false},{"id":195652,"adult":false},{"id":371823,"adult":false},{"id":74,"adult":false},{"id":15956,"adult":false},{"id":371824,"adult":false},{"id":261023,"adult":false},{"id":371825,"adult":false},{"id":371826,"adult":null},{"id":10303,"adult":false},{"id":371827,"adult":false},{"id":225030,"adult":false},{"id":232713,"adult":false},{"id":371828,"adult":false},{"id":21764,"adult":false},{"id":123056,"adult":false},{"id":371829,"adult":false},{"id":371830,"adult":false},{"id":23049,"adult":false},{"id":371832,"adult":false},{"id":371833,"adult":false},{"id":907,"adult":false},{"id":4627,"adult":false},{"id":36278,"adult":false},{"id":242022,"adult":false},{"id":40687,"adult":false},{"id":239400,"adult":false},{"id":159937,"adult":false},{"id":9515,"adult":false},{"id":18217,"adult":false},{"id":371834,"adult":false},{"id":371835,"adult":false},{"id":13346,"adult":false}],"page":66,"total_pages":97,"total_results":9613}