{"results":[{"id":283351,"adult":false},{"id":59375,"adult":false},{"id":69336,"adult":false},{"id":242528,"adult":false},{"id":226672,"adult":false},{"id":295398,"adult":false},{"id":188166,"adult":false},{"id":24622,"adult":false},{"id":314285,"adult":false},{"id":251486,"adult":false},{"id":20604,"adult":false},{"id":121498,"adult":false},{"id":339366,"adult":false},{"id":306197,"adult":false},{"id":261817,"adult":false},{"id":11068,"adult":false},{"id":17832,"adult":false},{"id":291537,"adult":false},{"id":87436,"adult":false},{"id":310593,"adult":false},{"id":52657,"adult":false},{"id":11523,"adult":false},{"id":339367,"adult":false},{"id":319171,"adult":false},{"id":316635,"adult":false},{"id":55557,"adult":false},{"id":305140,"adult":false},{"id":191521,"adult":false},{"id":339368,"adult":false},{"id":329890,"adult":false},{"id":10028,"adult":false},{"id":272698,"adult":false},{"id":55706,"adult":false},{"id":90351,"adult":false},{"id":55888,"adult":false},{"id":339369,"adult":false},{"id":4241,"adult":false},{"id":132706,"adult":false},{"id":25666,"adult":false},{"id":144326,"adult":false},{"id":189505,"adult":false},{"id":227738,"adult":false},{"id":39863,"adult":false},{"id":67205,"adult":false},{"id":169806,"adult":false},{"id":58955,"adult":false},{"id":274109,"adult":false},{"id":339370,"adult":false},{"id":36800,"adult":false},{"id":335053,"adult":false},{"id":106752,"adult":false},{"id":41521,"adult":false},{"id":3683,"adult":false},{"id":37124,"adult":false},{"id":322771,"adult":false},{"id":329094,"adult":false},{"id":1251,"adult":false},{"id":94257,"adult":false},{"id":53129,"adult":false},{"id":42952,"adult":false},{"id":185079,"adult":false},{"id":111183,"adult":false},{"id":337661,"adult":false},{"id":317495,"adult":false},{"id":339371,"adult":false},{"id":280463,"adult":false},{"id":339372,"adult":false},{"id":331133,"adult":false},{"id":339373,"adult":false},{"id":298158,"adult":false},{"id":254005,"adult":false},{"id":42170,"adult":false},{"id":98501,"adult":false},{"id":201771,"adult":false},{"id":159118,"adult":false},{"id":339374,"adult":false},{"id":339375,"adult":false},{"id":166184,"adult":false},{"id":228445,"adult":false},{"id":339376,"adult":false},{"id":41472,"adult":false},{"id":290847,"adult":false},{"id":49573,"adult":false},{"id":147655,"adult":false},{"id":288644,"adult":false},{"id":339377,"adult":false},{"id":143310,"adult":false},{"id":82450,"adult":false},{"id":29113,"adult":false},{"id":305436,"adult":false},{"id":143778,"adult":false},{"id":339378,"adult":false},{"id":339379,"adult":false},{"id":337220,"adult":false},{"id":32832,"adult":false},{"id":273248,"adult":false},{"id":273245,"adult":false},{"id":172409,"adult":false},{"id":143308,"adult":false},{"id":10468,"adult":false}],"page":72,"total_pages":106,"total_results":10547}