{"results":[{"id":214312,"adult":false},{"id":8288,"adult":false},{"id":176537,"adult":false},{"id":117350,"adult":false},{"id":299072,"adult":false},{"id":244509,"adult":false},{"id":88478,"adult":false},{"id":262072,"adult":false},{"id":239216,"adult":false},{"id":184781,"adult":false},{"id":262068,"adult":false},{"id":209403,"adult":false},{"id":262071,"adult":false},{"id":264612,"adult":false},{"id":262008,"adult":false},{"id":262005,"adult":false},{"id":262073,"adult":false},{"id":262070,"adult":false},{"id":279891,"adult":false},{"id":262067,"adult":false},{"id":195207,"adult":false},{"id":10635,"adult":false},{"id":228635,"adult":false},{"id":331481,"adult":false},{"id":262075,"adult":false},{"id":263410,"adult":false},{"id":331482,"adult":false},{"id":304269,"adult":false},{"id":63672,"adult":null},{"id":331483,"adult":false},{"id":9335,"adult":false},{"id":4108,"adult":false},{"id":330629,"adult":false},{"id":49398,"adult":false},{"id":331484,"adult":false},{"id":22612,"adult":false},{"id":205724,"adult":false},{"id":8836,"adult":false},{"id":846,"adult":false},{"id":38119,"adult":false},{"id":329103,"adult":false},{"id":331485,"adult":false},{"id":10751,"adult":false},{"id":7552,"adult":false},{"id":55420,"adult":false},{"id":67976,"adult":false},{"id":14628,"adult":false},{"id":55790,"adult":false},{"id":57129,"adult":false},{"id":111565,"adult":null},{"id":331486,"adult":false},{"id":2355,"adult":false},{"id":66745,"adult":false},{"id":14546,"adult":false},{"id":331487,"adult":false},{"id":11807,"adult":false},{"id":323370,"adult":false},{"id":14200,"adult":false},{"id":198646,"adult":false},{"id":269495,"adult":false},{"id":284,"adult":false},{"id":286121,"adult":null},{"id":115111,"adult":false},{"id":331488,"adult":false},{"id":113947,"adult":false},{"id":1092,"adult":false},{"id":188757,"adult":false},{"id":222461,"adult":false},{"id":157832,"adult":false},{"id":241251,"adult":false},{"id":157829,"adult":false},{"id":185957,"adult":false},{"id":215650,"adult":false},{"id":331489,"adult":false},{"id":197736,"adult":false},{"id":331490,"adult":false},{"id":76310,"adult":false},{"id":197729,"adult":false},{"id":81042,"adult":false},{"id":174055,"adult":false},{"id":245442,"adult":false},{"id":206199,"adult":false},{"id":284423,"adult":false},{"id":331491,"adult":false},{"id":252512,"adult":false},{"id":270302,"adult":false},{"id":252178,"adult":false},{"id":84556,"adult":false},{"id":110956,"adult":false},{"id":93910,"adult":false},{"id":89267,"adult":false},{"id":55237,"adult":false},{"id":127905,"adult":false},{"id":154537,"adult":false},{"id":41773,"adult":false},{"id":331492,"adult":false},{"id":331493,"adult":false},{"id":123603,"adult":false},{"id":244506,"adult":false},{"id":84553,"adult":false}],"page":45,"total_pages":129,"total_results":12871}