{"results":[{"id":27998,"adult":false},{"id":329314,"adult":false},{"id":251432,"adult":false},{"id":267091,"adult":false},{"id":16766,"adult":false},{"id":325263,"adult":false},{"id":329315,"adult":false},{"id":65034,"adult":false},{"id":291532,"adult":false},{"id":45441,"adult":false},{"id":254191,"adult":false},{"id":329316,"adult":false},{"id":180109,"adult":false},{"id":30839,"adult":false},{"id":165963,"adult":false},{"id":329317,"adult":false},{"id":157825,"adult":false},{"id":210908,"adult":false},{"id":115784,"adult":false},{"id":148057,"adult":false},{"id":88043,"adult":false},{"id":11831,"adult":false},{"id":83214,"adult":false},{"id":329318,"adult":false},{"id":46194,"adult":false},{"id":329319,"adult":false},{"id":152790,"adult":false},{"id":81983,"adult":false},{"id":329321,"adult":false},{"id":42341,"adult":false},{"id":11045,"adult":false},{"id":207780,"adult":false},{"id":18626,"adult":false},{"id":268823,"adult":false},{"id":57238,"adult":false},{"id":214083,"adult":false},{"id":329323,"adult":false},{"id":329324,"adult":false},{"id":16007,"adult":false},{"id":72753,"adult":false},{"id":329325,"adult":false},{"id":329326,"adult":false},{"id":329327,"adult":false},{"id":10711,"adult":false},{"id":18660,"adult":false},{"id":329328,"adult":false},{"id":329329,"adult":false},{"id":22328,"adult":false},{"id":329330,"adult":false},{"id":85032,"adult":false},{"id":32611,"adult":false},{"id":47002,"adult":false},{"id":20173,"adult":false},{"id":329331,"adult":false},{"id":36645,"adult":false},{"id":179621,"adult":false},{"id":329332,"adult":false},{"id":20235,"adult":false},{"id":13313,"adult":false},{"id":130221,"adult":false},{"id":21299,"adult":false},{"id":241046,"adult":false},{"id":14405,"adult":false},{"id":54540,"adult":false},{"id":103195,"adult":false},{"id":320461,"adult":false},{"id":9058,"adult":false},{"id":275519,"adult":false},{"id":16249,"adult":false},{"id":230628,"adult":false},{"id":42596,"adult":false},{"id":314964,"adult":false},{"id":329333,"adult":false},{"id":152747,"adult":false},{"id":329334,"adult":false},{"id":13655,"adult":false},{"id":17962,"adult":false},{"id":44244,"adult":false},{"id":19378,"adult":false},{"id":9459,"adult":false},{"id":71855,"adult":false},{"id":14547,"adult":false},{"id":57855,"adult":false},{"id":138317,"adult":false},{"id":329335,"adult":false},{"id":63384,"adult":false},{"id":151263,"adult":false},{"id":65157,"adult":false},{"id":32293,"adult":false},{"id":37609,"adult":false},{"id":329336,"adult":false},{"id":197916,"adult":false},{"id":13669,"adult":false},{"id":14128,"adult":false},{"id":45715,"adult":false},{"id":329337,"adult":false},{"id":329338,"adult":false},{"id":29228,"adult":false},{"id":18303,"adult":false},{"id":18357,"adult":false}],"page":74,"total_pages":123,"total_results":12300}