{"results":[{"id":9786,"adult":false},{"id":354753,"adult":false},{"id":10639,"adult":false},{"id":5691,"adult":false},{"id":5354,"adult":false},{"id":63894,"adult":false},{"id":354754,"adult":false},{"id":2233,"adult":false},{"id":12619,"adult":false},{"id":10984,"adult":false},{"id":41855,"adult":false},{"id":331821,"adult":false},{"id":754,"adult":false},{"id":24524,"adult":false},{"id":2805,"adult":false},{"id":145814,"adult":false},{"id":2988,"adult":false},{"id":354755,"adult":false},{"id":9694,"adult":false},{"id":11584,"adult":false},{"id":10571,"adult":false},{"id":38043,"adult":false},{"id":7913,"adult":false},{"id":97248,"adult":false},{"id":135531,"adult":false},{"id":293828,"adult":false},{"id":17935,"adult":false},{"id":9299,"adult":false},{"id":10032,"adult":false},{"id":10726,"adult":false},{"id":11025,"adult":false},{"id":86493,"adult":false},{"id":354756,"adult":false},{"id":8279,"adult":false},{"id":354757,"adult":false},{"id":9432,"adult":false},{"id":13541,"adult":false},{"id":55872,"adult":false},{"id":70136,"adult":false},{"id":880,"adult":false},{"id":73553,"adult":false},{"id":241601,"adult":false},{"id":13389,"adult":false},{"id":82132,"adult":false},{"id":34595,"adult":false},{"id":273,"adult":false},{"id":9847,"adult":false},{"id":354145,"adult":false},{"id":190504,"adult":null},{"id":226191,"adult":false},{"id":227933,"adult":false},{"id":210395,"adult":false},{"id":113217,"adult":false},{"id":229173,"adult":false},{"id":54832,"adult":false},{"id":2604,"adult":false},{"id":286548,"adult":false},{"id":71244,"adult":false},{"id":10783,"adult":false},{"id":192868,"adult":false},{"id":354758,"adult":false},{"id":37753,"adult":false},{"id":27864,"adult":false},{"id":32873,"adult":false},{"id":37764,"adult":false},{"id":42500,"adult":false},{"id":245538,"adult":false},{"id":21242,"adult":false},{"id":23742,"adult":false},{"id":79645,"adult":false},{"id":2502,"adult":false},{"id":5920,"adult":false},{"id":132328,"adult":false},{"id":242257,"adult":false},{"id":354759,"adult":false},{"id":336029,"adult":false},{"id":117,"adult":false},{"id":21972,"adult":false},{"id":1593,"adult":false},{"id":294897,"adult":false},{"id":64935,"adult":false},{"id":185347,"adult":false},{"id":87826,"adult":false},{"id":9843,"adult":false},{"id":9471,"adult":false},{"id":111563,"adult":false},{"id":354760,"adult":false},{"id":152554,"adult":false},{"id":251577,"adult":false},{"id":323432,"adult":false},{"id":317290,"adult":false},{"id":17965,"adult":false},{"id":72882,"adult":false},{"id":32684,"adult":false},{"id":294293,"adult":false},{"id":61565,"adult":false},{"id":196798,"adult":false},{"id":30091,"adult":false},{"id":38189,"adult":false},{"id":38183,"adult":false}],"page":10,"total_pages":100,"total_results":9908}