{"results":[{"id":147859,"adult":false},{"id":213574,"adult":false},{"id":170,"adult":false},{"id":10731,"adult":false},{"id":28409,"adult":false},{"id":11665,"adult":false},{"id":207768,"adult":false},{"id":184363,"adult":false},{"id":271714,"adult":false},{"id":43701,"adult":false},{"id":144611,"adult":false},{"id":351160,"adult":false},{"id":49687,"adult":false},{"id":45176,"adult":false},{"id":345286,"adult":false},{"id":92475,"adult":false},{"id":284689,"adult":false},{"id":144996,"adult":false},{"id":242042,"adult":false},{"id":246827,"adult":false},{"id":2605,"adult":false},{"id":255525,"adult":false},{"id":370833,"adult":false},{"id":370834,"adult":false},{"id":370835,"adult":false},{"id":32058,"adult":false},{"id":370837,"adult":false},{"id":230179,"adult":false},{"id":58224,"adult":false},{"id":221737,"adult":false},{"id":370838,"adult":false},{"id":22383,"adult":false},{"id":288314,"adult":false},{"id":370839,"adult":false},{"id":276907,"adult":false},{"id":151933,"adult":false},{"id":333657,"adult":false},{"id":370631,"adult":false},{"id":370840,"adult":false},{"id":132811,"adult":false},{"id":369949,"adult":false},{"id":369078,"adult":null},{"id":369150,"adult":false},{"id":330764,"adult":false},{"id":314365,"adult":false},{"id":157777,"adult":false},{"id":341749,"adult":false},{"id":293299,"adult":false},{"id":370841,"adult":false},{"id":142964,"adult":false},{"id":312810,"adult":false},{"id":107055,"adult":false},{"id":370842,"adult":false},{"id":264058,"adult":false},{"id":356776,"adult":false},{"id":335363,"adult":false},{"id":138126,"adult":false},{"id":15955,"adult":false},{"id":839,"adult":false},{"id":63378,"adult":false},{"id":81062,"adult":false},{"id":299687,"adult":false},{"id":69512,"adult":false},{"id":7214,"adult":false},{"id":9628,"adult":false},{"id":157544,"adult":false},{"id":127846,"adult":false},{"id":370843,"adult":false},{"id":94405,"adult":false},{"id":342690,"adult":false},{"id":9331,"adult":false},{"id":17028,"adult":false},{"id":42581,"adult":false},{"id":344791,"adult":false},{"id":344238,"adult":false},{"id":20236,"adult":false},{"id":185167,"adult":false},{"id":62396,"adult":false},{"id":14349,"adult":false},{"id":354847,"adult":false},{"id":2675,"adult":false},{"id":41682,"adult":false},{"id":370845,"adult":false},{"id":46443,"adult":false},{"id":370846,"adult":false},{"id":220,"adult":false},{"id":66373,"adult":false},{"id":43499,"adult":false},{"id":55179,"adult":false},{"id":20638,"adult":false},{"id":10580,"adult":false},{"id":184129,"adult":false},{"id":50104,"adult":false},{"id":17382,"adult":false},{"id":39435,"adult":false},{"id":282671,"adult":false},{"id":173655,"adult":false},{"id":336882,"adult":false},{"id":328857,"adult":false},{"id":99650,"adult":false}],"page":11,"total_pages":97,"total_results":9613}