{"results":[{"id":373922,"adult":false},{"id":52416,"adult":false},{"id":44025,"adult":false},{"id":38752,"adult":false},{"id":72286,"adult":false},{"id":2980,"adult":false},{"id":90306,"adult":false},{"id":373923,"adult":false},{"id":261286,"adult":false},{"id":135466,"adult":false},{"id":66470,"adult":false},{"id":93840,"adult":false},{"id":86083,"adult":false},{"id":33195,"adult":false},{"id":373924,"adult":false},{"id":199753,"adult":false},{"id":47814,"adult":false},{"id":373925,"adult":false},{"id":136616,"adult":false},{"id":14594,"adult":false},{"id":178809,"adult":false},{"id":248933,"adult":false},{"id":72491,"adult":false},{"id":254904,"adult":false},{"id":13612,"adult":false},{"id":265332,"adult":false},{"id":366123,"adult":false},{"id":137094,"adult":false},{"id":373926,"adult":false},{"id":287692,"adult":false},{"id":242095,"adult":false},{"id":9031,"adult":false},{"id":11367,"adult":false},{"id":11340,"adult":false},{"id":25388,"adult":false},{"id":11051,"adult":false},{"id":68727,"adult":false},{"id":373927,"adult":false},{"id":352128,"adult":false},{"id":58244,"adult":false},{"id":72190,"adult":false},{"id":250385,"adult":false},{"id":215379,"adult":false},{"id":371899,"adult":false},{"id":94528,"adult":false},{"id":185567,"adult":false},{"id":373928,"adult":false},{"id":35861,"adult":false},{"id":373929,"adult":false},{"id":986,"adult":false},{"id":371647,"adult":false},{"id":371804,"adult":false},{"id":373930,"adult":false},{"id":314507,"adult":false},{"id":98349,"adult":false},{"id":229264,"adult":false},{"id":273169,"adult":false},{"id":35263,"adult":false},{"id":66162,"adult":false},{"id":288494,"adult":false},{"id":12309,"adult":false},{"id":193318,"adult":false},{"id":82474,"adult":false},{"id":20263,"adult":false},{"id":276633,"adult":false},{"id":30177,"adult":false},{"id":18182,"adult":false},{"id":100589,"adult":false},{"id":21334,"adult":false},{"id":70417,"adult":false},{"id":106440,"adult":false},{"id":328247,"adult":false},{"id":119819,"adult":false},{"id":249046,"adult":false},{"id":68439,"adult":false},{"id":12554,"adult":false},{"id":328872,"adult":false},{"id":7514,"adult":false},{"id":62483,"adult":false},{"id":77012,"adult":false},{"id":258691,"adult":false},{"id":15516,"adult":false},{"id":1643,"adult":false},{"id":121986,"adult":false},{"id":342878,"adult":false},{"id":360280,"adult":false},{"id":270225,"adult":false},{"id":43585,"adult":false},{"id":46465,"adult":false},{"id":180779,"adult":false},{"id":266483,"adult":null},{"id":11162,"adult":false},{"id":11620,"adult":false},{"id":81140,"adult":false},{"id":51036,"adult":false},{"id":189888,"adult":false},{"id":140250,"adult":false},{"id":140240,"adult":false},{"id":318917,"adult":false},{"id":107414,"adult":false}],"page":72,"total_pages":108,"total_results":10739}