{"results":[{"id":50553,"adult":false},{"id":203221,"adult":false},{"id":334298,"adult":false},{"id":243856,"adult":false},{"id":352756,"adult":false},{"id":343688,"adult":false},{"id":352757,"adult":false},{"id":273481,"adult":false},{"id":60660,"adult":false},{"id":352758,"adult":false},{"id":352759,"adult":false},{"id":12146,"adult":false},{"id":329833,"adult":false},{"id":292739,"adult":null},{"id":351786,"adult":false},{"id":44968,"adult":false},{"id":30055,"adult":false},{"id":335244,"adult":false},{"id":323690,"adult":false},{"id":299141,"adult":false},{"id":239619,"adult":false},{"id":52286,"adult":false},{"id":44383,"adult":false},{"id":352760,"adult":false},{"id":10808,"adult":false},{"id":352761,"adult":false},{"id":312789,"adult":false},{"id":71078,"adult":false},{"id":9946,"adult":false},{"id":352762,"adult":false},{"id":352763,"adult":false},{"id":49979,"adult":false},{"id":125395,"adult":false},{"id":352764,"adult":false},{"id":352765,"adult":false},{"id":352766,"adult":false},{"id":323710,"adult":false},{"id":352767,"adult":false},{"id":219250,"adult":false},{"id":173941,"adult":false},{"id":240614,"adult":false},{"id":18706,"adult":false},{"id":352768,"adult":false},{"id":272693,"adult":false},{"id":43956,"adult":false},{"id":352769,"adult":false},{"id":123553,"adult":false},{"id":11510,"adult":false},{"id":352770,"adult":false},{"id":315367,"adult":false},{"id":314304,"adult":false},{"id":352771,"adult":false},{"id":314646,"adult":false},{"id":415,"adult":false},{"id":279498,"adult":false},{"id":314774,"adult":false},{"id":314764,"adult":false},{"id":314767,"adult":false},{"id":273123,"adult":false},{"id":314760,"adult":false},{"id":314758,"adult":false},{"id":328011,"adult":false},{"id":314752,"adult":false},{"id":314735,"adult":false},{"id":342430,"adult":false},{"id":352772,"adult":false},{"id":342548,"adult":false},{"id":342549,"adult":false},{"id":99770,"adult":false},{"id":342559,"adult":false},{"id":342561,"adult":false},{"id":43065,"adult":false},{"id":173561,"adult":false},{"id":244776,"adult":false},{"id":135806,"adult":false},{"id":277154,"adult":false},{"id":211954,"adult":false},{"id":346965,"adult":false},{"id":352773,"adult":false},{"id":8053,"adult":false},{"id":58764,"adult":false},{"id":16281,"adult":false},{"id":172119,"adult":null},{"id":352774,"adult":false},{"id":16288,"adult":false},{"id":344753,"adult":false},{"id":352775,"adult":false},{"id":352776,"adult":false},{"id":260001,"adult":false},{"id":302742,"adult":false},{"id":352777,"adult":false},{"id":352778,"adult":false},{"id":271429,"adult":false},{"id":352779,"adult":false},{"id":71679,"adult":false},{"id":27117,"adult":false},{"id":352780,"adult":false},{"id":352781,"adult":false},{"id":352782,"adult":false},{"id":14072,"adult":false}],"page":15,"total_pages":89,"total_results":8876}