{"results":[{"id":54288,"adult":false},{"id":264939,"adult":false},{"id":277693,"adult":false},{"id":316028,"adult":false},{"id":316029,"adult":false},{"id":316030,"adult":false},{"id":18939,"adult":false},{"id":42080,"adult":false},{"id":316031,"adult":false},{"id":316032,"adult":false},{"id":36897,"adult":false},{"id":316033,"adult":false},{"id":77561,"adult":false},{"id":55444,"adult":false},{"id":316035,"adult":false},{"id":316036,"adult":false},{"id":55712,"adult":false},{"id":186976,"adult":false},{"id":32579,"adult":false},{"id":47942,"adult":false},{"id":276520,"adult":false},{"id":113590,"adult":false},{"id":316037,"adult":false},{"id":305678,"adult":false},{"id":133254,"adult":false},{"id":223993,"adult":false},{"id":108535,"adult":false},{"id":40483,"adult":false},{"id":316038,"adult":false},{"id":14370,"adult":false},{"id":11787,"adult":false},{"id":59144,"adult":false},{"id":297700,"adult":false},{"id":139320,"adult":false},{"id":25005,"adult":false},{"id":264026,"adult":false},{"id":21721,"adult":false},{"id":182560,"adult":false},{"id":30085,"adult":false},{"id":151756,"adult":false},{"id":305665,"adult":false},{"id":282398,"adult":false},{"id":316040,"adult":false},{"id":316041,"adult":false},{"id":316042,"adult":false},{"id":306543,"adult":false},{"id":121938,"adult":false},{"id":316043,"adult":false},{"id":316044,"adult":false},{"id":316045,"adult":false},{"id":253626,"adult":false},{"id":316046,"adult":false},{"id":102899,"adult":false},{"id":316047,"adult":false},{"id":298756,"adult":false},{"id":312497,"adult":false},{"id":72421,"adult":false},{"id":285177,"adult":false},{"id":316048,"adult":false},{"id":52949,"adult":false},{"id":18491,"adult":false},{"id":227094,"adult":false},{"id":2721,"adult":false},{"id":27061,"adult":false},{"id":316049,"adult":false},{"id":85051,"adult":false},{"id":115604,"adult":false},{"id":316050,"adult":false},{"id":316051,"adult":false},{"id":4133,"adult":false},{"id":316052,"adult":false},{"id":44120,"adult":false},{"id":112326,"adult":false},{"id":30458,"adult":false},{"id":316053,"adult":false},{"id":316054,"adult":false},{"id":19004,"adult":false},{"id":314420,"adult":false},{"id":288737,"adult":false},{"id":279435,"adult":false},{"id":316055,"adult":false},{"id":316056,"adult":false},{"id":274049,"adult":false},{"id":38942,"adult":false},{"id":316057,"adult":false},{"id":273881,"adult":false},{"id":54012,"adult":false},{"id":184264,"adult":false},{"id":63216,"adult":false},{"id":164630,"adult":false},{"id":68968,"adult":false},{"id":316058,"adult":false},{"id":61685,"adult":false},{"id":203806,"adult":false},{"id":157843,"adult":false},{"id":138642,"adult":false},{"id":191057,"adult":false},{"id":85805,"adult":false},{"id":34424,"adult":false},{"id":81447,"adult":false}],"page":52,"total_pages":115,"total_results":11442}