{"results":[{"id":337558,"adult":false},{"id":11001,"adult":false},{"id":337559,"adult":false},{"id":9574,"adult":false},{"id":8292,"adult":false},{"id":64448,"adult":false},{"id":10634,"adult":false},{"id":82980,"adult":false},{"id":255382,"adult":false},{"id":11808,"adult":false},{"id":111355,"adult":null},{"id":43874,"adult":false},{"id":18901,"adult":false},{"id":52526,"adult":false},{"id":254703,"adult":false},{"id":137131,"adult":null},{"id":77117,"adult":false},{"id":41944,"adult":false},{"id":19594,"adult":false},{"id":210816,"adult":false},{"id":337560,"adult":false},{"id":13759,"adult":false},{"id":28211,"adult":false},{"id":194106,"adult":false},{"id":337561,"adult":false},{"id":77174,"adult":false},{"id":39543,"adult":false},{"id":34083,"adult":false},{"id":52371,"adult":false},{"id":95342,"adult":false},{"id":75531,"adult":false},{"id":9075,"adult":false},{"id":279914,"adult":false},{"id":199679,"adult":false},{"id":179825,"adult":false},{"id":104099,"adult":false},{"id":337562,"adult":false},{"id":337563,"adult":false},{"id":337564,"adult":false},{"id":18575,"adult":false},{"id":337565,"adult":false},{"id":337566,"adult":false},{"id":75748,"adult":false},{"id":303110,"adult":false},{"id":337567,"adult":false},{"id":76535,"adult":false},{"id":337568,"adult":false},{"id":337569,"adult":false},{"id":311215,"adult":false},{"id":1651,"adult":false},{"id":29592,"adult":false},{"id":43194,"adult":false},{"id":93427,"adult":false},{"id":168496,"adult":false},{"id":18703,"adult":false},{"id":68443,"adult":false},{"id":85926,"adult":false},{"id":31555,"adult":false},{"id":264866,"adult":false},{"id":1938,"adult":false},{"id":337570,"adult":false},{"id":250734,"adult":false},{"id":337571,"adult":false},{"id":337572,"adult":false},{"id":72838,"adult":false},{"id":337573,"adult":false},{"id":12576,"adult":false},{"id":4934,"adult":false},{"id":37911,"adult":false},{"id":105537,"adult":false},{"id":142254,"adult":false},{"id":64963,"adult":false},{"id":107511,"adult":false},{"id":18193,"adult":false},{"id":23728,"adult":false},{"id":42620,"adult":false},{"id":337574,"adult":false},{"id":11573,"adult":false},{"id":71654,"adult":false},{"id":43226,"adult":false},{"id":99008,"adult":false},{"id":177211,"adult":false},{"id":175681,"adult":false},{"id":64077,"adult":false},{"id":337575,"adult":false},{"id":12484,"adult":false},{"id":160580,"adult":false},{"id":20441,"adult":false},{"id":16335,"adult":false},{"id":337576,"adult":false},{"id":13557,"adult":false},{"id":58664,"adult":false},{"id":337577,"adult":false},{"id":9539,"adult":false},{"id":10256,"adult":false},{"id":10288,"adult":false},{"id":1961,"adult":false},{"id":337578,"adult":false},{"id":337579,"adult":false},{"id":337580,"adult":false}],"page":91,"total_pages":102,"total_results":10168}