{"results":[{"id":19354,"adult":false},{"id":339118,"adult":false},{"id":339119,"adult":false},{"id":231777,"adult":false},{"id":33034,"adult":false},{"id":74049,"adult":false},{"id":339120,"adult":null},{"id":276699,"adult":false},{"id":332246,"adult":false},{"id":305665,"adult":false},{"id":149099,"adult":false},{"id":294686,"adult":false},{"id":339121,"adult":false},{"id":98364,"adult":false},{"id":179191,"adult":false},{"id":47746,"adult":false},{"id":339124,"adult":false},{"id":265693,"adult":false},{"id":306543,"adult":false},{"id":25621,"adult":false},{"id":57768,"adult":false},{"id":339125,"adult":false},{"id":287599,"adult":false},{"id":234582,"adult":false},{"id":44755,"adult":false},{"id":11544,"adult":false},{"id":181142,"adult":false},{"id":10009,"adult":false},{"id":301238,"adult":false},{"id":311218,"adult":false},{"id":230214,"adult":false},{"id":339129,"adult":false},{"id":77499,"adult":false},{"id":34614,"adult":false},{"id":245685,"adult":false},{"id":48402,"adult":false},{"id":59424,"adult":false},{"id":339130,"adult":true},{"id":81600,"adult":false},{"id":297222,"adult":false},{"id":305668,"adult":false},{"id":1631,"adult":false},{"id":29101,"adult":false},{"id":297963,"adult":false},{"id":235414,"adult":false},{"id":191104,"adult":false},{"id":132472,"adult":false},{"id":305672,"adult":false},{"id":339131,"adult":false},{"id":180574,"adult":false},{"id":289169,"adult":false},{"id":339132,"adult":false},{"id":339133,"adult":false},{"id":9487,"adult":false},{"id":11827,"adult":false},{"id":56827,"adult":false},{"id":29075,"adult":false},{"id":19386,"adult":false},{"id":266513,"adult":false},{"id":339134,"adult":false},{"id":339135,"adult":null},{"id":88,"adult":false},{"id":10315,"adult":false},{"id":58423,"adult":null},{"id":81699,"adult":false},{"id":14892,"adult":false},{"id":37707,"adult":false},{"id":339136,"adult":false},{"id":289504,"adult":false},{"id":10803,"adult":false},{"id":140300,"adult":false},{"id":339137,"adult":null},{"id":28902,"adult":false},{"id":12227,"adult":false},{"id":339138,"adult":false},{"id":269242,"adult":false},{"id":35731,"adult":false},{"id":253962,"adult":false},{"id":339139,"adult":false},{"id":269033,"adult":null},{"id":339140,"adult":false},{"id":339141,"adult":null},{"id":339142,"adult":false},{"id":169866,"adult":false},{"id":339143,"adult":false},{"id":328848,"adult":false},{"id":339144,"adult":false},{"id":176402,"adult":false},{"id":56105,"adult":false},{"id":339145,"adult":false},{"id":44049,"adult":false},{"id":146449,"adult":false},{"id":316086,"adult":false},{"id":48650,"adult":false},{"id":339146,"adult":false},{"id":253827,"adult":false},{"id":333482,"adult":false},{"id":235887,"adult":false},{"id":66738,"adult":false},{"id":85673,"adult":false}],"page":59,"total_pages":106,"total_results":10547}