{"results":[{"id":96222,"adult":false},{"id":231161,"adult":false},{"id":116355,"adult":false},{"id":58686,"adult":false},{"id":10783,"adult":false},{"id":43886,"adult":false},{"id":72003,"adult":false},{"id":3717,"adult":false},{"id":348274,"adult":false},{"id":296457,"adult":false},{"id":63512,"adult":false},{"id":348275,"adult":false},{"id":263472,"adult":false},{"id":348276,"adult":false},{"id":316891,"adult":false},{"id":348277,"adult":false},{"id":348278,"adult":false},{"id":348279,"adult":false},{"id":267916,"adult":false},{"id":348280,"adult":false},{"id":337984,"adult":false},{"id":348281,"adult":false},{"id":348282,"adult":false},{"id":265331,"adult":false},{"id":9746,"adult":false},{"id":126580,"adult":false},{"id":348283,"adult":false},{"id":325558,"adult":false},{"id":43549,"adult":false},{"id":128637,"adult":false},{"id":8850,"adult":false},{"id":67527,"adult":false},{"id":155055,"adult":false},{"id":204467,"adult":false},{"id":268,"adult":false},{"id":7229,"adult":false},{"id":279049,"adult":false},{"id":6639,"adult":false},{"id":348284,"adult":false},{"id":332689,"adult":false},{"id":174079,"adult":false},{"id":12158,"adult":false},{"id":348285,"adult":false},{"id":326562,"adult":false},{"id":348286,"adult":false},{"id":12122,"adult":false},{"id":64685,"adult":false},{"id":196345,"adult":false},{"id":2277,"adult":false},{"id":260905,"adult":false},{"id":23609,"adult":false},{"id":257296,"adult":false},{"id":348287,"adult":false},{"id":348288,"adult":false},{"id":73092,"adult":false},{"id":312770,"adult":false},{"id":12441,"adult":false},{"id":20875,"adult":false},{"id":115100,"adult":false},{"id":276906,"adult":false},{"id":29194,"adult":false},{"id":24051,"adult":false},{"id":258100,"adult":false},{"id":190278,"adult":false},{"id":345452,"adult":null},{"id":345485,"adult":null},{"id":345484,"adult":null},{"id":212231,"adult":false},{"id":345480,"adult":null},{"id":62,"adult":false},{"id":40353,"adult":false},{"id":345504,"adult":null},{"id":20878,"adult":false},{"id":348289,"adult":false},{"id":272878,"adult":false},{"id":16632,"adult":false},{"id":308369,"adult":false},{"id":98010,"adult":false},{"id":204922,"adult":false},{"id":348290,"adult":false},{"id":336777,"adult":false},{"id":298093,"adult":false},{"id":286089,"adult":false},{"id":336167,"adult":false},{"id":8948,"adult":false},{"id":331501,"adult":false},{"id":50010,"adult":false},{"id":29463,"adult":false},{"id":43882,"adult":false},{"id":266647,"adult":false},{"id":348291,"adult":false},{"id":62569,"adult":false},{"id":262492,"adult":false},{"id":345976,"adult":null},{"id":348292,"adult":false},{"id":18384,"adult":false},{"id":345961,"adult":false},{"id":345957,"adult":false},{"id":40099,"adult":false},{"id":345955,"adult":null}],"page":69,"total_pages":86,"total_results":8586}