{"results":[{"id":115575,"adult":false},{"id":1575,"adult":false},{"id":90863,"adult":false},{"id":224976,"adult":false},{"id":115776,"adult":false},{"id":27732,"adult":false},{"id":119,"adult":false},{"id":163902,"adult":false},{"id":5039,"adult":false},{"id":304,"adult":false},{"id":107674,"adult":false},{"id":41437,"adult":false},{"id":94570,"adult":false},{"id":185065,"adult":false},{"id":332249,"adult":false},{"id":9338,"adult":false},{"id":218492,"adult":false},{"id":240083,"adult":false},{"id":326092,"adult":null},{"id":58512,"adult":false},{"id":332251,"adult":false},{"id":332252,"adult":false},{"id":220189,"adult":false},{"id":332253,"adult":false},{"id":332254,"adult":false},{"id":190636,"adult":false},{"id":109468,"adult":false},{"id":8374,"adult":false},{"id":332255,"adult":false},{"id":265948,"adult":false},{"id":217719,"adult":false},{"id":219025,"adult":false},{"id":87186,"adult":false},{"id":332256,"adult":null},{"id":254015,"adult":false},{"id":259239,"adult":false},{"id":288881,"adult":false},{"id":199440,"adult":false},{"id":22821,"adult":false},{"id":95695,"adult":false},{"id":30717,"adult":false},{"id":332257,"adult":false},{"id":825,"adult":false},{"id":128767,"adult":false},{"id":16058,"adult":false},{"id":74216,"adult":false},{"id":332258,"adult":false},{"id":332259,"adult":false},{"id":253289,"adult":false},{"id":332260,"adult":false},{"id":188765,"adult":false},{"id":332261,"adult":false},{"id":332262,"adult":false},{"id":216907,"adult":false},{"id":61675,"adult":false},{"id":188357,"adult":false},{"id":332263,"adult":null},{"id":34666,"adult":false},{"id":332264,"adult":false},{"id":173237,"adult":false},{"id":303226,"adult":null},{"id":332265,"adult":false},{"id":332266,"adult":false},{"id":1165,"adult":false},{"id":332267,"adult":false},{"id":332268,"adult":false},{"id":927,"adult":false},{"id":9737,"adult":false},{"id":4771,"adult":false},{"id":197919,"adult":false},{"id":70588,"adult":false},{"id":36955,"adult":false},{"id":160588,"adult":false},{"id":563,"adult":false},{"id":223706,"adult":false},{"id":1830,"adult":false},{"id":82654,"adult":false},{"id":293310,"adult":false},{"id":612,"adult":false},{"id":402,"adult":false},{"id":433,"adult":false},{"id":332269,"adult":false},{"id":8487,"adult":false},{"id":1574,"adult":false},{"id":1371,"adult":false},{"id":242828,"adult":false},{"id":254904,"adult":false},{"id":4133,"adult":false},{"id":332270,"adult":false},{"id":332271,"adult":false},{"id":190859,"adult":false},{"id":332272,"adult":null},{"id":9349,"adult":false},{"id":77081,"adult":false},{"id":195732,"adult":false},{"id":332273,"adult":false},{"id":289506,"adult":false},{"id":77082,"adult":false},{"id":819,"adult":false},{"id":9360,"adult":false}],"page":80,"total_pages":129,"total_results":12871}