{"results":[{"id":38264,"adult":false},{"id":290837,"adult":false},{"id":58452,"adult":false},{"id":330744,"adult":true},{"id":17082,"adult":false},{"id":18060,"adult":false},{"id":56329,"adult":false},{"id":114570,"adult":false},{"id":148753,"adult":false},{"id":45505,"adult":false},{"id":291608,"adult":false},{"id":300363,"adult":false},{"id":320955,"adult":false},{"id":39854,"adult":false},{"id":330745,"adult":true},{"id":38238,"adult":false},{"id":330746,"adult":false},{"id":330747,"adult":false},{"id":225663,"adult":false},{"id":330748,"adult":false},{"id":136958,"adult":false},{"id":317383,"adult":false},{"id":276527,"adult":false},{"id":330749,"adult":false},{"id":131103,"adult":false},{"id":276536,"adult":false},{"id":254321,"adult":false},{"id":330550,"adult":false},{"id":330551,"adult":false},{"id":3056,"adult":false},{"id":266900,"adult":false},{"id":76801,"adult":false},{"id":330750,"adult":null},{"id":330751,"adult":false},{"id":205887,"adult":false},{"id":330721,"adult":false},{"id":198184,"adult":false},{"id":330752,"adult":false},{"id":154032,"adult":false},{"id":132250,"adult":false},{"id":134100,"adult":false},{"id":330753,"adult":false},{"id":330754,"adult":false},{"id":159569,"adult":false},{"id":330755,"adult":false},{"id":106304,"adult":false},{"id":27510,"adult":false},{"id":41752,"adult":false},{"id":12159,"adult":false},{"id":3573,"adult":false},{"id":33909,"adult":false},{"id":586,"adult":false},{"id":330756,"adult":false},{"id":330757,"adult":false},{"id":11678,"adult":false},{"id":8324,"adult":false},{"id":330758,"adult":false},{"id":8090,"adult":false},{"id":313698,"adult":false},{"id":182127,"adult":false},{"id":199256,"adult":false},{"id":317960,"adult":false},{"id":330759,"adult":false},{"id":330760,"adult":false},{"id":315872,"adult":false},{"id":330761,"adult":false},{"id":330762,"adult":false},{"id":76612,"adult":false},{"id":18910,"adult":false},{"id":268642,"adult":false},{"id":260342,"adult":false},{"id":330763,"adult":false},{"id":177499,"adult":false},{"id":181051,"adult":false},{"id":165667,"adult":false},{"id":57880,"adult":false},{"id":52776,"adult":false},{"id":117058,"adult":false},{"id":330764,"adult":false},{"id":324256,"adult":false},{"id":262500,"adult":false},{"id":34526,"adult":false},{"id":330765,"adult":false},{"id":264660,"adult":false},{"id":256961,"adult":false},{"id":328264,"adult":false},{"id":328372,"adult":false},{"id":330537,"adult":false},{"id":243684,"adult":false},{"id":14560,"adult":false},{"id":330766,"adult":false},{"id":330431,"adult":false},{"id":330767,"adult":false},{"id":254193,"adult":false},{"id":12569,"adult":false},{"id":105406,"adult":false},{"id":132342,"adult":false},{"id":96664,"adult":false},{"id":323655,"adult":false},{"id":169,"adult":false}],"page":2,"total_pages":129,"total_results":12871}