{"results":[{"id":85673,"adult":false},{"id":237305,"adult":false},{"id":317983,"adult":null},{"id":15260,"adult":false},{"id":9660,"adult":false},{"id":6440,"adult":false},{"id":9555,"adult":false},{"id":86532,"adult":false},{"id":361433,"adult":null},{"id":361434,"adult":false},{"id":351994,"adult":false},{"id":13253,"adult":false},{"id":21742,"adult":false},{"id":24253,"adult":false},{"id":9870,"adult":false},{"id":11662,"adult":false},{"id":355558,"adult":false},{"id":355570,"adult":false},{"id":28367,"adult":false},{"id":170315,"adult":false},{"id":76018,"adult":false},{"id":361435,"adult":false},{"id":351988,"adult":false},{"id":86256,"adult":false},{"id":343144,"adult":false},{"id":361436,"adult":true},{"id":63212,"adult":false},{"id":214756,"adult":false},{"id":63480,"adult":false},{"id":4375,"adult":false},{"id":113236,"adult":false},{"id":56644,"adult":false},{"id":314608,"adult":false},{"id":52767,"adult":false},{"id":26939,"adult":false},{"id":27841,"adult":false},{"id":20628,"adult":false},{"id":266228,"adult":false},{"id":281869,"adult":false},{"id":27323,"adult":false},{"id":255888,"adult":false},{"id":361437,"adult":true},{"id":116503,"adult":false},{"id":339830,"adult":false},{"id":41128,"adult":false},{"id":259872,"adult":false},{"id":327657,"adult":false},{"id":361438,"adult":false},{"id":77321,"adult":false},{"id":76568,"adult":false},{"id":29056,"adult":false},{"id":180719,"adult":false},{"id":30552,"adult":false},{"id":296711,"adult":false},{"id":323838,"adult":null},{"id":146023,"adult":false},{"id":45305,"adult":false},{"id":27632,"adult":false},{"id":29130,"adult":false},{"id":361439,"adult":false},{"id":21275,"adult":false},{"id":361440,"adult":false},{"id":361441,"adult":false},{"id":43091,"adult":false},{"id":78442,"adult":false},{"id":361442,"adult":false},{"id":61194,"adult":false},{"id":297043,"adult":false},{"id":361443,"adult":false},{"id":145472,"adult":false},{"id":344715,"adult":true},{"id":5741,"adult":false},{"id":2984,"adult":false},{"id":361444,"adult":false},{"id":47744,"adult":false},{"id":127876,"adult":false},{"id":348194,"adult":false},{"id":61994,"adult":false},{"id":261816,"adult":false},{"id":353347,"adult":false},{"id":241695,"adult":false},{"id":252501,"adult":false},{"id":161666,"adult":false},{"id":361445,"adult":false},{"id":130374,"adult":false},{"id":9879,"adult":false},{"id":173845,"adult":false},{"id":361446,"adult":false},{"id":299165,"adult":false},{"id":353832,"adult":false},{"id":340688,"adult":false},{"id":361447,"adult":false},{"id":361448,"adult":null},{"id":354866,"adult":false},{"id":258962,"adult":false},{"id":18698,"adult":false},{"id":321178,"adult":false},{"id":198720,"adult":false},{"id":296250,"adult":false},{"id":361449,"adult":false}],"page":84,"total_pages":98,"total_results":9775}