{"results":[{"id":294308,"adult":false},{"id":353126,"adult":false},{"id":229297,"adult":false},{"id":353127,"adult":false},{"id":38783,"adult":false},{"id":45875,"adult":false},{"id":190853,"adult":false},{"id":325111,"adult":false},{"id":249916,"adult":false},{"id":252512,"adult":false},{"id":238615,"adult":false},{"id":66820,"adult":false},{"id":54184,"adult":false},{"id":524,"adult":false},{"id":335393,"adult":false},{"id":74615,"adult":false},{"id":548,"adult":false},{"id":500,"adult":false},{"id":312933,"adult":null},{"id":327163,"adult":false},{"id":339442,"adult":null},{"id":339440,"adult":false},{"id":353128,"adult":false},{"id":352099,"adult":false},{"id":353129,"adult":false},{"id":353130,"adult":false},{"id":297000,"adult":null},{"id":353131,"adult":false},{"id":330214,"adult":false},{"id":84778,"adult":false},{"id":100334,"adult":false},{"id":347536,"adult":null},{"id":17166,"adult":false},{"id":76757,"adult":false},{"id":327095,"adult":false},{"id":353132,"adult":false},{"id":115929,"adult":false},{"id":119971,"adult":false},{"id":9920,"adult":false},{"id":334086,"adult":false},{"id":257648,"adult":false},{"id":340426,"adult":false},{"id":279998,"adult":false},{"id":336453,"adult":false},{"id":353133,"adult":false},{"id":328070,"adult":false},{"id":326928,"adult":false},{"id":342946,"adult":false},{"id":353134,"adult":false},{"id":271185,"adult":false},{"id":353135,"adult":false},{"id":21769,"adult":false},{"id":20533,"adult":false},{"id":277477,"adult":false},{"id":327796,"adult":false},{"id":253368,"adult":false},{"id":265712,"adult":false},{"id":310742,"adult":false},{"id":21832,"adult":false},{"id":199571,"adult":false},{"id":328,"adult":false},{"id":10194,"adult":false},{"id":8650,"adult":false},{"id":91799,"adult":false},{"id":324453,"adult":false},{"id":97461,"adult":false},{"id":11158,"adult":false},{"id":353136,"adult":false},{"id":353137,"adult":false},{"id":353138,"adult":false},{"id":326284,"adult":false},{"id":31562,"adult":false},{"id":353139,"adult":false},{"id":119674,"adult":false},{"id":271395,"adult":null},{"id":5039,"adult":false},{"id":353140,"adult":false},{"id":353141,"adult":false},{"id":353142,"adult":false},{"id":283579,"adult":false},{"id":2602,"adult":false},{"id":353143,"adult":false},{"id":2150,"adult":false},{"id":86486,"adult":false},{"id":353144,"adult":false},{"id":330681,"adult":false},{"id":329892,"adult":false},{"id":353145,"adult":false},{"id":330709,"adult":false},{"id":270899,"adult":false},{"id":303253,"adult":null},{"id":353146,"adult":false},{"id":11206,"adult":false},{"id":105862,"adult":false},{"id":119979,"adult":false},{"id":53094,"adult":false},{"id":353147,"adult":false},{"id":353148,"adult":false},{"id":315597,"adult":false},{"id":88435,"adult":false}],"page":35,"total_pages":89,"total_results":8876}