{"results":[{"id":49687,"adult":false},{"id":142671,"adult":false},{"id":374166,"adult":false},{"id":317978,"adult":false},{"id":264539,"adult":false},{"id":10303,"adult":false},{"id":4327,"adult":false},{"id":74534,"adult":false},{"id":81061,"adult":false},{"id":310602,"adult":false},{"id":115711,"adult":false},{"id":212778,"adult":false},{"id":222264,"adult":false},{"id":47453,"adult":false},{"id":374167,"adult":false},{"id":10742,"adult":false},{"id":374168,"adult":false},{"id":172438,"adult":false},{"id":44214,"adult":false},{"id":30202,"adult":false},{"id":29355,"adult":false},{"id":141614,"adult":false},{"id":54905,"adult":false},{"id":199894,"adult":false},{"id":626,"adult":false},{"id":11506,"adult":false},{"id":231222,"adult":false},{"id":44826,"adult":false},{"id":278062,"adult":false},{"id":32014,"adult":false},{"id":26738,"adult":false},{"id":9591,"adult":false},{"id":4407,"adult":false},{"id":301580,"adult":false},{"id":260522,"adult":false},{"id":215794,"adult":false},{"id":374170,"adult":false},{"id":12512,"adult":false},{"id":374171,"adult":false},{"id":296343,"adult":false},{"id":73449,"adult":false},{"id":189885,"adult":false},{"id":172493,"adult":false},{"id":10175,"adult":false},{"id":9882,"adult":false},{"id":9475,"adult":false},{"id":43448,"adult":false},{"id":158104,"adult":false},{"id":9919,"adult":false},{"id":16962,"adult":false},{"id":8874,"adult":false},{"id":189293,"adult":false},{"id":71982,"adult":false},{"id":143523,"adult":false},{"id":31143,"adult":false},{"id":374172,"adult":false},{"id":5961,"adult":false},{"id":300032,"adult":false},{"id":239059,"adult":false},{"id":35203,"adult":false},{"id":71550,"adult":false},{"id":15906,"adult":false},{"id":298118,"adult":false},{"id":330037,"adult":false},{"id":39538,"adult":false},{"id":251626,"adult":false},{"id":260534,"adult":false},{"id":374173,"adult":false},{"id":9726,"adult":false},{"id":8346,"adult":false},{"id":36347,"adult":false},{"id":4644,"adult":false},{"id":100415,"adult":false},{"id":6415,"adult":false},{"id":374174,"adult":false},{"id":21779,"adult":false},{"id":17954,"adult":false},{"id":119675,"adult":false},{"id":127143,"adult":false},{"id":339102,"adult":false},{"id":82962,"adult":false},{"id":21990,"adult":false},{"id":98082,"adult":false},{"id":26200,"adult":false},{"id":36775,"adult":false},{"id":71456,"adult":false},{"id":32053,"adult":false},{"id":119482,"adult":false},{"id":37247,"adult":false},{"id":70906,"adult":true},{"id":361513,"adult":false},{"id":175280,"adult":false},{"id":55310,"adult":false},{"id":374177,"adult":false},{"id":283754,"adult":false},{"id":65374,"adult":false},{"id":260170,"adult":null},{"id":60293,"adult":false},{"id":133805,"adult":false},{"id":294834,"adult":false}],"page":86,"total_pages":108,"total_results":10739}