{"results":[{"id":317766,"adult":false},{"id":317767,"adult":false},{"id":196324,"adult":false},{"id":317768,"adult":false},{"id":317769,"adult":false},{"id":317770,"adult":false},{"id":48890,"adult":false},{"id":317771,"adult":false},{"id":317772,"adult":false},{"id":317773,"adult":false},{"id":317774,"adult":false},{"id":317775,"adult":false},{"id":48672,"adult":false},{"id":317776,"adult":false},{"id":281611,"adult":false},{"id":317777,"adult":false},{"id":317778,"adult":false},{"id":317779,"adult":false},{"id":61964,"adult":false},{"id":317780,"adult":false},{"id":317781,"adult":false},{"id":317782,"adult":false},{"id":317783,"adult":null},{"id":317784,"adult":false},{"id":317785,"adult":false},{"id":317786,"adult":false},{"id":317787,"adult":false},{"id":317788,"adult":false},{"id":317789,"adult":false},{"id":317790,"adult":false},{"id":317791,"adult":false},{"id":317792,"adult":false},{"id":317793,"adult":false},{"id":263422,"adult":false},{"id":317794,"adult":false},{"id":295711,"adult":false},{"id":317795,"adult":false},{"id":317796,"adult":false},{"id":251959,"adult":false},{"id":317797,"adult":false},{"id":317798,"adult":false},{"id":317799,"adult":false},{"id":317800,"adult":false},{"id":317801,"adult":false},{"id":317802,"adult":false},{"id":317803,"adult":false},{"id":317804,"adult":false},{"id":71662,"adult":false},{"id":317805,"adult":false},{"id":317806,"adult":false},{"id":313462,"adult":false},{"id":286534,"adult":false},{"id":233451,"adult":false},{"id":117,"adult":false},{"id":317807,"adult":false},{"id":317808,"adult":false},{"id":215558,"adult":false},{"id":317809,"adult":false},{"id":317810,"adult":false},{"id":9555,"adult":false},{"id":317811,"adult":false},{"id":317812,"adult":false},{"id":317813,"adult":false},{"id":197502,"adult":false},{"id":317814,"adult":false},{"id":44891,"adult":false},{"id":317815,"adult":false},{"id":317816,"adult":false},{"id":317817,"adult":false},{"id":11342,"adult":false},{"id":317818,"adult":false},{"id":317819,"adult":false},{"id":317820,"adult":false},{"id":317821,"adult":false},{"id":317822,"adult":false},{"id":317823,"adult":false},{"id":98577,"adult":false},{"id":317824,"adult":false},{"id":317825,"adult":false},{"id":317826,"adult":false},{"id":317827,"adult":false},{"id":241319,"adult":false},{"id":99224,"adult":false},{"id":19129,"adult":false},{"id":317828,"adult":false},{"id":317829,"adult":false},{"id":317830,"adult":false},{"id":30508,"adult":false},{"id":317831,"adult":false},{"id":317832,"adult":false},{"id":2440,"adult":false},{"id":317833,"adult":false},{"id":317834,"adult":false},{"id":317835,"adult":false},{"id":317836,"adult":false},{"id":317837,"adult":false},{"id":317838,"adult":false},{"id":317839,"adult":false},{"id":21531,"adult":false},{"id":317840,"adult":false}],"page":112,"total_pages":115,"total_results":11442}