{"results":[{"id":16123,"adult":false},{"id":65292,"adult":false},{"id":118775,"adult":false},{"id":86667,"adult":false},{"id":64900,"adult":false},{"id":47692,"adult":false},{"id":109054,"adult":false},{"id":33592,"adult":false},{"id":288281,"adult":false},{"id":360639,"adult":false},{"id":138941,"adult":false},{"id":171540,"adult":false},{"id":127946,"adult":false},{"id":12176,"adult":false},{"id":11336,"adult":false},{"id":197772,"adult":false},{"id":283384,"adult":false},{"id":8398,"adult":false},{"id":33738,"adult":false},{"id":13975,"adult":false},{"id":72477,"adult":false},{"id":7551,"adult":false},{"id":199534,"adult":false},{"id":360640,"adult":false},{"id":360641,"adult":false},{"id":239318,"adult":false},{"id":58446,"adult":false},{"id":11707,"adult":false},{"id":9411,"adult":false},{"id":32014,"adult":false},{"id":360642,"adult":false},{"id":81958,"adult":false},{"id":242653,"adult":false},{"id":244169,"adult":false},{"id":67055,"adult":false},{"id":230035,"adult":false},{"id":52761,"adult":false},{"id":220700,"adult":false},{"id":358352,"adult":false},{"id":81591,"adult":false},{"id":50166,"adult":false},{"id":360643,"adult":false},{"id":47891,"adult":false},{"id":184669,"adult":false},{"id":102915,"adult":false},{"id":24941,"adult":true},{"id":1781,"adult":false},{"id":142074,"adult":false},{"id":3034,"adult":false},{"id":6795,"adult":false},{"id":85943,"adult":false},{"id":1593,"adult":false},{"id":18360,"adult":false},{"id":254905,"adult":false},{"id":34752,"adult":false},{"id":11316,"adult":false},{"id":253377,"adult":false},{"id":93220,"adult":false},{"id":86578,"adult":false},{"id":11372,"adult":false},{"id":228933,"adult":false},{"id":7131,"adult":false},{"id":109608,"adult":false},{"id":11657,"adult":false},{"id":21078,"adult":false},{"id":24920,"adult":false},{"id":435,"adult":false},{"id":10066,"adult":false},{"id":360644,"adult":false},{"id":359625,"adult":false},{"id":252061,"adult":false},{"id":18502,"adult":false},{"id":360645,"adult":false},{"id":335353,"adult":false},{"id":331851,"adult":false},{"id":859,"adult":false},{"id":34094,"adult":false},{"id":193766,"adult":false},{"id":360646,"adult":false},{"id":343689,"adult":false},{"id":310588,"adult":true},{"id":8275,"adult":false},{"id":360647,"adult":false},{"id":10644,"adult":false},{"id":24930,"adult":false},{"id":236399,"adult":false},{"id":3589,"adult":false},{"id":4857,"adult":false},{"id":9834,"adult":false},{"id":17228,"adult":false},{"id":255343,"adult":false},{"id":345363,"adult":false},{"id":17343,"adult":false},{"id":128295,"adult":false},{"id":360648,"adult":false},{"id":4678,"adult":false},{"id":28597,"adult":false},{"id":270771,"adult":false},{"id":69870,"adult":false},{"id":11077,"adult":false}],"page":43,"total_pages":98,"total_results":9775}