{"results":[{"id":82992,"adult":false},{"id":71376,"adult":false},{"id":42611,"adult":false},{"id":353847,"adult":null},{"id":19222,"adult":false},{"id":217434,"adult":false},{"id":96721,"adult":false},{"id":10249,"adult":false},{"id":201267,"adult":false},{"id":104797,"adult":false},{"id":1624,"adult":false},{"id":71202,"adult":false},{"id":354687,"adult":false},{"id":98025,"adult":false},{"id":354688,"adult":false},{"id":81463,"adult":false},{"id":354689,"adult":false},{"id":42252,"adult":false},{"id":354690,"adult":false},{"id":152810,"adult":false},{"id":340382,"adult":false},{"id":354380,"adult":false},{"id":354691,"adult":false},{"id":13931,"adult":false},{"id":9710,"adult":false},{"id":354692,"adult":false},{"id":354694,"adult":false},{"id":16767,"adult":false},{"id":299245,"adult":false},{"id":354371,"adult":false},{"id":192162,"adult":false},{"id":319147,"adult":false},{"id":295595,"adult":false},{"id":324194,"adult":false},{"id":220811,"adult":false},{"id":15200,"adult":false},{"id":354695,"adult":false},{"id":327277,"adult":false},{"id":354696,"adult":false},{"id":285213,"adult":false},{"id":337118,"adult":false},{"id":296003,"adult":false},{"id":289442,"adult":false},{"id":106420,"adult":false},{"id":317198,"adult":false},{"id":72378,"adult":false},{"id":267860,"adult":false},{"id":315465,"adult":false},{"id":30080,"adult":false},{"id":257932,"adult":false},{"id":79056,"adult":false},{"id":15097,"adult":false},{"id":195386,"adult":false},{"id":277809,"adult":false},{"id":297270,"adult":false},{"id":284109,"adult":true},{"id":11013,"adult":false},{"id":87428,"adult":false},{"id":243856,"adult":false},{"id":233266,"adult":false},{"id":15378,"adult":false},{"id":1995,"adult":false},{"id":237732,"adult":false},{"id":141274,"adult":false},{"id":256962,"adult":false},{"id":68828,"adult":false},{"id":38984,"adult":false},{"id":354697,"adult":false},{"id":61755,"adult":false},{"id":354698,"adult":false},{"id":354699,"adult":false},{"id":12422,"adult":false},{"id":13179,"adult":false},{"id":75258,"adult":false},{"id":46658,"adult":false},{"id":354700,"adult":false},{"id":25475,"adult":false},{"id":44683,"adult":false},{"id":139293,"adult":false},{"id":175112,"adult":false},{"id":7211,"adult":false},{"id":348960,"adult":false},{"id":36272,"adult":false},{"id":354701,"adult":false},{"id":9461,"adult":false},{"id":96909,"adult":false},{"id":109445,"adult":false},{"id":175168,"adult":false},{"id":348297,"adult":false},{"id":354702,"adult":null},{"id":349112,"adult":false},{"id":176483,"adult":false},{"id":354703,"adult":false},{"id":116741,"adult":false},{"id":347252,"adult":false},{"id":331901,"adult":false},{"id":1996,"adult":false},{"id":329929,"adult":null},{"id":31160,"adult":false},{"id":269033,"adult":null}],"page":5,"total_pages":100,"total_results":9908}