{"results":[{"id":112454,"adult":false},{"id":34216,"adult":false},{"id":331291,"adult":false},{"id":15073,"adult":false},{"id":273653,"adult":false},{"id":122399,"adult":null},{"id":286578,"adult":false},{"id":331292,"adult":false},{"id":312468,"adult":false},{"id":331293,"adult":false},{"id":228967,"adult":false},{"id":10,"adult":false},{"id":43970,"adult":false},{"id":259693,"adult":false},{"id":109026,"adult":false},{"id":315009,"adult":false},{"id":331294,"adult":false},{"id":303733,"adult":false},{"id":285672,"adult":false},{"id":265978,"adult":false},{"id":86375,"adult":false},{"id":31345,"adult":false},{"id":63214,"adult":false},{"id":47119,"adult":false},{"id":11013,"adult":false},{"id":63577,"adult":false},{"id":186551,"adult":false},{"id":319840,"adult":false},{"id":122750,"adult":false},{"id":76871,"adult":false},{"id":33938,"adult":false},{"id":308283,"adult":false},{"id":33931,"adult":false},{"id":282426,"adult":false},{"id":282425,"adult":false},{"id":329880,"adult":false},{"id":331295,"adult":false},{"id":293703,"adult":false},{"id":331296,"adult":false},{"id":329206,"adult":false},{"id":329719,"adult":null},{"id":210763,"adult":false},{"id":326043,"adult":false},{"id":2294,"adult":false},{"id":328485,"adult":false},{"id":58574,"adult":false},{"id":70496,"adult":false},{"id":79446,"adult":false},{"id":108948,"adult":false},{"id":70460,"adult":false},{"id":331297,"adult":false},{"id":308993,"adult":false},{"id":331298,"adult":false},{"id":331299,"adult":false},{"id":331300,"adult":false},{"id":331301,"adult":false},{"id":331302,"adult":false},{"id":88006,"adult":false},{"id":331303,"adult":false},{"id":46595,"adult":false},{"id":286548,"adult":false},{"id":331304,"adult":false},{"id":331305,"adult":false},{"id":312748,"adult":false},{"id":33691,"adult":false},{"id":331306,"adult":false},{"id":331307,"adult":false},{"id":331308,"adult":false},{"id":288603,"adult":false},{"id":238584,"adult":false},{"id":302705,"adult":false},{"id":15944,"adult":false},{"id":331309,"adult":false},{"id":331310,"adult":false},{"id":51442,"adult":false},{"id":75641,"adult":false},{"id":331311,"adult":false},{"id":328959,"adult":false},{"id":29477,"adult":false},{"id":26242,"adult":false},{"id":319888,"adult":false},{"id":331312,"adult":false},{"id":47011,"adult":false},{"id":331313,"adult":false},{"id":45185,"adult":false},{"id":111642,"adult":false},{"id":241432,"adult":false},{"id":42586,"adult":false},{"id":331314,"adult":false},{"id":246320,"adult":false},{"id":331315,"adult":false},{"id":52959,"adult":false},{"id":331316,"adult":false},{"id":32489,"adult":false},{"id":331317,"adult":false},{"id":316428,"adult":null},{"id":331318,"adult":false},{"id":331319,"adult":false},{"id":330414,"adult":false},{"id":331320,"adult":false}],"page":32,"total_pages":129,"total_results":12871}