{"results":[{"id":100017,"adult":false},{"id":237960,"adult":false},{"id":56823,"adult":false},{"id":141102,"adult":false},{"id":292602,"adult":false},{"id":16890,"adult":false},{"id":137182,"adult":false},{"id":227517,"adult":false},{"id":8008,"adult":false},{"id":99494,"adult":false},{"id":15741,"adult":false},{"id":39177,"adult":false},{"id":121835,"adult":false},{"id":238156,"adult":false},{"id":16605,"adult":false},{"id":270453,"adult":false},{"id":270451,"adult":false},{"id":126321,"adult":false},{"id":327469,"adult":false},{"id":43619,"adult":false},{"id":57306,"adult":false},{"id":72345,"adult":false},{"id":47254,"adult":false},{"id":18460,"adult":false},{"id":196950,"adult":false},{"id":64570,"adult":false},{"id":59089,"adult":false},{"id":18425,"adult":false},{"id":79816,"adult":false},{"id":157380,"adult":false},{"id":29134,"adult":false},{"id":315242,"adult":false},{"id":44288,"adult":false},{"id":26710,"adult":false},{"id":327470,"adult":false},{"id":327471,"adult":false},{"id":268684,"adult":false},{"id":327472,"adult":false},{"id":45307,"adult":false},{"id":327473,"adult":false},{"id":319171,"adult":false},{"id":327474,"adult":false},{"id":10718,"adult":false},{"id":58624,"adult":false},{"id":327475,"adult":false},{"id":327476,"adult":false},{"id":299862,"adult":false},{"id":130197,"adult":false},{"id":327477,"adult":false},{"id":327478,"adult":false},{"id":154391,"adult":false},{"id":327479,"adult":null},{"id":78992,"adult":false},{"id":41594,"adult":false},{"id":90045,"adult":false},{"id":90056,"adult":false},{"id":327480,"adult":false},{"id":119457,"adult":false},{"id":327481,"adult":null},{"id":21032,"adult":false},{"id":236,"adult":false},{"id":10810,"adult":false},{"id":327482,"adult":false},{"id":71668,"adult":false},{"id":259542,"adult":false},{"id":111977,"adult":false},{"id":40511,"adult":false},{"id":17090,"adult":false},{"id":10190,"adult":false},{"id":9750,"adult":false},{"id":327483,"adult":false},{"id":15046,"adult":false},{"id":10090,"adult":false},{"id":9760,"adult":false},{"id":327485,"adult":false},{"id":15423,"adult":false},{"id":327486,"adult":false},{"id":316410,"adult":false},{"id":327487,"adult":false},{"id":327488,"adult":false},{"id":327489,"adult":null},{"id":327490,"adult":false},{"id":276369,"adult":false},{"id":265117,"adult":false},{"id":265122,"adult":false},{"id":327491,"adult":false},{"id":327492,"adult":null},{"id":327493,"adult":false},{"id":327494,"adult":false},{"id":327495,"adult":false},{"id":88282,"adult":false},{"id":29592,"adult":false},{"id":327496,"adult":false},{"id":259830,"adult":false},{"id":327497,"adult":false},{"id":38992,"adult":false},{"id":327500,"adult":false},{"id":23742,"adult":false},{"id":70342,"adult":false},{"id":2577,"adult":false}],"page":104,"total_pages":112,"total_results":11193}