{"results":[{"id":28323,"adult":false},{"id":23107,"adult":false},{"id":213443,"adult":false},{"id":244628,"adult":false},{"id":43781,"adult":false},{"id":368103,"adult":false},{"id":123935,"adult":false},{"id":139308,"adult":false},{"id":76771,"adult":false},{"id":35125,"adult":false},{"id":369682,"adult":false},{"id":47069,"adult":false},{"id":42779,"adult":false},{"id":363566,"adult":false},{"id":349197,"adult":false},{"id":367846,"adult":false},{"id":280152,"adult":false},{"id":280163,"adult":false},{"id":12247,"adult":false},{"id":52247,"adult":false},{"id":76976,"adult":false},{"id":367877,"adult":false},{"id":369683,"adult":null},{"id":194616,"adult":false},{"id":71921,"adult":false},{"id":195181,"adult":false},{"id":369684,"adult":false},{"id":183323,"adult":false},{"id":183324,"adult":false},{"id":193407,"adult":false},{"id":198063,"adult":false},{"id":195349,"adult":false},{"id":195314,"adult":false},{"id":195287,"adult":false},{"id":193431,"adult":false},{"id":38741,"adult":false},{"id":183515,"adult":false},{"id":183512,"adult":false},{"id":183568,"adult":false},{"id":183594,"adult":false},{"id":369685,"adult":false},{"id":183595,"adult":false},{"id":183599,"adult":false},{"id":353290,"adult":false},{"id":195584,"adult":false},{"id":195623,"adult":false},{"id":183607,"adult":false},{"id":32571,"adult":false},{"id":334281,"adult":false},{"id":138921,"adult":false},{"id":174979,"adult":false},{"id":175230,"adult":false},{"id":174647,"adult":false},{"id":174980,"adult":false},{"id":175558,"adult":false},{"id":191922,"adult":false},{"id":191921,"adult":false},{"id":175035,"adult":false},{"id":15119,"adult":false},{"id":359785,"adult":false},{"id":234,"adult":false},{"id":348150,"adult":false},{"id":369686,"adult":false},{"id":340275,"adult":false},{"id":7985,"adult":false},{"id":72608,"adult":false},{"id":283827,"adult":false},{"id":369688,"adult":true},{"id":362056,"adult":false},{"id":10627,"adult":false},{"id":21866,"adult":false},{"id":204912,"adult":false},{"id":152516,"adult":false},{"id":88655,"adult":false},{"id":38201,"adult":false},{"id":121817,"adult":false},{"id":298909,"adult":false},{"id":105184,"adult":false},{"id":369689,"adult":false},{"id":366656,"adult":false},{"id":369690,"adult":false},{"id":86166,"adult":false},{"id":369691,"adult":false},{"id":27105,"adult":false},{"id":80027,"adult":false},{"id":314614,"adult":false},{"id":41471,"adult":false},{"id":209274,"adult":false},{"id":92387,"adult":false},{"id":369692,"adult":true},{"id":19384,"adult":false},{"id":2769,"adult":false},{"id":332872,"adult":false},{"id":111570,"adult":false},{"id":50467,"adult":false},{"id":369693,"adult":false},{"id":12275,"adult":false},{"id":128899,"adult":false},{"id":321557,"adult":false},{"id":18771,"adult":false}],"page":68,"total_pages":101,"total_results":10039}