{"results":[{"id":53735,"adult":false},{"id":53733,"adult":false},{"id":53730,"adult":false},{"id":53669,"adult":false},{"id":53666,"adult":false},{"id":53665,"adult":false},{"id":53663,"adult":false},{"id":53662,"adult":false},{"id":175239,"adult":false},{"id":53530,"adult":false},{"id":175278,"adult":false},{"id":42362,"adult":false},{"id":175017,"adult":false},{"id":174533,"adult":false},{"id":53742,"adult":false},{"id":53740,"adult":false},{"id":53738,"adult":false},{"id":53728,"adult":false},{"id":53645,"adult":false},{"id":53646,"adult":false},{"id":53647,"adult":false},{"id":53660,"adult":false},{"id":53640,"adult":false},{"id":174881,"adult":false},{"id":53641,"adult":false},{"id":53642,"adult":false},{"id":174913,"adult":false},{"id":53532,"adult":false},{"id":33057,"adult":false},{"id":26883,"adult":false},{"id":174993,"adult":false},{"id":175013,"adult":false},{"id":53627,"adult":false},{"id":53628,"adult":false},{"id":174996,"adult":false},{"id":175007,"adult":false},{"id":233595,"adult":false},{"id":331273,"adult":false},{"id":13949,"adult":false},{"id":53636,"adult":false},{"id":53637,"adult":false},{"id":53638,"adult":false},{"id":302841,"adult":false},{"id":227311,"adult":false},{"id":233423,"adult":false},{"id":55530,"adult":false},{"id":211166,"adult":false},{"id":282161,"adult":false},{"id":331275,"adult":false},{"id":331276,"adult":false},{"id":41735,"adult":false},{"id":331277,"adult":false},{"id":331278,"adult":false},{"id":331279,"adult":false},{"id":53644,"adult":false},{"id":53643,"adult":false},{"id":53639,"adult":false},{"id":331280,"adult":null},{"id":53727,"adult":false},{"id":331281,"adult":false},{"id":331282,"adult":null},{"id":53726,"adult":false},{"id":53723,"adult":false},{"id":53722,"adult":false},{"id":53671,"adult":false},{"id":53725,"adult":false},{"id":175758,"adult":false},{"id":175534,"adult":false},{"id":175470,"adult":false},{"id":175476,"adult":false},{"id":48844,"adult":false},{"id":175234,"adult":false},{"id":53629,"adult":false},{"id":331284,"adult":false},{"id":53632,"adult":false},{"id":174960,"adult":false},{"id":37680,"adult":false},{"id":174998,"adult":false},{"id":53512,"adult":false},{"id":331285,"adult":false},{"id":175021,"adult":false},{"id":175024,"adult":false},{"id":331286,"adult":false},{"id":175720,"adult":false},{"id":331287,"adult":false},{"id":255583,"adult":false},{"id":44833,"adult":false},{"id":53635,"adult":false},{"id":53634,"adult":false},{"id":331288,"adult":false},{"id":53633,"adult":false},{"id":53531,"adult":false},{"id":331289,"adult":false},{"id":9517,"adult":false},{"id":22949,"adult":false},{"id":53515,"adult":false},{"id":53667,"adult":false},{"id":174915,"adult":false},{"id":53516,"adult":false},{"id":331290,"adult":false}],"page":31,"total_pages":129,"total_results":12871}