{"results":[{"id":353060,"adult":false},{"id":886,"adult":false},{"id":2614,"adult":false},{"id":58752,"adult":false},{"id":19971,"adult":false},{"id":17136,"adult":false},{"id":1700,"adult":false},{"id":112039,"adult":false},{"id":271234,"adult":false},{"id":298924,"adult":false},{"id":9792,"adult":false},{"id":353061,"adult":false},{"id":78698,"adult":false},{"id":280033,"adult":false},{"id":16328,"adult":false},{"id":192948,"adult":false},{"id":341411,"adult":null},{"id":14280,"adult":false},{"id":31776,"adult":false},{"id":66473,"adult":false},{"id":353062,"adult":false},{"id":135697,"adult":false},{"id":4391,"adult":false},{"id":275192,"adult":false},{"id":95788,"adult":false},{"id":72214,"adult":false},{"id":215935,"adult":false},{"id":62046,"adult":false},{"id":206213,"adult":false},{"id":9319,"adult":false},{"id":11931,"adult":false},{"id":192942,"adult":false},{"id":44699,"adult":false},{"id":628,"adult":false},{"id":619,"adult":false},{"id":353063,"adult":false},{"id":139367,"adult":false},{"id":76,"adult":false},{"id":20237,"adult":false},{"id":350778,"adult":false},{"id":284360,"adult":false},{"id":855,"adult":false},{"id":192792,"adult":false},{"id":42188,"adult":false},{"id":43385,"adult":false},{"id":256172,"adult":false},{"id":86042,"adult":false},{"id":11104,"adult":false},{"id":148600,"adult":null},{"id":14044,"adult":false},{"id":57849,"adult":false},{"id":30667,"adult":false},{"id":9499,"adult":false},{"id":80506,"adult":false},{"id":39691,"adult":false},{"id":41997,"adult":false},{"id":14127,"adult":false},{"id":112200,"adult":false},{"id":135829,"adult":false},{"id":12619,"adult":false},{"id":2625,"adult":false},{"id":22825,"adult":false},{"id":179826,"adult":false},{"id":1845,"adult":false},{"id":13179,"adult":false},{"id":8066,"adult":false},{"id":139728,"adult":false},{"id":48492,"adult":false},{"id":94174,"adult":null},{"id":77948,"adult":false},{"id":2457,"adult":false},{"id":18947,"adult":false},{"id":28025,"adult":false},{"id":239971,"adult":false},{"id":18126,"adult":false},{"id":14810,"adult":false},{"id":45772,"adult":false},{"id":125187,"adult":false},{"id":33064,"adult":false},{"id":351729,"adult":false},{"id":338637,"adult":false},{"id":9397,"adult":false},{"id":296226,"adult":false},{"id":351726,"adult":false},{"id":254474,"adult":false},{"id":58432,"adult":false},{"id":68179,"adult":false},{"id":353064,"adult":false},{"id":116811,"adult":false},{"id":295964,"adult":false},{"id":1969,"adult":false},{"id":70577,"adult":false},{"id":185249,"adult":false},{"id":23202,"adult":false},{"id":11303,"adult":false},{"id":244153,"adult":false},{"id":94901,"adult":false},{"id":84348,"adult":false},{"id":207621,"adult":false},{"id":353065,"adult":true}],"page":30,"total_pages":89,"total_results":8876}