{"results":[{"id":13919,"adult":false},{"id":134408,"adult":false},{"id":97614,"adult":false},{"id":37292,"adult":false},{"id":37516,"adult":false},{"id":41127,"adult":false},{"id":25438,"adult":false},{"id":299559,"adult":false},{"id":278145,"adult":false},{"id":135608,"adult":false},{"id":42033,"adult":false},{"id":246417,"adult":false},{"id":338345,"adult":false},{"id":109150,"adult":false},{"id":338346,"adult":null},{"id":22194,"adult":false},{"id":27607,"adult":false},{"id":326706,"adult":false},{"id":265228,"adult":false},{"id":41969,"adult":false},{"id":168399,"adult":false},{"id":14667,"adult":false},{"id":57526,"adult":false},{"id":64689,"adult":false},{"id":127560,"adult":false},{"id":312526,"adult":false},{"id":155450,"adult":false},{"id":141052,"adult":false},{"id":207021,"adult":false},{"id":314327,"adult":false},{"id":299497,"adult":false},{"id":83125,"adult":false},{"id":338347,"adult":false},{"id":287703,"adult":false},{"id":92429,"adult":false},{"id":272875,"adult":false},{"id":253331,"adult":false},{"id":796,"adult":false},{"id":281139,"adult":false},{"id":13510,"adult":false},{"id":338348,"adult":false},{"id":334557,"adult":false},{"id":13006,"adult":false},{"id":91945,"adult":false},{"id":265982,"adult":false},{"id":48231,"adult":false},{"id":17660,"adult":false},{"id":183326,"adult":false},{"id":10310,"adult":false},{"id":111499,"adult":false},{"id":11587,"adult":false},{"id":11099,"adult":false},{"id":92341,"adult":false},{"id":44916,"adult":false},{"id":77866,"adult":false},{"id":69472,"adult":false},{"id":44754,"adult":false},{"id":8329,"adult":false},{"id":18904,"adult":false},{"id":43008,"adult":false},{"id":50231,"adult":false},{"id":72904,"adult":false},{"id":77949,"adult":false},{"id":51209,"adult":false},{"id":336158,"adult":false},{"id":338349,"adult":false},{"id":338350,"adult":false},{"id":69668,"adult":false},{"id":56831,"adult":false},{"id":338351,"adult":false},{"id":52067,"adult":false},{"id":42002,"adult":false},{"id":137093,"adult":false},{"id":86331,"adult":false},{"id":39210,"adult":false},{"id":338352,"adult":false},{"id":37495,"adult":false},{"id":290764,"adult":false},{"id":338353,"adult":false},{"id":19901,"adult":false},{"id":789,"adult":false},{"id":4959,"adult":false},{"id":258655,"adult":false},{"id":272399,"adult":false},{"id":37414,"adult":false},{"id":196400,"adult":false},{"id":238528,"adult":false},{"id":338354,"adult":false},{"id":19918,"adult":false},{"id":11152,"adult":false},{"id":338355,"adult":false},{"id":338356,"adult":false},{"id":338357,"adult":false},{"id":338358,"adult":false},{"id":158963,"adult":false},{"id":13363,"adult":false},{"id":338359,"adult":false},{"id":338360,"adult":false},{"id":106109,"adult":false},{"id":338361,"adult":false}],"page":18,"total_pages":106,"total_results":10547}