{"results":[{"id":75790,"adult":false},{"id":1991,"adult":false},{"id":26233,"adult":false},{"id":14098,"adult":false},{"id":22076,"adult":false},{"id":14138,"adult":false},{"id":9009,"adult":false},{"id":57251,"adult":false},{"id":12205,"adult":false},{"id":81481,"adult":false},{"id":20182,"adult":false},{"id":44678,"adult":false},{"id":13954,"adult":false},{"id":24918,"adult":false},{"id":33278,"adult":false},{"id":13618,"adult":false},{"id":337394,"adult":null},{"id":153272,"adult":false},{"id":1959,"adult":false},{"id":64349,"adult":false},{"id":24684,"adult":false},{"id":11167,"adult":false},{"id":130964,"adult":false},{"id":63963,"adult":false},{"id":11663,"adult":false},{"id":13676,"adult":false},{"id":117923,"adult":false},{"id":17685,"adult":false},{"id":333441,"adult":false},{"id":29478,"adult":false},{"id":21159,"adult":false},{"id":1116,"adult":false},{"id":76346,"adult":false},{"id":280410,"adult":null},{"id":284052,"adult":false},{"id":81198,"adult":false},{"id":315635,"adult":false},{"id":33251,"adult":false},{"id":337395,"adult":false},{"id":66077,"adult":false},{"id":81775,"adult":false},{"id":80393,"adult":false},{"id":843,"adult":false},{"id":52013,"adult":false},{"id":337396,"adult":false},{"id":69040,"adult":false},{"id":337397,"adult":false},{"id":1598,"adult":false},{"id":38745,"adult":false},{"id":40805,"adult":false},{"id":267680,"adult":false},{"id":337398,"adult":false},{"id":276496,"adult":false},{"id":180102,"adult":false},{"id":337399,"adult":false},{"id":83889,"adult":false},{"id":234004,"adult":false},{"id":337400,"adult":false},{"id":316129,"adult":null},{"id":298619,"adult":false},{"id":141052,"adult":false},{"id":297762,"adult":false},{"id":44504,"adult":false},{"id":337401,"adult":false},{"id":76600,"adult":false},{"id":337402,"adult":false},{"id":83533,"adult":false},{"id":337403,"adult":false},{"id":274867,"adult":false},{"id":308531,"adult":false},{"id":337404,"adult":false},{"id":154528,"adult":false},{"id":337405,"adult":false},{"id":44720,"adult":false},{"id":59568,"adult":true},{"id":337406,"adult":false},{"id":337407,"adult":false},{"id":337408,"adult":false},{"id":318234,"adult":false},{"id":337409,"adult":false},{"id":337410,"adult":false},{"id":88631,"adult":false},{"id":269659,"adult":false},{"id":188341,"adult":null},{"id":332222,"adult":false},{"id":228970,"adult":false},{"id":337411,"adult":false},{"id":337412,"adult":false},{"id":15560,"adult":false},{"id":53264,"adult":false},{"id":328483,"adult":false},{"id":334135,"adult":false},{"id":26742,"adult":false},{"id":11983,"adult":false},{"id":337413,"adult":null},{"id":337414,"adult":false},{"id":337415,"adult":false},{"id":337416,"adult":false},{"id":97686,"adult":false},{"id":237328,"adult":false}],"page":82,"total_pages":102,"total_results":10168}