{"results":[{"id":314390,"adult":null},{"id":324764,"adult":false},{"id":13675,"adult":false},{"id":208461,"adult":false},{"id":36089,"adult":false},{"id":2207,"adult":false},{"id":8409,"adult":false},{"id":42517,"adult":false},{"id":9691,"adult":false},{"id":26538,"adult":false},{"id":291044,"adult":false},{"id":254470,"adult":false},{"id":50933,"adult":false},{"id":17831,"adult":false},{"id":18846,"adult":false},{"id":311017,"adult":false},{"id":50638,"adult":false},{"id":324765,"adult":false},{"id":26536,"adult":false},{"id":4922,"adult":false},{"id":4722,"adult":false},{"id":115821,"adult":false},{"id":146494,"adult":false},{"id":124301,"adult":false},{"id":321662,"adult":false},{"id":116741,"adult":false},{"id":324766,"adult":false},{"id":324767,"adult":false},{"id":190611,"adult":null},{"id":135761,"adult":false},{"id":324768,"adult":false},{"id":89769,"adult":false},{"id":324769,"adult":false},{"id":89771,"adult":false},{"id":324770,"adult":false},{"id":25571,"adult":false},{"id":324771,"adult":false},{"id":324772,"adult":false},{"id":271985,"adult":false},{"id":324773,"adult":false},{"id":324774,"adult":false},{"id":89563,"adult":false},{"id":89221,"adult":false},{"id":21575,"adult":false},{"id":324775,"adult":false},{"id":312275,"adult":false},{"id":252340,"adult":false},{"id":80268,"adult":false},{"id":19072,"adult":false},{"id":46098,"adult":false},{"id":223140,"adult":false},{"id":324776,"adult":false},{"id":144942,"adult":false},{"id":139367,"adult":false},{"id":324777,"adult":false},{"id":11020,"adult":false},{"id":94134,"adult":false},{"id":213373,"adult":false},{"id":113169,"adult":null},{"id":69628,"adult":false},{"id":10831,"adult":false},{"id":69664,"adult":false},{"id":52628,"adult":false},{"id":140278,"adult":false},{"id":324778,"adult":false},{"id":36657,"adult":false},{"id":324779,"adult":false},{"id":279,"adult":false},{"id":9502,"adult":false},{"id":52047,"adult":false},{"id":651,"adult":false},{"id":297113,"adult":false},{"id":324780,"adult":false},{"id":294309,"adult":false},{"id":9886,"adult":false},{"id":20662,"adult":false},{"id":7508,"adult":false},{"id":31965,"adult":false},{"id":158015,"adult":false},{"id":16859,"adult":false},{"id":160443,"adult":false},{"id":300803,"adult":false},{"id":324781,"adult":false},{"id":8844,"adult":false},{"id":8960,"adult":false},{"id":11423,"adult":false},{"id":11609,"adult":false},{"id":108892,"adult":false},{"id":141,"adult":false},{"id":119675,"adult":false},{"id":10681,"adult":false},{"id":7457,"adult":false},{"id":268,"adult":false},{"id":256274,"adult":false},{"id":662,"adult":false},{"id":4515,"adult":false},{"id":12244,"adult":false},{"id":2133,"adult":false},{"id":812,"adult":false},{"id":3090,"adult":false}],"page":91,"total_pages":117,"total_results":11629}