{"results":[{"id":51394,"adult":false},{"id":166711,"adult":false},{"id":310567,"adult":false},{"id":154612,"adult":false},{"id":166712,"adult":false},{"id":365645,"adult":false},{"id":52782,"adult":false},{"id":166714,"adult":false},{"id":371240,"adult":false},{"id":315425,"adult":false},{"id":954,"adult":false},{"id":371241,"adult":false},{"id":371242,"adult":false},{"id":13291,"adult":false},{"id":41098,"adult":false},{"id":18183,"adult":false},{"id":179847,"adult":false},{"id":24821,"adult":false},{"id":368940,"adult":false},{"id":371243,"adult":false},{"id":99117,"adult":false},{"id":83343,"adult":false},{"id":11169,"adult":false},{"id":336777,"adult":false},{"id":127932,"adult":false},{"id":149218,"adult":false},{"id":147458,"adult":false},{"id":87313,"adult":false},{"id":75086,"adult":false},{"id":197755,"adult":false},{"id":269714,"adult":false},{"id":273057,"adult":false},{"id":180150,"adult":false},{"id":49105,"adult":false},{"id":1846,"adult":false},{"id":278677,"adult":false},{"id":49103,"adult":false},{"id":175484,"adult":false},{"id":49107,"adult":false},{"id":22051,"adult":false},{"id":58377,"adult":false},{"id":82593,"adult":false},{"id":48884,"adult":false},{"id":101907,"adult":false},{"id":47202,"adult":false},{"id":371244,"adult":false},{"id":350667,"adult":false},{"id":166669,"adult":false},{"id":20564,"adult":false},{"id":370264,"adult":false},{"id":169920,"adult":false},{"id":49101,"adult":false},{"id":101766,"adult":false},{"id":8408,"adult":false},{"id":49112,"adult":false},{"id":23688,"adult":false},{"id":338401,"adult":false},{"id":15859,"adult":false},{"id":314087,"adult":false},{"id":107540,"adult":false},{"id":49097,"adult":false},{"id":363486,"adult":false},{"id":57306,"adult":false},{"id":60192,"adult":false},{"id":42164,"adult":false},{"id":146405,"adult":false},{"id":136646,"adult":false},{"id":18906,"adult":false},{"id":66712,"adult":false},{"id":349274,"adult":false},{"id":54155,"adult":false},{"id":153146,"adult":false},{"id":124764,"adult":false},{"id":32159,"adult":false},{"id":95767,"adult":false},{"id":108513,"adult":false},{"id":170435,"adult":false},{"id":370575,"adult":false},{"id":323972,"adult":false},{"id":47022,"adult":false},{"id":293670,"adult":false},{"id":6073,"adult":false},{"id":294016,"adult":false},{"id":42590,"adult":false},{"id":9636,"adult":false},{"id":321011,"adult":false},{"id":47654,"adult":false},{"id":165649,"adult":false},{"id":109383,"adult":false},{"id":79610,"adult":false},{"id":371245,"adult":false},{"id":28861,"adult":false},{"id":41439,"adult":false},{"id":24259,"adult":false},{"id":303187,"adult":false},{"id":236242,"adult":false},{"id":338803,"adult":false},{"id":64882,"adult":false},{"id":208277,"adult":false},{"id":25330,"adult":false}],"page":35,"total_pages":97,"total_results":9613}