{"results":[{"id":99258,"adult":false},{"id":11898,"adult":false},{"id":365419,"adult":false},{"id":365420,"adult":false},{"id":117435,"adult":false},{"id":45006,"adult":false},{"id":365421,"adult":false},{"id":96396,"adult":false},{"id":58624,"adult":false},{"id":193502,"adult":false},{"id":319083,"adult":null},{"id":57049,"adult":false},{"id":361788,"adult":false},{"id":58350,"adult":false},{"id":352162,"adult":false},{"id":365422,"adult":false},{"id":168273,"adult":false},{"id":365423,"adult":false},{"id":67377,"adult":false},{"id":60534,"adult":false},{"id":315348,"adult":null},{"id":365424,"adult":false},{"id":4436,"adult":false},{"id":112028,"adult":false},{"id":198289,"adult":false},{"id":58246,"adult":false},{"id":314840,"adult":null},{"id":10490,"adult":false},{"id":365425,"adult":false},{"id":339441,"adult":false},{"id":35881,"adult":false},{"id":157163,"adult":false},{"id":165305,"adult":false},{"id":20416,"adult":false},{"id":86583,"adult":false},{"id":34465,"adult":false},{"id":28737,"adult":false},{"id":86575,"adult":false},{"id":99357,"adult":false},{"id":364000,"adult":false},{"id":287824,"adult":false},{"id":99799,"adult":false},{"id":123251,"adult":false},{"id":365426,"adult":false},{"id":74949,"adult":false},{"id":258884,"adult":false},{"id":365427,"adult":false},{"id":365428,"adult":false},{"id":61231,"adult":false},{"id":228294,"adult":false},{"id":356090,"adult":false},{"id":48202,"adult":false},{"id":4235,"adult":false},{"id":69327,"adult":false},{"id":247645,"adult":false},{"id":1628,"adult":false},{"id":365429,"adult":false},{"id":149457,"adult":false},{"id":312804,"adult":false},{"id":246133,"adult":false},{"id":306819,"adult":false},{"id":323675,"adult":false},{"id":291870,"adult":false},{"id":140300,"adult":false},{"id":329833,"adult":false},{"id":336808,"adult":false},{"id":271969,"adult":false},{"id":130737,"adult":false},{"id":703,"adult":false},{"id":311917,"adult":false},{"id":57157,"adult":false},{"id":36719,"adult":false},{"id":5139,"adult":false},{"id":325467,"adult":false},{"id":49529,"adult":false},{"id":63747,"adult":false},{"id":329785,"adult":false},{"id":79448,"adult":false},{"id":365430,"adult":null},{"id":365431,"adult":false},{"id":20527,"adult":false},{"id":84306,"adult":false},{"id":22240,"adult":false},{"id":18513,"adult":false},{"id":365432,"adult":false},{"id":84165,"adult":false},{"id":8327,"adult":false},{"id":340349,"adult":false},{"id":5898,"adult":false},{"id":118210,"adult":false},{"id":1485,"adult":false},{"id":365433,"adult":false},{"id":69151,"adult":false},{"id":193385,"adult":false},{"id":76807,"adult":false},{"id":301875,"adult":false},{"id":316854,"adult":false},{"id":10835,"adult":false},{"id":7347,"adult":false},{"id":34093,"adult":false}],"page":76,"total_pages":85,"total_results":8453}