{"results":[{"id":6037,"adult":false},{"id":159153,"adult":false},{"id":13853,"adult":false},{"id":260110,"adult":false},{"id":261093,"adult":false},{"id":2617,"adult":false},{"id":261092,"adult":false},{"id":24709,"adult":false},{"id":12227,"adult":false},{"id":159621,"adult":false},{"id":9624,"adult":false},{"id":160070,"adult":false},{"id":4476,"adult":false},{"id":25059,"adult":false},{"id":364331,"adult":false},{"id":150546,"adult":false},{"id":40688,"adult":false},{"id":339312,"adult":false},{"id":2899,"adult":false},{"id":74465,"adult":false},{"id":364332,"adult":false},{"id":6961,"adult":false},{"id":364333,"adult":false},{"id":339580,"adult":false},{"id":38583,"adult":false},{"id":216796,"adult":false},{"id":304357,"adult":false},{"id":364334,"adult":false},{"id":364335,"adult":false},{"id":364336,"adult":false},{"id":13682,"adult":false},{"id":330161,"adult":false},{"id":348631,"adult":false},{"id":364339,"adult":false},{"id":364340,"adult":false},{"id":364341,"adult":false},{"id":364342,"adult":false},{"id":344797,"adult":false},{"id":364343,"adult":false},{"id":9395,"adult":false},{"id":364344,"adult":false},{"id":364345,"adult":false},{"id":4169,"adult":false},{"id":9873,"adult":false},{"id":359871,"adult":false},{"id":364346,"adult":false},{"id":67699,"adult":false},{"id":16820,"adult":false},{"id":302401,"adult":false},{"id":362476,"adult":false},{"id":303601,"adult":false},{"id":53426,"adult":false},{"id":10145,"adult":false},{"id":31503,"adult":false},{"id":49017,"adult":false},{"id":11025,"adult":false},{"id":364347,"adult":false},{"id":145711,"adult":false},{"id":44315,"adult":false},{"id":35106,"adult":false},{"id":2274,"adult":false},{"id":308638,"adult":false},{"id":361431,"adult":false},{"id":361375,"adult":false},{"id":364348,"adult":null},{"id":361568,"adult":false},{"id":4918,"adult":false},{"id":87817,"adult":false},{"id":360326,"adult":null},{"id":360952,"adult":null},{"id":308306,"adult":false},{"id":360917,"adult":null},{"id":77715,"adult":false},{"id":5503,"adult":false},{"id":2275,"adult":false},{"id":263471,"adult":false},{"id":360213,"adult":null},{"id":388,"adult":false},{"id":7304,"adult":false},{"id":546,"adult":false},{"id":8053,"adult":false},{"id":533,"adult":false},{"id":364349,"adult":false},{"id":41517,"adult":false},{"id":340,"adult":false},{"id":360921,"adult":null},{"id":364350,"adult":false},{"id":1667,"adult":false},{"id":3291,"adult":false},{"id":9388,"adult":false},{"id":4550,"adult":false},{"id":25120,"adult":false},{"id":23787,"adult":null},{"id":11851,"adult":false},{"id":9270,"adult":false},{"id":5820,"adult":false},{"id":15774,"adult":false},{"id":9882,"adult":false},{"id":4251,"adult":false},{"id":321068,"adult":false}],"page":18,"total_pages":85,"total_results":8453}