{"results":[{"id":31245,"adult":false},{"id":339201,"adult":false},{"id":339202,"adult":false},{"id":152532,"adult":false},{"id":339203,"adult":false},{"id":34941,"adult":false},{"id":322518,"adult":false},{"id":11931,"adult":false},{"id":339204,"adult":false},{"id":339205,"adult":false},{"id":339206,"adult":null},{"id":51778,"adult":false},{"id":111942,"adult":false},{"id":339207,"adult":false},{"id":299822,"adult":false},{"id":31695,"adult":false},{"id":339208,"adult":false},{"id":339209,"adult":false},{"id":324245,"adult":false},{"id":22423,"adult":false},{"id":67065,"adult":false},{"id":6116,"adult":false},{"id":17917,"adult":false},{"id":59197,"adult":false},{"id":35680,"adult":false},{"id":155890,"adult":false},{"id":11564,"adult":false},{"id":339210,"adult":false},{"id":299782,"adult":false},{"id":339211,"adult":false},{"id":254186,"adult":false},{"id":339212,"adult":false},{"id":336201,"adult":false},{"id":16858,"adult":false},{"id":271355,"adult":false},{"id":40880,"adult":false},{"id":293644,"adult":false},{"id":169885,"adult":false},{"id":241140,"adult":false},{"id":578,"adult":false},{"id":297864,"adult":false},{"id":339213,"adult":false},{"id":335451,"adult":false},{"id":305749,"adult":false},{"id":312860,"adult":false},{"id":339214,"adult":false},{"id":105059,"adult":false},{"id":242828,"adult":false},{"id":29805,"adult":false},{"id":10498,"adult":false},{"id":339215,"adult":false},{"id":313867,"adult":false},{"id":339216,"adult":false},{"id":155405,"adult":false},{"id":13785,"adult":false},{"id":305276,"adult":false},{"id":326795,"adult":false},{"id":299796,"adult":false},{"id":17689,"adult":false},{"id":17729,"adult":false},{"id":339217,"adult":false},{"id":339218,"adult":false},{"id":339219,"adult":false},{"id":199551,"adult":false},{"id":333829,"adult":false},{"id":339220,"adult":false},{"id":335491,"adult":false},{"id":339221,"adult":false},{"id":339222,"adult":false},{"id":27310,"adult":false},{"id":253251,"adult":false},{"id":68275,"adult":false},{"id":34679,"adult":false},{"id":60095,"adult":false},{"id":315336,"adult":false},{"id":75780,"adult":false},{"id":230708,"adult":false},{"id":126185,"adult":false},{"id":339223,"adult":false},{"id":339224,"adult":false},{"id":31475,"adult":false},{"id":339225,"adult":false},{"id":8358,"adult":false},{"id":339226,"adult":false},{"id":339227,"adult":false},{"id":100257,"adult":false},{"id":19238,"adult":false},{"id":323369,"adult":false},{"id":339228,"adult":false},{"id":339229,"adult":false},{"id":339230,"adult":false},{"id":46206,"adult":false},{"id":339231,"adult":false},{"id":127040,"adult":false},{"id":58732,"adult":false},{"id":22999,"adult":false},{"id":339232,"adult":false},{"id":206296,"adult":false},{"id":13016,"adult":false},{"id":31622,"adult":false}],"page":64,"total_pages":106,"total_results":10547}