{"results":[{"id":280123,"adult":false},{"id":284276,"adult":false},{"id":1379,"adult":false},{"id":336356,"adult":true},{"id":336357,"adult":false},{"id":186022,"adult":false},{"id":315878,"adult":true},{"id":18900,"adult":false},{"id":315874,"adult":true},{"id":8430,"adult":false},{"id":330744,"adult":true},{"id":324879,"adult":true},{"id":221087,"adult":false},{"id":325207,"adult":true},{"id":188315,"adult":true},{"id":210287,"adult":true},{"id":948,"adult":false},{"id":173548,"adult":true},{"id":15969,"adult":false},{"id":21588,"adult":false},{"id":2082,"adult":false},{"id":11238,"adult":false},{"id":314276,"adult":true},{"id":314275,"adult":true},{"id":314273,"adult":true},{"id":12230,"adult":false},{"id":314271,"adult":true},{"id":11675,"adult":false},{"id":9437,"adult":false},{"id":336358,"adult":true},{"id":273642,"adult":false},{"id":24150,"adult":false},{"id":2043,"adult":false},{"id":40172,"adult":false},{"id":149129,"adult":false},{"id":336359,"adult":false},{"id":14373,"adult":false},{"id":149429,"adult":false},{"id":24873,"adult":false},{"id":26263,"adult":false},{"id":34746,"adult":false},{"id":10652,"adult":false},{"id":336360,"adult":true},{"id":10503,"adult":false},{"id":65754,"adult":false},{"id":89890,"adult":true},{"id":195856,"adult":true},{"id":295509,"adult":true},{"id":336361,"adult":true},{"id":12142,"adult":false},{"id":336362,"adult":true},{"id":11782,"adult":false},{"id":28131,"adult":false},{"id":41925,"adult":false},{"id":23398,"adult":false},{"id":336363,"adult":true},{"id":143754,"adult":false},{"id":65421,"adult":false},{"id":33258,"adult":false},{"id":128748,"adult":false},{"id":336364,"adult":true},{"id":280943,"adult":null},{"id":214969,"adult":false},{"id":48401,"adult":false},{"id":10358,"adult":false},{"id":203076,"adult":false},{"id":2105,"adult":false},{"id":336365,"adult":false},{"id":9569,"adult":false},{"id":2770,"adult":false},{"id":145033,"adult":false},{"id":336366,"adult":true},{"id":285015,"adult":false},{"id":69219,"adult":false},{"id":293,"adult":false},{"id":168423,"adult":false},{"id":95228,"adult":true},{"id":16411,"adult":false},{"id":58245,"adult":false},{"id":336367,"adult":true},{"id":311414,"adult":false},{"id":18912,"adult":false},{"id":146375,"adult":false},{"id":50647,"adult":false},{"id":70752,"adult":false},{"id":109491,"adult":false},{"id":94466,"adult":false},{"id":74049,"adult":false},{"id":236740,"adult":true},{"id":62069,"adult":false},{"id":5873,"adult":false},{"id":197796,"adult":false},{"id":310884,"adult":false},{"id":206192,"adult":false},{"id":336368,"adult":false},{"id":274890,"adult":false},{"id":336371,"adult":false},{"id":315506,"adult":true},{"id":334707,"adult":false},{"id":289952,"adult":false}],"page":27,"total_pages":102,"total_results":10168}