{"results":[{"id":553,"adult":false},{"id":194722,"adult":false},{"id":10358,"adult":false},{"id":86094,"adult":false},{"id":11051,"adult":false},{"id":5503,"adult":false},{"id":326829,"adult":null},{"id":23333,"adult":false},{"id":66664,"adult":false},{"id":12278,"adult":false},{"id":273454,"adult":false},{"id":256892,"adult":false},{"id":263982,"adult":false},{"id":159635,"adult":false},{"id":260097,"adult":false},{"id":259548,"adult":false},{"id":282067,"adult":false},{"id":62941,"adult":false},{"id":1716,"adult":false},{"id":8016,"adult":false},{"id":273281,"adult":false},{"id":867,"adult":false},{"id":267477,"adult":false},{"id":21546,"adult":false},{"id":244358,"adult":false},{"id":58416,"adult":false},{"id":197539,"adult":false},{"id":152334,"adult":false},{"id":298931,"adult":false},{"id":89156,"adult":false},{"id":265940,"adult":false},{"id":11986,"adult":false},{"id":57276,"adult":false},{"id":219,"adult":false},{"id":9652,"adult":false},{"id":326830,"adult":false},{"id":20115,"adult":false},{"id":321486,"adult":false},{"id":100788,"adult":false},{"id":13752,"adult":false},{"id":8979,"adult":false},{"id":326831,"adult":false},{"id":128677,"adult":false},{"id":16460,"adult":false},{"id":8920,"adult":false},{"id":9037,"adult":false},{"id":132095,"adult":false},{"id":86083,"adult":false},{"id":621,"adult":false},{"id":1924,"adult":false},{"id":326832,"adult":null},{"id":300185,"adult":null},{"id":326833,"adult":false},{"id":1562,"adult":false},{"id":19508,"adult":false},{"id":22311,"adult":false},{"id":122,"adult":false},{"id":64635,"adult":false},{"id":75638,"adult":false},{"id":15659,"adult":false},{"id":129863,"adult":false},{"id":326834,"adult":false},{"id":162975,"adult":false},{"id":322663,"adult":false},{"id":296985,"adult":false},{"id":50541,"adult":false},{"id":8818,"adult":false},{"id":4108,"adult":false},{"id":36694,"adult":false},{"id":9335,"adult":false},{"id":36692,"adult":false},{"id":326835,"adult":false},{"id":25087,"adult":false},{"id":83588,"adult":false},{"id":13387,"adult":false},{"id":72946,"adult":false},{"id":36693,"adult":false},{"id":97399,"adult":false},{"id":214847,"adult":false},{"id":79765,"adult":false},{"id":7735,"adult":false},{"id":300909,"adult":false},{"id":315532,"adult":false},{"id":26728,"adult":false},{"id":35760,"adult":false},{"id":96936,"adult":false},{"id":39210,"adult":false},{"id":1887,"adult":false},{"id":92657,"adult":false},{"id":326836,"adult":false},{"id":156711,"adult":false},{"id":175541,"adult":false},{"id":6535,"adult":false},{"id":25208,"adult":false},{"id":8488,"adult":false},{"id":114476,"adult":false},{"id":49013,"adult":false},{"id":291086,"adult":false},{"id":39135,"adult":false},{"id":9701,"adult":false}],"page":65,"total_pages":112,"total_results":11193}