{"results":[{"id":334964,"adult":false},{"id":334965,"adult":false},{"id":334966,"adult":false},{"id":334967,"adult":null},{"id":334968,"adult":false},{"id":334969,"adult":false},{"id":334971,"adult":false},{"id":334972,"adult":false},{"id":334973,"adult":false},{"id":334974,"adult":false},{"id":334975,"adult":false},{"id":316254,"adult":false},{"id":334976,"adult":false},{"id":334977,"adult":false},{"id":334978,"adult":false},{"id":334979,"adult":false},{"id":261585,"adult":false},{"id":334980,"adult":false},{"id":334981,"adult":false},{"id":309425,"adult":false},{"id":334982,"adult":false},{"id":295886,"adult":false},{"id":334983,"adult":null},{"id":44203,"adult":false},{"id":291356,"adult":false},{"id":28917,"adult":false},{"id":73897,"adult":false},{"id":207273,"adult":false},{"id":289416,"adult":false},{"id":334984,"adult":false},{"id":13311,"adult":false},{"id":287587,"adult":false},{"id":254166,"adult":false},{"id":299588,"adult":false},{"id":153976,"adult":false},{"id":133649,"adult":false},{"id":11286,"adult":false},{"id":334985,"adult":false},{"id":559,"adult":false},{"id":23685,"adult":false},{"id":53296,"adult":false},{"id":31622,"adult":false},{"id":334986,"adult":false},{"id":22517,"adult":false},{"id":334987,"adult":false},{"id":56809,"adult":false},{"id":13068,"adult":false},{"id":334991,"adult":false},{"id":334992,"adult":false},{"id":32613,"adult":false},{"id":334993,"adult":false},{"id":334994,"adult":false},{"id":10837,"adult":false},{"id":11135,"adult":false},{"id":7520,"adult":false},{"id":14411,"adult":false},{"id":953,"adult":false},{"id":4523,"adult":false},{"id":15512,"adult":false},{"id":10191,"adult":false},{"id":157301,"adult":false},{"id":49519,"adult":false},{"id":334995,"adult":false},{"id":188231,"adult":false},{"id":106277,"adult":false},{"id":21219,"adult":false},{"id":8916,"adult":false},{"id":421,"adult":false},{"id":9479,"adult":false},{"id":10402,"adult":false},{"id":9806,"adult":false},{"id":2062,"adult":false},{"id":14836,"adult":false},{"id":329599,"adult":null},{"id":279715,"adult":false},{"id":334996,"adult":false},{"id":4203,"adult":false},{"id":602,"adult":false},{"id":82491,"adult":true},{"id":77529,"adult":true},{"id":300823,"adult":false},{"id":19766,"adult":false},{"id":79443,"adult":false},{"id":153518,"adult":false},{"id":64051,"adult":false},{"id":233863,"adult":false},{"id":327472,"adult":false},{"id":334997,"adult":false},{"id":334998,"adult":false},{"id":34173,"adult":false},{"id":334999,"adult":false},{"id":335000,"adult":false},{"id":201797,"adult":false},{"id":273349,"adult":false},{"id":291956,"adult":false},{"id":45296,"adult":false},{"id":335001,"adult":false},{"id":14267,"adult":false},{"id":27473,"adult":false},{"id":292785,"adult":false}],"page":69,"total_pages":100,"total_results":9923}