{"results":[{"id":67501,"adult":false},{"id":219814,"adult":false},{"id":335893,"adult":true},{"id":248352,"adult":false},{"id":18943,"adult":false},{"id":261548,"adult":false},{"id":335894,"adult":true},{"id":309871,"adult":false},{"id":335895,"adult":false},{"id":335896,"adult":null},{"id":335897,"adult":false},{"id":159109,"adult":false},{"id":333739,"adult":true},{"id":333740,"adult":true},{"id":228150,"adult":false},{"id":308591,"adult":true},{"id":186016,"adult":true},{"id":261103,"adult":false},{"id":335898,"adult":false},{"id":74760,"adult":false},{"id":34108,"adult":false},{"id":335899,"adult":false},{"id":335900,"adult":false},{"id":249376,"adult":false},{"id":826,"adult":false},{"id":277710,"adult":false},{"id":268920,"adult":false},{"id":175601,"adult":false},{"id":51540,"adult":false},{"id":335618,"adult":false},{"id":265592,"adult":false},{"id":26317,"adult":false},{"id":319324,"adult":false},{"id":52451,"adult":false},{"id":38065,"adult":false},{"id":179242,"adult":false},{"id":319327,"adult":false},{"id":335901,"adult":false},{"id":319315,"adult":false},{"id":326193,"adult":false},{"id":286521,"adult":false},{"id":328901,"adult":false},{"id":335902,"adult":false},{"id":321030,"adult":false},{"id":85,"adult":false},{"id":274504,"adult":false},{"id":331115,"adult":false},{"id":104896,"adult":false},{"id":55958,"adult":false},{"id":335903,"adult":false},{"id":291189,"adult":false},{"id":137599,"adult":false},{"id":111470,"adult":false},{"id":335904,"adult":false},{"id":285594,"adult":false},{"id":5335,"adult":false},{"id":81949,"adult":false},{"id":224638,"adult":false},{"id":335732,"adult":false},{"id":228973,"adult":false},{"id":335905,"adult":false},{"id":32958,"adult":false},{"id":335906,"adult":false},{"id":172342,"adult":false},{"id":335907,"adult":false},{"id":26208,"adult":false},{"id":54848,"adult":false},{"id":43737,"adult":false},{"id":30902,"adult":false},{"id":19819,"adult":false},{"id":39814,"adult":false},{"id":335908,"adult":false},{"id":233470,"adult":false},{"id":335909,"adult":false},{"id":44977,"adult":false},{"id":174,"adult":false},{"id":159824,"adult":false},{"id":290764,"adult":false},{"id":335910,"adult":false},{"id":152736,"adult":false},{"id":335462,"adult":false},{"id":335911,"adult":false},{"id":335912,"adult":false},{"id":313429,"adult":false},{"id":217923,"adult":false},{"id":5854,"adult":false},{"id":26716,"adult":false},{"id":335913,"adult":false},{"id":19311,"adult":false},{"id":304277,"adult":false},{"id":24238,"adult":false},{"id":318044,"adult":false},{"id":335914,"adult":false},{"id":261039,"adult":false},{"id":335915,"adult":false},{"id":72197,"adult":false},{"id":34574,"adult":false},{"id":335916,"adult":false},{"id":178590,"adult":false},{"id":335917,"adult":false}],"page":7,"total_pages":102,"total_results":10168}