{"results":[{"id":336478,"adult":false},{"id":215042,"adult":false},{"id":296608,"adult":true},{"id":13127,"adult":false},{"id":38831,"adult":false},{"id":1537,"adult":false},{"id":336480,"adult":false},{"id":14313,"adult":false},{"id":43040,"adult":false},{"id":27924,"adult":false},{"id":27920,"adult":false},{"id":109513,"adult":false},{"id":27862,"adult":false},{"id":256520,"adult":false},{"id":58882,"adult":false},{"id":64122,"adult":false},{"id":336481,"adult":false},{"id":3480,"adult":false},{"id":87358,"adult":false},{"id":336482,"adult":false},{"id":125173,"adult":false},{"id":157993,"adult":false},{"id":1679,"adult":false},{"id":866,"adult":false},{"id":39264,"adult":false},{"id":336483,"adult":false},{"id":333118,"adult":false},{"id":336484,"adult":false},{"id":324281,"adult":false},{"id":1678,"adult":false},{"id":258538,"adult":false},{"id":336485,"adult":false},{"id":220471,"adult":false},{"id":24987,"adult":false},{"id":9087,"adult":false},{"id":12650,"adult":false},{"id":54301,"adult":false},{"id":336486,"adult":null},{"id":123489,"adult":false},{"id":238217,"adult":false},{"id":336487,"adult":true},{"id":27328,"adult":false},{"id":18426,"adult":false},{"id":227854,"adult":false},{"id":336488,"adult":false},{"id":154298,"adult":false},{"id":331251,"adult":false},{"id":33257,"adult":false},{"id":44899,"adult":false},{"id":42021,"adult":false},{"id":183068,"adult":false},{"id":324360,"adult":false},{"id":19337,"adult":false},{"id":320174,"adult":false},{"id":336489,"adult":false},{"id":331224,"adult":false},{"id":336490,"adult":true},{"id":74287,"adult":false},{"id":138515,"adult":false},{"id":152042,"adult":false},{"id":69161,"adult":false},{"id":212166,"adult":false},{"id":320916,"adult":false},{"id":323117,"adult":false},{"id":330746,"adult":false},{"id":335335,"adult":false},{"id":6106,"adult":false},{"id":329416,"adult":false},{"id":285858,"adult":false},{"id":33521,"adult":false},{"id":86728,"adult":false},{"id":14043,"adult":false},{"id":143333,"adult":false},{"id":61698,"adult":false},{"id":336491,"adult":true},{"id":10925,"adult":false},{"id":336492,"adult":false},{"id":241848,"adult":false},{"id":252391,"adult":false},{"id":310566,"adult":false},{"id":40630,"adult":false},{"id":49706,"adult":false},{"id":327993,"adult":false},{"id":336494,"adult":false},{"id":297334,"adult":false},{"id":32392,"adult":false},{"id":9475,"adult":false},{"id":295831,"adult":false},{"id":192345,"adult":false},{"id":38610,"adult":false},{"id":42984,"adult":false},{"id":28019,"adult":false},{"id":1412,"adult":false},{"id":254537,"adult":false},{"id":29133,"adult":null},{"id":254713,"adult":false},{"id":220133,"adult":false},{"id":44128,"adult":false},{"id":10998,"adult":false},{"id":336495,"adult":false}],"page":32,"total_pages":102,"total_results":10168}