{"results":[{"id":22414,"adult":false},{"id":339775,"adult":false},{"id":333869,"adult":false},{"id":8321,"adult":false},{"id":66765,"adult":false},{"id":333446,"adult":false},{"id":325384,"adult":false},{"id":325181,"adult":null},{"id":293023,"adult":false},{"id":287625,"adult":false},{"id":32046,"adult":false},{"id":196546,"adult":false},{"id":323303,"adult":false},{"id":13092,"adult":false},{"id":217775,"adult":false},{"id":83278,"adult":false},{"id":261419,"adult":false},{"id":82028,"adult":false},{"id":8055,"adult":false},{"id":57758,"adult":false},{"id":33130,"adult":false},{"id":217011,"adult":false},{"id":144454,"adult":false},{"id":16359,"adult":false},{"id":244052,"adult":false},{"id":155084,"adult":false},{"id":127493,"adult":false},{"id":39681,"adult":false},{"id":76130,"adult":false},{"id":152792,"adult":false},{"id":275028,"adult":false},{"id":284875,"adult":false},{"id":216783,"adult":false},{"id":11060,"adult":false},{"id":292812,"adult":false},{"id":8489,"adult":false},{"id":2211,"adult":false},{"id":285743,"adult":false},{"id":328280,"adult":false},{"id":339776,"adult":false},{"id":316845,"adult":false},{"id":185460,"adult":false},{"id":337665,"adult":false},{"id":324904,"adult":false},{"id":253257,"adult":false},{"id":261818,"adult":false},{"id":190879,"adult":false},{"id":296883,"adult":false},{"id":215763,"adult":false},{"id":183073,"adult":false},{"id":335154,"adult":false},{"id":173436,"adult":false},{"id":330530,"adult":false},{"id":307169,"adult":false},{"id":332564,"adult":false},{"id":100159,"adult":false},{"id":268379,"adult":false},{"id":94413,"adult":false},{"id":268378,"adult":null},{"id":104482,"adult":false},{"id":253222,"adult":false},{"id":172621,"adult":null},{"id":109933,"adult":false},{"id":4930,"adult":false},{"id":339777,"adult":false},{"id":276067,"adult":false},{"id":27861,"adult":false},{"id":66540,"adult":false},{"id":339778,"adult":null},{"id":325942,"adult":false},{"id":223551,"adult":false},{"id":78356,"adult":false},{"id":10974,"adult":false},{"id":1877,"adult":false},{"id":88875,"adult":false},{"id":332492,"adult":false},{"id":251744,"adult":false},{"id":49391,"adult":false},{"id":296449,"adult":false},{"id":107634,"adult":false},{"id":70587,"adult":false},{"id":287050,"adult":false},{"id":33481,"adult":false},{"id":287861,"adult":false},{"id":242643,"adult":false},{"id":54706,"adult":null},{"id":57402,"adult":false},{"id":761,"adult":false},{"id":297849,"adult":false},{"id":306499,"adult":null},{"id":238854,"adult":false},{"id":9356,"adult":false},{"id":304632,"adult":false},{"id":11982,"adult":false},{"id":259568,"adult":false},{"id":285733,"adult":false},{"id":288549,"adult":false},{"id":326928,"adult":false},{"id":8769,"adult":false},{"id":36989,"adult":false}],"page":90,"total_pages":106,"total_results":10547}