{"results":[{"id":266320,"adult":true},{"id":45072,"adult":false},{"id":135429,"adult":null},{"id":266319,"adult":true},{"id":266306,"adult":true},{"id":266292,"adult":true},{"id":266278,"adult":true},{"id":265916,"adult":true},{"id":140405,"adult":false},{"id":702,"adult":false},{"id":265921,"adult":true},{"id":265928,"adult":true},{"id":265930,"adult":true},{"id":266087,"adult":true},{"id":266094,"adult":true},{"id":679,"adult":false},{"id":327,"adult":false},{"id":96811,"adult":false},{"id":266097,"adult":true},{"id":253344,"adult":false},{"id":266101,"adult":true},{"id":37270,"adult":false},{"id":317921,"adult":null},{"id":266114,"adult":true},{"id":2117,"adult":false},{"id":266137,"adult":true},{"id":63472,"adult":false},{"id":133694,"adult":false},{"id":266140,"adult":true},{"id":266051,"adult":true},{"id":266148,"adult":true},{"id":60540,"adult":false},{"id":288481,"adult":false},{"id":33623,"adult":false},{"id":266156,"adult":true},{"id":266160,"adult":true},{"id":266162,"adult":true},{"id":266164,"adult":true},{"id":85,"adult":false},{"id":33932,"adult":false},{"id":266168,"adult":true},{"id":266173,"adult":true},{"id":240131,"adult":true},{"id":266041,"adult":true},{"id":332665,"adult":false},{"id":266033,"adult":true},{"id":47881,"adult":false},{"id":266090,"adult":true},{"id":41120,"adult":false},{"id":266046,"adult":true},{"id":265870,"adult":true},{"id":265882,"adult":true},{"id":332666,"adult":false},{"id":10948,"adult":false},{"id":101630,"adult":false},{"id":9425,"adult":false},{"id":336,"adult":false},{"id":46667,"adult":false},{"id":289,"adult":false},{"id":223551,"adult":false},{"id":332667,"adult":false},{"id":244794,"adult":false},{"id":44050,"adult":false},{"id":109152,"adult":false},{"id":63996,"adult":false},{"id":30139,"adult":false},{"id":39774,"adult":false},{"id":250777,"adult":false},{"id":261009,"adult":false},{"id":332668,"adult":false},{"id":292183,"adult":false},{"id":137379,"adult":false},{"id":332669,"adult":false},{"id":248142,"adult":false},{"id":332670,"adult":false},{"id":332671,"adult":false},{"id":248211,"adult":false},{"id":250841,"adult":false},{"id":274507,"adult":false},{"id":84310,"adult":false},{"id":252403,"adult":false},{"id":250667,"adult":false},{"id":262702,"adult":false},{"id":313744,"adult":false},{"id":309579,"adult":false},{"id":31150,"adult":false},{"id":8205,"adult":false},{"id":206884,"adult":true},{"id":1577,"adult":false},{"id":153546,"adult":false},{"id":283599,"adult":false},{"id":96090,"adult":false},{"id":317896,"adult":false},{"id":253270,"adult":false},{"id":7737,"adult":false},{"id":106194,"adult":false},{"id":17346,"adult":false},{"id":159332,"adult":false},{"id":171741,"adult":false},{"id":290768,"adult":false}],"page":107,"total_pages":129,"total_results":12871}