{"results":[{"id":350660,"adult":false},{"id":251619,"adult":false},{"id":81776,"adult":false},{"id":262635,"adult":false},{"id":4543,"adult":false},{"id":350661,"adult":false},{"id":350662,"adult":false},{"id":27953,"adult":false},{"id":350666,"adult":false},{"id":81414,"adult":false},{"id":266034,"adult":false},{"id":70516,"adult":false},{"id":258470,"adult":false},{"id":20063,"adult":false},{"id":9058,"adult":false},{"id":52176,"adult":false},{"id":52175,"adult":false},{"id":225250,"adult":false},{"id":258750,"adult":false},{"id":350667,"adult":false},{"id":55543,"adult":false},{"id":278837,"adult":false},{"id":52162,"adult":false},{"id":320035,"adult":false},{"id":350668,"adult":false},{"id":43935,"adult":false},{"id":54426,"adult":false},{"id":171160,"adult":false},{"id":53248,"adult":false},{"id":350669,"adult":false},{"id":350670,"adult":false},{"id":350671,"adult":false},{"id":346296,"adult":false},{"id":75460,"adult":false},{"id":37523,"adult":false},{"id":346113,"adult":false},{"id":15370,"adult":false},{"id":101682,"adult":false},{"id":350672,"adult":false},{"id":9573,"adult":false},{"id":109046,"adult":false},{"id":265226,"adult":false},{"id":350673,"adult":false},{"id":322586,"adult":false},{"id":350674,"adult":false},{"id":350675,"adult":false},{"id":19507,"adult":false},{"id":29537,"adult":false},{"id":113697,"adult":false},{"id":334337,"adult":false},{"id":350676,"adult":false},{"id":350677,"adult":false},{"id":350678,"adult":false},{"id":146034,"adult":false},{"id":8951,"adult":false},{"id":350679,"adult":false},{"id":44103,"adult":false},{"id":21546,"adult":false},{"id":195581,"adult":false},{"id":86938,"adult":false},{"id":350680,"adult":false},{"id":96141,"adult":false},{"id":350681,"adult":false},{"id":346234,"adult":false},{"id":41784,"adult":false},{"id":350682,"adult":false},{"id":350683,"adult":false},{"id":350684,"adult":false},{"id":350685,"adult":false},{"id":350686,"adult":false},{"id":350687,"adult":false},{"id":350688,"adult":false},{"id":167769,"adult":false},{"id":39385,"adult":false},{"id":279579,"adult":false},{"id":350689,"adult":null},{"id":277387,"adult":false},{"id":246127,"adult":false},{"id":136670,"adult":false},{"id":10999,"adult":false},{"id":9602,"adult":false},{"id":26755,"adult":false},{"id":350690,"adult":false},{"id":30779,"adult":false},{"id":350691,"adult":false},{"id":29568,"adult":false},{"id":96714,"adult":false},{"id":303834,"adult":false},{"id":299565,"adult":false},{"id":186788,"adult":false},{"id":350692,"adult":false},{"id":350693,"adult":false},{"id":256876,"adult":false},{"id":157547,"adult":false},{"id":350694,"adult":false},{"id":4387,"adult":false},{"id":183591,"adult":false},{"id":350695,"adult":false},{"id":168880,"adult":false},{"id":295887,"adult":false}],"page":58,"total_pages":103,"total_results":10231}