{"results":[{"id":61488,"adult":false},{"id":284301,"adult":false},{"id":81440,"adult":false},{"id":15283,"adult":false},{"id":355928,"adult":false},{"id":625,"adult":false},{"id":909,"adult":false},{"id":373816,"adult":false},{"id":30522,"adult":false},{"id":84040,"adult":false},{"id":373817,"adult":false},{"id":373818,"adult":false},{"id":373819,"adult":null},{"id":373820,"adult":false},{"id":373821,"adult":null},{"id":361611,"adult":false},{"id":58,"adult":false},{"id":373822,"adult":false},{"id":166426,"adult":false},{"id":1865,"adult":false},{"id":373823,"adult":false},{"id":335765,"adult":false},{"id":2639,"adult":false},{"id":287216,"adult":false},{"id":276789,"adult":false},{"id":373824,"adult":false},{"id":83475,"adult":false},{"id":272554,"adult":false},{"id":373825,"adult":false},{"id":45991,"adult":false},{"id":368371,"adult":false},{"id":40149,"adult":false},{"id":70738,"adult":false},{"id":302331,"adult":false},{"id":373826,"adult":false},{"id":90953,"adult":false},{"id":373827,"adult":false},{"id":273271,"adult":false},{"id":131631,"adult":false},{"id":373828,"adult":false},{"id":38362,"adult":false},{"id":373829,"adult":false},{"id":181808,"adult":false},{"id":373830,"adult":false},{"id":11977,"adult":false},{"id":369306,"adult":false},{"id":356846,"adult":false},{"id":373831,"adult":false},{"id":373832,"adult":false},{"id":308024,"adult":false},{"id":119525,"adult":false},{"id":373833,"adult":false},{"id":50619,"adult":false},{"id":278849,"adult":false},{"id":149107,"adult":false},{"id":373834,"adult":false},{"id":373835,"adult":false},{"id":183760,"adult":false},{"id":226728,"adult":false},{"id":66474,"adult":false},{"id":25386,"adult":false},{"id":40388,"adult":false},{"id":240884,"adult":false},{"id":84998,"adult":false},{"id":39879,"adult":false},{"id":274167,"adult":false},{"id":259776,"adult":false},{"id":373836,"adult":false},{"id":212436,"adult":false},{"id":373837,"adult":false},{"id":259937,"adult":false},{"id":373838,"adult":false},{"id":364694,"adult":false},{"id":259948,"adult":false},{"id":369362,"adult":false},{"id":373839,"adult":false},{"id":9506,"adult":false},{"id":373840,"adult":false},{"id":259951,"adult":false},{"id":373841,"adult":false},{"id":283330,"adult":false},{"id":298540,"adult":false},{"id":1576,"adult":false},{"id":373842,"adult":false},{"id":373843,"adult":false},{"id":373844,"adult":false},{"id":266067,"adult":false},{"id":110398,"adult":false},{"id":373845,"adult":false},{"id":42126,"adult":false},{"id":260257,"adult":false},{"id":4704,"adult":false},{"id":328639,"adult":false},{"id":256596,"adult":false},{"id":29795,"adult":false},{"id":3133,"adult":false},{"id":373846,"adult":false},{"id":181530,"adult":false},{"id":259953,"adult":false},{"id":373847,"adult":false}],"page":65,"total_pages":108,"total_results":10739}