{"results":[{"id":258947,"adult":false},{"id":53923,"adult":false},{"id":31453,"adult":false},{"id":10449,"adult":false},{"id":214756,"adult":false},{"id":44645,"adult":false},{"id":7267,"adult":false},{"id":10922,"adult":false},{"id":3057,"adult":false},{"id":317462,"adult":false},{"id":317463,"adult":false},{"id":4656,"adult":false},{"id":215379,"adult":false},{"id":50718,"adult":false},{"id":17335,"adult":false},{"id":26114,"adult":false},{"id":60489,"adult":false},{"id":276217,"adult":false},{"id":220820,"adult":false},{"id":50671,"adult":false},{"id":317464,"adult":false},{"id":23776,"adult":false},{"id":29501,"adult":false},{"id":26446,"adult":false},{"id":317465,"adult":false},{"id":187938,"adult":false},{"id":317466,"adult":false},{"id":259023,"adult":false},{"id":86712,"adult":false},{"id":170558,"adult":false},{"id":236799,"adult":false},{"id":76922,"adult":false},{"id":33172,"adult":false},{"id":114838,"adult":false},{"id":32115,"adult":false},{"id":82881,"adult":false},{"id":23108,"adult":false},{"id":19368,"adult":false},{"id":97527,"adult":false},{"id":13932,"adult":false},{"id":317467,"adult":false},{"id":32065,"adult":false},{"id":317468,"adult":false},{"id":80201,"adult":false},{"id":317469,"adult":false},{"id":190074,"adult":false},{"id":14636,"adult":false},{"id":83564,"adult":false},{"id":70881,"adult":false},{"id":15029,"adult":false},{"id":13929,"adult":false},{"id":40481,"adult":false},{"id":2125,"adult":false},{"id":200365,"adult":false},{"id":13930,"adult":false},{"id":140172,"adult":false},{"id":317470,"adult":false},{"id":67060,"adult":false},{"id":176068,"adult":false},{"id":9940,"adult":false},{"id":8771,"adult":false},{"id":47720,"adult":false},{"id":42688,"adult":false},{"id":24589,"adult":false},{"id":265424,"adult":false},{"id":13413,"adult":false},{"id":11502,"adult":false},{"id":13062,"adult":false},{"id":317471,"adult":null},{"id":52029,"adult":false},{"id":214320,"adult":false},{"id":317472,"adult":false},{"id":247669,"adult":false},{"id":13060,"adult":false},{"id":77563,"adult":false},{"id":211586,"adult":false},{"id":289354,"adult":false},{"id":53853,"adult":false},{"id":247086,"adult":false},{"id":306,"adult":false},{"id":90,"adult":false},{"id":87533,"adult":false},{"id":268523,"adult":false},{"id":45247,"adult":false},{"id":59457,"adult":false},{"id":85861,"adult":false},{"id":94915,"adult":false},{"id":253426,"adult":null},{"id":42799,"adult":false},{"id":317473,"adult":false},{"id":34132,"adult":false},{"id":40482,"adult":false},{"id":242967,"adult":false},{"id":11968,"adult":false},{"id":317474,"adult":false},{"id":317475,"adult":false},{"id":21378,"adult":false},{"id":317476,"adult":false},{"id":317477,"adult":false},{"id":317478,"adult":false}],"page":103,"total_pages":115,"total_results":11442}