{"results":[{"id":160170,"adult":false},{"id":363875,"adult":false},{"id":4816,"adult":false},{"id":335585,"adult":false},{"id":219986,"adult":false},{"id":10494,"adult":false},{"id":113597,"adult":false},{"id":274207,"adult":false},{"id":206378,"adult":false},{"id":1716,"adult":false},{"id":152042,"adult":false},{"id":75909,"adult":false},{"id":81167,"adult":false},{"id":20504,"adult":false},{"id":194646,"adult":false},{"id":110253,"adult":false},{"id":295951,"adult":false},{"id":166445,"adult":false},{"id":19459,"adult":false},{"id":363876,"adult":false},{"id":270805,"adult":false},{"id":348659,"adult":false},{"id":243762,"adult":false},{"id":363877,"adult":false},{"id":363878,"adult":false},{"id":24249,"adult":false},{"id":31979,"adult":false},{"id":49026,"adult":false},{"id":296294,"adult":false},{"id":147483,"adult":false},{"id":122229,"adult":false},{"id":239434,"adult":false},{"id":27052,"adult":false},{"id":339763,"adult":false},{"id":363879,"adult":false},{"id":70993,"adult":false},{"id":199851,"adult":false},{"id":64883,"adult":false},{"id":68564,"adult":false},{"id":167581,"adult":false},{"id":363880,"adult":false},{"id":136437,"adult":false},{"id":645,"adult":false},{"id":51935,"adult":false},{"id":18329,"adult":false},{"id":15460,"adult":false},{"id":121602,"adult":false},{"id":44125,"adult":false},{"id":65793,"adult":false},{"id":47869,"adult":false},{"id":46761,"adult":false},{"id":2171,"adult":false},{"id":25059,"adult":false},{"id":44826,"adult":false},{"id":96551,"adult":false},{"id":46729,"adult":false},{"id":363881,"adult":false},{"id":363882,"adult":false},{"id":113916,"adult":false},{"id":94843,"adult":false},{"id":363883,"adult":false},{"id":32444,"adult":false},{"id":363884,"adult":false},{"id":363885,"adult":false},{"id":201277,"adult":false},{"id":40925,"adult":false},{"id":363886,"adult":false},{"id":19006,"adult":false},{"id":12794,"adult":false},{"id":323660,"adult":false},{"id":83013,"adult":false},{"id":7289,"adult":false},{"id":12262,"adult":false},{"id":80919,"adult":false},{"id":174928,"adult":false},{"id":146239,"adult":false},{"id":60170,"adult":false},{"id":6183,"adult":false},{"id":79926,"adult":false},{"id":363887,"adult":false},{"id":80659,"adult":false},{"id":363888,"adult":false},{"id":34427,"adult":false},{"id":16274,"adult":false},{"id":206487,"adult":false},{"id":52799,"adult":false},{"id":4975,"adult":false},{"id":64523,"adult":false},{"id":363889,"adult":false},{"id":383,"adult":false},{"id":37900,"adult":false},{"id":12088,"adult":false},{"id":40004,"adult":false},{"id":342,"adult":false},{"id":27092,"adult":false},{"id":352878,"adult":false},{"id":363890,"adult":false},{"id":128154,"adult":false},{"id":299599,"adult":false},{"id":73610,"adult":false}],"page":106,"total_pages":108,"total_results":10774}