{"results":[{"id":46147,"adult":false},{"id":49442,"adult":false},{"id":52890,"adult":false},{"id":60733,"adult":false},{"id":76592,"adult":false},{"id":108926,"adult":false},{"id":111921,"adult":false},{"id":121814,"adult":false},{"id":122394,"adult":false},{"id":197473,"adult":false},{"id":219943,"adult":false},{"id":345892,"adult":false},{"id":229992,"adult":false},{"id":269513,"adult":false},{"id":269635,"adult":false},{"id":303766,"adult":false},{"id":307042,"adult":false},{"id":336976,"adult":false},{"id":593,"adult":false},{"id":284864,"adult":false},{"id":11324,"adult":false},{"id":345893,"adult":false},{"id":247073,"adult":false},{"id":345894,"adult":false},{"id":318447,"adult":false},{"id":160885,"adult":false},{"id":10825,"adult":false},{"id":11083,"adult":false},{"id":345895,"adult":false},{"id":11166,"adult":false},{"id":345896,"adult":false},{"id":11927,"adult":false},{"id":12074,"adult":false},{"id":12076,"adult":false},{"id":12197,"adult":false},{"id":655,"adult":false},{"id":13221,"adult":false},{"id":13522,"adult":false},{"id":275657,"adult":false},{"id":44699,"adult":false},{"id":13630,"adult":false},{"id":191720,"adult":false},{"id":14190,"adult":false},{"id":345897,"adult":false},{"id":14812,"adult":false},{"id":345898,"adult":false},{"id":15177,"adult":false},{"id":15188,"adult":false},{"id":15273,"adult":false},{"id":15440,"adult":false},{"id":578,"adult":false},{"id":15536,"adult":false},{"id":16095,"adult":false},{"id":137,"adult":false},{"id":262481,"adult":false},{"id":17285,"adult":false},{"id":17575,"adult":false},{"id":187596,"adult":false},{"id":18132,"adult":false},{"id":18333,"adult":false},{"id":20088,"adult":false},{"id":22827,"adult":false},{"id":23129,"adult":false},{"id":24030,"adult":false},{"id":345899,"adult":false},{"id":61312,"adult":false},{"id":126497,"adult":false},{"id":39215,"adult":false},{"id":56727,"adult":false},{"id":57449,"adult":false},{"id":57990,"adult":false},{"id":60815,"adult":false},{"id":57445,"adult":false},{"id":57988,"adult":false},{"id":56690,"adult":false},{"id":235850,"adult":false},{"id":56643,"adult":false},{"id":57434,"adult":false},{"id":56697,"adult":false},{"id":36792,"adult":false},{"id":126495,"adult":false},{"id":56691,"adult":false},{"id":57987,"adult":false},{"id":57989,"adult":false},{"id":328384,"adult":false},{"id":329689,"adult":false},{"id":37247,"adult":false},{"id":335886,"adult":false},{"id":336882,"adult":false},{"id":336884,"adult":false},{"id":336885,"adult":false},{"id":222773,"adult":false},{"id":336886,"adult":false},{"id":316135,"adult":false},{"id":305744,"adult":false},{"id":214513,"adult":false},{"id":251596,"adult":false},{"id":253018,"adult":false},{"id":294485,"adult":false},{"id":299667,"adult":false}],"page":73,"total_pages":111,"total_results":11023}