{"results":[{"id":251516,"adult":false},{"id":84323,"adult":false},{"id":26602,"adult":false},{"id":21183,"adult":false},{"id":370961,"adult":true},{"id":1541,"adult":false},{"id":373976,"adult":false},{"id":373977,"adult":false},{"id":119003,"adult":false},{"id":70026,"adult":false},{"id":343903,"adult":false},{"id":286328,"adult":false},{"id":253800,"adult":false},{"id":83834,"adult":false},{"id":371092,"adult":false},{"id":27642,"adult":false},{"id":373978,"adult":false},{"id":51256,"adult":false},{"id":373979,"adult":false},{"id":106394,"adult":false},{"id":51398,"adult":false},{"id":373980,"adult":false},{"id":265048,"adult":false},{"id":373981,"adult":false},{"id":182873,"adult":false},{"id":9978,"adult":false},{"id":13541,"adult":false},{"id":79683,"adult":false},{"id":299705,"adult":false},{"id":185424,"adult":false},{"id":1246,"adult":false},{"id":21024,"adult":false},{"id":316762,"adult":false},{"id":69872,"adult":false},{"id":308504,"adult":false},{"id":825,"adult":false},{"id":36645,"adult":false},{"id":373982,"adult":false},{"id":43151,"adult":false},{"id":282778,"adult":false},{"id":373983,"adult":false},{"id":373984,"adult":false},{"id":373985,"adult":false},{"id":373986,"adult":false},{"id":107722,"adult":false},{"id":30432,"adult":false},{"id":4512,"adult":false},{"id":26126,"adult":false},{"id":59145,"adult":false},{"id":278867,"adult":false},{"id":249059,"adult":false},{"id":17578,"adult":false},{"id":35552,"adult":false},{"id":373987,"adult":false},{"id":5061,"adult":false},{"id":13868,"adult":false},{"id":373988,"adult":false},{"id":46843,"adult":false},{"id":13873,"adult":false},{"id":13874,"adult":false},{"id":122460,"adult":false},{"id":38922,"adult":false},{"id":86835,"adult":false},{"id":307650,"adult":false},{"id":6968,"adult":false},{"id":47109,"adult":false},{"id":46861,"adult":false},{"id":861,"adult":false},{"id":373989,"adult":false},{"id":24057,"adult":false},{"id":373990,"adult":false},{"id":48524,"adult":false},{"id":330459,"adult":false},{"id":359746,"adult":false},{"id":16048,"adult":false},{"id":10774,"adult":false},{"id":184176,"adult":false},{"id":373991,"adult":false},{"id":212996,"adult":false},{"id":358306,"adult":false},{"id":152792,"adult":false},{"id":288708,"adult":false},{"id":31473,"adult":false},{"id":10380,"adult":false},{"id":209403,"adult":false},{"id":814,"adult":false},{"id":373992,"adult":false},{"id":9406,"adult":false},{"id":159937,"adult":false},{"id":19388,"adult":false},{"id":359305,"adult":false},{"id":14863,"adult":false},{"id":339342,"adult":false},{"id":1698,"adult":false},{"id":1699,"adult":false},{"id":290999,"adult":false},{"id":373993,"adult":false},{"id":373994,"adult":false},{"id":139997,"adult":false},{"id":21038,"adult":false}],"page":75,"total_pages":108,"total_results":10739}