{"results":[{"id":11135,"adult":false},{"id":51588,"adult":false},{"id":107019,"adult":false},{"id":108513,"adult":false},{"id":45480,"adult":false},{"id":318279,"adult":false},{"id":271736,"adult":false},{"id":270771,"adult":false},{"id":363087,"adult":false},{"id":44037,"adult":false},{"id":50732,"adult":false},{"id":358632,"adult":false},{"id":7459,"adult":false},{"id":310137,"adult":false},{"id":17577,"adult":false},{"id":336805,"adult":false},{"id":10779,"adult":false},{"id":81,"adult":false},{"id":80035,"adult":false},{"id":496,"adult":false},{"id":309911,"adult":false},{"id":2636,"adult":false},{"id":140441,"adult":false},{"id":32546,"adult":false},{"id":22916,"adult":false},{"id":297278,"adult":false},{"id":253131,"adult":null},{"id":363088,"adult":false},{"id":138103,"adult":false},{"id":363089,"adult":false},{"id":46943,"adult":false},{"id":363090,"adult":false},{"id":196370,"adult":true},{"id":244539,"adult":false},{"id":115248,"adult":false},{"id":363091,"adult":false},{"id":95800,"adult":true},{"id":363092,"adult":false},{"id":207052,"adult":false},{"id":133983,"adult":false},{"id":657,"adult":false},{"id":42781,"adult":false},{"id":253,"adult":false},{"id":317114,"adult":false},{"id":709,"adult":false},{"id":96954,"adult":false},{"id":287495,"adult":false},{"id":29978,"adult":false},{"id":11423,"adult":false},{"id":21531,"adult":false},{"id":51218,"adult":false},{"id":24739,"adult":false},{"id":522,"adult":false},{"id":299537,"adult":false},{"id":284054,"adult":false},{"id":260514,"adult":false},{"id":301528,"adult":false},{"id":260513,"adult":false},{"id":157386,"adult":false},{"id":14968,"adult":false},{"id":227700,"adult":false},{"id":363093,"adult":false},{"id":120416,"adult":false},{"id":10713,"adult":false},{"id":9798,"adult":false},{"id":84077,"adult":false},{"id":92241,"adult":true},{"id":361577,"adult":false},{"id":363094,"adult":false},{"id":363095,"adult":true},{"id":65619,"adult":true},{"id":103578,"adult":false},{"id":363096,"adult":false},{"id":38826,"adult":false},{"id":95,"adult":false},{"id":363097,"adult":false},{"id":287719,"adult":false},{"id":363098,"adult":false},{"id":345670,"adult":false},{"id":74574,"adult":false},{"id":82243,"adult":false},{"id":363099,"adult":false},{"id":25682,"adult":false},{"id":157421,"adult":false},{"id":202192,"adult":false},{"id":9281,"adult":false},{"id":179513,"adult":false},{"id":4247,"adult":false},{"id":363100,"adult":false},{"id":363101,"adult":false},{"id":363102,"adult":false},{"id":143866,"adult":false},{"id":316595,"adult":false},{"id":335262,"adult":false},{"id":31622,"adult":false},{"id":363103,"adult":false},{"id":363104,"adult":false},{"id":78,"adult":false},{"id":309050,"adult":false},{"id":42267,"adult":false}],"page":59,"total_pages":108,"total_results":10774}