{"results":[{"id":251854,"adult":false},{"id":52951,"adult":false},{"id":213040,"adult":false},{"id":43580,"adult":false},{"id":38060,"adult":false},{"id":262958,"adult":false},{"id":316164,"adult":false},{"id":183292,"adult":false},{"id":146248,"adult":false},{"id":347946,"adult":false},{"id":185766,"adult":false},{"id":235436,"adult":false},{"id":367732,"adult":false},{"id":271412,"adult":false},{"id":369082,"adult":false},{"id":368188,"adult":false},{"id":369083,"adult":false},{"id":24951,"adult":false},{"id":335635,"adult":false},{"id":366617,"adult":false},{"id":18901,"adult":false},{"id":80703,"adult":false},{"id":359397,"adult":false},{"id":316310,"adult":false},{"id":40250,"adult":false},{"id":290098,"adult":false},{"id":11904,"adult":false},{"id":339419,"adult":false},{"id":314880,"adult":null},{"id":214296,"adult":false},{"id":366653,"adult":false},{"id":239120,"adult":false},{"id":31602,"adult":false},{"id":315824,"adult":false},{"id":16119,"adult":false},{"id":202983,"adult":false},{"id":18948,"adult":false},{"id":13225,"adult":false},{"id":30026,"adult":false},{"id":369084,"adult":false},{"id":126125,"adult":false},{"id":129074,"adult":false},{"id":369085,"adult":false},{"id":367611,"adult":false},{"id":369086,"adult":false},{"id":369087,"adult":false},{"id":369088,"adult":false},{"id":366224,"adult":false},{"id":159033,"adult":false},{"id":35733,"adult":false},{"id":321142,"adult":false},{"id":50393,"adult":false},{"id":178652,"adult":false},{"id":348,"adult":false},{"id":18,"adult":false},{"id":97,"adult":false},{"id":86942,"adult":false},{"id":847,"adult":false},{"id":16604,"adult":false},{"id":11649,"adult":false},{"id":124656,"adult":false},{"id":369089,"adult":false},{"id":369090,"adult":false},{"id":50652,"adult":false},{"id":20325,"adult":false},{"id":19506,"adult":false},{"id":29778,"adult":false},{"id":361042,"adult":false},{"id":255295,"adult":false},{"id":56405,"adult":false},{"id":353345,"adult":false},{"id":369091,"adult":false},{"id":353859,"adult":false},{"id":40877,"adult":false},{"id":79553,"adult":false},{"id":128841,"adult":false},{"id":119458,"adult":false},{"id":146578,"adult":false},{"id":225,"adult":false},{"id":170540,"adult":false},{"id":232526,"adult":false},{"id":23988,"adult":false},{"id":173931,"adult":false},{"id":57021,"adult":false},{"id":28978,"adult":false},{"id":332971,"adult":false},{"id":169209,"adult":false},{"id":962,"adult":false},{"id":86837,"adult":false},{"id":369092,"adult":null},{"id":78093,"adult":false},{"id":28162,"adult":false},{"id":11305,"adult":false},{"id":9457,"adult":false},{"id":8983,"adult":false},{"id":50601,"adult":false},{"id":15801,"adult":false},{"id":14199,"adult":false},{"id":45020,"adult":false},{"id":75229,"adult":false}],"page":29,"total_pages":101,"total_results":10039}