{"results":[{"id":41631,"adult":false},{"id":20148,"adult":false},{"id":10762,"adult":false},{"id":275,"adult":false},{"id":27563,"adult":false},{"id":97519,"adult":false},{"id":337680,"adult":false},{"id":10033,"adult":false},{"id":112128,"adult":false},{"id":3604,"adult":false},{"id":2539,"adult":false},{"id":18169,"adult":false},{"id":337681,"adult":false},{"id":305605,"adult":false},{"id":793,"adult":false},{"id":218,"adult":false},{"id":80249,"adult":false},{"id":82801,"adult":false},{"id":280,"adult":false},{"id":296,"adult":false},{"id":10493,"adult":false},{"id":305088,"adult":false},{"id":9362,"adult":false},{"id":11069,"adult":false},{"id":10829,"adult":false},{"id":10891,"adult":false},{"id":81446,"adult":false},{"id":94901,"adult":false},{"id":1788,"adult":false},{"id":249744,"adult":false},{"id":9509,"adult":false},{"id":327237,"adult":false},{"id":337682,"adult":false},{"id":652,"adult":false},{"id":84329,"adult":false},{"id":795,"adult":false},{"id":337683,"adult":false},{"id":951,"adult":false},{"id":245,"adult":false},{"id":81390,"adult":false},{"id":49047,"adult":false},{"id":266905,"adult":false},{"id":337684,"adult":false},{"id":74465,"adult":false},{"id":137113,"adult":false},{"id":14367,"adult":false},{"id":87499,"adult":false},{"id":11153,"adult":false},{"id":152532,"adult":false},{"id":11418,"adult":false},{"id":219393,"adult":false},{"id":11419,"adult":false},{"id":119450,"adult":false},{"id":337685,"adult":null},{"id":73935,"adult":false},{"id":155,"adult":false},{"id":337686,"adult":false},{"id":209189,"adult":false},{"id":137094,"adult":false},{"id":10285,"adult":false},{"id":9767,"adult":false},{"id":72570,"adult":false},{"id":75780,"adult":false},{"id":847,"adult":false},{"id":7347,"adult":false},{"id":157847,"adult":false},{"id":337687,"adult":false},{"id":13183,"adult":false},{"id":337688,"adult":false},{"id":9693,"adult":false},{"id":209263,"adult":false},{"id":60935,"adult":false},{"id":212716,"adult":false},{"id":3594,"adult":false},{"id":43378,"adult":false},{"id":10138,"adult":false},{"id":16996,"adult":false},{"id":6557,"adult":false},{"id":61791,"adult":false},{"id":13161,"adult":false},{"id":337689,"adult":false},{"id":38,"adult":false},{"id":292691,"adult":false},{"id":64807,"adult":false},{"id":16328,"adult":false},{"id":59967,"adult":false},{"id":138843,"adult":false},{"id":8849,"adult":false},{"id":50544,"adult":false},{"id":41630,"adult":false},{"id":13475,"adult":false},{"id":9889,"adult":false},{"id":184346,"adult":false},{"id":11090,"adult":false},{"id":17610,"adult":false},{"id":116741,"adult":false},{"id":38050,"adult":false},{"id":11635,"adult":false},{"id":941,"adult":false},{"id":300673,"adult":false}],"page":100,"total_pages":102,"total_results":10168}