{"results":[{"id":353986,"adult":false},{"id":115874,"adult":false},{"id":11400,"adult":false},{"id":121890,"adult":false},{"id":228736,"adult":false},{"id":85943,"adult":false},{"id":1547,"adult":false},{"id":194446,"adult":false},{"id":226437,"adult":false},{"id":294307,"adult":false},{"id":286519,"adult":false},{"id":137347,"adult":false},{"id":41233,"adult":false},{"id":319995,"adult":false},{"id":359341,"adult":false},{"id":300155,"adult":false},{"id":362254,"adult":false},{"id":362256,"adult":false},{"id":15256,"adult":false},{"id":107387,"adult":false},{"id":351855,"adult":false},{"id":362261,"adult":false},{"id":362057,"adult":false},{"id":251321,"adult":false},{"id":362262,"adult":false},{"id":8363,"adult":false},{"id":362263,"adult":false},{"id":355948,"adult":false},{"id":56268,"adult":false},{"id":13074,"adult":false},{"id":36968,"adult":false},{"id":238713,"adult":false},{"id":4169,"adult":false},{"id":98962,"adult":false},{"id":207270,"adult":false},{"id":359471,"adult":false},{"id":358154,"adult":false},{"id":73920,"adult":false},{"id":48138,"adult":false},{"id":63786,"adult":false},{"id":98600,"adult":false},{"id":323373,"adult":false},{"id":12263,"adult":false},{"id":102899,"adult":false},{"id":7461,"adult":false},{"id":353989,"adult":false},{"id":9053,"adult":false},{"id":302323,"adult":false},{"id":173,"adult":false},{"id":26846,"adult":false},{"id":156013,"adult":false},{"id":271796,"adult":false},{"id":257497,"adult":false},{"id":353149,"adult":false},{"id":355522,"adult":false},{"id":27079,"adult":false},{"id":926,"adult":false},{"id":213763,"adult":false},{"id":352061,"adult":false},{"id":76617,"adult":false},{"id":352065,"adult":false},{"id":351940,"adult":false},{"id":56554,"adult":false},{"id":16337,"adult":false},{"id":25018,"adult":false},{"id":12890,"adult":false},{"id":46158,"adult":false},{"id":30497,"adult":false},{"id":10386,"adult":false},{"id":16780,"adult":false},{"id":216001,"adult":false},{"id":4958,"adult":false},{"id":362264,"adult":false},{"id":110127,"adult":false},{"id":350563,"adult":false},{"id":9826,"adult":false},{"id":10780,"adult":false},{"id":15121,"adult":false},{"id":75637,"adult":false},{"id":2344,"adult":false},{"id":331376,"adult":false},{"id":218043,"adult":false},{"id":27804,"adult":false},{"id":340648,"adult":false},{"id":11774,"adult":false},{"id":38017,"adult":false},{"id":274826,"adult":false},{"id":285394,"adult":false},{"id":321303,"adult":false},{"id":2794,"adult":false},{"id":11811,"adult":false},{"id":126172,"adult":false},{"id":50457,"adult":false},{"id":362265,"adult":false},{"id":14207,"adult":false},{"id":31562,"adult":false},{"id":329504,"adult":false},{"id":1023,"adult":false},{"id":26510,"adult":false},{"id":9296,"adult":false}],"page":10,"total_pages":108,"total_results":10774}