{"results":[{"id":13552,"adult":false},{"id":364032,"adult":true},{"id":274458,"adult":false},{"id":187611,"adult":false},{"id":12634,"adult":false},{"id":2721,"adult":false},{"id":143587,"adult":false},{"id":1811,"adult":false},{"id":4551,"adult":false},{"id":13673,"adult":false},{"id":9753,"adult":false},{"id":11069,"adult":false},{"id":2577,"adult":false},{"id":291151,"adult":false},{"id":364033,"adult":false},{"id":9801,"adult":false},{"id":106438,"adult":false},{"id":364034,"adult":true},{"id":108433,"adult":false},{"id":9472,"adult":false},{"id":15383,"adult":false},{"id":16186,"adult":false},{"id":924,"adult":false},{"id":79168,"adult":false},{"id":51981,"adult":false},{"id":364035,"adult":false},{"id":32832,"adult":false},{"id":81779,"adult":false},{"id":133779,"adult":null},{"id":100816,"adult":null},{"id":364036,"adult":false},{"id":295466,"adult":false},{"id":349068,"adult":false},{"id":68780,"adult":false},{"id":364037,"adult":false},{"id":234,"adult":false},{"id":280954,"adult":false},{"id":15837,"adult":false},{"id":354539,"adult":null},{"id":25525,"adult":false},{"id":364038,"adult":false},{"id":254263,"adult":false},{"id":81939,"adult":false},{"id":28658,"adult":false},{"id":271140,"adult":false},{"id":346808,"adult":false},{"id":363969,"adult":false},{"id":363947,"adult":null},{"id":361597,"adult":false},{"id":334480,"adult":false},{"id":364039,"adult":null},{"id":339520,"adult":false},{"id":71107,"adult":false},{"id":264404,"adult":false},{"id":355201,"adult":false},{"id":269355,"adult":false},{"id":264558,"adult":false},{"id":108321,"adult":false},{"id":204401,"adult":false},{"id":116633,"adult":false},{"id":265314,"adult":false},{"id":321666,"adult":false},{"id":296998,"adult":false},{"id":261082,"adult":false},{"id":230562,"adult":false},{"id":364040,"adult":false},{"id":28689,"adult":true},{"id":364042,"adult":false},{"id":146714,"adult":false},{"id":106619,"adult":false},{"id":364044,"adult":false},{"id":84006,"adult":false},{"id":336355,"adult":false},{"id":54752,"adult":false},{"id":51923,"adult":false},{"id":363916,"adult":false},{"id":46773,"adult":false},{"id":332626,"adult":false},{"id":364045,"adult":false},{"id":134245,"adult":false},{"id":137556,"adult":false},{"id":364046,"adult":false},{"id":276631,"adult":false},{"id":19101,"adult":false},{"id":9654,"adult":false},{"id":293970,"adult":false},{"id":364047,"adult":false},{"id":321331,"adult":false},{"id":284289,"adult":false},{"id":283257,"adult":false},{"id":328869,"adult":false},{"id":184957,"adult":false},{"id":364048,"adult":false},{"id":157370,"adult":false},{"id":86985,"adult":false},{"id":220746,"adult":false},{"id":296098,"adult":false},{"id":356638,"adult":null},{"id":229862,"adult":false},{"id":15556,"adult":false}],"page":2,"total_pages":85,"total_results":8453}