{"results":[{"id":54587,"adult":false},{"id":121,"adult":false},{"id":122,"adult":false},{"id":156649,"adult":false},{"id":111485,"adult":false},{"id":16356,"adult":false},{"id":86704,"adult":false},{"id":1966,"adult":false},{"id":8968,"adult":false},{"id":22211,"adult":false},{"id":254,"adult":false},{"id":12828,"adult":false},{"id":24676,"adult":false},{"id":61717,"adult":false},{"id":159201,"adult":false},{"id":12437,"adult":false},{"id":20856,"adult":false},{"id":50479,"adult":false},{"id":17578,"adult":false},{"id":76760,"adult":false},{"id":312827,"adult":false},{"id":264085,"adult":false},{"id":18360,"adult":false},{"id":38579,"adult":false},{"id":41515,"adult":false},{"id":50359,"adult":false},{"id":87827,"adult":false},{"id":336951,"adult":null},{"id":216282,"adult":false},{"id":9262,"adult":false},{"id":76463,"adult":false},{"id":21515,"adult":false},{"id":336952,"adult":false},{"id":102726,"adult":false},{"id":16417,"adult":false},{"id":336953,"adult":false},{"id":336954,"adult":false},{"id":10996,"adult":false},{"id":28032,"adult":false},{"id":10674,"adult":false},{"id":47288,"adult":false},{"id":65714,"adult":false},{"id":4946,"adult":false},{"id":9792,"adult":false},{"id":303074,"adult":null},{"id":295410,"adult":false},{"id":214756,"adult":false},{"id":301728,"adult":false},{"id":181790,"adult":false},{"id":331072,"adult":false},{"id":19766,"adult":false},{"id":237445,"adult":false},{"id":314285,"adult":false},{"id":288987,"adult":false},{"id":1073,"adult":false},{"id":336955,"adult":false},{"id":235,"adult":false},{"id":266276,"adult":false},{"id":100,"adult":false},{"id":201765,"adult":false},{"id":224141,"adult":false},{"id":87253,"adult":false},{"id":155752,"adult":false},{"id":8580,"adult":false},{"id":115570,"adult":false},{"id":336956,"adult":false},{"id":87516,"adult":false},{"id":115575,"adult":false},{"id":152163,"adult":false},{"id":29097,"adult":false},{"id":336957,"adult":false},{"id":336958,"adult":false},{"id":192881,"adult":false},{"id":327383,"adult":false},{"id":21284,"adult":false},{"id":102024,"adult":false},{"id":80990,"adult":false},{"id":281852,"adult":false},{"id":134897,"adult":false},{"id":266954,"adult":false},{"id":86860,"adult":false},{"id":35792,"adult":false},{"id":43793,"adult":false},{"id":125931,"adult":false},{"id":336959,"adult":false},{"id":206449,"adult":false},{"id":43559,"adult":false},{"id":273099,"adult":false},{"id":43905,"adult":false},{"id":336960,"adult":false},{"id":141660,"adult":false},{"id":110612,"adult":false},{"id":1907,"adult":false},{"id":124916,"adult":false},{"id":325470,"adult":false},{"id":32652,"adult":false},{"id":10822,"adult":false},{"id":322141,"adult":false},{"id":117639,"adult":false},{"id":59007,"adult":false}],"page":57,"total_pages":102,"total_results":10168}