{"results":[{"id":276740,"adult":false},{"id":332377,"adult":false},{"id":332378,"adult":false},{"id":11612,"adult":false},{"id":327383,"adult":false},{"id":273575,"adult":false},{"id":332379,"adult":false},{"id":11613,"adult":false},{"id":78627,"adult":false},{"id":273576,"adult":false},{"id":11160,"adult":false},{"id":59481,"adult":false},{"id":11055,"adult":false},{"id":78614,"adult":false},{"id":332380,"adult":null},{"id":11048,"adult":false},{"id":78631,"adult":false},{"id":332383,"adult":false},{"id":332384,"adult":false},{"id":322841,"adult":false},{"id":54152,"adult":false},{"id":220289,"adult":false},{"id":78611,"adult":false},{"id":332385,"adult":false},{"id":332389,"adult":false},{"id":136400,"adult":false},{"id":156092,"adult":false},{"id":78633,"adult":false},{"id":84243,"adult":false},{"id":257214,"adult":false},{"id":78638,"adult":false},{"id":332390,"adult":false},{"id":332391,"adult":false},{"id":66337,"adult":false},{"id":44886,"adult":false},{"id":332392,"adult":false},{"id":136646,"adult":false},{"id":41243,"adult":false},{"id":78607,"adult":false},{"id":332393,"adult":false},{"id":60211,"adult":false},{"id":36291,"adult":false},{"id":296340,"adult":false},{"id":332394,"adult":false},{"id":63669,"adult":false},{"id":332395,"adult":false},{"id":786,"adult":false},{"id":78625,"adult":false},{"id":332396,"adult":false},{"id":179269,"adult":false},{"id":199337,"adult":false},{"id":78609,"adult":false},{"id":112486,"adult":false},{"id":332397,"adult":false},{"id":332398,"adult":false},{"id":332399,"adult":false},{"id":180548,"adult":false},{"id":44093,"adult":false},{"id":157646,"adult":false},{"id":78411,"adult":false},{"id":320003,"adult":false},{"id":332400,"adult":false},{"id":282984,"adult":false},{"id":307081,"adult":false},{"id":332401,"adult":false},{"id":332402,"adult":false},{"id":26341,"adult":false},{"id":332403,"adult":false},{"id":220468,"adult":false},{"id":52661,"adult":false},{"id":332404,"adult":false},{"id":155757,"adult":false},{"id":332405,"adult":false},{"id":136911,"adult":false},{"id":58903,"adult":false},{"id":211005,"adult":false},{"id":11388,"adult":false},{"id":6522,"adult":false},{"id":332406,"adult":false},{"id":10854,"adult":false},{"id":332407,"adult":false},{"id":16690,"adult":false},{"id":25676,"adult":false},{"id":332408,"adult":false},{"id":332409,"adult":false},{"id":332410,"adult":false},{"id":2777,"adult":false},{"id":112586,"adult":false},{"id":332411,"adult":false},{"id":332412,"adult":false},{"id":282055,"adult":true},{"id":103,"adult":false},{"id":247954,"adult":false},{"id":332413,"adult":false},{"id":23728,"adult":false},{"id":146736,"adult":false},{"id":319194,"adult":false},{"id":31232,"adult":false},{"id":233813,"adult":false},{"id":3171,"adult":false}],"page":87,"total_pages":129,"total_results":12871}