{"results":[{"id":284537,"adult":false},{"id":27378,"adult":false},{"id":336709,"adult":false},{"id":321528,"adult":false},{"id":86130,"adult":false},{"id":713,"adult":false},{"id":251321,"adult":false},{"id":10319,"adult":false},{"id":329750,"adult":false},{"id":326604,"adult":true},{"id":287483,"adult":false},{"id":254256,"adult":true},{"id":189420,"adult":false},{"id":83437,"adult":false},{"id":224396,"adult":true},{"id":317138,"adult":true},{"id":309875,"adult":false},{"id":336710,"adult":false},{"id":336711,"adult":true},{"id":336712,"adult":false},{"id":45555,"adult":false},{"id":301713,"adult":false},{"id":5691,"adult":false},{"id":75258,"adult":false},{"id":47406,"adult":false},{"id":336713,"adult":false},{"id":27221,"adult":false},{"id":78032,"adult":false},{"id":33813,"adult":false},{"id":8672,"adult":false},{"id":336714,"adult":false},{"id":336715,"adult":false},{"id":222936,"adult":false},{"id":336716,"adult":false},{"id":70487,"adult":false},{"id":260586,"adult":false},{"id":334066,"adult":false},{"id":336717,"adult":false},{"id":36880,"adult":false},{"id":70054,"adult":false},{"id":336718,"adult":false},{"id":336719,"adult":false},{"id":59002,"adult":false},{"id":336720,"adult":false},{"id":84850,"adult":false},{"id":336721,"adult":null},{"id":336722,"adult":false},{"id":312764,"adult":false},{"id":336723,"adult":false},{"id":66063,"adult":false},{"id":336724,"adult":false},{"id":80173,"adult":false},{"id":190236,"adult":false},{"id":249164,"adult":false},{"id":164337,"adult":false},{"id":1396,"adult":false},{"id":41789,"adult":false},{"id":278086,"adult":false},{"id":11428,"adult":false},{"id":336725,"adult":false},{"id":336726,"adult":false},{"id":5764,"adult":false},{"id":35978,"adult":false},{"id":10048,"adult":false},{"id":185744,"adult":false},{"id":251267,"adult":false},{"id":336727,"adult":false},{"id":20934,"adult":false},{"id":87436,"adult":false},{"id":149832,"adult":false},{"id":200156,"adult":false},{"id":336728,"adult":false},{"id":59389,"adult":false},{"id":157841,"adult":false},{"id":12279,"adult":false},{"id":44129,"adult":false},{"id":167021,"adult":false},{"id":264532,"adult":false},{"id":40485,"adult":false},{"id":56993,"adult":false},{"id":336729,"adult":false},{"id":197637,"adult":false},{"id":303623,"adult":false},{"id":15956,"adult":false},{"id":27072,"adult":false},{"id":336730,"adult":false},{"id":942,"adult":false},{"id":336731,"adult":null},{"id":265016,"adult":false},{"id":278719,"adult":null},{"id":336732,"adult":false},{"id":321015,"adult":false},{"id":334164,"adult":null},{"id":9902,"adult":false},{"id":197583,"adult":false},{"id":332706,"adult":false},{"id":115307,"adult":false},{"id":331460,"adult":false},{"id":74551,"adult":false},{"id":262311,"adult":false}],"page":44,"total_pages":102,"total_results":10168}