{"results":[{"id":42720,"adult":false},{"id":220991,"adult":false},{"id":329528,"adult":false},{"id":236771,"adult":false},{"id":236776,"adult":false},{"id":329529,"adult":false},{"id":169512,"adult":false},{"id":163378,"adult":false},{"id":150523,"adult":false},{"id":329530,"adult":false},{"id":65719,"adult":false},{"id":329531,"adult":false},{"id":64133,"adult":false},{"id":65720,"adult":false},{"id":85927,"adult":false},{"id":65883,"adult":false},{"id":4747,"adult":false},{"id":65722,"adult":false},{"id":285413,"adult":false},{"id":329532,"adult":false},{"id":285815,"adult":false},{"id":56691,"adult":false},{"id":76445,"adult":false},{"id":56697,"adult":false},{"id":329533,"adult":false},{"id":329534,"adult":false},{"id":159706,"adult":false},{"id":56645,"adult":false},{"id":56643,"adult":false},{"id":235850,"adult":false},{"id":87654,"adult":false},{"id":161611,"adult":false},{"id":245749,"adult":false},{"id":31267,"adult":false},{"id":53806,"adult":false},{"id":329535,"adult":false},{"id":141493,"adult":false},{"id":141614,"adult":false},{"id":329536,"adult":false},{"id":239146,"adult":false},{"id":11848,"adult":false},{"id":237000,"adult":false},{"id":141615,"adult":false},{"id":25741,"adult":false},{"id":128417,"adult":false},{"id":329537,"adult":false},{"id":329538,"adult":false},{"id":329539,"adult":false},{"id":49954,"adult":false},{"id":329540,"adult":false},{"id":198539,"adult":false},{"id":260454,"adult":false},{"id":288387,"adult":false},{"id":329541,"adult":null},{"id":23169,"adult":false},{"id":329542,"adult":false},{"id":329543,"adult":false},{"id":228237,"adult":false},{"id":199341,"adult":false},{"id":207762,"adult":false},{"id":329544,"adult":false},{"id":256913,"adult":false},{"id":329545,"adult":false},{"id":71945,"adult":false},{"id":124472,"adult":false},{"id":244566,"adult":false},{"id":271949,"adult":false},{"id":100573,"adult":false},{"id":21793,"adult":false},{"id":226674,"adult":false},{"id":200323,"adult":false},{"id":62931,"adult":false},{"id":12578,"adult":false},{"id":94380,"adult":false},{"id":59939,"adult":false},{"id":40661,"adult":false},{"id":215137,"adult":false},{"id":223189,"adult":false},{"id":12702,"adult":false},{"id":255268,"adult":false},{"id":90044,"adult":false},{"id":85162,"adult":false},{"id":29492,"adult":false},{"id":322715,"adult":false},{"id":28941,"adult":false},{"id":12483,"adult":false},{"id":329546,"adult":false},{"id":329547,"adult":false},{"id":315182,"adult":false},{"id":329548,"adult":false},{"id":52490,"adult":false},{"id":306795,"adult":false},{"id":329549,"adult":false},{"id":15840,"adult":false},{"id":127872,"adult":false},{"id":312886,"adult":null},{"id":314036,"adult":null},{"id":290933,"adult":false},{"id":279156,"adult":false},{"id":102777,"adult":false}],"page":83,"total_pages":123,"total_results":12300}