{"results":[{"id":26594,"adult":false},{"id":354923,"adult":false},{"id":354924,"adult":false},{"id":70057,"adult":false},{"id":146,"adult":false},{"id":35854,"adult":false},{"id":354925,"adult":null},{"id":5653,"adult":false},{"id":354926,"adult":false},{"id":329984,"adult":false},{"id":333018,"adult":false},{"id":72223,"adult":false},{"id":323430,"adult":false},{"id":255058,"adult":false},{"id":351964,"adult":false},{"id":340821,"adult":false},{"id":292431,"adult":false},{"id":300168,"adult":false},{"id":200511,"adult":false},{"id":53554,"adult":false},{"id":329687,"adult":false},{"id":299822,"adult":false},{"id":15077,"adult":false},{"id":183950,"adult":false},{"id":234212,"adult":false},{"id":354927,"adult":false},{"id":105038,"adult":false},{"id":286120,"adult":false},{"id":97435,"adult":false},{"id":11897,"adult":false},{"id":24952,"adult":false},{"id":129417,"adult":false},{"id":81411,"adult":false},{"id":321612,"adult":false},{"id":57848,"adult":false},{"id":346971,"adult":false},{"id":43471,"adult":false},{"id":348604,"adult":false},{"id":248448,"adult":false},{"id":124807,"adult":false},{"id":98017,"adult":false},{"id":335276,"adult":false},{"id":260395,"adult":false},{"id":261037,"adult":false},{"id":105583,"adult":false},{"id":149544,"adult":false},{"id":249633,"adult":false},{"id":36731,"adult":false},{"id":298043,"adult":false},{"id":348559,"adult":false},{"id":56065,"adult":false},{"id":263460,"adult":false},{"id":45318,"adult":false},{"id":354928,"adult":false},{"id":151231,"adult":false},{"id":346152,"adult":false},{"id":354929,"adult":false},{"id":13051,"adult":false},{"id":216944,"adult":false},{"id":1579,"adult":false},{"id":150540,"adult":false},{"id":5955,"adult":false},{"id":5871,"adult":false},{"id":354930,"adult":false},{"id":270946,"adult":false},{"id":23111,"adult":false},{"id":323660,"adult":false},{"id":27259,"adult":false},{"id":29043,"adult":false},{"id":354931,"adult":false},{"id":109,"adult":false},{"id":1691,"adult":false},{"id":16028,"adult":false},{"id":347960,"adult":false},{"id":278131,"adult":false},{"id":354932,"adult":false},{"id":2275,"adult":false},{"id":290813,"adult":false},{"id":53497,"adult":false},{"id":354083,"adult":false},{"id":354933,"adult":false},{"id":62494,"adult":false},{"id":354934,"adult":false},{"id":938,"adult":false},{"id":21187,"adult":false},{"id":65229,"adult":false},{"id":22484,"adult":false},{"id":354935,"adult":false},{"id":354936,"adult":false},{"id":332349,"adult":false},{"id":278221,"adult":false},{"id":19413,"adult":false},{"id":121518,"adult":false},{"id":336972,"adult":false},{"id":22327,"adult":false},{"id":354937,"adult":false},{"id":94525,"adult":false},{"id":274138,"adult":false},{"id":25338,"adult":false},{"id":354938,"adult":false}],"page":20,"total_pages":100,"total_results":9908}