{"results":[{"id":200,"adult":false},{"id":106815,"adult":false},{"id":106816,"adult":false},{"id":284293,"adult":false},{"id":54297,"adult":false},{"id":122154,"adult":false},{"id":38034,"adult":false},{"id":64635,"adult":false},{"id":201,"adult":false},{"id":246127,"adult":false},{"id":46443,"adult":false},{"id":324420,"adult":false},{"id":26879,"adult":false},{"id":596,"adult":false},{"id":89049,"adult":false},{"id":9622,"adult":false},{"id":67885,"adult":false},{"id":208930,"adult":false},{"id":40623,"adult":false},{"id":66461,"adult":false},{"id":54819,"adult":false},{"id":13122,"adult":false},{"id":50515,"adult":false},{"id":65639,"adult":false},{"id":18837,"adult":false},{"id":324421,"adult":false},{"id":36324,"adult":false},{"id":10765,"adult":false},{"id":22624,"adult":false},{"id":8428,"adult":false},{"id":34029,"adult":false},{"id":35165,"adult":false},{"id":44801,"adult":false},{"id":20521,"adult":false},{"id":55374,"adult":false},{"id":279716,"adult":false},{"id":16323,"adult":false},{"id":65889,"adult":false},{"id":35648,"adult":false},{"id":14444,"adult":false},{"id":19014,"adult":false},{"id":324422,"adult":false},{"id":32307,"adult":false},{"id":12591,"adult":false},{"id":43539,"adult":false},{"id":153219,"adult":false},{"id":59717,"adult":false},{"id":137008,"adult":false},{"id":67354,"adult":false},{"id":42664,"adult":false},{"id":25662,"adult":false},{"id":18683,"adult":false},{"id":55739,"adult":false},{"id":2005,"adult":false},{"id":80436,"adult":false},{"id":6279,"adult":false},{"id":20529,"adult":false},{"id":45970,"adult":false},{"id":42994,"adult":false},{"id":12657,"adult":false},{"id":157117,"adult":false},{"id":12101,"adult":false},{"id":20339,"adult":false},{"id":16767,"adult":false},{"id":23939,"adult":false},{"id":212734,"adult":false},{"id":8953,"adult":false},{"id":29043,"adult":false},{"id":20860,"adult":false},{"id":324424,"adult":false},{"id":14220,"adult":false},{"id":39939,"adult":false},{"id":5725,"adult":false},{"id":98162,"adult":false},{"id":59881,"adult":false},{"id":324427,"adult":false},{"id":84175,"adult":false},{"id":26320,"adult":false},{"id":16440,"adult":false},{"id":9718,"adult":false},{"id":84919,"adult":false},{"id":181516,"adult":false},{"id":8348,"adult":false},{"id":288586,"adult":false},{"id":80079,"adult":false},{"id":148948,"adult":false},{"id":231623,"adult":false},{"id":9322,"adult":false},{"id":25663,"adult":false},{"id":324428,"adult":false},{"id":45314,"adult":false},{"id":86192,"adult":false},{"id":38674,"adult":false},{"id":27561,"adult":false},{"id":45966,"adult":false},{"id":9958,"adult":false},{"id":41313,"adult":false},{"id":163551,"adult":false},{"id":27236,"adult":false},{"id":313792,"adult":false}],"page":77,"total_pages":117,"total_results":11629}