{"results":[{"id":86115,"adult":false},{"id":368378,"adult":false},{"id":368379,"adult":false},{"id":14384,"adult":false},{"id":368380,"adult":false},{"id":368381,"adult":true},{"id":335696,"adult":false},{"id":16560,"adult":false},{"id":242742,"adult":false},{"id":51970,"adult":false},{"id":51620,"adult":false},{"id":16460,"adult":false},{"id":60228,"adult":false},{"id":368382,"adult":true},{"id":8587,"adult":false},{"id":68097,"adult":false},{"id":80914,"adult":false},{"id":67416,"adult":false},{"id":58772,"adult":false},{"id":182981,"adult":false},{"id":254000,"adult":false},{"id":268239,"adult":false},{"id":368383,"adult":true},{"id":190566,"adult":false},{"id":194182,"adult":false},{"id":183277,"adult":false},{"id":324284,"adult":false},{"id":190574,"adult":false},{"id":354053,"adult":false},{"id":190584,"adult":false},{"id":193618,"adult":false},{"id":183294,"adult":false},{"id":63766,"adult":false},{"id":368384,"adult":false},{"id":183299,"adult":false},{"id":183300,"adult":false},{"id":358196,"adult":null},{"id":72478,"adult":false},{"id":183303,"adult":false},{"id":336664,"adult":false},{"id":183304,"adult":false},{"id":207902,"adult":false},{"id":183306,"adult":false},{"id":210860,"adult":false},{"id":183308,"adult":false},{"id":183309,"adult":false},{"id":183310,"adult":false},{"id":153266,"adult":false},{"id":310131,"adult":false},{"id":183311,"adult":false},{"id":368385,"adult":true},{"id":194612,"adult":false},{"id":215211,"adult":false},{"id":195149,"adult":false},{"id":111071,"adult":false},{"id":195147,"adult":false},{"id":368386,"adult":false},{"id":195119,"adult":false},{"id":368387,"adult":false},{"id":69035,"adult":false},{"id":195108,"adult":false},{"id":368388,"adult":true},{"id":87492,"adult":false},{"id":368389,"adult":false},{"id":368390,"adult":true},{"id":9952,"adult":false},{"id":284053,"adult":false},{"id":368391,"adult":true},{"id":368392,"adult":false},{"id":368393,"adult":false},{"id":368394,"adult":false},{"id":368395,"adult":false},{"id":368396,"adult":false},{"id":368397,"adult":false},{"id":368398,"adult":false},{"id":368399,"adult":false},{"id":368400,"adult":false},{"id":161896,"adult":false},{"id":165663,"adult":false},{"id":368401,"adult":false},{"id":181112,"adult":false},{"id":368402,"adult":false},{"id":368403,"adult":false},{"id":243764,"adult":false},{"id":368404,"adult":false},{"id":332167,"adult":false},{"id":368405,"adult":false},{"id":257053,"adult":false},{"id":366018,"adult":false},{"id":368406,"adult":false},{"id":368407,"adult":false},{"id":368408,"adult":false},{"id":156540,"adult":false},{"id":205029,"adult":false},{"id":368409,"adult":false},{"id":368410,"adult":false},{"id":162594,"adult":false},{"id":368411,"adult":false},{"id":245703,"adult":false},{"id":368412,"adult":false}],"page":107,"total_pages":108,"total_results":10787}