{"results":[{"id":50664,"adult":false},{"id":352579,"adult":false},{"id":315949,"adult":false},{"id":92864,"adult":false},{"id":289718,"adult":false},{"id":57664,"adult":false},{"id":352580,"adult":false},{"id":10,"adult":false},{"id":347786,"adult":false},{"id":250745,"adult":false},{"id":348669,"adult":false},{"id":323674,"adult":false},{"id":346491,"adult":false},{"id":272876,"adult":false},{"id":137504,"adult":false},{"id":58588,"adult":false},{"id":198663,"adult":false},{"id":20766,"adult":false},{"id":147441,"adult":false},{"id":26932,"adult":false},{"id":220329,"adult":false},{"id":44736,"adult":false},{"id":352581,"adult":false},{"id":11537,"adult":false},{"id":14195,"adult":false},{"id":10359,"adult":false},{"id":352582,"adult":false},{"id":68589,"adult":false},{"id":352583,"adult":false},{"id":217316,"adult":false},{"id":65917,"adult":false},{"id":31001,"adult":false},{"id":252575,"adult":false},{"id":253344,"adult":false},{"id":108502,"adult":false},{"id":278920,"adult":false},{"id":72431,"adult":false},{"id":220176,"adult":false},{"id":209764,"adult":false},{"id":223171,"adult":false},{"id":255553,"adult":false},{"id":59728,"adult":false},{"id":26150,"adult":false},{"id":137464,"adult":false},{"id":79545,"adult":false},{"id":277558,"adult":false},{"id":338729,"adult":false},{"id":253161,"adult":false},{"id":97768,"adult":false},{"id":242754,"adult":false},{"id":169123,"adult":false},{"id":36289,"adult":false},{"id":252838,"adult":false},{"id":287855,"adult":false},{"id":203739,"adult":false},{"id":290764,"adult":false},{"id":94719,"adult":false},{"id":315411,"adult":false},{"id":31445,"adult":false},{"id":13800,"adult":false},{"id":96314,"adult":false},{"id":87253,"adult":false},{"id":343934,"adult":false},{"id":350619,"adult":null},{"id":253065,"adult":false},{"id":109608,"adult":false},{"id":49363,"adult":false},{"id":107182,"adult":false},{"id":107808,"adult":false},{"id":249238,"adult":false},{"id":3106,"adult":false},{"id":57211,"adult":false},{"id":343786,"adult":null},{"id":187586,"adult":false},{"id":208277,"adult":false},{"id":336308,"adult":false},{"id":157771,"adult":false},{"id":149704,"adult":false},{"id":349100,"adult":null},{"id":325470,"adult":false},{"id":63585,"adult":false},{"id":12429,"adult":false},{"id":37312,"adult":false},{"id":97481,"adult":false},{"id":7249,"adult":false},{"id":352584,"adult":false},{"id":338676,"adult":false},{"id":324194,"adult":false},{"id":86652,"adult":false},{"id":150023,"adult":false},{"id":43967,"adult":false},{"id":150024,"adult":false},{"id":150026,"adult":false},{"id":150027,"adult":false},{"id":150028,"adult":false},{"id":324975,"adult":false},{"id":75335,"adult":false},{"id":277747,"adult":false},{"id":313010,"adult":false},{"id":352585,"adult":false}],"page":4,"total_pages":89,"total_results":8876}