{"results":[{"id":40459,"adult":false},{"id":42601,"adult":false},{"id":42712,"adult":false},{"id":42718,"adult":false},{"id":43095,"adult":false},{"id":43487,"adult":false},{"id":43877,"adult":false},{"id":45965,"adult":false},{"id":45991,"adult":false},{"id":45993,"adult":false},{"id":46043,"adult":false},{"id":46069,"adult":false},{"id":46100,"adult":false},{"id":46149,"adult":false},{"id":46150,"adult":false},{"id":46488,"adult":false},{"id":46917,"adult":false},{"id":48515,"adult":false},{"id":48707,"adult":false},{"id":49355,"adult":false},{"id":49570,"adult":false},{"id":49571,"adult":false},{"id":50089,"adult":false},{"id":50247,"adult":false},{"id":50805,"adult":false},{"id":52011,"adult":false},{"id":52047,"adult":false},{"id":52531,"adult":false},{"id":54281,"adult":false},{"id":55192,"adult":false},{"id":55645,"adult":false},{"id":55647,"adult":false},{"id":55945,"adult":false},{"id":56595,"adult":false},{"id":56599,"adult":false},{"id":57137,"adult":false},{"id":57706,"adult":false},{"id":57707,"adult":false},{"id":57875,"adult":false},{"id":58229,"adult":false},{"id":58283,"adult":false},{"id":58285,"adult":false},{"id":58504,"adult":false},{"id":58881,"adult":false},{"id":59456,"adult":false},{"id":34549,"adult":false},{"id":173897,"adult":false},{"id":300127,"adult":false},{"id":300139,"adult":false},{"id":300142,"adult":false},{"id":300143,"adult":false},{"id":308330,"adult":false},{"id":308357,"adult":false},{"id":308360,"adult":false},{"id":3107,"adult":false},{"id":311240,"adult":false},{"id":3115,"adult":false},{"id":312506,"adult":false},{"id":31254,"adult":false},{"id":312968,"adult":false},{"id":31297,"adult":false},{"id":314116,"adult":false},{"id":31427,"adult":false},{"id":315551,"adult":false},{"id":315553,"adult":false},{"id":315557,"adult":false},{"id":319146,"adult":false},{"id":321765,"adult":false},{"id":322526,"adult":false},{"id":324443,"adult":false},{"id":324667,"adult":false},{"id":326680,"adult":false},{"id":329877,"adult":false},{"id":330178,"adult":false},{"id":33205,"adult":false},{"id":332477,"adult":false},{"id":332478,"adult":false},{"id":332997,"adult":false},{"id":333361,"adult":false},{"id":334082,"adult":false},{"id":334399,"adult":false},{"id":334848,"adult":false},{"id":334862,"adult":false},{"id":337992,"adult":false},{"id":339067,"adult":false},{"id":339068,"adult":false},{"id":339069,"adult":false},{"id":273899,"adult":false},{"id":339070,"adult":false},{"id":339072,"adult":false},{"id":339082,"adult":false},{"id":340008,"adult":false},{"id":340069,"adult":false},{"id":340908,"adult":false},{"id":341398,"adult":false},{"id":346038,"adult":false},{"id":348769,"adult":false},{"id":35022,"adult":false},{"id":352827,"adult":false},{"id":355609,"adult":false}],"page":66,"total_pages":101,"total_results":10039}