{"results":[{"id":34126,"adult":false},{"id":363394,"adult":true},{"id":142988,"adult":false},{"id":208193,"adult":false},{"id":13532,"adult":false},{"id":55194,"adult":false},{"id":363395,"adult":true},{"id":187808,"adult":false},{"id":75311,"adult":false},{"id":34842,"adult":false},{"id":11891,"adult":false},{"id":35028,"adult":false},{"id":33762,"adult":false},{"id":287232,"adult":false},{"id":148453,"adult":false},{"id":87520,"adult":false},{"id":329697,"adult":false},{"id":363396,"adult":false},{"id":151535,"adult":false},{"id":222403,"adult":false},{"id":9624,"adult":false},{"id":258837,"adult":false},{"id":345,"adult":false},{"id":9819,"adult":false},{"id":33370,"adult":false},{"id":91356,"adult":false},{"id":271165,"adult":false},{"id":256315,"adult":false},{"id":329707,"adult":false},{"id":81900,"adult":false},{"id":184993,"adult":false},{"id":110540,"adult":false},{"id":71506,"adult":false},{"id":7270,"adult":false},{"id":4584,"adult":false},{"id":127381,"adult":false},{"id":363397,"adult":false},{"id":146290,"adult":false},{"id":223575,"adult":false},{"id":1955,"adult":false},{"id":297102,"adult":false},{"id":94761,"adult":false},{"id":138906,"adult":false},{"id":276122,"adult":false},{"id":314387,"adult":false},{"id":71682,"adult":false},{"id":204316,"adult":false},{"id":160220,"adult":false},{"id":309134,"adult":false},{"id":258703,"adult":false},{"id":361592,"adult":false},{"id":363398,"adult":false},{"id":303849,"adult":false},{"id":199782,"adult":false},{"id":286387,"adult":false},{"id":363399,"adult":null},{"id":256402,"adult":false},{"id":14028,"adult":false},{"id":286258,"adult":false},{"id":423,"adult":false},{"id":270560,"adult":false},{"id":138061,"adult":false},{"id":94663,"adult":false},{"id":77597,"adult":false},{"id":17602,"adult":false},{"id":348613,"adult":false},{"id":294856,"adult":false},{"id":102445,"adult":false},{"id":26515,"adult":false},{"id":363400,"adult":false},{"id":363401,"adult":false},{"id":54642,"adult":false},{"id":76088,"adult":false},{"id":145175,"adult":false},{"id":144670,"adult":false},{"id":344681,"adult":null},{"id":345811,"adult":null},{"id":332503,"adult":false},{"id":204577,"adult":false},{"id":42580,"adult":false},{"id":317655,"adult":false},{"id":348119,"adult":false},{"id":363402,"adult":false},{"id":270533,"adult":false},{"id":251471,"adult":false},{"id":23111,"adult":false},{"id":207,"adult":false},{"id":287178,"adult":false},{"id":363403,"adult":false},{"id":363404,"adult":true},{"id":325250,"adult":false},{"id":353996,"adult":false},{"id":249652,"adult":false},{"id":89322,"adult":false},{"id":343667,"adult":false},{"id":88006,"adult":false},{"id":21956,"adult":false},{"id":400,"adult":false},{"id":64586,"adult":false},{"id":147065,"adult":false}],"page":74,"total_pages":108,"total_results":10774}