{"results":[{"id":326257,"adult":false},{"id":22317,"adult":false},{"id":326258,"adult":false},{"id":326259,"adult":false},{"id":63816,"adult":false},{"id":326260,"adult":false},{"id":326261,"adult":false},{"id":322772,"adult":false},{"id":63822,"adult":false},{"id":37498,"adult":false},{"id":326262,"adult":false},{"id":326263,"adult":false},{"id":326264,"adult":false},{"id":326265,"adult":false},{"id":82103,"adult":false},{"id":52747,"adult":false},{"id":326266,"adult":false},{"id":326267,"adult":false},{"id":326268,"adult":false},{"id":132,"adult":false},{"id":323320,"adult":false},{"id":25898,"adult":false},{"id":326269,"adult":false},{"id":326270,"adult":false},{"id":326271,"adult":false},{"id":287413,"adult":false},{"id":326272,"adult":false},{"id":300321,"adult":false},{"id":326273,"adult":false},{"id":326274,"adult":false},{"id":326275,"adult":false},{"id":326276,"adult":false},{"id":57506,"adult":true},{"id":13765,"adult":false},{"id":4380,"adult":false},{"id":300529,"adult":false},{"id":165160,"adult":false},{"id":35837,"adult":false},{"id":59402,"adult":false},{"id":17767,"adult":false},{"id":81026,"adult":false},{"id":22013,"adult":false},{"id":8435,"adult":false},{"id":9011,"adult":false},{"id":1368,"adult":false},{"id":95467,"adult":false},{"id":1369,"adult":false},{"id":2019,"adult":false},{"id":326277,"adult":false},{"id":81493,"adult":false},{"id":1370,"adult":false},{"id":1091,"adult":false},{"id":7555,"adult":false},{"id":17768,"adult":false},{"id":40456,"adult":false},{"id":326278,"adult":false},{"id":37413,"adult":false},{"id":292262,"adult":false},{"id":188166,"adult":false},{"id":239573,"adult":false},{"id":348,"adult":false},{"id":326279,"adult":false},{"id":238713,"adult":false},{"id":326280,"adult":false},{"id":80122,"adult":false},{"id":8091,"adult":false},{"id":240832,"adult":false},{"id":326281,"adult":false},{"id":34857,"adult":false},{"id":11360,"adult":false},{"id":679,"adult":false},{"id":4174,"adult":false},{"id":8077,"adult":false},{"id":279774,"adult":false},{"id":181533,"adult":false},{"id":228326,"adult":false},{"id":8078,"adult":false},{"id":278717,"adult":false},{"id":74019,"adult":false},{"id":196867,"adult":false},{"id":246860,"adult":false},{"id":170522,"adult":false},{"id":1546,"adult":false},{"id":32215,"adult":false},{"id":23434,"adult":false},{"id":76010,"adult":false},{"id":292777,"adult":false},{"id":316744,"adult":false},{"id":53898,"adult":false},{"id":192461,"adult":false},{"id":14137,"adult":false},{"id":89,"adult":false},{"id":63815,"adult":false},{"id":74534,"adult":false},{"id":306959,"adult":false},{"id":109451,"adult":false},{"id":198663,"adult":false},{"id":154400,"adult":false},{"id":63813,"adult":false},{"id":64688,"adult":false}],"page":39,"total_pages":112,"total_results":11193}