{"results":[{"id":154718,"adult":false},{"id":587,"adult":false},{"id":51996,"adult":false},{"id":78394,"adult":false},{"id":265464,"adult":false},{"id":36203,"adult":false},{"id":255782,"adult":false},{"id":18221,"adult":false},{"id":327460,"adult":true},{"id":13761,"adult":false},{"id":16841,"adult":false},{"id":2310,"adult":false},{"id":60475,"adult":false},{"id":173630,"adult":null},{"id":245201,"adult":false},{"id":256674,"adult":false},{"id":316064,"adult":false},{"id":11000,"adult":false},{"id":323324,"adult":false},{"id":325975,"adult":null},{"id":12142,"adult":false},{"id":20943,"adult":false},{"id":31410,"adult":false},{"id":208603,"adult":false},{"id":252481,"adult":false},{"id":260767,"adult":false},{"id":303913,"adult":true},{"id":314367,"adult":false},{"id":329742,"adult":false},{"id":329743,"adult":null},{"id":280125,"adult":false},{"id":68450,"adult":false},{"id":87327,"adult":false},{"id":303180,"adult":false},{"id":119514,"adult":null},{"id":27576,"adult":false},{"id":297544,"adult":false},{"id":51491,"adult":false},{"id":1607,"adult":false},{"id":220695,"adult":false},{"id":6114,"adult":false},{"id":277610,"adult":false},{"id":147703,"adult":false},{"id":291542,"adult":false},{"id":304336,"adult":false},{"id":28390,"adult":false},{"id":33627,"adult":false},{"id":316822,"adult":false},{"id":94348,"adult":false},{"id":43035,"adult":false},{"id":325044,"adult":false},{"id":247182,"adult":false},{"id":167637,"adult":false},{"id":317911,"adult":false},{"id":69357,"adult":false},{"id":292109,"adult":false},{"id":316336,"adult":false},{"id":325189,"adult":false},{"id":81663,"adult":false},{"id":302036,"adult":false},{"id":151516,"adult":false},{"id":72172,"adult":false},{"id":83944,"adult":false},{"id":15557,"adult":false},{"id":329744,"adult":false},{"id":43644,"adult":false},{"id":15021,"adult":false},{"id":34993,"adult":false},{"id":71919,"adult":false},{"id":46879,"adult":false},{"id":190469,"adult":false},{"id":56385,"adult":false},{"id":158499,"adult":true},{"id":288445,"adult":false},{"id":120262,"adult":true},{"id":74367,"adult":false},{"id":75725,"adult":false},{"id":84817,"adult":true},{"id":245792,"adult":false},{"id":1090,"adult":false},{"id":17214,"adult":false},{"id":74365,"adult":false},{"id":8202,"adult":false},{"id":324346,"adult":false},{"id":77378,"adult":false},{"id":11628,"adult":false},{"id":329745,"adult":false},{"id":329746,"adult":false},{"id":121854,"adult":false},{"id":9400,"adult":false},{"id":329747,"adult":false},{"id":98246,"adult":false},{"id":329748,"adult":false},{"id":240012,"adult":false},{"id":221776,"adult":true},{"id":327597,"adult":null},{"id":327238,"adult":null},{"id":190034,"adult":true},{"id":327047,"adult":null},{"id":326975,"adult":null}],"page":96,"total_pages":123,"total_results":12300}