{"results":[{"id":236111,"adult":false},{"id":235817,"adult":false},{"id":215960,"adult":false},{"id":235835,"adult":false},{"id":226059,"adult":false},{"id":235941,"adult":false},{"id":234753,"adult":false},{"id":204020,"adult":false},{"id":234518,"adult":false},{"id":236641,"adult":false},{"id":119698,"adult":false},{"id":335639,"adult":false},{"id":331284,"adult":false},{"id":156456,"adult":false},{"id":136331,"adult":false},{"id":335640,"adult":false},{"id":335641,"adult":false},{"id":312420,"adult":false},{"id":335642,"adult":false},{"id":162010,"adult":false},{"id":254032,"adult":false},{"id":329026,"adult":false},{"id":335643,"adult":false},{"id":335644,"adult":false},{"id":178189,"adult":false},{"id":284744,"adult":false},{"id":335645,"adult":false},{"id":335646,"adult":false},{"id":50546,"adult":false},{"id":80750,"adult":false},{"id":335647,"adult":false},{"id":335650,"adult":false},{"id":335651,"adult":false},{"id":335652,"adult":false},{"id":335653,"adult":false},{"id":93594,"adult":true},{"id":93599,"adult":true},{"id":234584,"adult":false},{"id":93596,"adult":true},{"id":93601,"adult":true},{"id":93603,"adult":true},{"id":329819,"adult":false},{"id":335654,"adult":false},{"id":95091,"adult":false},{"id":335655,"adult":false},{"id":335656,"adult":false},{"id":335657,"adult":false},{"id":43155,"adult":false},{"id":335658,"adult":true},{"id":335659,"adult":false},{"id":335660,"adult":false},{"id":17497,"adult":null},{"id":16198,"adult":false},{"id":335661,"adult":false},{"id":90805,"adult":false},{"id":17499,"adult":false},{"id":335662,"adult":false},{"id":335663,"adult":false},{"id":335664,"adult":true},{"id":243352,"adult":false},{"id":280426,"adult":true},{"id":335665,"adult":false},{"id":335666,"adult":false},{"id":335667,"adult":true},{"id":192040,"adult":false},{"id":335668,"adult":null},{"id":182131,"adult":false},{"id":241868,"adult":false},{"id":335669,"adult":false},{"id":138058,"adult":false},{"id":335670,"adult":true},{"id":1429,"adult":false},{"id":42090,"adult":false},{"id":335671,"adult":false},{"id":335672,"adult":true},{"id":11602,"adult":false},{"id":286935,"adult":false},{"id":21841,"adult":false},{"id":335673,"adult":null},{"id":117055,"adult":false},{"id":750,"adult":false},{"id":335674,"adult":null},{"id":234951,"adult":false},{"id":8209,"adult":false},{"id":92637,"adult":false},{"id":287100,"adult":false},{"id":335675,"adult":false},{"id":83045,"adult":true},{"id":307931,"adult":false},{"id":100493,"adult":false},{"id":122479,"adult":false},{"id":56619,"adult":false},{"id":14347,"adult":false},{"id":335676,"adult":false},{"id":12567,"adult":false},{"id":125395,"adult":false},{"id":38953,"adult":false},{"id":29455,"adult":false},{"id":62105,"adult":false},{"id":49921,"adult":false}],"page":98,"total_pages":100,"total_results":9923}