{"results":[{"id":325319,"adult":false},{"id":325320,"adult":false},{"id":308369,"adult":false},{"id":306482,"adult":false},{"id":308181,"adult":false},{"id":325321,"adult":false},{"id":312827,"adult":false},{"id":54561,"adult":false},{"id":27297,"adult":false},{"id":89376,"adult":false},{"id":310001,"adult":false},{"id":217387,"adult":false},{"id":325325,"adult":false},{"id":284470,"adult":false},{"id":19593,"adult":false},{"id":179118,"adult":false},{"id":325326,"adult":false},{"id":13572,"adult":false},{"id":166890,"adult":false},{"id":26881,"adult":false},{"id":325327,"adult":false},{"id":33709,"adult":false},{"id":19124,"adult":false},{"id":25508,"adult":false},{"id":201085,"adult":false},{"id":325328,"adult":false},{"id":11976,"adult":false},{"id":258517,"adult":false},{"id":30117,"adult":false},{"id":58770,"adult":false},{"id":112287,"adult":false},{"id":126836,"adult":false},{"id":325329,"adult":false},{"id":325330,"adult":false},{"id":31618,"adult":false},{"id":12159,"adult":false},{"id":325331,"adult":false},{"id":167198,"adult":false},{"id":25970,"adult":false},{"id":2267,"adult":false},{"id":6435,"adult":false},{"id":11297,"adult":false},{"id":52685,"adult":false},{"id":12254,"adult":false},{"id":11940,"adult":false},{"id":325334,"adult":false},{"id":277884,"adult":false},{"id":96623,"adult":false},{"id":325335,"adult":false},{"id":27117,"adult":false},{"id":18706,"adult":false},{"id":50553,"adult":false},{"id":77095,"adult":false},{"id":2443,"adult":false},{"id":33423,"adult":false},{"id":276500,"adult":false},{"id":79793,"adult":null},{"id":33421,"adult":false},{"id":275631,"adult":false},{"id":33419,"adult":false},{"id":20408,"adult":false},{"id":325336,"adult":false},{"id":325337,"adult":false},{"id":230222,"adult":false},{"id":17481,"adult":false},{"id":298465,"adult":false},{"id":66230,"adult":false},{"id":325338,"adult":false},{"id":674,"adult":false},{"id":79811,"adult":false},{"id":767,"adult":false},{"id":10030,"adult":false},{"id":304023,"adult":false},{"id":1830,"adult":false},{"id":15515,"adult":false},{"id":54318,"adult":false},{"id":325339,"adult":false},{"id":5257,"adult":false},{"id":228210,"adult":false},{"id":5693,"adult":false},{"id":43778,"adult":false},{"id":9675,"adult":false},{"id":325340,"adult":false},{"id":78265,"adult":false},{"id":210993,"adult":false},{"id":52738,"adult":false},{"id":325341,"adult":false},{"id":4923,"adult":false},{"id":236827,"adult":false},{"id":308638,"adult":false},{"id":82657,"adult":false},{"id":17431,"adult":false},{"id":48686,"adult":false},{"id":9294,"adult":false},{"id":218284,"adult":false},{"id":186889,"adult":false},{"id":140139,"adult":false},{"id":21290,"adult":false},{"id":30374,"adult":false},{"id":142247,"adult":true}],"page":116,"total_pages":117,"total_results":11629}