{"results":[{"id":116393,"adult":false},{"id":344741,"adult":false},{"id":96936,"adult":false},{"id":319337,"adult":false},{"id":114172,"adult":false},{"id":10849,"adult":false},{"id":210456,"adult":false},{"id":19163,"adult":false},{"id":17895,"adult":false},{"id":344140,"adult":false},{"id":290819,"adult":false},{"id":11227,"adult":false},{"id":344742,"adult":false},{"id":1396,"adult":false},{"id":112355,"adult":false},{"id":4688,"adult":false},{"id":344743,"adult":false},{"id":241944,"adult":false},{"id":106649,"adult":false},{"id":259528,"adult":false},{"id":326359,"adult":false},{"id":243924,"adult":false},{"id":297714,"adult":false},{"id":308938,"adult":false},{"id":1863,"adult":false},{"id":329864,"adult":false},{"id":306005,"adult":false},{"id":344744,"adult":false},{"id":297704,"adult":false},{"id":192132,"adult":false},{"id":297715,"adult":false},{"id":11633,"adult":false},{"id":297712,"adult":false},{"id":9807,"adult":false},{"id":297706,"adult":false},{"id":297709,"adult":false},{"id":335374,"adult":true},{"id":157547,"adult":false},{"id":100970,"adult":false},{"id":344745,"adult":false},{"id":337784,"adult":false},{"id":187628,"adult":false},{"id":344746,"adult":false},{"id":244566,"adult":false},{"id":132232,"adult":false},{"id":121198,"adult":false},{"id":344747,"adult":false},{"id":153158,"adult":false},{"id":297711,"adult":false},{"id":344748,"adult":false},{"id":11613,"adult":false},{"id":237756,"adult":false},{"id":11368,"adult":false},{"id":344749,"adult":false},{"id":344750,"adult":false},{"id":11823,"adult":false},{"id":297713,"adult":false},{"id":123427,"adult":false},{"id":344751,"adult":false},{"id":124300,"adult":false},{"id":298967,"adult":false},{"id":41078,"adult":false},{"id":344752,"adult":true},{"id":343977,"adult":false},{"id":318930,"adult":false},{"id":1639,"adult":false},{"id":221594,"adult":false},{"id":68326,"adult":false},{"id":58251,"adult":false},{"id":344753,"adult":false},{"id":187,"adult":false},{"id":344754,"adult":true},{"id":146445,"adult":false},{"id":38266,"adult":false},{"id":344755,"adult":false},{"id":270064,"adult":false},{"id":344756,"adult":false},{"id":336082,"adult":false},{"id":28916,"adult":false},{"id":344757,"adult":false},{"id":344758,"adult":false},{"id":56156,"adult":false},{"id":136437,"adult":false},{"id":60747,"adult":false},{"id":199644,"adult":false},{"id":33525,"adult":false},{"id":16323,"adult":false},{"id":218071,"adult":false},{"id":30339,"adult":false},{"id":344759,"adult":false},{"id":289198,"adult":false},{"id":17038,"adult":false},{"id":15600,"adult":false},{"id":344760,"adult":true},{"id":17037,"adult":false},{"id":11293,"adult":false},{"id":259954,"adult":false},{"id":26685,"adult":false},{"id":256475,"adult":false},{"id":344761,"adult":false}],"page":7,"total_pages":111,"total_results":11023}