{"results":[{"id":339950,"adult":false},{"id":258395,"adult":false},{"id":229354,"adult":false},{"id":83600,"adult":false},{"id":339951,"adult":false},{"id":2133,"adult":false},{"id":23996,"adult":false},{"id":339952,"adult":false},{"id":110603,"adult":false},{"id":47467,"adult":false},{"id":296056,"adult":null},{"id":32302,"adult":false},{"id":23410,"adult":false},{"id":3989,"adult":false},{"id":38579,"adult":false},{"id":291683,"adult":false},{"id":19063,"adult":false},{"id":339953,"adult":false},{"id":339954,"adult":false},{"id":275696,"adult":false},{"id":339955,"adult":false},{"id":339956,"adult":false},{"id":339957,"adult":false},{"id":339958,"adult":false},{"id":339959,"adult":false},{"id":77084,"adult":false},{"id":33344,"adult":false},{"id":50714,"adult":false},{"id":303854,"adult":false},{"id":31859,"adult":false},{"id":76147,"adult":false},{"id":339960,"adult":false},{"id":8374,"adult":false},{"id":339961,"adult":false},{"id":3543,"adult":false},{"id":40706,"adult":false},{"id":323300,"adult":null},{"id":339962,"adult":false},{"id":292177,"adult":false},{"id":339963,"adult":false},{"id":120482,"adult":false},{"id":320463,"adult":false},{"id":339964,"adult":false},{"id":4970,"adult":false},{"id":339965,"adult":false},{"id":276022,"adult":false},{"id":339966,"adult":false},{"id":156236,"adult":false},{"id":339967,"adult":false},{"id":11059,"adult":false},{"id":166310,"adult":false},{"id":217172,"adult":false},{"id":339968,"adult":false},{"id":339969,"adult":false},{"id":32569,"adult":false},{"id":8386,"adult":false},{"id":339970,"adult":false},{"id":296784,"adult":false},{"id":339971,"adult":false},{"id":197624,"adult":false},{"id":1927,"adult":false},{"id":339972,"adult":null},{"id":339973,"adult":false},{"id":339974,"adult":null},{"id":339975,"adult":null},{"id":339976,"adult":false},{"id":82520,"adult":false},{"id":96468,"adult":false},{"id":339977,"adult":false},{"id":95375,"adult":false},{"id":339978,"adult":false},{"id":309836,"adult":false},{"id":339979,"adult":false},{"id":339980,"adult":false},{"id":1608,"adult":false},{"id":76105,"adult":false},{"id":238131,"adult":false},{"id":283006,"adult":false},{"id":153750,"adult":false},{"id":191130,"adult":false},{"id":319017,"adult":false},{"id":16148,"adult":false},{"id":339981,"adult":false},{"id":339983,"adult":false},{"id":339984,"adult":false},{"id":104771,"adult":false},{"id":339985,"adult":false},{"id":339986,"adult":false},{"id":322240,"adult":false},{"id":152584,"adult":false},{"id":28795,"adult":false},{"id":310307,"adult":false},{"id":339987,"adult":false},{"id":78120,"adult":false},{"id":339988,"adult":false},{"id":219343,"adult":false},{"id":339989,"adult":false},{"id":339990,"adult":true},{"id":339991,"adult":false},{"id":138577,"adult":false}],"page":100,"total_pages":106,"total_results":10547}