{"results":[{"id":341470,"adult":false},{"id":31676,"adult":false},{"id":341471,"adult":false},{"id":341472,"adult":false},{"id":341473,"adult":false},{"id":328759,"adult":false},{"id":94603,"adult":false},{"id":341474,"adult":false},{"id":341475,"adult":false},{"id":341476,"adult":false},{"id":341477,"adult":false},{"id":106904,"adult":false},{"id":8870,"adult":false},{"id":341479,"adult":false},{"id":341480,"adult":false},{"id":341481,"adult":false},{"id":199449,"adult":false},{"id":341482,"adult":false},{"id":119201,"adult":false},{"id":216879,"adult":false},{"id":250839,"adult":false},{"id":341485,"adult":false},{"id":338044,"adult":false},{"id":45192,"adult":false},{"id":41001,"adult":false},{"id":294041,"adult":false},{"id":26741,"adult":false},{"id":116463,"adult":false},{"id":1970,"adult":false},{"id":267190,"adult":false},{"id":341486,"adult":false},{"id":288834,"adult":false},{"id":118009,"adult":false},{"id":43459,"adult":false},{"id":85233,"adult":false},{"id":119793,"adult":false},{"id":320010,"adult":false},{"id":1907,"adult":false},{"id":341487,"adult":false},{"id":180406,"adult":false},{"id":338892,"adult":false},{"id":341488,"adult":false},{"id":321711,"adult":false},{"id":118107,"adult":false},{"id":182404,"adult":false},{"id":341489,"adult":false},{"id":100121,"adult":false},{"id":199514,"adult":false},{"id":341490,"adult":false},{"id":109827,"adult":false},{"id":209899,"adult":false},{"id":584,"adult":false},{"id":202238,"adult":false},{"id":298651,"adult":false},{"id":119403,"adult":false},{"id":266002,"adult":false},{"id":150096,"adult":false},{"id":341491,"adult":false},{"id":87409,"adult":false},{"id":68627,"adult":false},{"id":68632,"adult":false},{"id":260106,"adult":false},{"id":3413,"adult":false},{"id":147448,"adult":false},{"id":141916,"adult":false},{"id":191382,"adult":false},{"id":180404,"adult":false},{"id":182117,"adult":false},{"id":341492,"adult":false},{"id":341493,"adult":false},{"id":7305,"adult":false},{"id":315706,"adult":false},{"id":341494,"adult":false},{"id":287502,"adult":false},{"id":41018,"adult":false},{"id":341495,"adult":false},{"id":11938,"adult":false},{"id":268540,"adult":false},{"id":312513,"adult":false},{"id":327313,"adult":false},{"id":277658,"adult":false},{"id":193097,"adult":false},{"id":25898,"adult":false},{"id":341496,"adult":false},{"id":43386,"adult":false},{"id":308804,"adult":false},{"id":125745,"adult":false},{"id":16110,"adult":false},{"id":1885,"adult":false},{"id":54245,"adult":false},{"id":14462,"adult":false},{"id":8856,"adult":false},{"id":341497,"adult":false},{"id":10495,"adult":false},{"id":341498,"adult":false},{"id":83831,"adult":false},{"id":341499,"adult":false},{"id":341500,"adult":false},{"id":106717,"adult":false},{"id":341501,"adult":false}],"page":69,"total_pages":103,"total_results":10276}