{"results":[{"id":242444,"adult":false},{"id":9027,"adult":false},{"id":27361,"adult":false},{"id":311573,"adult":false},{"id":43911,"adult":false},{"id":22538,"adult":false},{"id":12589,"adult":false},{"id":4441,"adult":false},{"id":18587,"adult":false},{"id":38626,"adult":false},{"id":271097,"adult":false},{"id":28270,"adult":false},{"id":74936,"adult":false},{"id":105596,"adult":false},{"id":141845,"adult":false},{"id":53102,"adult":false},{"id":29159,"adult":false},{"id":194132,"adult":false},{"id":21501,"adult":false},{"id":49399,"adult":false},{"id":26934,"adult":false},{"id":12107,"adult":false},{"id":576,"adult":false},{"id":120866,"adult":false},{"id":192149,"adult":false},{"id":52886,"adult":false},{"id":31201,"adult":false},{"id":313905,"adult":false},{"id":10164,"adult":false},{"id":159510,"adult":false},{"id":231767,"adult":false},{"id":79392,"adult":false},{"id":19312,"adult":false},{"id":221926,"adult":false},{"id":298828,"adult":false},{"id":8413,"adult":false},{"id":341777,"adult":false},{"id":298857,"adult":false},{"id":331727,"adult":false},{"id":65878,"adult":false},{"id":18252,"adult":false},{"id":107353,"adult":false},{"id":260682,"adult":false},{"id":25750,"adult":false},{"id":98413,"adult":false},{"id":11474,"adult":false},{"id":50715,"adult":false},{"id":270946,"adult":false},{"id":60865,"adult":false},{"id":76372,"adult":false},{"id":27932,"adult":false},{"id":156417,"adult":false},{"id":37451,"adult":false},{"id":97694,"adult":false},{"id":43947,"adult":false},{"id":317953,"adult":false},{"id":69526,"adult":false},{"id":177440,"adult":false},{"id":283227,"adult":false},{"id":83896,"adult":false},{"id":4935,"adult":false},{"id":265347,"adult":false},{"id":26398,"adult":false},{"id":51239,"adult":false},{"id":207768,"adult":false},{"id":319221,"adult":false},{"id":24104,"adult":false},{"id":244268,"adult":false},{"id":238615,"adult":false},{"id":174322,"adult":false},{"id":266647,"adult":false},{"id":177677,"adult":false},{"id":25950,"adult":false},{"id":494,"adult":false},{"id":85854,"adult":false},{"id":9828,"adult":false},{"id":42862,"adult":false},{"id":75455,"adult":false},{"id":165995,"adult":false},{"id":18885,"adult":false},{"id":8349,"adult":false},{"id":258619,"adult":false},{"id":203240,"adult":false},{"id":44439,"adult":false},{"id":193472,"adult":false},{"id":31117,"adult":false},{"id":10693,"adult":false},{"id":52204,"adult":false},{"id":27902,"adult":false},{"id":11343,"adult":false},{"id":241663,"adult":false},{"id":213901,"adult":false},{"id":35951,"adult":false},{"id":283704,"adult":false},{"id":6037,"adult":false},{"id":286743,"adult":false},{"id":62328,"adult":false},{"id":17538,"adult":false},{"id":148950,"adult":false},{"id":2768,"adult":false}],"page":84,"total_pages":103,"total_results":10276}