{"results":[{"id":286293,"adult":false},{"id":97041,"adult":false},{"id":288959,"adult":false},{"id":278861,"adult":false},{"id":110699,"adult":false},{"id":241076,"adult":false},{"id":95475,"adult":false},{"id":161833,"adult":false},{"id":345519,"adult":false},{"id":280739,"adult":false},{"id":41877,"adult":false},{"id":11082,"adult":false},{"id":227476,"adult":false},{"id":84203,"adult":false},{"id":228148,"adult":false},{"id":27463,"adult":false},{"id":27444,"adult":false},{"id":8054,"adult":false},{"id":198535,"adult":false},{"id":257659,"adult":false},{"id":39105,"adult":false},{"id":124097,"adult":false},{"id":9912,"adult":false},{"id":105834,"adult":false},{"id":132110,"adult":false},{"id":328037,"adult":false},{"id":219233,"adult":false},{"id":2180,"adult":false},{"id":46660,"adult":false},{"id":45546,"adult":false},{"id":762,"adult":false},{"id":282268,"adult":false},{"id":11949,"adult":false},{"id":138394,"adult":false},{"id":107215,"adult":false},{"id":4543,"adult":false},{"id":46740,"adult":false},{"id":74557,"adult":false},{"id":583,"adult":false},{"id":84067,"adult":false},{"id":71300,"adult":false},{"id":106646,"adult":false},{"id":83622,"adult":false},{"id":26660,"adult":false},{"id":35696,"adult":false},{"id":48977,"adult":false},{"id":48973,"adult":false},{"id":48975,"adult":false},{"id":48976,"adult":false},{"id":85919,"adult":false},{"id":48978,"adult":false},{"id":40820,"adult":false},{"id":76750,"adult":false},{"id":68914,"adult":false},{"id":21751,"adult":false},{"id":24449,"adult":false},{"id":62297,"adult":false},{"id":207235,"adult":false},{"id":62357,"adult":false},{"id":83534,"adult":false},{"id":85045,"adult":false},{"id":335254,"adult":false},{"id":10278,"adult":false},{"id":329263,"adult":false},{"id":41659,"adult":false},{"id":664,"adult":false},{"id":84040,"adult":false},{"id":345520,"adult":false},{"id":238603,"adult":false},{"id":196748,"adult":false},{"id":293973,"adult":false},{"id":291833,"adult":false},{"id":328112,"adult":false},{"id":9900,"adult":false},{"id":134623,"adult":false},{"id":1927,"adult":false},{"id":9989,"adult":false},{"id":279032,"adult":false},{"id":345521,"adult":true},{"id":644,"adult":false},{"id":345522,"adult":true},{"id":345523,"adult":false},{"id":345524,"adult":true},{"id":336850,"adult":false},{"id":72784,"adult":false},{"id":82014,"adult":true},{"id":345525,"adult":true},{"id":305414,"adult":false},{"id":345526,"adult":true},{"id":12497,"adult":false},{"id":345527,"adult":true},{"id":158015,"adult":false},{"id":160254,"adult":false},{"id":207,"adult":false},{"id":9485,"adult":false},{"id":42177,"adult":false},{"id":60279,"adult":false},{"id":345528,"adult":true},{"id":238636,"adult":false},{"id":180210,"adult":false}],"page":49,"total_pages":111,"total_results":11023}