{"results":[{"id":137113,"adult":false},{"id":4488,"adult":false},{"id":171772,"adult":false},{"id":333448,"adult":false},{"id":9725,"adult":false},{"id":41889,"adult":false},{"id":9728,"adult":false},{"id":327418,"adult":false},{"id":59450,"adult":false},{"id":109314,"adult":false},{"id":300168,"adult":false},{"id":135921,"adult":false},{"id":130755,"adult":false},{"id":167237,"adult":false},{"id":9615,"adult":false},{"id":213681,"adult":false},{"id":10225,"adult":false},{"id":345563,"adult":false},{"id":149967,"adult":false},{"id":321528,"adult":false},{"id":150127,"adult":false},{"id":222890,"adult":false},{"id":10281,"adult":false},{"id":10283,"adult":false},{"id":215583,"adult":false},{"id":139979,"adult":false},{"id":257932,"adult":false},{"id":11470,"adult":false},{"id":107661,"adult":false},{"id":6466,"adult":false},{"id":55872,"adult":false},{"id":345564,"adult":false},{"id":292053,"adult":false},{"id":18613,"adult":false},{"id":344526,"adult":false},{"id":265189,"adult":false},{"id":239114,"adult":false},{"id":262496,"adult":false},{"id":306260,"adult":false},{"id":96697,"adult":true},{"id":283571,"adult":false},{"id":130957,"adult":false},{"id":2637,"adult":false},{"id":12103,"adult":false},{"id":157927,"adult":false},{"id":106100,"adult":false},{"id":40987,"adult":false},{"id":35860,"adult":false},{"id":238630,"adult":false},{"id":303895,"adult":false},{"id":296099,"adult":false},{"id":189027,"adult":false},{"id":260778,"adult":false},{"id":174781,"adult":false},{"id":345565,"adult":false},{"id":139949,"adult":false},{"id":11,"adult":false},{"id":345566,"adult":false},{"id":57686,"adult":false},{"id":84982,"adult":false},{"id":345567,"adult":false},{"id":193586,"adult":false},{"id":97400,"adult":false},{"id":323929,"adult":false},{"id":345568,"adult":false},{"id":339287,"adult":true},{"id":19307,"adult":false},{"id":47817,"adult":false},{"id":316287,"adult":true},{"id":280833,"adult":true},{"id":268090,"adult":true},{"id":287427,"adult":true},{"id":9038,"adult":false},{"id":9630,"adult":false},{"id":266708,"adult":true},{"id":266705,"adult":true},{"id":330420,"adult":false},{"id":9886,"adult":false},{"id":163167,"adult":false},{"id":345569,"adult":false},{"id":108021,"adult":false},{"id":342703,"adult":false},{"id":340865,"adult":false},{"id":29363,"adult":false},{"id":38843,"adult":false},{"id":9880,"adult":false},{"id":2882,"adult":false},{"id":54933,"adult":false},{"id":10406,"adult":false},{"id":345570,"adult":null},{"id":209740,"adult":false},{"id":11558,"adult":false},{"id":58971,"adult":false},{"id":345571,"adult":false},{"id":10699,"adult":false},{"id":345572,"adult":null},{"id":313265,"adult":false},{"id":837,"adult":false},{"id":345573,"adult":false},{"id":9081,"adult":false}],"page":52,"total_pages":111,"total_results":11023}