{"results":[{"id":64781,"adult":false},{"id":333696,"adult":false},{"id":295830,"adult":false},{"id":51876,"adult":false},{"id":72976,"adult":false},{"id":363728,"adult":false},{"id":50348,"adult":false},{"id":286043,"adult":false},{"id":13689,"adult":false},{"id":10784,"adult":false},{"id":363729,"adult":false},{"id":127374,"adult":false},{"id":81467,"adult":false},{"id":284114,"adult":false},{"id":9403,"adult":false},{"id":14313,"adult":false},{"id":238615,"adult":false},{"id":923,"adult":false},{"id":308905,"adult":false},{"id":69219,"adult":false},{"id":137550,"adult":false},{"id":4515,"adult":false},{"id":311615,"adult":false},{"id":11589,"adult":false},{"id":8583,"adult":false},{"id":258945,"adult":false},{"id":222344,"adult":false},{"id":229124,"adult":false},{"id":14649,"adult":false},{"id":238636,"adult":false},{"id":85548,"adult":false},{"id":11494,"adult":false},{"id":15069,"adult":false},{"id":244260,"adult":false},{"id":241766,"adult":false},{"id":867,"adult":false},{"id":51736,"adult":false},{"id":301765,"adult":false},{"id":245855,"adult":false},{"id":336288,"adult":false},{"id":1899,"adult":false},{"id":4723,"adult":false},{"id":5421,"adult":false},{"id":11003,"adult":false},{"id":291044,"adult":false},{"id":276844,"adult":false},{"id":36213,"adult":false},{"id":335051,"adult":false},{"id":10995,"adult":false},{"id":310568,"adult":false},{"id":23160,"adult":false},{"id":337445,"adult":false},{"id":271233,"adult":false},{"id":193890,"adult":false},{"id":339338,"adult":false},{"id":110128,"adult":false},{"id":337448,"adult":false},{"id":6488,"adult":false},{"id":337191,"adult":false},{"id":213531,"adult":false},{"id":155399,"adult":false},{"id":10144,"adult":false},{"id":337437,"adult":false},{"id":343959,"adult":false},{"id":156550,"adult":false},{"id":40701,"adult":false},{"id":336664,"adult":false},{"id":16172,"adult":false},{"id":78387,"adult":false},{"id":100,"adult":false},{"id":99647,"adult":false},{"id":343271,"adult":false},{"id":342337,"adult":null},{"id":363730,"adult":false},{"id":24567,"adult":false},{"id":363731,"adult":false},{"id":37641,"adult":false},{"id":218736,"adult":false},{"id":210479,"adult":false},{"id":267804,"adult":false},{"id":337184,"adult":false},{"id":66827,"adult":false},{"id":337176,"adult":false},{"id":42222,"adult":false},{"id":363732,"adult":false},{"id":194071,"adult":false},{"id":221534,"adult":false},{"id":363733,"adult":false},{"id":54991,"adult":false},{"id":31657,"adult":false},{"id":8976,"adult":false},{"id":12185,"adult":false},{"id":363734,"adult":false},{"id":363735,"adult":false},{"id":363736,"adult":false},{"id":20283,"adult":false},{"id":343965,"adult":false},{"id":15709,"adult":false},{"id":363737,"adult":false},{"id":335087,"adult":false}],"page":93,"total_pages":108,"total_results":10774}