{"results":[{"id":10195,"adult":false},{"id":2069,"adult":false},{"id":8653,"adult":false},{"id":6466,"adult":false},{"id":9645,"adult":false},{"id":13572,"adult":false},{"id":294043,"adult":false},{"id":4970,"adult":false},{"id":40448,"adult":false},{"id":27303,"adult":false},{"id":18882,"adult":false},{"id":534,"adult":false},{"id":58783,"adult":false},{"id":9304,"adult":false},{"id":221,"adult":false},{"id":9945,"adult":false},{"id":11808,"adult":false},{"id":9272,"adult":false},{"id":13633,"adult":false},{"id":339027,"adult":false},{"id":105021,"adult":false},{"id":58160,"adult":false},{"id":196343,"adult":false},{"id":31439,"adult":false},{"id":300816,"adult":false},{"id":196346,"adult":false},{"id":80291,"adult":false},{"id":185341,"adult":false},{"id":25338,"adult":false},{"id":90324,"adult":false},{"id":196342,"adult":false},{"id":66872,"adult":false},{"id":194980,"adult":false},{"id":340672,"adult":false},{"id":4747,"adult":false},{"id":29996,"adult":false},{"id":66834,"adult":false},{"id":196340,"adult":false},{"id":296096,"adult":false},{"id":578,"adult":false},{"id":219543,"adult":false},{"id":275087,"adult":false},{"id":55137,"adult":false},{"id":39035,"adult":false},{"id":196592,"adult":false},{"id":196383,"adult":false},{"id":220863,"adult":false},{"id":84700,"adult":false},{"id":127560,"adult":false},{"id":338254,"adult":false},{"id":333484,"adult":false},{"id":97653,"adult":false},{"id":99345,"adult":false},{"id":340674,"adult":false},{"id":337320,"adult":null},{"id":174453,"adult":false},{"id":340675,"adult":false},{"id":184656,"adult":false},{"id":79913,"adult":false},{"id":184543,"adult":false},{"id":768,"adult":false},{"id":340676,"adult":false},{"id":334524,"adult":false},{"id":325197,"adult":false},{"id":241,"adult":false},{"id":29068,"adult":false},{"id":129377,"adult":false},{"id":10050,"adult":false},{"id":317442,"adult":false},{"id":63147,"adult":false},{"id":255768,"adult":false},{"id":339408,"adult":false},{"id":340677,"adult":false},{"id":337339,"adult":false},{"id":99573,"adult":true},{"id":316002,"adult":false},{"id":340678,"adult":false},{"id":206563,"adult":false},{"id":172136,"adult":true},{"id":340679,"adult":false},{"id":27066,"adult":false},{"id":52078,"adult":false},{"id":206522,"adult":false},{"id":183403,"adult":false},{"id":117555,"adult":false},{"id":24981,"adult":false},{"id":27980,"adult":false},{"id":210432,"adult":false},{"id":260552,"adult":true},{"id":285180,"adult":false},{"id":43260,"adult":false},{"id":340684,"adult":false},{"id":105915,"adult":false},{"id":340686,"adult":null},{"id":39312,"adult":false},{"id":13669,"adult":false},{"id":41220,"adult":false},{"id":256277,"adult":false},{"id":129102,"adult":false},{"id":13431,"adult":false}],"page":28,"total_pages":103,"total_results":10276}