{"results":[{"id":9878,"adult":false},{"id":350803,"adult":null},{"id":337635,"adult":false},{"id":334292,"adult":false},{"id":57165,"adult":false},{"id":201024,"adult":false},{"id":289891,"adult":false},{"id":335462,"adult":false},{"id":48678,"adult":false},{"id":146223,"adult":false},{"id":252455,"adult":false},{"id":10731,"adult":false},{"id":210047,"adult":false},{"id":123724,"adult":false},{"id":192712,"adult":false},{"id":350806,"adult":false},{"id":347697,"adult":false},{"id":284278,"adult":false},{"id":63833,"adult":false},{"id":83542,"adult":false},{"id":296686,"adult":false},{"id":201847,"adult":false},{"id":187983,"adult":false},{"id":238215,"adult":false},{"id":257564,"adult":false},{"id":9884,"adult":false},{"id":223115,"adult":false},{"id":923,"adult":false},{"id":25653,"adult":false},{"id":245527,"adult":false},{"id":350807,"adult":false},{"id":14560,"adult":false},{"id":291390,"adult":false},{"id":257093,"adult":false},{"id":52296,"adult":false},{"id":350808,"adult":false},{"id":94605,"adult":false},{"id":350809,"adult":false},{"id":52159,"adult":false},{"id":350810,"adult":false},{"id":300633,"adult":false},{"id":161828,"adult":false},{"id":146239,"adult":false},{"id":18775,"adult":false},{"id":85409,"adult":false},{"id":271971,"adult":false},{"id":18932,"adult":false},{"id":8984,"adult":false},{"id":184345,"adult":false},{"id":56655,"adult":false},{"id":138697,"adult":false},{"id":105526,"adult":false},{"id":322766,"adult":false},{"id":238603,"adult":false},{"id":45964,"adult":false},{"id":183507,"adult":false},{"id":137113,"adult":false},{"id":37509,"adult":false},{"id":89237,"adult":false},{"id":290772,"adult":false},{"id":341200,"adult":false},{"id":52667,"adult":false},{"id":224908,"adult":false},{"id":226857,"adult":false},{"id":40129,"adult":false},{"id":299245,"adult":false},{"id":350811,"adult":false},{"id":27956,"adult":false},{"id":300602,"adult":false},{"id":350812,"adult":false},{"id":27452,"adult":false},{"id":150117,"adult":false},{"id":350813,"adult":false},{"id":285812,"adult":false},{"id":168672,"adult":false},{"id":164243,"adult":false},{"id":85694,"adult":false},{"id":350814,"adult":false},{"id":293863,"adult":false},{"id":277934,"adult":false},{"id":46829,"adult":false},{"id":257942,"adult":false},{"id":350815,"adult":false},{"id":193544,"adult":false},{"id":326215,"adult":false},{"id":156225,"adult":false},{"id":130370,"adult":false},{"id":263278,"adult":false},{"id":119675,"adult":false},{"id":266885,"adult":false},{"id":350816,"adult":false},{"id":314462,"adult":false},{"id":11211,"adult":false},{"id":350817,"adult":false},{"id":284276,"adult":false},{"id":37999,"adult":false},{"id":142754,"adult":false},{"id":8766,"adult":false},{"id":337688,"adult":false},{"id":70411,"adult":false}],"page":64,"total_pages":103,"total_results":10231}