{"results":[{"id":11879,"adult":false},{"id":298883,"adult":false},{"id":319753,"adult":null},{"id":30669,"adult":false},{"id":271110,"adult":false},{"id":254800,"adult":false},{"id":10297,"adult":false},{"id":51540,"adult":false},{"id":11815,"adult":false},{"id":140300,"adult":false},{"id":4680,"adult":false},{"id":30159,"adult":false},{"id":366740,"adult":false},{"id":190573,"adult":false},{"id":284093,"adult":false},{"id":13928,"adult":false},{"id":297761,"adult":false},{"id":158015,"adult":false},{"id":159824,"adult":false},{"id":270899,"adult":false},{"id":10400,"adult":false},{"id":253115,"adult":false},{"id":5123,"adult":false},{"id":42454,"adult":false},{"id":9341,"adult":false},{"id":168948,"adult":false},{"id":9612,"adult":false},{"id":366741,"adult":false},{"id":366742,"adult":false},{"id":32998,"adult":false},{"id":366743,"adult":false},{"id":365949,"adult":false},{"id":366744,"adult":false},{"id":19415,"adult":false},{"id":198859,"adult":false},{"id":311291,"adult":false},{"id":366745,"adult":false},{"id":218622,"adult":false},{"id":778,"adult":false},{"id":338928,"adult":false},{"id":236506,"adult":false},{"id":18573,"adult":false},{"id":366747,"adult":false},{"id":319999,"adult":false},{"id":366748,"adult":false},{"id":52317,"adult":false},{"id":28696,"adult":false},{"id":120139,"adult":false},{"id":21935,"adult":false},{"id":334354,"adult":false},{"id":26267,"adult":false},{"id":249164,"adult":false},{"id":317304,"adult":false},{"id":317294,"adult":false},{"id":338912,"adult":false},{"id":19997,"adult":false},{"id":253523,"adult":false},{"id":64272,"adult":false},{"id":366749,"adult":false},{"id":366750,"adult":false},{"id":25955,"adult":false},{"id":1595,"adult":false},{"id":18019,"adult":false},{"id":114296,"adult":false},{"id":2165,"adult":false},{"id":20442,"adult":false},{"id":3558,"adult":false},{"id":121826,"adult":false},{"id":366752,"adult":false},{"id":366753,"adult":false},{"id":22733,"adult":false},{"id":29912,"adult":false},{"id":4234,"adult":false},{"id":366754,"adult":false},{"id":25009,"adult":false},{"id":10385,"adult":false},{"id":294272,"adult":false},{"id":36554,"adult":false},{"id":209401,"adult":false},{"id":366755,"adult":false},{"id":366756,"adult":false},{"id":19957,"adult":false},{"id":225565,"adult":false},{"id":363771,"adult":false},{"id":366757,"adult":false},{"id":10496,"adult":false},{"id":10984,"adult":false},{"id":366758,"adult":false},{"id":55433,"adult":false},{"id":366759,"adult":false},{"id":47088,"adult":false},{"id":27259,"adult":false},{"id":366760,"adult":false},{"id":248870,"adult":false},{"id":7345,"adult":false},{"id":114044,"adult":false},{"id":291290,"adult":false},{"id":366761,"adult":false},{"id":3116,"adult":false},{"id":872,"adult":false}],"page":32,"total_pages":108,"total_results":10787}