{"results":[{"id":16358,"adult":false},{"id":26616,"adult":false},{"id":42172,"adult":false},{"id":311607,"adult":false},{"id":705,"adult":false},{"id":21362,"adult":false},{"id":198812,"adult":false},{"id":31894,"adult":false},{"id":314157,"adult":false},{"id":263142,"adult":false},{"id":258331,"adult":false},{"id":130684,"adult":false},{"id":316204,"adult":false},{"id":47054,"adult":false},{"id":239194,"adult":false},{"id":105067,"adult":false},{"id":11564,"adult":false},{"id":36497,"adult":false},{"id":156387,"adult":false},{"id":288376,"adult":false},{"id":139030,"adult":false},{"id":326732,"adult":false},{"id":43885,"adult":false},{"id":288517,"adult":false},{"id":9399,"adult":false},{"id":248774,"adult":false},{"id":218321,"adult":false},{"id":81038,"adult":false},{"id":43145,"adult":false},{"id":1970,"adult":false},{"id":315413,"adult":false},{"id":318846,"adult":false},{"id":200502,"adult":false},{"id":72784,"adult":false},{"id":17035,"adult":false},{"id":5590,"adult":false},{"id":98491,"adult":false},{"id":276296,"adult":false},{"id":77128,"adult":false},{"id":104912,"adult":false},{"id":282296,"adult":false},{"id":229328,"adult":false},{"id":91847,"adult":false},{"id":38992,"adult":false},{"id":104901,"adult":false},{"id":3062,"adult":false},{"id":67586,"adult":false},{"id":111089,"adult":false},{"id":336908,"adult":false},{"id":72096,"adult":false},{"id":8275,"adult":false},{"id":67602,"adult":false},{"id":14748,"adult":false},{"id":273506,"adult":false},{"id":57222,"adult":false},{"id":32302,"adult":false},{"id":92168,"adult":false},{"id":206647,"adult":false},{"id":67584,"adult":false},{"id":18500,"adult":false},{"id":10956,"adult":false},{"id":13345,"adult":false},{"id":336909,"adult":false},{"id":11412,"adult":false},{"id":21835,"adult":false},{"id":46033,"adult":false},{"id":336910,"adult":false},{"id":27902,"adult":false},{"id":336911,"adult":false},{"id":336912,"adult":null},{"id":38966,"adult":false},{"id":10053,"adult":false},{"id":336913,"adult":false},{"id":40570,"adult":false},{"id":43231,"adult":false},{"id":336914,"adult":false},{"id":336915,"adult":false},{"id":265193,"adult":false},{"id":336916,"adult":false},{"id":118443,"adult":false},{"id":32143,"adult":false},{"id":254904,"adult":false},{"id":152684,"adult":false},{"id":62831,"adult":false},{"id":62834,"adult":false},{"id":336917,"adult":false},{"id":204760,"adult":false},{"id":61755,"adult":false},{"id":336918,"adult":false},{"id":1561,"adult":false},{"id":336919,"adult":false},{"id":5121,"adult":false},{"id":336920,"adult":false},{"id":280649,"adult":false},{"id":71805,"adult":false},{"id":9731,"adult":false},{"id":336921,"adult":false},{"id":336922,"adult":false},{"id":336923,"adult":false},{"id":25983,"adult":false}],"page":55,"total_pages":102,"total_results":10168}