{"results":[{"id":216944,"adult":false},{"id":158254,"adult":false},{"id":351643,"adult":false},{"id":351644,"adult":false},{"id":221174,"adult":false},{"id":72380,"adult":false},{"id":351645,"adult":false},{"id":221931,"adult":false},{"id":351646,"adult":false},{"id":285017,"adult":false},{"id":7450,"adult":false},{"id":286490,"adult":false},{"id":540,"adult":false},{"id":19898,"adult":false},{"id":273221,"adult":false},{"id":62191,"adult":false},{"id":88751,"adult":false},{"id":111635,"adult":false},{"id":58858,"adult":false},{"id":273223,"adult":false},{"id":1738,"adult":false},{"id":271835,"adult":false},{"id":94781,"adult":false},{"id":243208,"adult":false},{"id":259954,"adult":false},{"id":297849,"adult":false},{"id":289145,"adult":false},{"id":351647,"adult":null},{"id":47542,"adult":false},{"id":272000,"adult":false},{"id":315588,"adult":false},{"id":284689,"adult":false},{"id":252164,"adult":false},{"id":9779,"adult":false},{"id":351648,"adult":false},{"id":332156,"adult":false},{"id":188739,"adult":false},{"id":351649,"adult":false},{"id":260708,"adult":false},{"id":123231,"adult":false},{"id":2642,"adult":false},{"id":56534,"adult":false},{"id":351650,"adult":false},{"id":30122,"adult":false},{"id":14168,"adult":false},{"id":351651,"adult":false},{"id":351652,"adult":false},{"id":1444,"adult":false},{"id":337664,"adult":null},{"id":17081,"adult":false},{"id":9707,"adult":false},{"id":2241,"adult":false},{"id":164184,"adult":false},{"id":194650,"adult":false},{"id":146147,"adult":false},{"id":17658,"adult":false},{"id":118340,"adult":false},{"id":9980,"adult":false},{"id":14050,"adult":false},{"id":65994,"adult":false},{"id":14292,"adult":false},{"id":58558,"adult":false},{"id":11706,"adult":false},{"id":351653,"adult":false},{"id":98066,"adult":false},{"id":10017,"adult":false},{"id":253833,"adult":false},{"id":4816,"adult":false},{"id":219736,"adult":false},{"id":24016,"adult":false},{"id":19039,"adult":false},{"id":205452,"adult":false},{"id":291796,"adult":false},{"id":51986,"adult":false},{"id":659,"adult":false},{"id":300095,"adult":false},{"id":53404,"adult":false},{"id":45509,"adult":false},{"id":176068,"adult":false},{"id":57848,"adult":false},{"id":642,"adult":false},{"id":11828,"adult":false},{"id":338353,"adult":false},{"id":245,"adult":false},{"id":2002,"adult":false},{"id":53244,"adult":false},{"id":351654,"adult":false},{"id":31189,"adult":false},{"id":42811,"adult":false},{"id":209350,"adult":false},{"id":85482,"adult":null},{"id":117831,"adult":false},{"id":77985,"adult":false},{"id":49979,"adult":false},{"id":315432,"adult":false},{"id":351655,"adult":false},{"id":52286,"adult":false},{"id":274820,"adult":false},{"id":5848,"adult":false},{"id":86153,"adult":false}],"page":91,"total_pages":103,"total_results":10231}