{"results":[{"id":294733,"adult":false},{"id":2251,"adult":false},{"id":308504,"adult":false},{"id":335237,"adult":false},{"id":256946,"adult":false},{"id":335249,"adult":false},{"id":336397,"adult":false},{"id":218787,"adult":false},{"id":336398,"adult":false},{"id":336399,"adult":false},{"id":198184,"adult":false},{"id":37333,"adult":false},{"id":332286,"adult":false},{"id":333947,"adult":false},{"id":13200,"adult":false},{"id":336400,"adult":false},{"id":228108,"adult":false},{"id":336401,"adult":false},{"id":336402,"adult":false},{"id":170812,"adult":false},{"id":336403,"adult":false},{"id":20914,"adult":false},{"id":14609,"adult":false},{"id":336404,"adult":false},{"id":14611,"adult":false},{"id":336405,"adult":false},{"id":221257,"adult":false},{"id":14613,"adult":false},{"id":288189,"adult":false},{"id":13647,"adult":false},{"id":14830,"adult":false},{"id":30675,"adult":false},{"id":63686,"adult":false},{"id":336409,"adult":false},{"id":336410,"adult":null},{"id":336411,"adult":false},{"id":336412,"adult":false},{"id":290933,"adult":false},{"id":22855,"adult":false},{"id":334742,"adult":false},{"id":65042,"adult":false},{"id":337,"adult":false},{"id":32044,"adult":false},{"id":61468,"adult":false},{"id":9619,"adult":false},{"id":147421,"adult":false},{"id":139862,"adult":false},{"id":95722,"adult":false},{"id":336413,"adult":false},{"id":74505,"adult":false},{"id":10261,"adult":false},{"id":12153,"adult":false},{"id":319569,"adult":false},{"id":136795,"adult":false},{"id":8464,"adult":false},{"id":62132,"adult":false},{"id":280028,"adult":false},{"id":336414,"adult":false},{"id":138832,"adult":false},{"id":9778,"adult":false},{"id":44912,"adult":false},{"id":336415,"adult":false},{"id":49906,"adult":false},{"id":336417,"adult":false},{"id":14228,"adult":false},{"id":336418,"adult":false},{"id":336419,"adult":false},{"id":181533,"adult":false},{"id":140441,"adult":false},{"id":257527,"adult":false},{"id":16229,"adult":false},{"id":329712,"adult":false},{"id":336420,"adult":false},{"id":245891,"adult":false},{"id":30874,"adult":false},{"id":336421,"adult":false},{"id":157849,"adult":false},{"id":336422,"adult":false},{"id":336423,"adult":false},{"id":336424,"adult":false},{"id":109335,"adult":false},{"id":336425,"adult":false},{"id":67128,"adult":false},{"id":336426,"adult":false},{"id":336427,"adult":false},{"id":44413,"adult":false},{"id":336428,"adult":false},{"id":336429,"adult":false},{"id":17810,"adult":false},{"id":149871,"adult":false},{"id":109340,"adult":false},{"id":15668,"adult":false},{"id":3764,"adult":false},{"id":335004,"adult":false},{"id":336430,"adult":false},{"id":319545,"adult":false},{"id":57918,"adult":false},{"id":336431,"adult":false},{"id":336432,"adult":false},{"id":336433,"adult":false}],"page":29,"total_pages":102,"total_results":10168}