{"results":[{"id":340372,"adult":false},{"id":681,"adult":false},{"id":277793,"adult":false},{"id":36669,"adult":false},{"id":319877,"adult":false},{"id":99861,"adult":false},{"id":340373,"adult":false},{"id":202575,"adult":false},{"id":667,"adult":false},{"id":340374,"adult":false},{"id":241554,"adult":false},{"id":228967,"adult":false},{"id":277475,"adult":false},{"id":339181,"adult":false},{"id":247777,"adult":false},{"id":12208,"adult":false},{"id":660,"adult":false},{"id":708,"adult":false},{"id":241251,"adult":false},{"id":668,"adult":false},{"id":700,"adult":false},{"id":698,"adult":false},{"id":9358,"adult":false},{"id":253,"adult":false},{"id":206487,"adult":false},{"id":709,"adult":false},{"id":297066,"adult":false},{"id":36670,"adult":false},{"id":699,"adult":false},{"id":691,"adult":false},{"id":682,"adult":false},{"id":8043,"adult":false},{"id":123023,"adult":false},{"id":258099,"adult":false},{"id":245891,"adult":false},{"id":22970,"adult":false},{"id":340375,"adult":false},{"id":65102,"adult":false},{"id":340376,"adult":null},{"id":243974,"adult":false},{"id":949,"adult":false},{"id":340377,"adult":false},{"id":139567,"adult":false},{"id":181656,"adult":false},{"id":11121,"adult":false},{"id":409,"adult":false},{"id":340381,"adult":false},{"id":295830,"adult":false},{"id":340382,"adult":false},{"id":13243,"adult":false},{"id":340383,"adult":true},{"id":340384,"adult":false},{"id":340385,"adult":false},{"id":164466,"adult":false},{"id":282261,"adult":false},{"id":210860,"adult":false},{"id":23942,"adult":false},{"id":10542,"adult":false},{"id":292603,"adult":false},{"id":64624,"adult":false},{"id":39991,"adult":false},{"id":218417,"adult":false},{"id":13797,"adult":false},{"id":17911,"adult":false},{"id":41153,"adult":false},{"id":11096,"adult":false},{"id":274804,"adult":false},{"id":171587,"adult":false},{"id":11423,"adult":false},{"id":261857,"adult":false},{"id":31501,"adult":false},{"id":250546,"adult":false},{"id":340386,"adult":false},{"id":293439,"adult":null},{"id":340387,"adult":true},{"id":316154,"adult":false},{"id":12153,"adult":false},{"id":300803,"adult":false},{"id":18214,"adult":false},{"id":340388,"adult":false},{"id":44494,"adult":false},{"id":47831,"adult":false},{"id":16241,"adult":false},{"id":45779,"adult":false},{"id":262873,"adult":false},{"id":24746,"adult":false},{"id":340389,"adult":false},{"id":340390,"adult":false},{"id":340391,"adult":false},{"id":300090,"adult":false},{"id":250388,"adult":false},{"id":13948,"adult":false},{"id":39962,"adult":false},{"id":4348,"adult":false},{"id":340392,"adult":false},{"id":267573,"adult":false},{"id":281426,"adult":false},{"id":227300,"adult":false},{"id":7461,"adult":false},{"id":316245,"adult":false}],"page":8,"total_pages":103,"total_results":10276}