{"results":[{"id":369538,"adult":false},{"id":1912,"adult":false},{"id":151236,"adult":false},{"id":2612,"adult":false},{"id":20318,"adult":false},{"id":2288,"adult":false},{"id":366725,"adult":false},{"id":369539,"adult":false},{"id":45140,"adult":false},{"id":10982,"adult":false},{"id":23111,"adult":false},{"id":31005,"adult":false},{"id":63516,"adult":false},{"id":53611,"adult":false},{"id":33839,"adult":false},{"id":369540,"adult":false},{"id":267023,"adult":false},{"id":1365,"adult":false},{"id":60308,"adult":false},{"id":360676,"adult":false},{"id":355843,"adult":false},{"id":205998,"adult":false},{"id":322125,"adult":false},{"id":287598,"adult":false},{"id":10002,"adult":false},{"id":294188,"adult":false},{"id":262815,"adult":false},{"id":262819,"adult":false},{"id":290928,"adult":false},{"id":262821,"adult":false},{"id":287586,"adult":false},{"id":262817,"adult":false},{"id":220133,"adult":false},{"id":350873,"adult":false},{"id":369541,"adult":null},{"id":13102,"adult":false},{"id":75761,"adult":false},{"id":369542,"adult":false},{"id":16410,"adult":false},{"id":17921,"adult":false},{"id":85237,"adult":false},{"id":257678,"adult":false},{"id":54195,"adult":false},{"id":17234,"adult":false},{"id":11331,"adult":false},{"id":369543,"adult":false},{"id":31947,"adult":false},{"id":245706,"adult":false},{"id":20278,"adult":false},{"id":86105,"adult":false},{"id":366444,"adult":false},{"id":271791,"adult":false},{"id":11877,"adult":false},{"id":271789,"adult":false},{"id":335328,"adult":false},{"id":87428,"adult":false},{"id":271794,"adult":false},{"id":367090,"adult":null},{"id":81684,"adult":false},{"id":114364,"adult":false},{"id":290555,"adult":false},{"id":103291,"adult":false},{"id":9321,"adult":false},{"id":168186,"adult":false},{"id":369544,"adult":false},{"id":16914,"adult":false},{"id":151022,"adult":false},{"id":264696,"adult":false},{"id":19995,"adult":false},{"id":53865,"adult":false},{"id":27786,"adult":false},{"id":271775,"adult":false},{"id":369545,"adult":false},{"id":50080,"adult":false},{"id":369546,"adult":false},{"id":28118,"adult":false},{"id":53863,"adult":false},{"id":267487,"adult":false},{"id":94755,"adult":false},{"id":185543,"adult":false},{"id":53858,"adult":false},{"id":13475,"adult":false},{"id":54013,"adult":false},{"id":363926,"adult":false},{"id":78492,"adult":false},{"id":56787,"adult":false},{"id":96972,"adult":false},{"id":314634,"adult":false},{"id":271793,"adult":false},{"id":271787,"adult":false},{"id":333759,"adult":false},{"id":14042,"adult":false},{"id":340091,"adult":false},{"id":214509,"adult":false},{"id":271796,"adult":false},{"id":146236,"adult":false},{"id":357600,"adult":false},{"id":54138,"adult":false},{"id":7500,"adult":false},{"id":349256,"adult":false}],"page":56,"total_pages":101,"total_results":10039}