{"results":[{"id":361796,"adult":false},{"id":184623,"adult":false},{"id":371714,"adult":false},{"id":47322,"adult":false},{"id":26814,"adult":false},{"id":361629,"adult":false},{"id":145804,"adult":false},{"id":174521,"adult":false},{"id":280238,"adult":false},{"id":219533,"adult":false},{"id":222579,"adult":false},{"id":72221,"adult":false},{"id":243475,"adult":false},{"id":316306,"adult":false},{"id":129815,"adult":false},{"id":87197,"adult":false},{"id":219730,"adult":false},{"id":141735,"adult":false},{"id":109159,"adult":false},{"id":371715,"adult":false},{"id":184645,"adult":false},{"id":298365,"adult":false},{"id":40239,"adult":false},{"id":371716,"adult":false},{"id":41495,"adult":false},{"id":9062,"adult":false},{"id":96724,"adult":false},{"id":4111,"adult":false},{"id":55773,"adult":false},{"id":371717,"adult":false},{"id":40092,"adult":false},{"id":70669,"adult":false},{"id":116056,"adult":false},{"id":371718,"adult":false},{"id":371719,"adult":false},{"id":288171,"adult":false},{"id":371720,"adult":false},{"id":371721,"adult":false},{"id":363480,"adult":false},{"id":265562,"adult":false},{"id":371722,"adult":false},{"id":49368,"adult":false},{"id":371723,"adult":false},{"id":324331,"adult":false},{"id":371724,"adult":false},{"id":371725,"adult":null},{"id":371727,"adult":false},{"id":27506,"adult":false},{"id":371728,"adult":false},{"id":113039,"adult":false},{"id":170687,"adult":false},{"id":371729,"adult":false},{"id":73723,"adult":false},{"id":45803,"adult":false},{"id":264999,"adult":false},{"id":102526,"adult":false},{"id":6957,"adult":false},{"id":371730,"adult":false},{"id":147604,"adult":false},{"id":13784,"adult":false},{"id":1954,"adult":false},{"id":83814,"adult":false},{"id":229,"adult":false},{"id":331781,"adult":false},{"id":245056,"adult":false},{"id":371731,"adult":null},{"id":3035,"adult":false},{"id":18908,"adult":false},{"id":234742,"adult":false},{"id":324330,"adult":false},{"id":120,"adult":false},{"id":102969,"adult":false},{"id":84419,"adult":false},{"id":371732,"adult":false},{"id":204967,"adult":false},{"id":122,"adult":false},{"id":84720,"adult":false},{"id":292450,"adult":false},{"id":118451,"adult":false},{"id":301496,"adult":false},{"id":62124,"adult":false},{"id":156329,"adult":false},{"id":367434,"adult":false},{"id":266424,"adult":false},{"id":91470,"adult":false},{"id":91070,"adult":false},{"id":195450,"adult":false},{"id":303158,"adult":false},{"id":46993,"adult":false},{"id":313690,"adult":false},{"id":371733,"adult":false},{"id":303675,"adult":false},{"id":2277,"adult":false},{"id":62213,"adult":false},{"id":371736,"adult":false},{"id":224141,"adult":false},{"id":371737,"adult":false},{"id":66470,"adult":false},{"id":18141,"adult":false},{"id":22832,"adult":false}],"page":61,"total_pages":97,"total_results":9613}