{"results":[{"id":371619,"adult":null},{"id":344851,"adult":false},{"id":371730,"adult":false},{"id":7446,"adult":false},{"id":371621,"adult":false},{"id":323901,"adult":false},{"id":373267,"adult":false},{"id":109328,"adult":null},{"id":373268,"adult":false},{"id":163766,"adult":false},{"id":348010,"adult":false},{"id":235704,"adult":false},{"id":89501,"adult":false},{"id":249277,"adult":false},{"id":67654,"adult":false},{"id":372610,"adult":null},{"id":373269,"adult":false},{"id":373270,"adult":false},{"id":354880,"adult":false},{"id":55705,"adult":false},{"id":373271,"adult":false},{"id":11163,"adult":false},{"id":340401,"adult":false},{"id":2042,"adult":false},{"id":200870,"adult":false},{"id":367505,"adult":false},{"id":373272,"adult":false},{"id":201208,"adult":false},{"id":3172,"adult":false},{"id":373273,"adult":false},{"id":10195,"adult":false},{"id":315,"adult":false},{"id":128679,"adult":false},{"id":214418,"adult":false},{"id":297036,"adult":false},{"id":110243,"adult":false},{"id":210098,"adult":false},{"id":9746,"adult":false},{"id":373274,"adult":false},{"id":65034,"adult":false},{"id":373275,"adult":null},{"id":310154,"adult":false},{"id":665,"adult":false},{"id":228,"adult":false},{"id":373276,"adult":false},{"id":308941,"adult":false},{"id":43361,"adult":false},{"id":158106,"adult":false},{"id":125178,"adult":false},{"id":7304,"adult":false},{"id":34851,"adult":false},{"id":373277,"adult":false},{"id":373278,"adult":false},{"id":11540,"adult":false},{"id":373279,"adult":false},{"id":2577,"adult":false},{"id":402,"adult":false},{"id":11937,"adult":false},{"id":10707,"adult":false},{"id":4516,"adult":false},{"id":10147,"adult":false},{"id":537,"adult":false},{"id":1656,"adult":false},{"id":53905,"adult":false},{"id":51447,"adult":false},{"id":9491,"adult":false},{"id":34859,"adult":false},{"id":79703,"adult":false},{"id":79701,"adult":false},{"id":79702,"adult":false},{"id":296850,"adult":false},{"id":232387,"adult":false},{"id":188453,"adult":false},{"id":373280,"adult":true},{"id":288323,"adult":false},{"id":79759,"adult":false},{"id":308639,"adult":false},{"id":288335,"adult":false},{"id":331781,"adult":false},{"id":24774,"adult":false},{"id":373281,"adult":false},{"id":257344,"adult":false},{"id":203801,"adult":false},{"id":65703,"adult":false},{"id":373282,"adult":false},{"id":249665,"adult":false},{"id":373283,"adult":false},{"id":299534,"adult":false},{"id":350849,"adult":false},{"id":65284,"adult":false},{"id":373284,"adult":false},{"id":594,"adult":false},{"id":373285,"adult":false},{"id":46238,"adult":false},{"id":936,"adult":false},{"id":68180,"adult":false},{"id":373289,"adult":null},{"id":15362,"adult":false},{"id":26933,"adult":false},{"id":19142,"adult":false}],"page":35,"total_pages":108,"total_results":10739}