{"results":[{"id":258893,"adult":false},{"id":87827,"adult":false},{"id":7446,"adult":false},{"id":341882,"adult":false},{"id":93770,"adult":false},{"id":9907,"adult":false},{"id":215603,"adult":false},{"id":119949,"adult":false},{"id":119948,"adult":false},{"id":324522,"adult":false},{"id":189820,"adult":false},{"id":194603,"adult":false},{"id":86391,"adult":false},{"id":100110,"adult":false},{"id":194604,"adult":false},{"id":257,"adult":false},{"id":241855,"adult":false},{"id":195144,"adult":false},{"id":193395,"adult":false},{"id":195177,"adult":false},{"id":189824,"adult":false},{"id":186047,"adult":false},{"id":193399,"adult":false},{"id":195304,"adult":false},{"id":44007,"adult":false},{"id":195299,"adult":false},{"id":58595,"adult":false},{"id":302383,"adult":false},{"id":67555,"adult":false},{"id":195482,"adult":false},{"id":341883,"adult":false},{"id":322052,"adult":null},{"id":128769,"adult":false},{"id":13562,"adult":false},{"id":232963,"adult":false},{"id":341884,"adult":false},{"id":341885,"adult":false},{"id":195301,"adult":false},{"id":329013,"adult":false},{"id":115457,"adult":false},{"id":61985,"adult":false},{"id":341886,"adult":false},{"id":341887,"adult":false},{"id":281165,"adult":false},{"id":288819,"adult":false},{"id":35626,"adult":false},{"id":274234,"adult":false},{"id":22745,"adult":false},{"id":258759,"adult":false},{"id":341888,"adult":false},{"id":22455,"adult":false},{"id":2163,"adult":false},{"id":267860,"adult":false},{"id":29925,"adult":false},{"id":55723,"adult":false},{"id":47953,"adult":false},{"id":166629,"adult":false},{"id":24874,"adult":false},{"id":32140,"adult":false},{"id":4043,"adult":false},{"id":293792,"adult":null},{"id":341889,"adult":false},{"id":69363,"adult":false},{"id":48572,"adult":false},{"id":56733,"adult":false},{"id":23220,"adult":false},{"id":5620,"adult":false},{"id":3075,"adult":false},{"id":341890,"adult":false},{"id":3074,"adult":false},{"id":23437,"adult":false},{"id":10014,"adult":false},{"id":10072,"adult":false},{"id":10131,"adult":false},{"id":298931,"adult":false},{"id":10160,"adult":false},{"id":32489,"adult":false},{"id":11284,"adult":false},{"id":104205,"adult":false},{"id":948,"adult":false},{"id":39356,"adult":false},{"id":148438,"adult":false},{"id":10676,"adult":false},{"id":337537,"adult":false},{"id":9482,"adult":false},{"id":283330,"adult":false},{"id":111995,"adult":false},{"id":341892,"adult":false},{"id":128150,"adult":false},{"id":64622,"adult":false},{"id":55066,"adult":false},{"id":62347,"adult":false},{"id":341893,"adult":false},{"id":13533,"adult":false},{"id":213,"adult":false},{"id":52413,"adult":false},{"id":12477,"adult":false},{"id":15,"adult":false},{"id":25053,"adult":false},{"id":426,"adult":false}],"page":91,"total_pages":103,"total_results":10276}