{"results":[{"id":284289,"adult":false},{"id":186695,"adult":false},{"id":339860,"adult":false},{"id":187709,"adult":false},{"id":16561,"adult":false},{"id":153298,"adult":false},{"id":73748,"adult":false},{"id":164433,"adult":false},{"id":187720,"adult":false},{"id":71518,"adult":false},{"id":239566,"adult":false},{"id":187721,"adult":false},{"id":353310,"adult":false},{"id":75833,"adult":false},{"id":33115,"adult":false},{"id":192257,"adult":false},{"id":40038,"adult":false},{"id":186877,"adult":false},{"id":186881,"adult":false},{"id":186882,"adult":false},{"id":187723,"adult":false},{"id":160968,"adult":false},{"id":355076,"adult":false},{"id":64994,"adult":false},{"id":65012,"adult":false},{"id":186890,"adult":false},{"id":186892,"adult":false},{"id":63440,"adult":false},{"id":186893,"adult":false},{"id":76520,"adult":false},{"id":187724,"adult":false},{"id":187727,"adult":false},{"id":65207,"adult":false},{"id":20345,"adult":false},{"id":122230,"adult":false},{"id":122833,"adult":false},{"id":58599,"adult":false},{"id":172638,"adult":false},{"id":355077,"adult":false},{"id":290999,"adult":false},{"id":11412,"adult":false},{"id":322061,"adult":false},{"id":355078,"adult":null},{"id":15128,"adult":false},{"id":298653,"adult":false},{"id":355079,"adult":false},{"id":355080,"adult":false},{"id":355081,"adult":false},{"id":10729,"adult":false},{"id":205254,"adult":false},{"id":355082,"adult":false},{"id":355083,"adult":false},{"id":9749,"adult":false},{"id":355084,"adult":false},{"id":66173,"adult":false},{"id":21879,"adult":false},{"id":355085,"adult":false},{"id":186874,"adult":false},{"id":107491,"adult":false},{"id":66756,"adult":false},{"id":66597,"adult":false},{"id":187739,"adult":false},{"id":64260,"adult":false},{"id":19156,"adult":false},{"id":186901,"adult":false},{"id":64987,"adult":false},{"id":66592,"adult":false},{"id":342371,"adult":false},{"id":73752,"adult":false},{"id":186907,"adult":false},{"id":186910,"adult":false},{"id":41378,"adult":false},{"id":355086,"adult":false},{"id":186914,"adult":false},{"id":186917,"adult":false},{"id":66209,"adult":false},{"id":355087,"adult":false},{"id":196620,"adult":false},{"id":28248,"adult":false},{"id":186920,"adult":false},{"id":64366,"adult":false},{"id":64306,"adult":false},{"id":20188,"adult":false},{"id":160964,"adult":false},{"id":35882,"adult":false},{"id":294502,"adult":null},{"id":355088,"adult":false},{"id":293346,"adult":false},{"id":186921,"adult":false},{"id":187738,"adult":false},{"id":186924,"adult":false},{"id":186926,"adult":false},{"id":355089,"adult":false},{"id":859,"adult":false},{"id":249940,"adult":false},{"id":10170,"adult":false},{"id":355090,"adult":false},{"id":10395,"adult":false},{"id":160846,"adult":false},{"id":187749,"adult":false}],"page":29,"total_pages":100,"total_results":9908}