{"results":[{"id":335838,"adult":true},{"id":87905,"adult":false},{"id":298849,"adult":false},{"id":335839,"adult":true},{"id":13700,"adult":false},{"id":335840,"adult":true},{"id":287424,"adult":false},{"id":239328,"adult":false},{"id":955,"adult":false},{"id":328595,"adult":false},{"id":335841,"adult":false},{"id":10337,"adult":false},{"id":214594,"adult":false},{"id":21219,"adult":false},{"id":223853,"adult":false},{"id":40208,"adult":false},{"id":159184,"adult":false},{"id":19259,"adult":false},{"id":284274,"adult":false},{"id":254578,"adult":false},{"id":207933,"adult":false},{"id":34066,"adult":false},{"id":300792,"adult":false},{"id":97020,"adult":false},{"id":335026,"adult":false},{"id":73262,"adult":false},{"id":335842,"adult":false},{"id":16320,"adult":false},{"id":335843,"adult":false},{"id":270886,"adult":false},{"id":10474,"adult":false},{"id":227877,"adult":false},{"id":2080,"adult":false},{"id":40820,"adult":false},{"id":48395,"adult":false},{"id":322518,"adult":false},{"id":187596,"adult":false},{"id":47595,"adult":false},{"id":284293,"adult":false},{"id":35631,"adult":false},{"id":284306,"adult":false},{"id":203819,"adult":false},{"id":185261,"adult":false},{"id":206563,"adult":false},{"id":282813,"adult":false},{"id":11165,"adult":false},{"id":103772,"adult":false},{"id":272044,"adult":false},{"id":13150,"adult":false},{"id":231625,"adult":false},{"id":40069,"adult":false},{"id":276684,"adult":false},{"id":13819,"adult":false},{"id":295682,"adult":false},{"id":335844,"adult":false},{"id":26656,"adult":false},{"id":5511,"adult":false},{"id":9502,"adult":false},{"id":33833,"adult":false},{"id":324326,"adult":false},{"id":87737,"adult":false},{"id":29417,"adult":false},{"id":27496,"adult":false},{"id":94352,"adult":false},{"id":2321,"adult":false},{"id":174772,"adult":false},{"id":62127,"adult":false},{"id":39370,"adult":false},{"id":44040,"adult":false},{"id":8490,"adult":false},{"id":11068,"adult":false},{"id":292276,"adult":false},{"id":324002,"adult":false},{"id":1250,"adult":false},{"id":32322,"adult":false},{"id":24271,"adult":false},{"id":335845,"adult":false},{"id":35217,"adult":false},{"id":11353,"adult":false},{"id":335846,"adult":false},{"id":14864,"adult":false},{"id":23367,"adult":false},{"id":283708,"adult":false},{"id":130150,"adult":false},{"id":249926,"adult":false},{"id":200505,"adult":false},{"id":60077,"adult":false},{"id":84355,"adult":false},{"id":216789,"adult":false},{"id":39210,"adult":false},{"id":97399,"adult":false},{"id":61564,"adult":false},{"id":231662,"adult":false},{"id":299618,"adult":false},{"id":64499,"adult":false},{"id":132232,"adult":false},{"id":210823,"adult":false},{"id":295363,"adult":true},{"id":13291,"adult":false},{"id":335847,"adult":false}],"page":3,"total_pages":102,"total_results":10168}