{"results":[{"id":365347,"adult":false},{"id":365348,"adult":false},{"id":365349,"adult":false},{"id":265657,"adult":false},{"id":10272,"adult":false},{"id":25642,"adult":false},{"id":6936,"adult":false},{"id":49565,"adult":false},{"id":49429,"adult":false},{"id":333411,"adult":false},{"id":352552,"adult":false},{"id":830,"adult":false},{"id":5471,"adult":false},{"id":15265,"adult":false},{"id":92591,"adult":false},{"id":85101,"adult":false},{"id":236708,"adult":true},{"id":262985,"adult":false},{"id":160908,"adult":false},{"id":249678,"adult":false},{"id":361168,"adult":false},{"id":122126,"adult":false},{"id":6116,"adult":false},{"id":259748,"adult":false},{"id":361490,"adult":false},{"id":15473,"adult":false},{"id":50220,"adult":false},{"id":49313,"adult":false},{"id":237709,"adult":false},{"id":20296,"adult":false},{"id":40301,"adult":true},{"id":66869,"adult":false},{"id":231733,"adult":true},{"id":11331,"adult":false},{"id":112004,"adult":false},{"id":326694,"adult":false},{"id":243716,"adult":false},{"id":346097,"adult":true},{"id":118236,"adult":false},{"id":290568,"adult":true},{"id":30072,"adult":false},{"id":103927,"adult":false},{"id":2898,"adult":false},{"id":344999,"adult":true},{"id":2755,"adult":false},{"id":37637,"adult":false},{"id":12145,"adult":false},{"id":26712,"adult":false},{"id":38766,"adult":false},{"id":315465,"adult":false},{"id":56597,"adult":false},{"id":360028,"adult":false},{"id":118990,"adult":false},{"id":258099,"adult":false},{"id":114060,"adult":false},{"id":39016,"adult":false},{"id":306197,"adult":false},{"id":93528,"adult":false},{"id":154093,"adult":false},{"id":111521,"adult":false},{"id":361850,"adult":false},{"id":1789,"adult":false},{"id":21052,"adult":false},{"id":281469,"adult":false},{"id":167637,"adult":false},{"id":77066,"adult":false},{"id":34233,"adult":false},{"id":106760,"adult":false},{"id":59147,"adult":false},{"id":2005,"adult":false},{"id":363961,"adult":null},{"id":47629,"adult":false},{"id":6279,"adult":false},{"id":172961,"adult":false},{"id":365350,"adult":false},{"id":361999,"adult":false},{"id":15260,"adult":false},{"id":365351,"adult":false},{"id":8193,"adult":false},{"id":365353,"adult":false},{"id":267480,"adult":false},{"id":60041,"adult":false},{"id":365354,"adult":false},{"id":18725,"adult":false},{"id":365355,"adult":false},{"id":242452,"adult":false},{"id":348197,"adult":null},{"id":365356,"adult":false},{"id":361892,"adult":false},{"id":288287,"adult":false},{"id":363072,"adult":false},{"id":263949,"adult":false},{"id":362511,"adult":false},{"id":76148,"adult":false},{"id":365357,"adult":false},{"id":365358,"adult":false},{"id":362609,"adult":false},{"id":9026,"adult":false},{"id":41374,"adult":false},{"id":244506,"adult":false}],"page":73,"total_pages":85,"total_results":8453}