{"results":[{"id":272108,"adult":false},{"id":206563,"adult":false},{"id":13186,"adult":false},{"id":756,"adult":false},{"id":137990,"adult":false},{"id":23823,"adult":false},{"id":15708,"adult":false},{"id":149871,"adult":false},{"id":156220,"adult":false},{"id":35114,"adult":false},{"id":262866,"adult":false},{"id":101,"adult":false},{"id":71672,"adult":false},{"id":1541,"adult":false},{"id":125509,"adult":false},{"id":10056,"adult":false},{"id":247,"adult":false},{"id":975,"adult":false},{"id":54113,"adult":false},{"id":124414,"adult":false},{"id":8818,"adult":false},{"id":5723,"adult":false},{"id":977,"adult":false},{"id":20782,"adult":false},{"id":331458,"adult":false},{"id":331459,"adult":false},{"id":313565,"adult":false},{"id":293520,"adult":false},{"id":53847,"adult":false},{"id":59408,"adult":false},{"id":11000,"adult":false},{"id":119563,"adult":false},{"id":13795,"adult":false},{"id":271238,"adult":false},{"id":331460,"adult":false},{"id":154433,"adult":false},{"id":128815,"adult":false},{"id":84362,"adult":false},{"id":331461,"adult":false},{"id":215211,"adult":false},{"id":77,"adult":false},{"id":22130,"adult":false},{"id":57162,"adult":null},{"id":21233,"adult":false},{"id":38450,"adult":false},{"id":331462,"adult":null},{"id":331463,"adult":false},{"id":14510,"adult":false},{"id":250756,"adult":false},{"id":15564,"adult":false},{"id":159996,"adult":false},{"id":50081,"adult":false},{"id":178620,"adult":false},{"id":331464,"adult":false},{"id":31762,"adult":false},{"id":55715,"adult":false},{"id":50667,"adult":false},{"id":328214,"adult":false},{"id":15563,"adult":false},{"id":238628,"adult":false},{"id":96461,"adult":false},{"id":331465,"adult":false},{"id":570,"adult":false},{"id":49051,"adult":false},{"id":115953,"adult":false},{"id":20083,"adult":false},{"id":44741,"adult":false},{"id":862,"adult":false},{"id":31336,"adult":false},{"id":10193,"adult":false},{"id":331466,"adult":false},{"id":107436,"adult":false},{"id":171274,"adult":false},{"id":331467,"adult":false},{"id":308084,"adult":false},{"id":312228,"adult":false},{"id":86516,"adult":false},{"id":331468,"adult":null},{"id":9902,"adult":false},{"id":14212,"adult":false},{"id":331469,"adult":null},{"id":92471,"adult":false},{"id":248500,"adult":false},{"id":53880,"adult":false},{"id":331470,"adult":null},{"id":25974,"adult":false},{"id":34867,"adult":false},{"id":61196,"adult":false},{"id":241848,"adult":false},{"id":63662,"adult":false},{"id":12177,"adult":false},{"id":315190,"adult":false},{"id":231576,"adult":false},{"id":18197,"adult":false},{"id":14695,"adult":false},{"id":3481,"adult":false},{"id":222482,"adult":false},{"id":69551,"adult":false},{"id":14166,"adult":false},{"id":69556,"adult":false}],"page":43,"total_pages":129,"total_results":12871}