{"results":[{"id":353807,"adult":false},{"id":368832,"adult":false},{"id":11482,"adult":false},{"id":363289,"adult":false},{"id":70981,"adult":false},{"id":254572,"adult":false},{"id":344708,"adult":false},{"id":368833,"adult":false},{"id":238254,"adult":false},{"id":338990,"adult":false},{"id":368504,"adult":false},{"id":353808,"adult":false},{"id":88937,"adult":false},{"id":353810,"adult":false},{"id":309256,"adult":false},{"id":326534,"adult":false},{"id":261392,"adult":false},{"id":368834,"adult":false},{"id":55646,"adult":false},{"id":167073,"adult":false},{"id":219486,"adult":false},{"id":161861,"adult":false},{"id":286681,"adult":false},{"id":50401,"adult":false},{"id":53148,"adult":false},{"id":325389,"adult":false},{"id":330431,"adult":false},{"id":323517,"adult":false},{"id":368835,"adult":false},{"id":191726,"adult":false},{"id":254418,"adult":false},{"id":265289,"adult":false},{"id":316846,"adult":false},{"id":161064,"adult":false},{"id":303457,"adult":false},{"id":24146,"adult":false},{"id":244088,"adult":false},{"id":138419,"adult":false},{"id":87077,"adult":false},{"id":241843,"adult":false},{"id":267451,"adult":false},{"id":8874,"adult":false},{"id":262504,"adult":false},{"id":330764,"adult":false},{"id":13590,"adult":false},{"id":70761,"adult":false},{"id":337958,"adult":false},{"id":296100,"adult":false},{"id":174751,"adult":false},{"id":99642,"adult":false},{"id":15869,"adult":false},{"id":368836,"adult":false},{"id":339543,"adult":false},{"id":1487,"adult":false},{"id":314065,"adult":false},{"id":242643,"adult":false},{"id":80440,"adult":false},{"id":364218,"adult":false},{"id":31345,"adult":false},{"id":1626,"adult":false},{"id":11253,"adult":false},{"id":244772,"adult":false},{"id":347033,"adult":false},{"id":157964,"adult":false},{"id":9388,"adult":false},{"id":76170,"adult":false},{"id":320006,"adult":false},{"id":70108,"adult":false},{"id":71147,"adult":false},{"id":334376,"adult":false},{"id":79,"adult":false},{"id":267792,"adult":false},{"id":523,"adult":false},{"id":201088,"adult":false},{"id":344147,"adult":false},{"id":68175,"adult":false},{"id":238654,"adult":false},{"id":150790,"adult":false},{"id":158752,"adult":false},{"id":51077,"adult":false},{"id":299729,"adult":false},{"id":7548,"adult":false},{"id":23312,"adult":false},{"id":368837,"adult":false},{"id":34320,"adult":false},{"id":10077,"adult":false},{"id":27200,"adult":false},{"id":16725,"adult":false},{"id":1590,"adult":false},{"id":368838,"adult":false},{"id":260730,"adult":false},{"id":307381,"adult":false},{"id":35583,"adult":false},{"id":313517,"adult":false},{"id":92850,"adult":false},{"id":332280,"adult":false},{"id":336592,"adult":false},{"id":342917,"adult":false},{"id":47126,"adult":false},{"id":253292,"adult":false}],"page":13,"total_pages":101,"total_results":10039}