{"results":[{"id":346628,"adult":false},{"id":353769,"adult":false},{"id":54291,"adult":false},{"id":353770,"adult":false},{"id":336410,"adult":null},{"id":347641,"adult":false},{"id":346496,"adult":false},{"id":340382,"adult":false},{"id":329601,"adult":false},{"id":265321,"adult":false},{"id":240566,"adult":false},{"id":176881,"adult":false},{"id":254375,"adult":false},{"id":11412,"adult":false},{"id":42681,"adult":false},{"id":353771,"adult":false},{"id":185474,"adult":false},{"id":298664,"adult":false},{"id":353772,"adult":false},{"id":20000,"adult":false},{"id":340186,"adult":false},{"id":317940,"adult":false},{"id":353773,"adult":false},{"id":193756,"adult":false},{"id":353774,"adult":false},{"id":353775,"adult":false},{"id":53310,"adult":false},{"id":17465,"adult":false},{"id":352263,"adult":false},{"id":122924,"adult":false},{"id":12600,"adult":false},{"id":69778,"adult":false},{"id":33666,"adult":false},{"id":299319,"adult":false},{"id":178,"adult":false},{"id":88347,"adult":false},{"id":16907,"adult":false},{"id":323272,"adult":false},{"id":347514,"adult":false},{"id":11859,"adult":false},{"id":336382,"adult":false},{"id":57436,"adult":false},{"id":10882,"adult":false},{"id":27883,"adult":false},{"id":268321,"adult":false},{"id":316269,"adult":false},{"id":277688,"adult":false},{"id":109491,"adult":false},{"id":353776,"adult":true},{"id":12140,"adult":false},{"id":13910,"adult":false},{"id":161,"adult":false},{"id":342506,"adult":false},{"id":116490,"adult":false},{"id":163,"adult":false},{"id":9660,"adult":false},{"id":28733,"adult":false},{"id":273554,"adult":false},{"id":90068,"adult":false},{"id":353777,"adult":false},{"id":353778,"adult":false},{"id":298,"adult":false},{"id":353779,"adult":false},{"id":260266,"adult":false},{"id":80350,"adult":false},{"id":30837,"adult":true},{"id":205514,"adult":true},{"id":333621,"adult":true},{"id":268121,"adult":false},{"id":353780,"adult":false},{"id":15573,"adult":false},{"id":353781,"adult":false},{"id":353782,"adult":false},{"id":227306,"adult":false},{"id":924,"adult":false},{"id":353783,"adult":false},{"id":50544,"adult":false},{"id":22854,"adult":false},{"id":178213,"adult":false},{"id":338655,"adult":false},{"id":353784,"adult":false},{"id":344791,"adult":false},{"id":338803,"adult":false},{"id":153509,"adult":false},{"id":353785,"adult":false},{"id":353786,"adult":false},{"id":602,"adult":false},{"id":215743,"adult":false},{"id":124157,"adult":false},{"id":174014,"adult":false},{"id":17903,"adult":false},{"id":344968,"adult":false},{"id":298959,"adult":false},{"id":329263,"adult":false},{"id":353787,"adult":false},{"id":344893,"adult":false},{"id":65754,"adult":false},{"id":133476,"adult":false},{"id":335204,"adult":false},{"id":353788,"adult":false}],"page":61,"total_pages":89,"total_results":8876}