{"results":[{"id":259561,"adult":false},{"id":113173,"adult":false},{"id":27336,"adult":false},{"id":250608,"adult":false},{"id":48492,"adult":false},{"id":63227,"adult":false},{"id":113957,"adult":false},{"id":316090,"adult":false},{"id":48848,"adult":false},{"id":95448,"adult":false},{"id":311796,"adult":false},{"id":6171,"adult":false},{"id":194489,"adult":false},{"id":30919,"adult":false},{"id":77305,"adult":false},{"id":23761,"adult":false},{"id":197796,"adult":false},{"id":13567,"adult":false},{"id":316091,"adult":false},{"id":34311,"adult":false},{"id":47391,"adult":false},{"id":105902,"adult":false},{"id":74289,"adult":false},{"id":271185,"adult":false},{"id":6694,"adult":false},{"id":74578,"adult":false},{"id":83726,"adult":false},{"id":256876,"adult":false},{"id":36775,"adult":false},{"id":282502,"adult":false},{"id":245855,"adult":false},{"id":261047,"adult":false},{"id":298723,"adult":false},{"id":194722,"adult":false},{"id":36293,"adult":false},{"id":269148,"adult":false},{"id":16342,"adult":false},{"id":316092,"adult":false},{"id":270403,"adult":false},{"id":120194,"adult":false},{"id":479,"adult":false},{"id":216015,"adult":false},{"id":316093,"adult":false},{"id":262454,"adult":false},{"id":270909,"adult":false},{"id":169165,"adult":false},{"id":316094,"adult":false},{"id":192936,"adult":false},{"id":110670,"adult":false},{"id":167810,"adult":false},{"id":316095,"adult":false},{"id":61854,"adult":false},{"id":33205,"adult":false},{"id":316096,"adult":false},{"id":256591,"adult":false},{"id":65477,"adult":false},{"id":309302,"adult":false},{"id":316097,"adult":false},{"id":256961,"adult":false},{"id":31413,"adult":false},{"id":316098,"adult":false},{"id":278736,"adult":false},{"id":214758,"adult":false},{"id":316099,"adult":false},{"id":276844,"adult":false},{"id":316100,"adult":false},{"id":316101,"adult":false},{"id":316102,"adult":false},{"id":268920,"adult":false},{"id":125762,"adult":false},{"id":70090,"adult":false},{"id":256917,"adult":false},{"id":238713,"adult":false},{"id":52488,"adult":false},{"id":19026,"adult":false},{"id":72682,"adult":false},{"id":280092,"adult":false},{"id":224946,"adult":false},{"id":289748,"adult":false},{"id":185633,"adult":false},{"id":184589,"adult":false},{"id":108886,"adult":false},{"id":54075,"adult":false},{"id":293310,"adult":false},{"id":126830,"adult":false},{"id":237791,"adult":false},{"id":316103,"adult":false},{"id":303536,"adult":false},{"id":284427,"adult":false},{"id":120771,"adult":false},{"id":311102,"adult":false},{"id":269757,"adult":false},{"id":316104,"adult":false},{"id":128424,"adult":false},{"id":316105,"adult":false},{"id":11816,"adult":false},{"id":22522,"adult":false},{"id":874,"adult":false},{"id":10633,"adult":false},{"id":3010,"adult":false}],"page":54,"total_pages":115,"total_results":11442}