{"results":[{"id":54219,"adult":false},{"id":293889,"adult":false},{"id":32428,"adult":false},{"id":301962,"adult":false},{"id":293858,"adult":false},{"id":253020,"adult":false},{"id":244539,"adult":false},{"id":177572,"adult":false},{"id":25643,"adult":false},{"id":319416,"adult":false},{"id":9296,"adult":false},{"id":61014,"adult":false},{"id":274170,"adult":false},{"id":128241,"adult":false},{"id":15674,"adult":false},{"id":180856,"adult":false},{"id":86593,"adult":false},{"id":188812,"adult":false},{"id":340820,"adult":true},{"id":66738,"adult":false},{"id":7057,"adult":false},{"id":18491,"adult":false},{"id":340821,"adult":false},{"id":307479,"adult":false},{"id":8195,"adult":false},{"id":43529,"adult":false},{"id":148092,"adult":false},{"id":79433,"adult":false},{"id":340822,"adult":false},{"id":8367,"adult":false},{"id":180651,"adult":false},{"id":191741,"adult":false},{"id":310877,"adult":null},{"id":316329,"adult":null},{"id":326431,"adult":false},{"id":290514,"adult":false},{"id":281525,"adult":false},{"id":336790,"adult":false},{"id":321928,"adult":false},{"id":154482,"adult":false},{"id":340823,"adult":false},{"id":18823,"adult":false},{"id":247158,"adult":false},{"id":340824,"adult":false},{"id":339858,"adult":false},{"id":137880,"adult":false},{"id":121506,"adult":false},{"id":154441,"adult":false},{"id":284300,"adult":false},{"id":65742,"adult":false},{"id":336072,"adult":null},{"id":224596,"adult":null},{"id":113221,"adult":null},{"id":323030,"adult":false},{"id":340825,"adult":false},{"id":11820,"adult":false},{"id":340826,"adult":false},{"id":22803,"adult":false},{"id":103236,"adult":false},{"id":314490,"adult":false},{"id":277000,"adult":false},{"id":283308,"adult":false},{"id":187821,"adult":false},{"id":303636,"adult":false},{"id":28297,"adult":false},{"id":340827,"adult":false},{"id":40634,"adult":false},{"id":127068,"adult":false},{"id":16232,"adult":false},{"id":21173,"adult":false},{"id":199734,"adult":false},{"id":252822,"adult":false},{"id":334930,"adult":false},{"id":13172,"adult":false},{"id":19375,"adult":false},{"id":324467,"adult":false},{"id":340828,"adult":false},{"id":13027,"adult":false},{"id":294521,"adult":false},{"id":44564,"adult":false},{"id":340829,"adult":false},{"id":157350,"adult":false},{"id":330420,"adult":false},{"id":280107,"adult":false},{"id":264038,"adult":false},{"id":280152,"adult":false},{"id":291910,"adult":false},{"id":320906,"adult":false},{"id":320912,"adult":false},{"id":297751,"adult":false},{"id":340830,"adult":false},{"id":179592,"adult":false},{"id":215000,"adult":false},{"id":339964,"adult":false},{"id":295935,"adult":null},{"id":340831,"adult":false},{"id":340832,"adult":false},{"id":278572,"adult":false},{"id":223110,"adult":null},{"id":275524,"adult":false}],"page":36,"total_pages":103,"total_results":10276}