{"results":[{"id":16337,"adult":false},{"id":82994,"adult":false},{"id":141614,"adult":false},{"id":115738,"adult":false},{"id":353609,"adult":false},{"id":70429,"adult":false},{"id":163370,"adult":false},{"id":269358,"adult":false},{"id":254781,"adult":false},{"id":240483,"adult":false},{"id":193689,"adult":false},{"id":346646,"adult":false},{"id":284875,"adult":false},{"id":293413,"adult":false},{"id":371229,"adult":false},{"id":17669,"adult":false},{"id":261936,"adult":false},{"id":366093,"adult":false},{"id":371230,"adult":false},{"id":55511,"adult":false},{"id":343977,"adult":false},{"id":371231,"adult":false},{"id":5551,"adult":false},{"id":54333,"adult":false},{"id":85371,"adult":false},{"id":371232,"adult":null},{"id":253367,"adult":false},{"id":112225,"adult":false},{"id":371233,"adult":false},{"id":256702,"adult":false},{"id":371234,"adult":false},{"id":371235,"adult":false},{"id":67305,"adult":false},{"id":132080,"adult":false},{"id":367129,"adult":false},{"id":355596,"adult":false},{"id":88276,"adult":false},{"id":285208,"adult":false},{"id":132161,"adult":false},{"id":151002,"adult":false},{"id":145497,"adult":false},{"id":239853,"adult":false},{"id":334074,"adult":false},{"id":371236,"adult":false},{"id":368374,"adult":false},{"id":115283,"adult":false},{"id":147168,"adult":false},{"id":149047,"adult":false},{"id":154525,"adult":false},{"id":154656,"adult":false},{"id":24653,"adult":false},{"id":342878,"adult":false},{"id":368389,"adult":false},{"id":32574,"adult":false},{"id":2525,"adult":false},{"id":84540,"adult":false},{"id":364831,"adult":false},{"id":139075,"adult":false},{"id":231994,"adult":false},{"id":48340,"adult":false},{"id":12105,"adult":false},{"id":11906,"adult":false},{"id":366115,"adult":false},{"id":44126,"adult":false},{"id":9785,"adult":false},{"id":366724,"adult":false},{"id":359953,"adult":false},{"id":14776,"adult":false},{"id":20126,"adult":false},{"id":84004,"adult":false},{"id":371237,"adult":false},{"id":369183,"adult":false},{"id":331558,"adult":false},{"id":245040,"adult":false},{"id":371238,"adult":false},{"id":15173,"adult":false},{"id":69862,"adult":false},{"id":348746,"adult":false},{"id":347969,"adult":false},{"id":25405,"adult":false},{"id":344103,"adult":false},{"id":804,"adult":false},{"id":272452,"adult":false},{"id":198338,"adult":false},{"id":54577,"adult":false},{"id":263506,"adult":false},{"id":46163,"adult":false},{"id":136701,"adult":false},{"id":1277,"adult":false},{"id":107634,"adult":false},{"id":1370,"adult":false},{"id":1368,"adult":false},{"id":1369,"adult":false},{"id":275601,"adult":false},{"id":25241,"adult":false},{"id":364067,"adult":false},{"id":2143,"adult":false},{"id":9576,"adult":false},{"id":59065,"adult":false},{"id":282313,"adult":false}],"page":34,"total_pages":97,"total_results":9613}