{"results":[{"id":159024,"adult":false},{"id":656,"adult":false},{"id":321654,"adult":false},{"id":301566,"adult":false},{"id":4155,"adult":false},{"id":215,"adult":false},{"id":321655,"adult":false},{"id":17814,"adult":false},{"id":193286,"adult":false},{"id":65754,"adult":false},{"id":99770,"adult":false},{"id":321656,"adult":false},{"id":580,"adult":false},{"id":217387,"adult":false},{"id":67875,"adult":false},{"id":74701,"adult":false},{"id":775,"adult":false},{"id":321657,"adult":false},{"id":302321,"adult":false},{"id":321658,"adult":false},{"id":74704,"adult":false},{"id":321659,"adult":false},{"id":104859,"adult":false},{"id":9642,"adult":false},{"id":321660,"adult":false},{"id":147546,"adult":false},{"id":74840,"adult":false},{"id":321661,"adult":false},{"id":81561,"adult":false},{"id":321662,"adult":false},{"id":321663,"adult":false},{"id":176427,"adult":false},{"id":13960,"adult":false},{"id":8965,"adult":false},{"id":85325,"adult":false},{"id":3092,"adult":false},{"id":200112,"adult":false},{"id":321664,"adult":false},{"id":153738,"adult":false},{"id":11210,"adult":false},{"id":11005,"adult":false},{"id":69590,"adult":false},{"id":46217,"adult":false},{"id":192695,"adult":false},{"id":321665,"adult":false},{"id":321666,"adult":false},{"id":12832,"adult":false},{"id":231508,"adult":null},{"id":321667,"adult":false},{"id":116231,"adult":false},{"id":321668,"adult":false},{"id":52027,"adult":false},{"id":321669,"adult":false},{"id":226693,"adult":false},{"id":321670,"adult":false},{"id":321671,"adult":false},{"id":321672,"adult":false},{"id":321673,"adult":false},{"id":13483,"adult":false},{"id":11626,"adult":false},{"id":646,"adult":false},{"id":50083,"adult":false},{"id":321675,"adult":false},{"id":270081,"adult":false},{"id":321676,"adult":false},{"id":79611,"adult":false},{"id":75076,"adult":false},{"id":321677,"adult":false},{"id":99122,"adult":false},{"id":113254,"adult":false},{"id":268279,"adult":false},{"id":76000,"adult":false},{"id":321678,"adult":false},{"id":11940,"adult":false},{"id":260807,"adult":false},{"id":42911,"adult":false},{"id":9481,"adult":false},{"id":118620,"adult":false},{"id":32428,"adult":false},{"id":290336,"adult":false},{"id":296289,"adult":null},{"id":79255,"adult":false},{"id":18849,"adult":false},{"id":6519,"adult":false},{"id":321679,"adult":false},{"id":214418,"adult":false},{"id":69492,"adult":false},{"id":129597,"adult":false},{"id":321680,"adult":false},{"id":239891,"adult":false},{"id":321681,"adult":false},{"id":321682,"adult":false},{"id":321683,"adult":false},{"id":33765,"adult":false},{"id":321684,"adult":false}],"page":120,"total_pages":120,"total_results":11995}