{"results":[{"id":26245,"adult":false},{"id":78256,"adult":false},{"id":325788,"adult":false},{"id":8220,"adult":false},{"id":325789,"adult":false},{"id":289346,"adult":false},{"id":134415,"adult":false},{"id":85446,"adult":false},{"id":243683,"adult":false},{"id":316217,"adult":null},{"id":325790,"adult":false},{"id":46139,"adult":false},{"id":325791,"adult":false},{"id":15739,"adult":false},{"id":325792,"adult":false},{"id":301933,"adult":false},{"id":55977,"adult":false},{"id":325793,"adult":false},{"id":320609,"adult":false},{"id":45154,"adult":false},{"id":11130,"adult":false},{"id":72192,"adult":false},{"id":163366,"adult":false},{"id":124019,"adult":false},{"id":112504,"adult":false},{"id":35632,"adult":false},{"id":258737,"adult":false},{"id":325794,"adult":false},{"id":270922,"adult":false},{"id":86834,"adult":false},{"id":272,"adult":false},{"id":325795,"adult":null},{"id":656,"adult":false},{"id":125570,"adult":false},{"id":98179,"adult":false},{"id":121579,"adult":false},{"id":105159,"adult":false},{"id":298250,"adult":false},{"id":22049,"adult":false},{"id":181425,"adult":false},{"id":325796,"adult":false},{"id":101652,"adult":false},{"id":325797,"adult":false},{"id":289278,"adult":false},{"id":325798,"adult":false},{"id":78432,"adult":false},{"id":325799,"adult":false},{"id":325800,"adult":false},{"id":293446,"adult":null},{"id":8271,"adult":false},{"id":22970,"adult":false},{"id":91624,"adult":false},{"id":222369,"adult":false},{"id":85112,"adult":false},{"id":83542,"adult":false},{"id":325801,"adult":false},{"id":325803,"adult":false},{"id":325804,"adult":false},{"id":184346,"adult":false},{"id":9472,"adult":false},{"id":325805,"adult":false},{"id":325806,"adult":false},{"id":325807,"adult":false},{"id":10022,"adult":false},{"id":257368,"adult":false},{"id":325808,"adult":false},{"id":65904,"adult":false},{"id":152,"adult":false},{"id":287393,"adult":null},{"id":671,"adult":false},{"id":2018,"adult":false},{"id":246422,"adult":false},{"id":767,"adult":false},{"id":131063,"adult":false},{"id":7012,"adult":false},{"id":181067,"adult":false},{"id":51183,"adult":false},{"id":273425,"adult":false},{"id":41505,"adult":false},{"id":172351,"adult":false},{"id":306629,"adult":false},{"id":251,"adult":false},{"id":260873,"adult":false},{"id":18240,"adult":false},{"id":112574,"adult":false},{"id":6977,"adult":false},{"id":179036,"adult":false},{"id":325809,"adult":false},{"id":244788,"adult":false},{"id":49370,"adult":false},{"id":306631,"adult":false},{"id":254772,"adult":false},{"id":325810,"adult":false},{"id":968,"adult":false},{"id":325811,"adult":false},{"id":325812,"adult":false},{"id":1900,"adult":false},{"id":34326,"adult":false},{"id":67567,"adult":false},{"id":325813,"adult":false}],"page":19,"total_pages":112,"total_results":11193}