{"results":[{"id":2440,"adult":false},{"id":10355,"adult":false},{"id":45520,"adult":false},{"id":89482,"adult":false},{"id":6967,"adult":false},{"id":39477,"adult":false},{"id":207871,"adult":false},{"id":15136,"adult":false},{"id":74534,"adult":false},{"id":249923,"adult":false},{"id":132183,"adult":false},{"id":354735,"adult":false},{"id":317953,"adult":false},{"id":335837,"adult":false},{"id":61410,"adult":false},{"id":160182,"adult":false},{"id":188507,"adult":false},{"id":56118,"adult":false},{"id":277778,"adult":false},{"id":11937,"adult":false},{"id":289494,"adult":false},{"id":354736,"adult":false},{"id":254472,"adult":false},{"id":297244,"adult":false},{"id":20726,"adult":false},{"id":354450,"adult":false},{"id":47648,"adult":false},{"id":354461,"adult":false},{"id":354458,"adult":false},{"id":53163,"adult":false},{"id":297242,"adult":false},{"id":337029,"adult":false},{"id":354737,"adult":false},{"id":22233,"adult":false},{"id":52324,"adult":false},{"id":261392,"adult":false},{"id":253414,"adult":false},{"id":205588,"adult":false},{"id":42779,"adult":false},{"id":75197,"adult":false},{"id":86579,"adult":false},{"id":324440,"adult":false},{"id":115,"adult":false},{"id":315635,"adult":false},{"id":352161,"adult":false},{"id":323529,"adult":false},{"id":277546,"adult":false},{"id":350889,"adult":false},{"id":108843,"adult":false},{"id":2698,"adult":false},{"id":346,"adult":false},{"id":353430,"adult":false},{"id":241729,"adult":false},{"id":354739,"adult":false},{"id":283163,"adult":false},{"id":124313,"adult":false},{"id":248057,"adult":false},{"id":352552,"adult":false},{"id":186634,"adult":false},{"id":229186,"adult":false},{"id":229236,"adult":false},{"id":121545,"adult":false},{"id":261622,"adult":false},{"id":118281,"adult":false},{"id":118279,"adult":false},{"id":118510,"adult":false},{"id":218939,"adult":false},{"id":257417,"adult":false},{"id":285013,"adult":false},{"id":223965,"adult":false},{"id":97245,"adult":false},{"id":70579,"adult":false},{"id":287614,"adult":false},{"id":330325,"adult":false},{"id":228203,"adult":false},{"id":334875,"adult":false},{"id":20335,"adult":false},{"id":353269,"adult":null},{"id":339795,"adult":false},{"id":134215,"adult":false},{"id":354432,"adult":null},{"id":254201,"adult":false},{"id":306686,"adult":null},{"id":59591,"adult":null},{"id":50546,"adult":false},{"id":52691,"adult":false},{"id":354740,"adult":false},{"id":213036,"adult":false},{"id":32866,"adult":false},{"id":87311,"adult":false},{"id":40900,"adult":false},{"id":105436,"adult":false},{"id":166940,"adult":false},{"id":107987,"adult":false},{"id":173557,"adult":false},{"id":347952,"adult":false},{"id":342917,"adult":false},{"id":334471,"adult":false},{"id":222216,"adult":false},{"id":108923,"adult":false}],"page":8,"total_pages":100,"total_results":9908}