{"results":[{"id":297,"adult":false},{"id":249021,"adult":false},{"id":361403,"adult":false},{"id":287904,"adult":false},{"id":288599,"adult":false},{"id":277217,"adult":false},{"id":1803,"adult":false},{"id":9798,"adult":false},{"id":12121,"adult":false},{"id":10761,"adult":false},{"id":635,"adult":false},{"id":353722,"adult":false},{"id":373995,"adult":false},{"id":239318,"adult":false},{"id":60279,"adult":false},{"id":74681,"adult":false},{"id":77704,"adult":false},{"id":253343,"adult":false},{"id":37414,"adult":false},{"id":13243,"adult":false},{"id":30335,"adult":false},{"id":11355,"adult":false},{"id":44688,"adult":false},{"id":57210,"adult":false},{"id":373996,"adult":false},{"id":9487,"adult":false},{"id":15805,"adult":false},{"id":152790,"adult":false},{"id":373997,"adult":false},{"id":264170,"adult":false},{"id":124623,"adult":false},{"id":13851,"adult":false},{"id":12689,"adult":false},{"id":9812,"adult":false},{"id":334953,"adult":false},{"id":274626,"adult":false},{"id":9791,"adult":false},{"id":353069,"adult":false},{"id":95383,"adult":false},{"id":25713,"adult":false},{"id":3580,"adult":false},{"id":131635,"adult":false},{"id":309581,"adult":false},{"id":253406,"adult":false},{"id":44103,"adult":false},{"id":373998,"adult":false},{"id":139646,"adult":false},{"id":230206,"adult":false},{"id":228107,"adult":false},{"id":373999,"adult":false},{"id":298622,"adult":false},{"id":298618,"adult":false},{"id":37993,"adult":false},{"id":270710,"adult":false},{"id":127800,"adult":false},{"id":204784,"adult":false},{"id":323677,"adult":false},{"id":128079,"adult":false},{"id":374000,"adult":false},{"id":52724,"adult":false},{"id":63039,"adult":false},{"id":37080,"adult":false},{"id":13275,"adult":false},{"id":252512,"adult":false},{"id":38363,"adult":false},{"id":44351,"adult":false},{"id":19058,"adult":false},{"id":26475,"adult":false},{"id":3160,"adult":false},{"id":341747,"adult":false},{"id":4547,"adult":false},{"id":31939,"adult":false},{"id":2779,"adult":false},{"id":19200,"adult":false},{"id":60422,"adult":false},{"id":134472,"adult":false},{"id":9549,"adult":false},{"id":244260,"adult":false},{"id":121831,"adult":false},{"id":29080,"adult":false},{"id":206821,"adult":false},{"id":304362,"adult":false},{"id":1051,"adult":false},{"id":10998,"adult":false},{"id":845,"adult":false},{"id":22596,"adult":false},{"id":14412,"adult":false},{"id":201724,"adult":false},{"id":73536,"adult":false},{"id":94792,"adult":false},{"id":312167,"adult":false},{"id":8859,"adult":false},{"id":176241,"adult":false},{"id":374001,"adult":false},{"id":27022,"adult":false},{"id":249660,"adult":false},{"id":148888,"adult":false},{"id":16070,"adult":false},{"id":19918,"adult":false},{"id":147763,"adult":false}],"page":76,"total_pages":108,"total_results":10739}