{"results":[{"id":332001,"adult":false},{"id":332002,"adult":false},{"id":83666,"adult":false},{"id":332003,"adult":false},{"id":332004,"adult":false},{"id":332005,"adult":false},{"id":332006,"adult":false},{"id":332007,"adult":false},{"id":10167,"adult":false},{"id":288870,"adult":false},{"id":33935,"adult":false},{"id":332008,"adult":false},{"id":33933,"adult":false},{"id":47813,"adult":false},{"id":328269,"adult":null},{"id":332009,"adult":false},{"id":75186,"adult":false},{"id":332010,"adult":false},{"id":219575,"adult":false},{"id":37137,"adult":false},{"id":56855,"adult":false},{"id":332011,"adult":false},{"id":36593,"adult":false},{"id":14897,"adult":false},{"id":20713,"adult":false},{"id":329590,"adult":false},{"id":332012,"adult":false},{"id":258216,"adult":false},{"id":332013,"adult":false},{"id":332015,"adult":false},{"id":95565,"adult":false},{"id":24241,"adult":false},{"id":332016,"adult":false},{"id":195184,"adult":false},{"id":195165,"adult":false},{"id":11300,"adult":false},{"id":37136,"adult":false},{"id":42949,"adult":false},{"id":26505,"adult":false},{"id":332017,"adult":null},{"id":332018,"adult":false},{"id":117923,"adult":false},{"id":9982,"adult":false},{"id":156582,"adult":false},{"id":14384,"adult":false},{"id":36609,"adult":false},{"id":24548,"adult":false},{"id":158442,"adult":false},{"id":141102,"adult":false},{"id":156711,"adult":false},{"id":255647,"adult":false},{"id":2567,"adult":false},{"id":57419,"adult":false},{"id":271864,"adult":false},{"id":266807,"adult":false},{"id":325561,"adult":false},{"id":30860,"adult":false},{"id":28302,"adult":false},{"id":118417,"adult":false},{"id":30024,"adult":false},{"id":328291,"adult":false},{"id":180441,"adult":false},{"id":47088,"adult":false},{"id":12310,"adult":false},{"id":259652,"adult":false},{"id":119053,"adult":false},{"id":31516,"adult":false},{"id":34857,"adult":false},{"id":332019,"adult":false},{"id":1963,"adult":false},{"id":79777,"adult":false},{"id":256731,"adult":false},{"id":13127,"adult":false},{"id":332020,"adult":false},{"id":209436,"adult":false},{"id":15828,"adult":false},{"id":332021,"adult":false},{"id":290999,"adult":false},{"id":9398,"adult":false},{"id":32520,"adult":false},{"id":150232,"adult":false},{"id":313723,"adult":false},{"id":8780,"adult":false},{"id":267578,"adult":false},{"id":9362,"adult":false},{"id":21733,"adult":false},{"id":246080,"adult":false},{"id":18491,"adult":false},{"id":14373,"adult":false},{"id":24873,"adult":false},{"id":26263,"adult":false},{"id":332022,"adult":false},{"id":332023,"adult":false},{"id":332024,"adult":false},{"id":276906,"adult":false},{"id":332025,"adult":false},{"id":10263,"adult":false},{"id":188207,"adult":false},{"id":332026,"adult":false},{"id":295434,"adult":false}],"page":70,"total_pages":129,"total_results":12871}