{"results":[{"id":664,"adult":false},{"id":16337,"adult":false},{"id":45242,"adult":false},{"id":10225,"adult":false},{"id":123103,"adult":false},{"id":18476,"adult":false},{"id":49223,"adult":false},{"id":250399,"adult":false},{"id":10281,"adult":false},{"id":54116,"adult":false},{"id":13990,"adult":false},{"id":93511,"adult":false},{"id":13902,"adult":false},{"id":20016,"adult":false},{"id":320299,"adult":false},{"id":7180,"adult":false},{"id":101669,"adult":false},{"id":25151,"adult":false},{"id":323020,"adult":false},{"id":309425,"adult":false},{"id":274899,"adult":false},{"id":24163,"adult":false},{"id":7342,"adult":false},{"id":228165,"adult":false},{"id":10285,"adult":false},{"id":323021,"adult":false},{"id":14240,"adult":false},{"id":5894,"adult":false},{"id":66359,"adult":false},{"id":309302,"adult":false},{"id":49013,"adult":false},{"id":318615,"adult":false},{"id":107323,"adult":false},{"id":195589,"adult":false},{"id":920,"adult":false},{"id":31643,"adult":false},{"id":483,"adult":false},{"id":18823,"adult":false},{"id":230619,"adult":false},{"id":323022,"adult":null},{"id":322378,"adult":false},{"id":82533,"adult":false},{"id":78394,"adult":false},{"id":322357,"adult":false},{"id":6722,"adult":false},{"id":206647,"adult":false},{"id":205510,"adult":false},{"id":268297,"adult":false},{"id":323023,"adult":false},{"id":50113,"adult":false},{"id":323024,"adult":false},{"id":290764,"adult":false},{"id":320933,"adult":false},{"id":177667,"adult":false},{"id":48406,"adult":false},{"id":9833,"adult":false},{"id":241251,"adult":false},{"id":227719,"adult":false},{"id":241554,"adult":false},{"id":323025,"adult":false},{"id":11653,"adult":false},{"id":224979,"adult":false},{"id":323026,"adult":false},{"id":323027,"adult":false},{"id":323028,"adult":false},{"id":37627,"adult":false},{"id":322594,"adult":false},{"id":85327,"adult":false},{"id":31899,"adult":false},{"id":9887,"adult":false},{"id":323029,"adult":false},{"id":137216,"adult":false},{"id":84793,"adult":false},{"id":71697,"adult":false},{"id":231872,"adult":false},{"id":323030,"adult":false},{"id":183982,"adult":false},{"id":9731,"adult":false},{"id":25541,"adult":false},{"id":11816,"adult":false},{"id":274102,"adult":false},{"id":10283,"adult":false},{"id":44435,"adult":false},{"id":323031,"adult":false},{"id":31909,"adult":false},{"id":248005,"adult":false},{"id":315,"adult":false},{"id":156597,"adult":false},{"id":309362,"adult":false},{"id":2259,"adult":false},{"id":323032,"adult":false},{"id":122253,"adult":false},{"id":323033,"adult":false},{"id":242310,"adult":false},{"id":200570,"adult":false},{"id":10156,"adult":false},{"id":26529,"adult":false},{"id":253928,"adult":false},{"id":242582,"adult":false},{"id":281981,"adult":false}],"page":19,"total_pages":117,"total_results":11629}