{"results":[{"id":285358,"adult":false},{"id":242648,"adult":false},{"id":74659,"adult":false},{"id":336575,"adult":false},{"id":280927,"adult":false},{"id":172825,"adult":false},{"id":336576,"adult":false},{"id":199128,"adult":false},{"id":18031,"adult":false},{"id":336577,"adult":false},{"id":336578,"adult":false},{"id":289007,"adult":false},{"id":336579,"adult":false},{"id":4916,"adult":false},{"id":14670,"adult":false},{"id":46717,"adult":false},{"id":336580,"adult":false},{"id":332741,"adult":false},{"id":336581,"adult":false},{"id":330664,"adult":false},{"id":336582,"adult":false},{"id":330469,"adult":false},{"id":336583,"adult":false},{"id":336584,"adult":false},{"id":252913,"adult":false},{"id":326416,"adult":false},{"id":336585,"adult":false},{"id":10675,"adult":false},{"id":294741,"adult":false},{"id":84742,"adult":false},{"id":330206,"adult":false},{"id":10995,"adult":false},{"id":21148,"adult":false},{"id":336586,"adult":false},{"id":288281,"adult":false},{"id":336587,"adult":false},{"id":250480,"adult":false},{"id":203,"adult":false},{"id":120640,"adult":false},{"id":334320,"adult":null},{"id":336588,"adult":false},{"id":558,"adult":false},{"id":127748,"adult":false},{"id":336589,"adult":false},{"id":82618,"adult":false},{"id":313296,"adult":false},{"id":87186,"adult":false},{"id":30315,"adult":false},{"id":271674,"adult":false},{"id":264525,"adult":false},{"id":326168,"adult":null},{"id":254559,"adult":false},{"id":133458,"adult":false},{"id":297265,"adult":false},{"id":336590,"adult":false},{"id":325685,"adult":false},{"id":169917,"adult":false},{"id":242828,"adult":false},{"id":326771,"adult":null},{"id":1433,"adult":false},{"id":10722,"adult":false},{"id":179538,"adult":false},{"id":236737,"adult":false},{"id":3563,"adult":false},{"id":209415,"adult":false},{"id":159774,"adult":false},{"id":166089,"adult":false},{"id":321146,"adult":false},{"id":59117,"adult":false},{"id":254869,"adult":false},{"id":1285,"adult":false},{"id":1284,"adult":false},{"id":1283,"adult":false},{"id":336591,"adult":false},{"id":336592,"adult":false},{"id":10603,"adult":false},{"id":14170,"adult":false},{"id":334055,"adult":false},{"id":830,"adult":false},{"id":336593,"adult":false},{"id":24,"adult":false},{"id":149509,"adult":false},{"id":40123,"adult":false},{"id":107727,"adult":false},{"id":59332,"adult":false},{"id":160393,"adult":false},{"id":305396,"adult":false},{"id":149,"adult":false},{"id":37629,"adult":false},{"id":55374,"adult":false},{"id":300447,"adult":false},{"id":15080,"adult":false},{"id":11621,"adult":false},{"id":25079,"adult":false},{"id":40576,"adult":false},{"id":13754,"adult":false},{"id":239367,"adult":false},{"id":296286,"adult":false},{"id":41426,"adult":false},{"id":49192,"adult":true}],"page":38,"total_pages":102,"total_results":10168}