{"results":[{"id":273641,"adult":false},{"id":308741,"adult":false},{"id":268601,"adult":false},{"id":260787,"adult":false},{"id":317169,"adult":false},{"id":70928,"adult":false},{"id":794,"adult":false},{"id":9626,"adult":false},{"id":317170,"adult":false},{"id":11443,"adult":false},{"id":10396,"adult":false},{"id":249,"adult":false},{"id":74694,"adult":false},{"id":12227,"adult":false},{"id":192729,"adult":false},{"id":317171,"adult":false},{"id":174224,"adult":false},{"id":83899,"adult":false},{"id":317172,"adult":false},{"id":159621,"adult":false},{"id":12186,"adult":false},{"id":317173,"adult":false},{"id":37639,"adult":false},{"id":10768,"adult":false},{"id":317174,"adult":false},{"id":49945,"adult":false},{"id":13826,"adult":false},{"id":142751,"adult":false},{"id":22305,"adult":false},{"id":222523,"adult":false},{"id":317175,"adult":false},{"id":317176,"adult":false},{"id":80003,"adult":false},{"id":281979,"adult":false},{"id":317177,"adult":false},{"id":578,"adult":false},{"id":17133,"adult":false},{"id":14035,"adult":false},{"id":26363,"adult":false},{"id":317178,"adult":false},{"id":317179,"adult":false},{"id":317180,"adult":false},{"id":317181,"adult":false},{"id":11976,"adult":false},{"id":26364,"adult":false},{"id":317182,"adult":false},{"id":26361,"adult":false},{"id":833,"adult":false},{"id":21804,"adult":false},{"id":274431,"adult":false},{"id":19536,"adult":false},{"id":317184,"adult":false},{"id":144085,"adult":false},{"id":317185,"adult":null},{"id":88117,"adult":false},{"id":317186,"adult":false},{"id":27594,"adult":false},{"id":27189,"adult":false},{"id":10870,"adult":false},{"id":64963,"adult":false},{"id":206732,"adult":false},{"id":167440,"adult":false},{"id":18755,"adult":false},{"id":72387,"adult":false},{"id":317187,"adult":false},{"id":8584,"adult":false},{"id":317188,"adult":false},{"id":192145,"adult":false},{"id":317189,"adult":false},{"id":317190,"adult":false},{"id":2291,"adult":false},{"id":254746,"adult":false},{"id":227896,"adult":false},{"id":144273,"adult":false},{"id":317191,"adult":null},{"id":268891,"adult":false},{"id":204769,"adult":false},{"id":44035,"adult":false},{"id":227675,"adult":false},{"id":59776,"adult":false},{"id":214295,"adult":false},{"id":317192,"adult":false},{"id":39512,"adult":false},{"id":161293,"adult":false},{"id":120519,"adult":false},{"id":317193,"adult":false},{"id":9714,"adult":false},{"id":317194,"adult":null},{"id":254745,"adult":false},{"id":171809,"adult":false},{"id":152933,"adult":false},{"id":218944,"adult":false},{"id":38664,"adult":false},{"id":55378,"adult":false},{"id":317195,"adult":false},{"id":165115,"adult":false},{"id":73496,"adult":false},{"id":12536,"adult":false},{"id":190336,"adult":null},{"id":283638,"adult":false}],"page":95,"total_pages":115,"total_results":11442}