{"results":[{"id":328546,"adult":false},{"id":25610,"adult":false},{"id":328547,"adult":false},{"id":54054,"adult":false},{"id":328548,"adult":false},{"id":328549,"adult":false},{"id":328550,"adult":false},{"id":265424,"adult":false},{"id":324270,"adult":false},{"id":328551,"adult":false},{"id":65057,"adult":false},{"id":324274,"adult":false},{"id":328552,"adult":false},{"id":328553,"adult":false},{"id":70435,"adult":false},{"id":324279,"adult":false},{"id":328554,"adult":false},{"id":49517,"adult":false},{"id":328555,"adult":false},{"id":324292,"adult":false},{"id":328556,"adult":false},{"id":328557,"adult":false},{"id":324300,"adult":false},{"id":80201,"adult":false},{"id":328558,"adult":false},{"id":328559,"adult":false},{"id":5547,"adult":false},{"id":328560,"adult":false},{"id":328561,"adult":false},{"id":328562,"adult":false},{"id":180803,"adult":false},{"id":128270,"adult":false},{"id":1890,"adult":false},{"id":322163,"adult":false},{"id":196867,"adult":false},{"id":328563,"adult":false},{"id":328564,"adult":null},{"id":328565,"adult":false},{"id":297960,"adult":false},{"id":328566,"adult":false},{"id":328567,"adult":false},{"id":277679,"adult":false},{"id":295171,"adult":false},{"id":328568,"adult":false},{"id":8005,"adult":false},{"id":328569,"adult":false},{"id":328570,"adult":false},{"id":52207,"adult":false},{"id":328571,"adult":false},{"id":327809,"adult":false},{"id":312797,"adult":false},{"id":328572,"adult":false},{"id":129926,"adult":false},{"id":324150,"adult":false},{"id":312793,"adult":false},{"id":328573,"adult":false},{"id":328574,"adult":false},{"id":328575,"adult":false},{"id":328576,"adult":false},{"id":173891,"adult":false},{"id":285856,"adult":false},{"id":328577,"adult":false},{"id":328578,"adult":false},{"id":328579,"adult":false},{"id":51689,"adult":false},{"id":328580,"adult":false},{"id":30708,"adult":false},{"id":241136,"adult":false},{"id":114150,"adult":false},{"id":14452,"adult":false},{"id":270674,"adult":false},{"id":306031,"adult":false},{"id":190641,"adult":false},{"id":254470,"adult":false},{"id":57624,"adult":false},{"id":78018,"adult":false},{"id":328581,"adult":false},{"id":328582,"adult":false},{"id":346,"adult":false},{"id":328583,"adult":false},{"id":328584,"adult":false},{"id":290595,"adult":false},{"id":324314,"adult":false},{"id":115195,"adult":false},{"id":324307,"adult":false},{"id":312735,"adult":false},{"id":320591,"adult":false},{"id":324312,"adult":false},{"id":328585,"adult":false},{"id":196062,"adult":false},{"id":140420,"adult":false},{"id":320875,"adult":false},{"id":13042,"adult":false},{"id":320588,"adult":false},{"id":110420,"adult":false},{"id":210860,"adult":false},{"id":328586,"adult":false},{"id":320586,"adult":false},{"id":328587,"adult":false},{"id":324308,"adult":false}],"page":32,"total_pages":123,"total_results":12300}