{"results":[{"id":332706,"adult":false},{"id":83125,"adult":false},{"id":136835,"adult":false},{"id":56415,"adult":false},{"id":208551,"adult":false},{"id":332707,"adult":null},{"id":330,"adult":false},{"id":309302,"adult":false},{"id":332708,"adult":false},{"id":11452,"adult":false},{"id":332709,"adult":false},{"id":1911,"adult":false},{"id":332710,"adult":true},{"id":9728,"adult":false},{"id":332711,"adult":false},{"id":86829,"adult":false},{"id":182812,"adult":false},{"id":10064,"adult":false},{"id":332712,"adult":false},{"id":175710,"adult":false},{"id":332713,"adult":true},{"id":332714,"adult":false},{"id":332716,"adult":false},{"id":332717,"adult":false},{"id":298663,"adult":false},{"id":332718,"adult":false},{"id":316347,"adult":false},{"id":262958,"adult":false},{"id":282171,"adult":false},{"id":283533,"adult":false},{"id":282311,"adult":false},{"id":332719,"adult":false},{"id":332720,"adult":false},{"id":282332,"adult":false},{"id":282336,"adult":false},{"id":84305,"adult":false},{"id":15244,"adult":false},{"id":269539,"adult":false},{"id":258289,"adult":false},{"id":282205,"adult":false},{"id":282335,"adult":false},{"id":48196,"adult":false},{"id":264801,"adult":false},{"id":265491,"adult":false},{"id":282341,"adult":false},{"id":332721,"adult":false},{"id":282740,"adult":false},{"id":262884,"adult":false},{"id":189805,"adult":false},{"id":270131,"adult":false},{"id":315060,"adult":false},{"id":290440,"adult":false},{"id":332722,"adult":false},{"id":279818,"adult":false},{"id":276515,"adult":false},{"id":317950,"adult":false},{"id":175555,"adult":false},{"id":332723,"adult":false},{"id":297260,"adult":false},{"id":332724,"adult":false},{"id":246561,"adult":false},{"id":140470,"adult":false},{"id":246903,"adult":false},{"id":188669,"adult":false},{"id":104215,"adult":false},{"id":328897,"adult":false},{"id":276508,"adult":false},{"id":245576,"adult":false},{"id":332725,"adult":false},{"id":82179,"adult":false},{"id":60562,"adult":false},{"id":264757,"adult":false},{"id":138843,"adult":false},{"id":38715,"adult":false},{"id":266394,"adult":false},{"id":332726,"adult":false},{"id":266257,"adult":false},{"id":162955,"adult":false},{"id":285967,"adult":false},{"id":285983,"adult":false},{"id":288712,"adult":false},{"id":262508,"adult":false},{"id":175723,"adult":false},{"id":231756,"adult":false},{"id":271155,"adult":false},{"id":182020,"adult":false},{"id":279045,"adult":false},{"id":57320,"adult":false},{"id":114063,"adult":false},{"id":119364,"adult":false},{"id":332727,"adult":false},{"id":332728,"adult":false},{"id":332729,"adult":false},{"id":283481,"adult":false},{"id":314162,"adult":false},{"id":221393,"adult":false},{"id":291803,"adult":false},{"id":291926,"adult":false},{"id":291981,"adult":false},{"id":206247,"adult":false}],"page":112,"total_pages":129,"total_results":12871}