{"results":[{"id":287415,"adult":false},{"id":113479,"adult":false},{"id":10691,"adult":false},{"id":620,"adult":false},{"id":328031,"adult":false},{"id":328032,"adult":false},{"id":33001,"adult":false},{"id":254706,"adult":false},{"id":328033,"adult":false},{"id":676,"adult":false},{"id":44967,"adult":false},{"id":328034,"adult":false},{"id":312668,"adult":false},{"id":328035,"adult":false},{"id":52520,"adult":false},{"id":118731,"adult":false},{"id":2326,"adult":false},{"id":834,"adult":false},{"id":43878,"adult":false},{"id":277,"adult":false},{"id":328036,"adult":false},{"id":26389,"adult":false},{"id":47542,"adult":false},{"id":10992,"adult":false},{"id":103012,"adult":false},{"id":195589,"adult":false},{"id":256961,"adult":false},{"id":74915,"adult":false},{"id":328037,"adult":false},{"id":328038,"adult":false},{"id":61774,"adult":false},{"id":61775,"adult":false},{"id":61780,"adult":false},{"id":33214,"adult":false},{"id":61782,"adult":false},{"id":61784,"adult":false},{"id":328039,"adult":false},{"id":61779,"adult":false},{"id":61778,"adult":false},{"id":61781,"adult":false},{"id":61776,"adult":false},{"id":61785,"adult":false},{"id":61786,"adult":false},{"id":146154,"adult":false},{"id":328040,"adult":false},{"id":171413,"adult":false},{"id":211885,"adult":false},{"id":239367,"adult":false},{"id":261412,"adult":false},{"id":218031,"adult":false},{"id":227339,"adult":false},{"id":233198,"adult":false},{"id":237863,"adult":false},{"id":135598,"adult":false},{"id":104706,"adult":false},{"id":316773,"adult":false},{"id":50759,"adult":false},{"id":80649,"adult":false},{"id":328041,"adult":false},{"id":11519,"adult":false},{"id":9691,"adult":false},{"id":7840,"adult":false},{"id":283726,"adult":false},{"id":261413,"adult":false},{"id":11837,"adult":false},{"id":328042,"adult":false},{"id":8872,"adult":false},{"id":278323,"adult":false},{"id":107272,"adult":false},{"id":11287,"adult":false},{"id":261415,"adult":false},{"id":328043,"adult":false},{"id":118608,"adult":false},{"id":87502,"adult":false},{"id":328044,"adult":false},{"id":327835,"adult":false},{"id":261416,"adult":false},{"id":223954,"adult":false},{"id":261418,"adult":false},{"id":4781,"adult":false},{"id":113012,"adult":false},{"id":261419,"adult":false},{"id":23019,"adult":false},{"id":109445,"adult":false},{"id":263270,"adult":false},{"id":264538,"adult":false},{"id":315843,"adult":false},{"id":253582,"adult":false},{"id":313238,"adult":false},{"id":137375,"adult":false},{"id":204092,"adult":false},{"id":61810,"adult":false},{"id":328045,"adult":null},{"id":261420,"adult":false},{"id":166883,"adult":false},{"id":94104,"adult":false},{"id":775,"adult":false},{"id":7191,"adult":false},{"id":328046,"adult":false},{"id":60468,"adult":false}],"page":6,"total_pages":123,"total_results":12300}