{"results":[{"id":67634,"adult":false},{"id":48590,"adult":false},{"id":332481,"adult":false},{"id":35232,"adult":false},{"id":78110,"adult":false},{"id":332482,"adult":false},{"id":271621,"adult":false},{"id":325080,"adult":false},{"id":227419,"adult":false},{"id":286593,"adult":false},{"id":31989,"adult":false},{"id":15152,"adult":false},{"id":267254,"adult":false},{"id":50819,"adult":false},{"id":230562,"adult":false},{"id":321954,"adult":false},{"id":302848,"adult":false},{"id":131742,"adult":false},{"id":217424,"adult":false},{"id":281775,"adult":false},{"id":322140,"adult":null},{"id":322144,"adult":false},{"id":289623,"adult":false},{"id":64033,"adult":false},{"id":64063,"adult":false},{"id":271905,"adult":false},{"id":11058,"adult":false},{"id":188905,"adult":false},{"id":17780,"adult":false},{"id":83970,"adult":false},{"id":49676,"adult":false},{"id":10256,"adult":false},{"id":40389,"adult":false},{"id":29004,"adult":false},{"id":303964,"adult":false},{"id":5204,"adult":false},{"id":40360,"adult":false},{"id":82631,"adult":false},{"id":332483,"adult":false},{"id":101284,"adult":false},{"id":332484,"adult":false},{"id":295721,"adult":false},{"id":19157,"adult":false},{"id":118065,"adult":false},{"id":25128,"adult":false},{"id":67630,"adult":false},{"id":323335,"adult":false},{"id":103502,"adult":false},{"id":80714,"adult":false},{"id":89326,"adult":false},{"id":263248,"adult":false},{"id":159824,"adult":false},{"id":18919,"adult":false},{"id":141267,"adult":false},{"id":133879,"adult":false},{"id":158360,"adult":false},{"id":124695,"adult":false},{"id":260408,"adult":false},{"id":68204,"adult":false},{"id":259704,"adult":false},{"id":332485,"adult":false},{"id":51804,"adult":false},{"id":223180,"adult":false},{"id":147220,"adult":false},{"id":111849,"adult":false},{"id":43664,"adult":false},{"id":212435,"adult":false},{"id":159077,"adult":false},{"id":76550,"adult":false},{"id":127848,"adult":false},{"id":30019,"adult":false},{"id":87368,"adult":false},{"id":214162,"adult":false},{"id":245802,"adult":false},{"id":56272,"adult":false},{"id":39376,"adult":false},{"id":324545,"adult":false},{"id":212508,"adult":false},{"id":284897,"adult":false},{"id":200697,"adult":false},{"id":49791,"adult":false},{"id":79239,"adult":false},{"id":58747,"adult":false},{"id":36243,"adult":false},{"id":77701,"adult":false},{"id":332487,"adult":false},{"id":163675,"adult":false},{"id":35081,"adult":false},{"id":116337,"adult":false},{"id":26837,"adult":false},{"id":259196,"adult":false},{"id":308704,"adult":false},{"id":294,"adult":false},{"id":22509,"adult":false},{"id":141438,"adult":false},{"id":219645,"adult":false},{"id":128578,"adult":false},{"id":39464,"adult":false},{"id":20224,"adult":false},{"id":49429,"adult":false}],"page":91,"total_pages":129,"total_results":12871}