{"results":[{"id":341682,"adult":false},{"id":85581,"adult":false},{"id":286082,"adult":false},{"id":341683,"adult":false},{"id":284401,"adult":false},{"id":341684,"adult":false},{"id":277825,"adult":false},{"id":241004,"adult":false},{"id":104986,"adult":false},{"id":317384,"adult":false},{"id":8588,"adult":false},{"id":75702,"adult":false},{"id":341685,"adult":false},{"id":247230,"adult":false},{"id":15143,"adult":false},{"id":6478,"adult":false},{"id":341686,"adult":false},{"id":133873,"adult":false},{"id":2135,"adult":false},{"id":14291,"adult":false},{"id":193612,"adult":false},{"id":9481,"adult":false},{"id":280134,"adult":false},{"id":341687,"adult":false},{"id":108442,"adult":false},{"id":341688,"adult":false},{"id":14859,"adult":false},{"id":2539,"adult":false},{"id":8851,"adult":false},{"id":89831,"adult":false},{"id":32255,"adult":false},{"id":341689,"adult":false},{"id":70,"adult":false},{"id":7457,"adult":false},{"id":249287,"adult":false},{"id":174334,"adult":false},{"id":250538,"adult":false},{"id":18030,"adult":false},{"id":272408,"adult":false},{"id":17422,"adult":false},{"id":11618,"adult":false},{"id":17704,"adult":false},{"id":9325,"adult":false},{"id":276615,"adult":false},{"id":341693,"adult":false},{"id":311056,"adult":false},{"id":71120,"adult":false},{"id":49047,"adult":false},{"id":121820,"adult":false},{"id":85827,"adult":false},{"id":341694,"adult":false},{"id":341695,"adult":false},{"id":12233,"adult":false},{"id":341696,"adult":false},{"id":75862,"adult":false},{"id":341697,"adult":false},{"id":281774,"adult":null},{"id":341699,"adult":false},{"id":31834,"adult":false},{"id":144340,"adult":false},{"id":341700,"adult":false},{"id":935,"adult":false},{"id":107846,"adult":false},{"id":30432,"adult":false},{"id":160588,"adult":false},{"id":341701,"adult":false},{"id":138843,"adult":false},{"id":13493,"adult":false},{"id":296472,"adult":false},{"id":287324,"adult":false},{"id":341702,"adult":false},{"id":18619,"adult":false},{"id":8973,"adult":false},{"id":10297,"adult":false},{"id":174727,"adult":false},{"id":138103,"adult":false},{"id":339931,"adult":false},{"id":341703,"adult":false},{"id":36047,"adult":false},{"id":9540,"adult":false},{"id":27578,"adult":false},{"id":67155,"adult":false},{"id":203089,"adult":false},{"id":11068,"adult":false},{"id":2668,"adult":false},{"id":112205,"adult":false},{"id":15549,"adult":false},{"id":31046,"adult":false},{"id":66868,"adult":false},{"id":280923,"adult":false},{"id":109418,"adult":false},{"id":19762,"adult":false},{"id":206606,"adult":false},{"id":341704,"adult":false},{"id":341705,"adult":false},{"id":331622,"adult":false},{"id":341706,"adult":false},{"id":320767,"adult":false},{"id":66276,"adult":false},{"id":327769,"adult":false}],"page":78,"total_pages":103,"total_results":10276}