{"results":[{"id":322286,"adult":false},{"id":83868,"adult":false},{"id":342329,"adult":false},{"id":26592,"adult":false},{"id":83154,"adult":false},{"id":370802,"adult":false},{"id":370803,"adult":false},{"id":188463,"adult":false},{"id":370804,"adult":false},{"id":370805,"adult":false},{"id":74469,"adult":false},{"id":38220,"adult":false},{"id":370806,"adult":false},{"id":370807,"adult":false},{"id":63469,"adult":false},{"id":370391,"adult":false},{"id":155577,"adult":false},{"id":370808,"adult":false},{"id":91314,"adult":false},{"id":370809,"adult":false},{"id":370810,"adult":false},{"id":370811,"adult":false},{"id":370812,"adult":false},{"id":370813,"adult":false},{"id":320039,"adult":false},{"id":2080,"adult":false},{"id":370814,"adult":false},{"id":9902,"adult":false},{"id":327413,"adult":false},{"id":221080,"adult":false},{"id":370815,"adult":null},{"id":370816,"adult":false},{"id":11524,"adult":false},{"id":17112,"adult":false},{"id":294359,"adult":false},{"id":5923,"adult":false},{"id":370817,"adult":false},{"id":26356,"adult":false},{"id":211672,"adult":false},{"id":38724,"adult":false},{"id":43799,"adult":false},{"id":17691,"adult":false},{"id":9739,"adult":false},{"id":11939,"adult":false},{"id":369052,"adult":false},{"id":13911,"adult":false},{"id":237200,"adult":false},{"id":125067,"adult":false},{"id":113076,"adult":false},{"id":329909,"adult":false},{"id":2058,"adult":false},{"id":370818,"adult":false},{"id":11020,"adult":false},{"id":74660,"adult":false},{"id":370819,"adult":false},{"id":254128,"adult":false},{"id":294254,"adult":false},{"id":363152,"adult":false},{"id":86371,"adult":false},{"id":205775,"adult":false},{"id":370820,"adult":false},{"id":280548,"adult":false},{"id":253533,"adult":false},{"id":332608,"adult":false},{"id":18658,"adult":false},{"id":370821,"adult":false},{"id":307344,"adult":false},{"id":370822,"adult":false},{"id":38093,"adult":false},{"id":353533,"adult":false},{"id":46570,"adult":false},{"id":39993,"adult":false},{"id":307053,"adult":false},{"id":370823,"adult":false},{"id":370824,"adult":false},{"id":309924,"adult":false},{"id":11384,"adult":false},{"id":53155,"adult":false},{"id":209956,"adult":false},{"id":124881,"adult":false},{"id":370825,"adult":false},{"id":326277,"adult":false},{"id":306926,"adult":false},{"id":328,"adult":false},{"id":370826,"adult":false},{"id":94050,"adult":false},{"id":370827,"adult":null},{"id":370828,"adult":false},{"id":285185,"adult":null},{"id":370829,"adult":false},{"id":370830,"adult":false},{"id":254172,"adult":false},{"id":366832,"adult":false},{"id":210219,"adult":false},{"id":123295,"adult":false},{"id":370831,"adult":false},{"id":236947,"adult":false},{"id":48465,"adult":false},{"id":274167,"adult":false},{"id":370832,"adult":null}],"page":10,"total_pages":97,"total_results":9613}