{"results":[{"id":93220,"adult":false},{"id":257245,"adult":false},{"id":210303,"adult":false},{"id":354704,"adult":false},{"id":354705,"adult":false},{"id":13542,"adult":false},{"id":135509,"adult":false},{"id":127260,"adult":false},{"id":9462,"adult":false},{"id":296673,"adult":false},{"id":237791,"adult":false},{"id":192102,"adult":false},{"id":19194,"adult":false},{"id":50359,"adult":false},{"id":9475,"adult":false},{"id":2357,"adult":false},{"id":354706,"adult":false},{"id":16148,"adult":false},{"id":283330,"adult":false},{"id":146229,"adult":false},{"id":2395,"adult":false},{"id":20072,"adult":false},{"id":28499,"adult":false},{"id":245775,"adult":false},{"id":228380,"adult":false},{"id":1666,"adult":false},{"id":354707,"adult":false},{"id":348562,"adult":false},{"id":354708,"adult":false},{"id":343297,"adult":false},{"id":11119,"adult":false},{"id":315509,"adult":false},{"id":11365,"adult":false},{"id":8005,"adult":false},{"id":253012,"adult":false},{"id":341099,"adult":false},{"id":28605,"adult":false},{"id":24729,"adult":false},{"id":330728,"adult":false},{"id":11529,"adult":false},{"id":106438,"adult":false},{"id":24940,"adult":false},{"id":29963,"adult":false},{"id":4587,"adult":false},{"id":346830,"adult":false},{"id":9842,"adult":false},{"id":33564,"adult":false},{"id":41317,"adult":false},{"id":335109,"adult":false},{"id":91746,"adult":false},{"id":86055,"adult":false},{"id":495,"adult":false},{"id":207447,"adult":false},{"id":3101,"adult":false},{"id":35705,"adult":false},{"id":354709,"adult":false},{"id":13283,"adult":false},{"id":55107,"adult":false},{"id":244458,"adult":false},{"id":27098,"adult":false},{"id":354710,"adult":false},{"id":270143,"adult":false},{"id":258008,"adult":false},{"id":35113,"adult":false},{"id":340968,"adult":false},{"id":199556,"adult":false},{"id":9573,"adult":false},{"id":338020,"adult":false},{"id":42229,"adult":false},{"id":327383,"adult":false},{"id":3545,"adult":false},{"id":278,"adult":false},{"id":353063,"adult":false},{"id":148112,"adult":false},{"id":250225,"adult":false},{"id":354711,"adult":false},{"id":83235,"adult":false},{"id":345465,"adult":false},{"id":274,"adult":false},{"id":134204,"adult":false},{"id":226672,"adult":false},{"id":256673,"adult":false},{"id":270403,"adult":false},{"id":271234,"adult":false},{"id":32590,"adult":false},{"id":354712,"adult":false},{"id":354713,"adult":false},{"id":151193,"adult":false},{"id":4034,"adult":false},{"id":325516,"adult":false},{"id":124950,"adult":false},{"id":211958,"adult":false},{"id":104186,"adult":false},{"id":12539,"adult":false},{"id":9260,"adult":false},{"id":260522,"adult":false},{"id":354714,"adult":false},{"id":137106,"adult":false},{"id":2832,"adult":false},{"id":28745,"adult":false}],"page":6,"total_pages":100,"total_results":9908}