{"results":[{"id":120017,"adult":false},{"id":340750,"adult":false},{"id":141124,"adult":false},{"id":143452,"adult":false},{"id":171796,"adult":false},{"id":176635,"adult":false},{"id":182240,"adult":false},{"id":10830,"adult":false},{"id":276458,"adult":false},{"id":346326,"adult":false},{"id":145967,"adult":false},{"id":196500,"adult":false},{"id":191018,"adult":false},{"id":64658,"adult":false},{"id":346327,"adult":false},{"id":346328,"adult":false},{"id":346329,"adult":false},{"id":15766,"adult":false},{"id":286573,"adult":false},{"id":346330,"adult":false},{"id":109962,"adult":false},{"id":335360,"adult":false},{"id":27445,"adult":false},{"id":335977,"adult":false},{"id":43226,"adult":false},{"id":346331,"adult":false},{"id":182499,"adult":false},{"id":86216,"adult":false},{"id":26930,"adult":false},{"id":346332,"adult":false},{"id":346333,"adult":false},{"id":115831,"adult":false},{"id":196385,"adult":false},{"id":75595,"adult":false},{"id":346334,"adult":true},{"id":248131,"adult":null},{"id":344399,"adult":null},{"id":346335,"adult":false},{"id":346336,"adult":true},{"id":200511,"adult":false},{"id":253626,"adult":false},{"id":346337,"adult":false},{"id":170563,"adult":false},{"id":346338,"adult":false},{"id":346339,"adult":false},{"id":224972,"adult":false},{"id":209403,"adult":false},{"id":346340,"adult":false},{"id":322745,"adult":false},{"id":264678,"adult":false},{"id":346341,"adult":true},{"id":160,"adult":false},{"id":120027,"adult":false},{"id":132041,"adult":false},{"id":340400,"adult":null},{"id":183938,"adult":false},{"id":252671,"adult":false},{"id":136137,"adult":false},{"id":346342,"adult":false},{"id":346345,"adult":true},{"id":218615,"adult":false},{"id":138022,"adult":false},{"id":319837,"adult":null},{"id":319311,"adult":false},{"id":115392,"adult":false},{"id":181745,"adult":false},{"id":298292,"adult":false},{"id":315300,"adult":false},{"id":293214,"adult":false},{"id":346346,"adult":false},{"id":294381,"adult":false},{"id":291523,"adult":false},{"id":295924,"adult":false},{"id":295915,"adult":false},{"id":295925,"adult":false},{"id":297506,"adult":false},{"id":298284,"adult":false},{"id":289076,"adult":false},{"id":121707,"adult":false},{"id":15865,"adult":false},{"id":257620,"adult":false},{"id":328304,"adult":false},{"id":48393,"adult":false},{"id":48502,"adult":false},{"id":66538,"adult":false},{"id":49983,"adult":false},{"id":346347,"adult":false},{"id":178284,"adult":false},{"id":7229,"adult":false},{"id":101984,"adult":false},{"id":67403,"adult":false},{"id":291155,"adult":false},{"id":259530,"adult":false},{"id":190518,"adult":false},{"id":245062,"adult":false},{"id":346348,"adult":false},{"id":152048,"adult":false},{"id":39833,"adult":false},{"id":340705,"adult":null},{"id":74871,"adult":false}],"page":106,"total_pages":111,"total_results":11023}