{"results":[{"id":134374,"adult":false},{"id":8054,"adult":false},{"id":124711,"adult":false},{"id":7552,"adult":false},{"id":252114,"adult":false},{"id":326740,"adult":false},{"id":241061,"adult":false},{"id":122868,"adult":false},{"id":53018,"adult":false},{"id":326741,"adult":false},{"id":9620,"adult":false},{"id":2926,"adult":false},{"id":152259,"adult":false},{"id":10320,"adult":false},{"id":326742,"adult":false},{"id":251555,"adult":false},{"id":248301,"adult":false},{"id":218968,"adult":false},{"id":22436,"adult":false},{"id":326743,"adult":false},{"id":78698,"adult":false},{"id":326744,"adult":false},{"id":39254,"adult":false},{"id":281298,"adult":false},{"id":114696,"adult":false},{"id":326745,"adult":false},{"id":326746,"adult":false},{"id":46840,"adult":false},{"id":9286,"adult":false},{"id":326747,"adult":false},{"id":10282,"adult":false},{"id":9583,"adult":false},{"id":326748,"adult":false},{"id":87428,"adult":false},{"id":290865,"adult":false},{"id":87101,"adult":false},{"id":12117,"adult":false},{"id":267758,"adult":false},{"id":149932,"adult":false},{"id":62177,"adult":false},{"id":13386,"adult":false},{"id":326749,"adult":false},{"id":85836,"adult":false},{"id":28165,"adult":false},{"id":73168,"adult":false},{"id":11005,"adult":false},{"id":209357,"adult":false},{"id":326750,"adult":false},{"id":13809,"adult":false},{"id":11584,"adult":false},{"id":262100,"adult":false},{"id":111473,"adult":false},{"id":326751,"adult":false},{"id":3638,"adult":false},{"id":326752,"adult":false},{"id":55398,"adult":false},{"id":307686,"adult":false},{"id":142645,"adult":false},{"id":326753,"adult":false},{"id":326754,"adult":false},{"id":38317,"adult":false},{"id":30593,"adult":false},{"id":326755,"adult":false},{"id":55246,"adult":false},{"id":11135,"adult":false},{"id":326756,"adult":false},{"id":273752,"adult":false},{"id":12240,"adult":false},{"id":275985,"adult":false},{"id":68737,"adult":false},{"id":250658,"adult":false},{"id":18809,"adult":false},{"id":34598,"adult":false},{"id":326757,"adult":false},{"id":27881,"adult":false},{"id":17173,"adult":false},{"id":326758,"adult":false},{"id":9732,"adult":false},{"id":9671,"adult":false},{"id":81587,"adult":false},{"id":86754,"adult":false},{"id":140870,"adult":false},{"id":326759,"adult":false},{"id":12088,"adult":false},{"id":326760,"adult":false},{"id":326761,"adult":false},{"id":13907,"adult":false},{"id":10756,"adult":false},{"id":10687,"adult":false},{"id":90191,"adult":false},{"id":31541,"adult":false},{"id":202456,"adult":false},{"id":11884,"adult":false},{"id":11601,"adult":false},{"id":243704,"adult":false},{"id":51739,"adult":false},{"id":27141,"adult":false},{"id":326762,"adult":false},{"id":11622,"adult":false},{"id":275521,"adult":false}],"page":60,"total_pages":112,"total_results":11193}