{"results":[{"id":11660,"adult":false},{"id":360450,"adult":false},{"id":8692,"adult":false},{"id":360451,"adult":false},{"id":360452,"adult":false},{"id":246792,"adult":false},{"id":360453,"adult":false},{"id":19898,"adult":false},{"id":360454,"adult":false},{"id":360455,"adult":false},{"id":8272,"adult":false},{"id":2083,"adult":false},{"id":11964,"adult":false},{"id":36570,"adult":false},{"id":360456,"adult":false},{"id":360457,"adult":false},{"id":360458,"adult":false},{"id":280395,"adult":false},{"id":360459,"adult":false},{"id":360460,"adult":false},{"id":360461,"adult":false},{"id":17700,"adult":false},{"id":10479,"adult":false},{"id":360462,"adult":false},{"id":360463,"adult":false},{"id":360464,"adult":false},{"id":360465,"adult":false},{"id":360466,"adult":false},{"id":265686,"adult":false},{"id":360467,"adult":false},{"id":360468,"adult":false},{"id":95,"adult":false},{"id":33603,"adult":false},{"id":360469,"adult":false},{"id":241829,"adult":false},{"id":297603,"adult":false},{"id":360470,"adult":false},{"id":39468,"adult":false},{"id":360471,"adult":false},{"id":39469,"adult":false},{"id":36243,"adult":false},{"id":10643,"adult":false},{"id":324443,"adult":false},{"id":18209,"adult":false},{"id":5122,"adult":false},{"id":360472,"adult":false},{"id":360473,"adult":false},{"id":360474,"adult":false},{"id":360475,"adult":false},{"id":360476,"adult":false},{"id":360477,"adult":false},{"id":360478,"adult":false},{"id":360479,"adult":false},{"id":360480,"adult":false},{"id":360481,"adult":false},{"id":360482,"adult":false},{"id":360483,"adult":false},{"id":360484,"adult":false},{"id":348560,"adult":false},{"id":285724,"adult":false},{"id":360485,"adult":false},{"id":360486,"adult":false},{"id":360487,"adult":false},{"id":360488,"adult":false},{"id":360489,"adult":false},{"id":121506,"adult":false},{"id":360490,"adult":false},{"id":4032,"adult":false},{"id":27179,"adult":false},{"id":360491,"adult":false},{"id":48217,"adult":false},{"id":359265,"adult":false},{"id":35068,"adult":false},{"id":360492,"adult":false},{"id":128444,"adult":false},{"id":360493,"adult":false},{"id":260003,"adult":false},{"id":360494,"adult":false},{"id":331359,"adult":false},{"id":15119,"adult":false},{"id":68864,"adult":false},{"id":306838,"adult":false},{"id":360495,"adult":false},{"id":85257,"adult":false},{"id":348146,"adult":false},{"id":241758,"adult":false},{"id":11317,"adult":false},{"id":326193,"adult":false},{"id":342584,"adult":false},{"id":345065,"adult":null},{"id":284120,"adult":false},{"id":344074,"adult":false},{"id":36586,"adult":false},{"id":214,"adult":false},{"id":43947,"adult":false},{"id":13005,"adult":false},{"id":121945,"adult":false},{"id":13003,"adult":false},{"id":360496,"adult":false},{"id":360497,"adult":false}],"page":36,"total_pages":98,"total_results":9775}