{"results":[{"id":11023,"adult":false},{"id":137678,"adult":false},{"id":179858,"adult":false},{"id":9061,"adult":false},{"id":173576,"adult":false},{"id":46707,"adult":false},{"id":55836,"adult":false},{"id":336496,"adult":false},{"id":98,"adult":false},{"id":13683,"adult":false},{"id":49932,"adult":false},{"id":37235,"adult":false},{"id":301943,"adult":false},{"id":116975,"adult":false},{"id":35114,"adult":false},{"id":328763,"adult":false},{"id":201859,"adult":false},{"id":118245,"adult":false},{"id":177335,"adult":false},{"id":204784,"adult":false},{"id":2348,"adult":false},{"id":11507,"adult":false},{"id":10081,"adult":false},{"id":70738,"adult":false},{"id":336497,"adult":false},{"id":29355,"adult":false},{"id":284810,"adult":null},{"id":96406,"adult":false},{"id":336498,"adult":false},{"id":10354,"adult":false},{"id":247158,"adult":false},{"id":45311,"adult":false},{"id":253272,"adult":false},{"id":336499,"adult":false},{"id":59966,"adult":false},{"id":230072,"adult":false},{"id":336500,"adult":false},{"id":270543,"adult":false},{"id":241428,"adult":false},{"id":26346,"adult":false},{"id":336501,"adult":false},{"id":267349,"adult":false},{"id":43680,"adult":false},{"id":65104,"adult":false},{"id":16170,"adult":false},{"id":24351,"adult":false},{"id":336502,"adult":false},{"id":18248,"adult":false},{"id":336503,"adult":false},{"id":10167,"adult":false},{"id":14180,"adult":false},{"id":336504,"adult":false},{"id":13363,"adult":false},{"id":246400,"adult":false},{"id":4816,"adult":false},{"id":102,"adult":false},{"id":227783,"adult":false},{"id":336505,"adult":false},{"id":255348,"adult":null},{"id":336506,"adult":false},{"id":11646,"adult":false},{"id":262869,"adult":false},{"id":218863,"adult":false},{"id":31175,"adult":false},{"id":35939,"adult":false},{"id":268219,"adult":false},{"id":103181,"adult":false},{"id":11952,"adult":false},{"id":11628,"adult":false},{"id":407,"adult":false},{"id":336507,"adult":false},{"id":10621,"adult":false},{"id":272663,"adult":false},{"id":244268,"adult":false},{"id":61711,"adult":false},{"id":164205,"adult":false},{"id":259958,"adult":false},{"id":8985,"adult":false},{"id":336508,"adult":false},{"id":144792,"adult":false},{"id":14105,"adult":false},{"id":130748,"adult":false},{"id":95385,"adult":false},{"id":69778,"adult":false},{"id":9636,"adult":false},{"id":9435,"adult":false},{"id":134758,"adult":false},{"id":42757,"adult":false},{"id":336509,"adult":false},{"id":153764,"adult":false},{"id":285199,"adult":true},{"id":197696,"adult":false},{"id":326755,"adult":false},{"id":240638,"adult":false},{"id":111155,"adult":false},{"id":45401,"adult":false},{"id":165149,"adult":false},{"id":115529,"adult":false},{"id":291202,"adult":false},{"id":202579,"adult":false}],"page":33,"total_pages":102,"total_results":10168}