{"results":[{"id":372355,"adult":false},{"id":314490,"adult":false},{"id":164183,"adult":false},{"id":161,"adult":false},{"id":309487,"adult":null},{"id":52429,"adult":false},{"id":61959,"adult":false},{"id":147632,"adult":false},{"id":372356,"adult":false},{"id":304357,"adult":false},{"id":209182,"adult":false},{"id":372357,"adult":false},{"id":372358,"adult":false},{"id":372359,"adult":false},{"id":372360,"adult":false},{"id":7552,"adult":false},{"id":372361,"adult":false},{"id":372362,"adult":false},{"id":372363,"adult":false},{"id":372364,"adult":false},{"id":372365,"adult":false},{"id":372366,"adult":false},{"id":372367,"adult":false},{"id":372368,"adult":false},{"id":336811,"adult":false},{"id":372369,"adult":false},{"id":56415,"adult":false},{"id":274094,"adult":false},{"id":180051,"adult":null},{"id":282672,"adult":false},{"id":219061,"adult":false},{"id":290416,"adult":false},{"id":8195,"adult":false},{"id":372370,"adult":false},{"id":13198,"adult":false},{"id":372371,"adult":false},{"id":112658,"adult":false},{"id":319337,"adult":false},{"id":366365,"adult":null},{"id":372372,"adult":false},{"id":372373,"adult":false},{"id":372374,"adult":false},{"id":372375,"adult":false},{"id":372376,"adult":true},{"id":346780,"adult":false},{"id":12193,"adult":false},{"id":2574,"adult":false},{"id":142208,"adult":false},{"id":372377,"adult":false},{"id":13853,"adult":false},{"id":365187,"adult":false},{"id":51617,"adult":false},{"id":372378,"adult":false},{"id":372379,"adult":false},{"id":84378,"adult":false},{"id":372380,"adult":false},{"id":114891,"adult":false},{"id":12715,"adult":false},{"id":372381,"adult":false},{"id":372382,"adult":false},{"id":137468,"adult":false},{"id":334386,"adult":false},{"id":63662,"adult":false},{"id":149592,"adult":false},{"id":188161,"adult":false},{"id":349727,"adult":false},{"id":8916,"adult":false},{"id":10623,"adult":false},{"id":372383,"adult":false},{"id":13690,"adult":false},{"id":541,"adult":false},{"id":10375,"adult":false},{"id":290556,"adult":false},{"id":9480,"adult":false},{"id":344854,"adult":false},{"id":359255,"adult":false},{"id":372384,"adult":false},{"id":341035,"adult":false},{"id":9556,"adult":false},{"id":50025,"adult":false},{"id":341886,"adult":false},{"id":11001,"adult":false},{"id":2119,"adult":false},{"id":9702,"adult":false},{"id":1991,"adult":false},{"id":247182,"adult":false},{"id":7551,"adult":false},{"id":5473,"adult":false},{"id":8999,"adult":false},{"id":4728,"adult":false},{"id":11915,"adult":false},{"id":19823,"adult":false},{"id":11913,"adult":false},{"id":4729,"adult":false},{"id":10516,"adult":false},{"id":372385,"adult":false},{"id":68,"adult":false},{"id":8814,"adult":false},{"id":28032,"adult":false},{"id":6171,"adult":false}],"page":90,"total_pages":97,"total_results":9613}