{"results":[{"id":145435,"adult":false},{"id":326025,"adult":false},{"id":233956,"adult":false},{"id":4204,"adult":false},{"id":18191,"adult":false},{"id":18747,"adult":false},{"id":15077,"adult":false},{"id":335082,"adult":false},{"id":283327,"adult":false},{"id":181886,"adult":false},{"id":985,"adult":false},{"id":335083,"adult":false},{"id":335084,"adult":false},{"id":93456,"adult":false},{"id":250546,"adult":false},{"id":82769,"adult":false},{"id":195121,"adult":false},{"id":335085,"adult":false},{"id":221554,"adult":false},{"id":82771,"adult":false},{"id":244783,"adult":false},{"id":107965,"adult":false},{"id":20349,"adult":false},{"id":76338,"adult":false},{"id":102955,"adult":false},{"id":203534,"adult":false},{"id":254375,"adult":false},{"id":84421,"adult":false},{"id":335086,"adult":false},{"id":129436,"adult":false},{"id":31478,"adult":false},{"id":149881,"adult":false},{"id":109485,"adult":false},{"id":20575,"adult":false},{"id":110097,"adult":false},{"id":335087,"adult":false},{"id":63577,"adult":false},{"id":69119,"adult":false},{"id":152760,"adult":false},{"id":218993,"adult":false},{"id":250538,"adult":false},{"id":218836,"adult":false},{"id":13988,"adult":false},{"id":97020,"adult":false},{"id":196753,"adult":false},{"id":13006,"adult":false},{"id":301407,"adult":false},{"id":335088,"adult":false},{"id":105315,"adult":false},{"id":9909,"adult":false},{"id":335089,"adult":false},{"id":257256,"adult":false},{"id":106044,"adult":false},{"id":254941,"adult":false},{"id":83125,"adult":false},{"id":170924,"adult":false},{"id":335090,"adult":false},{"id":270771,"adult":false},{"id":335091,"adult":false},{"id":323937,"adult":false},{"id":335092,"adult":false},{"id":66273,"adult":false},{"id":256766,"adult":false},{"id":335093,"adult":false},{"id":335094,"adult":false},{"id":256980,"adult":false},{"id":335095,"adult":false},{"id":335096,"adult":false},{"id":335097,"adult":false},{"id":26302,"adult":false},{"id":335098,"adult":false},{"id":335099,"adult":false},{"id":335100,"adult":false},{"id":335101,"adult":false},{"id":190161,"adult":false},{"id":335102,"adult":false},{"id":335103,"adult":false},{"id":335104,"adult":false},{"id":335105,"adult":false},{"id":335106,"adult":false},{"id":1294,"adult":false},{"id":335107,"adult":false},{"id":335108,"adult":false},{"id":66276,"adult":false},{"id":335109,"adult":false},{"id":181753,"adult":false},{"id":335110,"adult":false},{"id":335111,"adult":false},{"id":335112,"adult":false},{"id":335113,"adult":false},{"id":66291,"adult":false},{"id":335114,"adult":false},{"id":27400,"adult":false},{"id":66290,"adult":false},{"id":335115,"adult":false},{"id":335116,"adult":false},{"id":66255,"adult":false},{"id":335117,"adult":false},{"id":312883,"adult":false},{"id":335118,"adult":false}],"page":74,"total_pages":100,"total_results":9923}