{"results":[{"id":92771,"adult":false},{"id":54698,"adult":false},{"id":368021,"adult":false},{"id":10396,"adult":false},{"id":72427,"adult":false},{"id":298048,"adult":false},{"id":365222,"adult":false},{"id":25964,"adult":false},{"id":10431,"adult":false},{"id":49060,"adult":false},{"id":505,"adult":false},{"id":21786,"adult":false},{"id":335490,"adult":false},{"id":10328,"adult":false},{"id":260011,"adult":false},{"id":93569,"adult":false},{"id":51127,"adult":false},{"id":81367,"adult":false},{"id":157547,"adult":false},{"id":37691,"adult":false},{"id":245454,"adult":false},{"id":25355,"adult":false},{"id":303991,"adult":false},{"id":225728,"adult":false},{"id":245698,"adult":false},{"id":1662,"adult":false},{"id":45156,"adult":false},{"id":16007,"adult":false},{"id":349135,"adult":false},{"id":368022,"adult":false},{"id":11005,"adult":false},{"id":127533,"adult":false},{"id":368023,"adult":false},{"id":368024,"adult":false},{"id":368025,"adult":null},{"id":368026,"adult":false},{"id":10152,"adult":false},{"id":368027,"adult":false},{"id":225570,"adult":false},{"id":368028,"adult":false},{"id":13429,"adult":false},{"id":4973,"adult":false},{"id":214418,"adult":false},{"id":368029,"adult":false},{"id":368030,"adult":false},{"id":368031,"adult":false},{"id":368032,"adult":false},{"id":182228,"adult":false},{"id":368033,"adult":false},{"id":353050,"adult":false},{"id":368034,"adult":false},{"id":254469,"adult":false},{"id":308638,"adult":false},{"id":130957,"adult":false},{"id":368035,"adult":false},{"id":368036,"adult":false},{"id":368037,"adult":false},{"id":183615,"adult":false},{"id":368038,"adult":false},{"id":110062,"adult":true},{"id":284412,"adult":false},{"id":70674,"adult":true},{"id":42113,"adult":false},{"id":314626,"adult":false},{"id":31104,"adult":false},{"id":193356,"adult":true},{"id":85692,"adult":false},{"id":368039,"adult":false},{"id":48168,"adult":true},{"id":68528,"adult":false},{"id":42984,"adult":false},{"id":344876,"adult":true},{"id":65754,"adult":false},{"id":132958,"adult":true},{"id":335409,"adult":false},{"id":39635,"adult":true},{"id":49569,"adult":false},{"id":368040,"adult":false},{"id":368041,"adult":false},{"id":47150,"adult":false},{"id":368042,"adult":false},{"id":39638,"adult":true},{"id":368043,"adult":false},{"id":49958,"adult":false},{"id":368044,"adult":false},{"id":368045,"adult":false},{"id":39675,"adult":true},{"id":39634,"adult":true},{"id":368046,"adult":false},{"id":368047,"adult":false},{"id":67509,"adult":false},{"id":368048,"adult":false},{"id":368049,"adult":false},{"id":368050,"adult":false},{"id":368051,"adult":false},{"id":353125,"adult":false},{"id":368052,"adult":false},{"id":368053,"adult":false},{"id":368054,"adult":false},{"id":352884,"adult":false}],"page":97,"total_pages":108,"total_results":10787}