{"results":[{"id":82963,"adult":false},{"id":130093,"adult":false},{"id":333846,"adult":false},{"id":389582,"adult":false},{"id":352353,"adult":false},{"id":394380,"adult":false},{"id":298388,"adult":false},{"id":295490,"adult":false},{"id":94092,"adult":false},{"id":151219,"adult":false},{"id":49616,"adult":false},{"id":92864,"adult":false},{"id":239519,"adult":false},{"id":154089,"adult":false},{"id":113921,"adult":false},{"id":202662,"adult":false},{"id":315846,"adult":false},{"id":48897,"adult":false},{"id":27563,"adult":false},{"id":394381,"adult":false},{"id":148304,"adult":false},{"id":11016,"adult":false},{"id":65581,"adult":false},{"id":26761,"adult":false},{"id":3090,"adult":false},{"id":44100,"adult":false},{"id":212,"adult":false},{"id":256371,"adult":false},{"id":31148,"adult":false},{"id":26589,"adult":false},{"id":17660,"adult":false},{"id":394382,"adult":false},{"id":2292,"adult":false},{"id":12405,"adult":false},{"id":38167,"adult":false},{"id":394383,"adult":false},{"id":2093,"adult":false},{"id":367613,"adult":false},{"id":394384,"adult":false},{"id":42664,"adult":false},{"id":33728,"adult":false},{"id":63861,"adult":false},{"id":44631,"adult":false},{"id":74436,"adult":false},{"id":300839,"adult":false},{"id":384766,"adult":false},{"id":394385,"adult":false},{"id":53834,"adult":false},{"id":218100,"adult":false},{"id":303483,"adult":false},{"id":249688,"adult":false},{"id":101292,"adult":false},{"id":43172,"adult":false},{"id":394386,"adult":false},{"id":248492,"adult":false},{"id":282397,"adult":false},{"id":258170,"adult":false},{"id":104556,"adult":false},{"id":277608,"adult":false},{"id":244487,"adult":false},{"id":104427,"adult":false},{"id":394387,"adult":false},{"id":180486,"adult":false},{"id":394388,"adult":false},{"id":226336,"adult":false},{"id":26378,"adult":false},{"id":61046,"adult":false},{"id":187807,"adult":false},{"id":389427,"adult":false},{"id":60566,"adult":false},{"id":28288,"adult":false},{"id":263190,"adult":false},{"id":46910,"adult":false},{"id":394389,"adult":false},{"id":383814,"adult":false},{"id":184936,"adult":false},{"id":49437,"adult":false},{"id":184938,"adult":false},{"id":16911,"adult":false},{"id":239803,"adult":false},{"id":394390,"adult":false},{"id":18365,"adult":false},{"id":394391,"adult":false},{"id":98613,"adult":false},{"id":378087,"adult":false},{"id":394392,"adult":false},{"id":54464,"adult":false},{"id":712,"adult":false},{"id":978,"adult":false},{"id":1024,"adult":false},{"id":1661,"adult":false},{"id":343144,"adult":false},{"id":127678,"adult":false},{"id":44022,"adult":false},{"id":394393,"adult":false},{"id":56095,"adult":false},{"id":394394,"adult":false},{"id":162092,"adult":false},{"id":385287,"adult":false},{"id":297963,"adult":false}],"page":96,"total_pages":127,"total_results":12659}