{"results":[{"id":397407,"adult":false},{"id":286668,"adult":false},{"id":45007,"adult":false},{"id":420585,"adult":false},{"id":6691,"adult":false},{"id":420586,"adult":false},{"id":420587,"adult":true},{"id":420588,"adult":false},{"id":410031,"adult":false},{"id":338189,"adult":false},{"id":420589,"adult":false},{"id":420590,"adult":false},{"id":420591,"adult":false},{"id":331743,"adult":false},{"id":420592,"adult":false},{"id":42152,"adult":false},{"id":284279,"adult":false},{"id":296523,"adult":false},{"id":420593,"adult":false},{"id":297825,"adult":false},{"id":409656,"adult":false},{"id":383869,"adult":false},{"id":420594,"adult":false},{"id":371799,"adult":false},{"id":169247,"adult":false},{"id":47430,"adult":false},{"id":310307,"adult":false},{"id":123362,"adult":false},{"id":399246,"adult":false},{"id":231,"adult":false},{"id":125,"adult":false},{"id":2285,"adult":false},{"id":49007,"adult":false},{"id":195014,"adult":false},{"id":95269,"adult":false},{"id":254376,"adult":false},{"id":254381,"adult":false},{"id":420595,"adult":false},{"id":420596,"adult":false},{"id":320327,"adult":false},{"id":420597,"adult":false},{"id":373937,"adult":false},{"id":373941,"adult":false},{"id":387597,"adult":false},{"id":420598,"adult":false},{"id":343906,"adult":false},{"id":149136,"adult":false},{"id":153917,"adult":false},{"id":420599,"adult":false},{"id":135960,"adult":false},{"id":420600,"adult":false},{"id":195916,"adult":false},{"id":11691,"adult":false},{"id":417245,"adult":false},{"id":364277,"adult":false},{"id":11168,"adult":false},{"id":420601,"adult":false},{"id":245056,"adult":false},{"id":60935,"adult":false},{"id":183928,"adult":false},{"id":4370,"adult":false},{"id":121734,"adult":false},{"id":77847,"adult":false},{"id":420602,"adult":false},{"id":5597,"adult":false},{"id":406107,"adult":false},{"id":97189,"adult":false},{"id":101588,"adult":false},{"id":9567,"adult":false},{"id":33214,"adult":false},{"id":277566,"adult":false},{"id":85115,"adult":false},{"id":13005,"adult":false},{"id":42482,"adult":false},{"id":21631,"adult":false},{"id":5689,"adult":false},{"id":15916,"adult":false},{"id":412015,"adult":false},{"id":420603,"adult":false},{"id":191421,"adult":false},{"id":287514,"adult":false},{"id":209185,"adult":false},{"id":420604,"adult":false},{"id":275290,"adult":false},{"id":420605,"adult":false},{"id":329238,"adult":false},{"id":13523,"adult":false},{"id":250525,"adult":false},{"id":359983,"adult":false},{"id":372711,"adult":false},{"id":525,"adult":false},{"id":240069,"adult":false},{"id":360338,"adult":false},{"id":282066,"adult":false},{"id":3486,"adult":false},{"id":420606,"adult":false},{"id":98050,"adult":false},{"id":420607,"adult":false},{"id":286435,"adult":false},{"id":389,"adult":false}],"page":117,"total_pages":144,"total_results":14341}