{"results":[{"id":401151,"adult":false},{"id":357026,"adult":false},{"id":401152,"adult":false},{"id":12310,"adult":false},{"id":41946,"adult":false},{"id":260108,"adult":false},{"id":415,"adult":false},{"id":115458,"adult":false},{"id":401153,"adult":false},{"id":6399,"adult":false},{"id":4546,"adult":false},{"id":11689,"adult":false},{"id":11616,"adult":false},{"id":4199,"adult":false},{"id":11547,"adult":false},{"id":287548,"adult":false},{"id":50924,"adult":false},{"id":185853,"adult":false},{"id":25132,"adult":false},{"id":390862,"adult":false},{"id":43074,"adult":false},{"id":14249,"adult":false},{"id":365673,"adult":false},{"id":12529,"adult":false},{"id":364761,"adult":false},{"id":360270,"adult":false},{"id":401154,"adult":null},{"id":287543,"adult":false},{"id":345940,"adult":false},{"id":360265,"adult":false},{"id":1721,"adult":false},{"id":324340,"adult":false},{"id":302797,"adult":false},{"id":3698,"adult":false},{"id":11681,"adult":false},{"id":354405,"adult":false},{"id":348158,"adult":false},{"id":25970,"adult":false},{"id":6916,"adult":false},{"id":376660,"adult":false},{"id":280894,"adult":false},{"id":377428,"adult":false},{"id":152737,"adult":false},{"id":28667,"adult":false},{"id":212926,"adult":false},{"id":285270,"adult":false},{"id":9535,"adult":false},{"id":352188,"adult":false},{"id":338676,"adult":false},{"id":114189,"adult":false},{"id":72589,"adult":false},{"id":30432,"adult":false},{"id":81416,"adult":false},{"id":41282,"adult":false},{"id":48890,"adult":false},{"id":348893,"adult":false},{"id":61791,"adult":false},{"id":108513,"adult":false},{"id":117777,"adult":false},{"id":385502,"adult":false},{"id":103642,"adult":false},{"id":310725,"adult":false},{"id":61820,"adult":false},{"id":82326,"adult":false},{"id":314615,"adult":false},{"id":309073,"adult":false},{"id":401155,"adult":false},{"id":401156,"adult":false},{"id":121702,"adult":false},{"id":101338,"adult":false},{"id":48688,"adult":false},{"id":50339,"adult":false},{"id":401157,"adult":false},{"id":365859,"adult":false},{"id":360277,"adult":false},{"id":13709,"adult":false},{"id":215524,"adult":false},{"id":216783,"adult":false},{"id":128104,"adult":false},{"id":284050,"adult":false},{"id":394534,"adult":null},{"id":1487,"adult":false},{"id":401158,"adult":false},{"id":76163,"adult":false},{"id":812,"adult":false},{"id":29778,"adult":false},{"id":114609,"adult":false},{"id":368432,"adult":false},{"id":129,"adult":false},{"id":206953,"adult":false},{"id":96042,"adult":false},{"id":54044,"adult":false},{"id":401159,"adult":false},{"id":289438,"adult":null},{"id":54805,"adult":false},{"id":113213,"adult":false},{"id":33225,"adult":false},{"id":52796,"adult":false},{"id":79735,"adult":false},{"id":401160,"adult":false}],"page":66,"total_pages":116,"total_results":11568}