{"results":[{"id":95797,"adult":false},{"id":395738,"adult":false},{"id":366148,"adult":false},{"id":405689,"adult":null},{"id":405690,"adult":false},{"id":405691,"adult":null},{"id":90298,"adult":false},{"id":405692,"adult":null},{"id":405693,"adult":null},{"id":405694,"adult":null},{"id":405695,"adult":null},{"id":405696,"adult":false},{"id":405697,"adult":null},{"id":405698,"adult":false},{"id":405699,"adult":null},{"id":307002,"adult":false},{"id":13550,"adult":false},{"id":313096,"adult":false},{"id":69935,"adult":false},{"id":230179,"adult":false},{"id":370665,"adult":false},{"id":34137,"adult":false},{"id":405700,"adult":null},{"id":390329,"adult":false},{"id":405701,"adult":null},{"id":805,"adult":false},{"id":405702,"adult":null},{"id":11026,"adult":false},{"id":405703,"adult":null},{"id":405704,"adult":null},{"id":12700,"adult":false},{"id":405705,"adult":false},{"id":363178,"adult":false},{"id":11587,"adult":false},{"id":346560,"adult":false},{"id":11986,"adult":false},{"id":11586,"adult":false},{"id":405706,"adult":null},{"id":110590,"adult":false},{"id":405707,"adult":null},{"id":405708,"adult":null},{"id":814,"adult":false},{"id":405709,"adult":null},{"id":9406,"adult":false},{"id":405710,"adult":false},{"id":405711,"adult":null},{"id":403550,"adult":null},{"id":405712,"adult":null},{"id":573,"adult":false},{"id":405713,"adult":null},{"id":405714,"adult":null},{"id":426,"adult":false},{"id":405715,"adult":null},{"id":1580,"adult":false},{"id":891,"adult":false},{"id":212820,"adult":false},{"id":283227,"adult":false},{"id":300168,"adult":false},{"id":277399,"adult":false},{"id":351819,"adult":false},{"id":373314,"adult":false},{"id":253835,"adult":false},{"id":382212,"adult":false},{"id":8247,"adult":false},{"id":9485,"adult":false},{"id":2757,"adult":false},{"id":270946,"adult":false},{"id":44383,"adult":false},{"id":405716,"adult":false},{"id":258264,"adult":false},{"id":297,"adult":false},{"id":347701,"adult":false},{"id":36151,"adult":false},{"id":26198,"adult":false},{"id":130736,"adult":false},{"id":296626,"adult":false},{"id":55928,"adult":false},{"id":21219,"adult":false},{"id":308409,"adult":false},{"id":241393,"adult":false},{"id":325978,"adult":false},{"id":120295,"adult":false},{"id":359256,"adult":false},{"id":85163,"adult":false},{"id":76757,"adult":false},{"id":26119,"adult":false},{"id":123703,"adult":false},{"id":14730,"adult":false},{"id":405717,"adult":false},{"id":335797,"adult":false},{"id":283672,"adult":false},{"id":405718,"adult":false},{"id":55833,"adult":null},{"id":288306,"adult":null},{"id":405719,"adult":null},{"id":25523,"adult":false},{"id":405720,"adult":false},{"id":29956,"adult":false},{"id":198045,"adult":false},{"id":405721,"adult":false}],"page":79,"total_pages":112,"total_results":11190}