{"results":[{"id":6079,"adult":false},{"id":19293,"adult":false},{"id":45958,"adult":false},{"id":17276,"adult":false},{"id":11604,"adult":false},{"id":24570,"adult":false},{"id":24569,"adult":false},{"id":404548,"adult":false},{"id":309302,"adult":false},{"id":24571,"adult":false},{"id":26329,"adult":false},{"id":26327,"adult":false},{"id":13185,"adult":false},{"id":19300,"adult":false},{"id":13980,"adult":false},{"id":21251,"adult":false},{"id":34743,"adult":false},{"id":79073,"adult":false},{"id":19725,"adult":false},{"id":8424,"adult":false},{"id":245913,"adult":false},{"id":273101,"adult":false},{"id":20544,"adult":false},{"id":24271,"adult":false},{"id":10665,"adult":false},{"id":158,"adult":false},{"id":11231,"adult":false},{"id":31372,"adult":false},{"id":390512,"adult":false},{"id":19357,"adult":false},{"id":10447,"adult":false},{"id":48309,"adult":false},{"id":404549,"adult":false},{"id":9614,"adult":false},{"id":403232,"adult":false},{"id":404550,"adult":false},{"id":200013,"adult":false},{"id":19403,"adult":false},{"id":49800,"adult":false},{"id":244403,"adult":false},{"id":259999,"adult":false},{"id":20211,"adult":false},{"id":85648,"adult":false},{"id":328187,"adult":false},{"id":172599,"adult":false},{"id":232679,"adult":false},{"id":315597,"adult":false},{"id":404551,"adult":false},{"id":55246,"adult":false},{"id":404552,"adult":false},{"id":38099,"adult":false},{"id":192087,"adult":false},{"id":293973,"adult":false},{"id":87704,"adult":false},{"id":404553,"adult":true},{"id":402041,"adult":false},{"id":39854,"adult":false},{"id":320931,"adult":false},{"id":404554,"adult":false},{"id":290893,"adult":false},{"id":64316,"adult":false},{"id":320928,"adult":false},{"id":300494,"adult":false},{"id":11528,"adult":false},{"id":320930,"adult":false},{"id":32581,"adult":false},{"id":404555,"adult":false},{"id":33424,"adult":false},{"id":32802,"adult":false},{"id":404556,"adult":false},{"id":327040,"adult":false},{"id":521,"adult":false},{"id":32100,"adult":false},{"id":401132,"adult":false},{"id":18621,"adult":false},{"id":55336,"adult":false},{"id":174321,"adult":false},{"id":376296,"adult":false},{"id":348401,"adult":false},{"id":137826,"adult":false},{"id":120300,"adult":false},{"id":332976,"adult":false},{"id":285733,"adult":false},{"id":298582,"adult":false},{"id":89473,"adult":false},{"id":36278,"adult":false},{"id":470,"adult":false},{"id":369698,"adult":false},{"id":400145,"adult":false},{"id":679,"adult":false},{"id":9772,"adult":false},{"id":6415,"adult":false},{"id":214,"adult":false},{"id":48558,"adult":true},{"id":10395,"adult":false},{"id":404557,"adult":false},{"id":212903,"adult":false},{"id":21629,"adult":false},{"id":59403,"adult":false},{"id":366162,"adult":false}],"page":13,"total_pages":112,"total_results":11190}