{"results":[{"id":134754,"adult":false},{"id":69889,"adult":false},{"id":341014,"adult":false},{"id":414012,"adult":false},{"id":414013,"adult":true},{"id":314402,"adult":false},{"id":265626,"adult":false},{"id":386028,"adult":false},{"id":376799,"adult":true},{"id":414014,"adult":false},{"id":207107,"adult":true},{"id":414015,"adult":false},{"id":282810,"adult":true},{"id":11075,"adult":false},{"id":110061,"adult":true},{"id":413019,"adult":false},{"id":314095,"adult":false},{"id":318226,"adult":false},{"id":414016,"adult":false},{"id":412398,"adult":true},{"id":301608,"adult":false},{"id":414017,"adult":false},{"id":77878,"adult":false},{"id":241848,"adult":false},{"id":1359,"adult":false},{"id":47595,"adult":false},{"id":214952,"adult":false},{"id":44321,"adult":false},{"id":158239,"adult":false},{"id":1548,"adult":false},{"id":136799,"adult":false},{"id":20689,"adult":false},{"id":12496,"adult":false},{"id":6079,"adult":false},{"id":406781,"adult":false},{"id":102000,"adult":false},{"id":367755,"adult":false},{"id":10386,"adult":false},{"id":11506,"adult":false},{"id":264038,"adult":false},{"id":264045,"adult":false},{"id":48035,"adult":false},{"id":11379,"adult":false},{"id":414018,"adult":false},{"id":246087,"adult":false},{"id":139662,"adult":false},{"id":5000,"adult":false},{"id":384117,"adult":null},{"id":414019,"adult":false},{"id":414020,"adult":false},{"id":887,"adult":false},{"id":414021,"adult":false},{"id":329591,"adult":false},{"id":382736,"adult":false},{"id":25769,"adult":false},{"id":109835,"adult":false},{"id":264034,"adult":false},{"id":414022,"adult":false},{"id":247504,"adult":false},{"id":231298,"adult":false},{"id":180682,"adult":false},{"id":414023,"adult":false},{"id":414024,"adult":false},{"id":291060,"adult":false},{"id":65,"adult":false},{"id":301337,"adult":false},{"id":414025,"adult":false},{"id":383348,"adult":false},{"id":111331,"adult":false},{"id":10640,"adult":false},{"id":414026,"adult":false},{"id":110354,"adult":false},{"id":25472,"adult":false},{"id":197154,"adult":false},{"id":2362,"adult":false},{"id":217697,"adult":false},{"id":208211,"adult":false},{"id":271706,"adult":false},{"id":173392,"adult":false},{"id":400617,"adult":false},{"id":354275,"adult":false},{"id":329096,"adult":false},{"id":399174,"adult":false},{"id":84845,"adult":true},{"id":414027,"adult":false},{"id":128722,"adult":false},{"id":129084,"adult":false},{"id":395990,"adult":false},{"id":414028,"adult":false},{"id":10646,"adult":false},{"id":11529,"adult":false},{"id":414029,"adult":false},{"id":318054,"adult":false},{"id":13171,"adult":false},{"id":414030,"adult":false},{"id":414031,"adult":false},{"id":365339,"adult":false},{"id":1845,"adult":false},{"id":59912,"adult":false},{"id":47630,"adult":false}],"page":30,"total_pages":126,"total_results":12554}