{"results":[{"id":8353,"adult":false},{"id":340712,"adult":false},{"id":415494,"adult":false},{"id":175321,"adult":false},{"id":304787,"adult":false},{"id":309551,"adult":null},{"id":413427,"adult":false},{"id":42724,"adult":false},{"id":365728,"adult":false},{"id":47790,"adult":false},{"id":399602,"adult":false},{"id":384524,"adult":false},{"id":395606,"adult":false},{"id":332416,"adult":false},{"id":415495,"adult":false},{"id":291189,"adult":false},{"id":185111,"adult":false},{"id":415496,"adult":false},{"id":374533,"adult":false},{"id":415497,"adult":false},{"id":392770,"adult":false},{"id":415498,"adult":false},{"id":371449,"adult":false},{"id":14237,"adult":false},{"id":371667,"adult":false},{"id":308024,"adult":false},{"id":307702,"adult":false},{"id":198826,"adult":false},{"id":288875,"adult":false},{"id":332708,"adult":false},{"id":96850,"adult":false},{"id":137850,"adult":false},{"id":415499,"adult":false},{"id":18491,"adult":false},{"id":415500,"adult":false},{"id":408426,"adult":false},{"id":351328,"adult":false},{"id":415501,"adult":false},{"id":385778,"adult":false},{"id":2097,"adult":false},{"id":177271,"adult":false},{"id":2899,"adult":false},{"id":415502,"adult":false},{"id":391640,"adult":false},{"id":165420,"adult":false},{"id":382125,"adult":false},{"id":267635,"adult":false},{"id":314127,"adult":false},{"id":332171,"adult":false},{"id":385755,"adult":false},{"id":50553,"adult":false},{"id":27117,"adult":false},{"id":27145,"adult":false},{"id":212716,"adult":false},{"id":382170,"adult":false},{"id":51134,"adult":null},{"id":92484,"adult":false},{"id":322766,"adult":false},{"id":527,"adult":false},{"id":329819,"adult":false},{"id":283330,"adult":false},{"id":415503,"adult":false},{"id":1405,"adult":false},{"id":349668,"adult":false},{"id":293262,"adult":false},{"id":332806,"adult":false},{"id":183574,"adult":false},{"id":66448,"adult":false},{"id":415504,"adult":false},{"id":415505,"adult":false},{"id":385317,"adult":false},{"id":415506,"adult":false},{"id":415507,"adult":false},{"id":415508,"adult":false},{"id":175116,"adult":false},{"id":306537,"adult":false},{"id":350,"adult":false},{"id":415510,"adult":false},{"id":415511,"adult":false},{"id":796,"adult":false},{"id":415512,"adult":false},{"id":415513,"adult":false},{"id":415514,"adult":false},{"id":91227,"adult":false},{"id":415515,"adult":false},{"id":92393,"adult":false},{"id":415516,"adult":false},{"id":47240,"adult":false},{"id":415517,"adult":false},{"id":415518,"adult":false},{"id":338072,"adult":false},{"id":415519,"adult":false},{"id":209415,"adult":false},{"id":107438,"adult":false},{"id":415520,"adult":false},{"id":279972,"adult":false},{"id":166262,"adult":false},{"id":253331,"adult":false},{"id":206197,"adult":false},{"id":53831,"adult":false}],"page":111,"total_pages":126,"total_results":12554}