{"results":[{"id":419233,"adult":false},{"id":20766,"adult":false},{"id":22,"adult":false},{"id":107929,"adult":false},{"id":680,"adult":false},{"id":419234,"adult":false},{"id":345670,"adult":false},{"id":372648,"adult":false},{"id":419235,"adult":false},{"id":296100,"adult":false},{"id":207864,"adult":false},{"id":310,"adult":false},{"id":107846,"adult":false},{"id":224917,"adult":false},{"id":419236,"adult":false},{"id":30497,"adult":false},{"id":13498,"adult":false},{"id":303858,"adult":false},{"id":419237,"adult":false},{"id":136418,"adult":false},{"id":53457,"adult":false},{"id":265189,"adult":false},{"id":179144,"adult":false},{"id":415943,"adult":false},{"id":196024,"adult":false},{"id":419239,"adult":false},{"id":190880,"adult":false},{"id":31606,"adult":false},{"id":366391,"adult":false},{"id":279101,"adult":false},{"id":49508,"adult":false},{"id":8643,"adult":false},{"id":419240,"adult":false},{"id":68850,"adult":false},{"id":131742,"adult":false},{"id":419241,"adult":null},{"id":419242,"adult":false},{"id":58,"adult":false},{"id":28260,"adult":false},{"id":419243,"adult":false},{"id":169881,"adult":false},{"id":127560,"adult":false},{"id":179826,"adult":false},{"id":2064,"adult":false},{"id":79707,"adult":false},{"id":222715,"adult":false},{"id":118301,"adult":false},{"id":316154,"adult":false},{"id":86004,"adult":false},{"id":7274,"adult":false},{"id":419244,"adult":false},{"id":219,"adult":false},{"id":278925,"adult":false},{"id":419245,"adult":false},{"id":14495,"adult":false},{"id":156512,"adult":false},{"id":419246,"adult":null},{"id":19975,"adult":false},{"id":33360,"adult":false},{"id":11310,"adult":false},{"id":419247,"adult":false},{"id":4413,"adult":false},{"id":419248,"adult":false},{"id":419249,"adult":false},{"id":297484,"adult":false},{"id":293572,"adult":false},{"id":5393,"adult":false},{"id":237520,"adult":false},{"id":411518,"adult":false},{"id":169250,"adult":false},{"id":46934,"adult":false},{"id":359311,"adult":false},{"id":256395,"adult":false},{"id":388408,"adult":false},{"id":55910,"adult":false},{"id":326001,"adult":false},{"id":40171,"adult":false},{"id":102651,"adult":false},{"id":122775,"adult":false},{"id":332210,"adult":false},{"id":108707,"adult":false},{"id":237782,"adult":false},{"id":373670,"adult":false},{"id":273277,"adult":false},{"id":105206,"adult":false},{"id":21057,"adult":false},{"id":91653,"adult":false},{"id":419250,"adult":false},{"id":419251,"adult":null},{"id":353345,"adult":false},{"id":419252,"adult":null},{"id":419253,"adult":false},{"id":419254,"adult":false},{"id":405633,"adult":false},{"id":311946,"adult":null},{"id":112700,"adult":false},{"id":390989,"adult":false},{"id":22611,"adult":false},{"id":110158,"adult":false},{"id":419255,"adult":false}],"page":37,"total_pages":144,"total_results":14341}