{"results":[{"id":30527,"adult":false},{"id":11439,"adult":false},{"id":190906,"adult":false},{"id":52687,"adult":false},{"id":153219,"adult":false},{"id":184155,"adult":false},{"id":188049,"adult":false},{"id":43045,"adult":false},{"id":380111,"adult":false},{"id":194393,"adult":false},{"id":75174,"adult":false},{"id":75875,"adult":false},{"id":11522,"adult":false},{"id":332340,"adult":false},{"id":10147,"adult":false},{"id":6963,"adult":false},{"id":86603,"adult":false},{"id":78817,"adult":false},{"id":29861,"adult":false},{"id":337021,"adult":false},{"id":30463,"adult":false},{"id":63207,"adult":false},{"id":8913,"adult":false},{"id":54109,"adult":false},{"id":32019,"adult":false},{"id":273193,"adult":false},{"id":134639,"adult":false},{"id":347757,"adult":false},{"id":88211,"adult":false},{"id":1893,"adult":false},{"id":11970,"adult":false},{"id":56115,"adult":false},{"id":379822,"adult":false},{"id":140300,"adult":false},{"id":77967,"adult":false},{"id":30833,"adult":false},{"id":26515,"adult":false},{"id":40087,"adult":false},{"id":67786,"adult":false},{"id":14240,"adult":false},{"id":8337,"adult":false},{"id":86330,"adult":false},{"id":209241,"adult":false},{"id":9663,"adult":false},{"id":251410,"adult":false},{"id":54388,"adult":false},{"id":180237,"adult":false},{"id":221724,"adult":false},{"id":67737,"adult":false},{"id":401078,"adult":false},{"id":426175,"adult":false},{"id":416565,"adult":false},{"id":221379,"adult":false},{"id":89516,"adult":false},{"id":113534,"adult":false},{"id":426184,"adult":false},{"id":50952,"adult":false},{"id":84282,"adult":false},{"id":431716,"adult":false},{"id":50971,"adult":false},{"id":50963,"adult":false},{"id":50955,"adult":false},{"id":112728,"adult":false},{"id":86462,"adult":false},{"id":89659,"adult":false},{"id":159621,"adult":false},{"id":27654,"adult":false},{"id":109425,"adult":false},{"id":199981,"adult":false},{"id":26954,"adult":false},{"id":74424,"adult":false},{"id":49476,"adult":false},{"id":305972,"adult":false},{"id":790,"adult":false},{"id":102661,"adult":false},{"id":94548,"adult":false},{"id":10351,"adult":false},{"id":38226,"adult":false},{"id":30035,"adult":false},{"id":103602,"adult":false},{"id":88258,"adult":false},{"id":262324,"adult":false},{"id":269753,"adult":false},{"id":148948,"adult":false},{"id":353983,"adult":false},{"id":124880,"adult":false},{"id":111194,"adult":false},{"id":262986,"adult":false},{"id":42392,"adult":false},{"id":24094,"adult":false},{"id":244426,"adult":false},{"id":52485,"adult":false},{"id":387746,"adult":false},{"id":39984,"adult":false},{"id":67359,"adult":false},{"id":345681,"adult":false},{"id":192945,"adult":false},{"id":353917,"adult":false},{"id":116158,"adult":false},{"id":431717,"adult":false}],"page":98,"total_pages":114,"total_results":11339}