{"results":[{"id":95402,"adult":false},{"id":179427,"adult":false},{"id":41131,"adult":false},{"id":12143,"adult":false},{"id":82311,"adult":false},{"id":16136,"adult":false},{"id":399423,"adult":false},{"id":9558,"adult":false},{"id":8067,"adult":false},{"id":212350,"adult":false},{"id":181150,"adult":false},{"id":166391,"adult":null},{"id":399424,"adult":false},{"id":399425,"adult":false},{"id":20533,"adult":false},{"id":52781,"adult":false},{"id":276684,"adult":false},{"id":288688,"adult":false},{"id":9415,"adult":false},{"id":183001,"adult":null},{"id":399426,"adult":false},{"id":57084,"adult":false},{"id":209401,"adult":false},{"id":350550,"adult":false},{"id":36586,"adult":false},{"id":364737,"adult":null},{"id":183003,"adult":false},{"id":57973,"adult":null},{"id":369720,"adult":false},{"id":382881,"adult":false},{"id":352804,"adult":null},{"id":302662,"adult":false},{"id":267357,"adult":null},{"id":353762,"adult":null},{"id":267491,"adult":false},{"id":273171,"adult":false},{"id":394032,"adult":null},{"id":290681,"adult":false},{"id":176482,"adult":false},{"id":391005,"adult":false},{"id":163604,"adult":false},{"id":399427,"adult":false},{"id":399428,"adult":false},{"id":390861,"adult":null},{"id":45950,"adult":false},{"id":179475,"adult":null},{"id":179476,"adult":null},{"id":154267,"adult":false},{"id":179477,"adult":false},{"id":371559,"adult":null},{"id":306698,"adult":false},{"id":278168,"adult":false},{"id":168685,"adult":false},{"id":169164,"adult":null},{"id":357725,"adult":false},{"id":344452,"adult":false},{"id":319888,"adult":false},{"id":260957,"adult":false},{"id":396222,"adult":false},{"id":147157,"adult":false},{"id":28480,"adult":false},{"id":12706,"adult":false},{"id":387085,"adult":false},{"id":244516,"adult":false},{"id":140508,"adult":false},{"id":118140,"adult":false},{"id":165566,"adult":false},{"id":328720,"adult":false},{"id":78056,"adult":false},{"id":399429,"adult":false},{"id":30830,"adult":false},{"id":70900,"adult":true},{"id":178930,"adult":null},{"id":66122,"adult":false},{"id":13526,"adult":false},{"id":399430,"adult":false},{"id":319195,"adult":false},{"id":179497,"adult":null},{"id":140985,"adult":false},{"id":179498,"adult":false},{"id":34594,"adult":false},{"id":183002,"adult":null},{"id":180183,"adult":false},{"id":267431,"adult":null},{"id":39986,"adult":false},{"id":178149,"adult":null},{"id":70859,"adult":false},{"id":363295,"adult":false},{"id":181275,"adult":null},{"id":174482,"adult":false},{"id":174498,"adult":false},{"id":165892,"adult":false},{"id":399431,"adult":false},{"id":44008,"adult":false},{"id":219516,"adult":false},{"id":396093,"adult":false},{"id":399432,"adult":false},{"id":399433,"adult":false},{"id":9589,"adult":false},{"id":201149,"adult":false}],"page":118,"total_pages":128,"total_results":12797}