{"results":[{"id":373915,"adult":null},{"id":57023,"adult":false},{"id":349100,"adult":null},{"id":26973,"adult":false},{"id":375534,"adult":false},{"id":300168,"adult":false},{"id":119023,"adult":false},{"id":257125,"adult":false},{"id":44555,"adult":false},{"id":56078,"adult":false},{"id":87118,"adult":false},{"id":23148,"adult":false},{"id":182874,"adult":false},{"id":336912,"adult":null},{"id":47650,"adult":false},{"id":84330,"adult":false},{"id":1901,"adult":false},{"id":375535,"adult":false},{"id":32037,"adult":false},{"id":31819,"adult":false},{"id":375536,"adult":false},{"id":375537,"adult":false},{"id":10140,"adult":false},{"id":375538,"adult":false},{"id":12454,"adult":false},{"id":250734,"adult":false},{"id":265297,"adult":false},{"id":375539,"adult":false},{"id":29471,"adult":false},{"id":3554,"adult":false},{"id":146172,"adult":false},{"id":356602,"adult":false},{"id":375540,"adult":false},{"id":375541,"adult":false},{"id":375542,"adult":false},{"id":109424,"adult":false},{"id":375543,"adult":false},{"id":139921,"adult":false},{"id":320004,"adult":false},{"id":194,"adult":false},{"id":244060,"adult":false},{"id":183855,"adult":false},{"id":199896,"adult":false},{"id":278459,"adult":false},{"id":279416,"adult":false},{"id":156304,"adult":false},{"id":374170,"adult":false},{"id":37993,"adult":false},{"id":231222,"adult":false},{"id":199894,"adult":false},{"id":4421,"adult":false},{"id":374098,"adult":false},{"id":215858,"adult":false},{"id":2268,"adult":false},{"id":373973,"adult":false},{"id":375544,"adult":false},{"id":1669,"adult":false},{"id":133009,"adult":false},{"id":181191,"adult":false},{"id":1402,"adult":false},{"id":375545,"adult":false},{"id":4413,"adult":false},{"id":147619,"adult":false},{"id":232516,"adult":false},{"id":373673,"adult":false},{"id":4538,"adult":false},{"id":373667,"adult":false},{"id":373687,"adult":false},{"id":373686,"adult":false},{"id":71508,"adult":false},{"id":373682,"adult":false},{"id":40083,"adult":false},{"id":373679,"adult":false},{"id":268659,"adult":false},{"id":187826,"adult":false},{"id":373677,"adult":false},{"id":373670,"adult":false},{"id":373668,"adult":false},{"id":373666,"adult":false},{"id":10303,"adult":false},{"id":373663,"adult":false},{"id":373662,"adult":false},{"id":373661,"adult":false},{"id":373659,"adult":false},{"id":373658,"adult":false},{"id":373657,"adult":false},{"id":373655,"adult":false},{"id":373651,"adult":false},{"id":45269,"adult":false},{"id":373635,"adult":false},{"id":144050,"adult":false},{"id":228263,"adult":false},{"id":224967,"adult":false},{"id":146301,"adult":false},{"id":190266,"adult":false},{"id":373496,"adult":false},{"id":321621,"adult":false},{"id":375546,"adult":false},{"id":140607,"adult":false},{"id":373277,"adult":false}],"page":19,"total_pages":121,"total_results":12060}