{"results":[{"id":55779,"adult":false},{"id":49017,"adult":false},{"id":427425,"adult":false},{"id":38805,"adult":false},{"id":226353,"adult":false},{"id":303857,"adult":false},{"id":427426,"adult":false},{"id":423865,"adult":false},{"id":411057,"adult":false},{"id":427427,"adult":false},{"id":52852,"adult":false},{"id":419108,"adult":false},{"id":128462,"adult":false},{"id":118116,"adult":false},{"id":314443,"adult":false},{"id":427428,"adult":false},{"id":427429,"adult":false},{"id":427430,"adult":null},{"id":72559,"adult":false},{"id":427431,"adult":false},{"id":346256,"adult":false},{"id":427432,"adult":false},{"id":427433,"adult":false},{"id":427434,"adult":null},{"id":427435,"adult":false},{"id":272643,"adult":false},{"id":427436,"adult":false},{"id":427437,"adult":null},{"id":9950,"adult":false},{"id":44912,"adult":false},{"id":361277,"adult":false},{"id":1487,"adult":false},{"id":221379,"adult":false},{"id":408731,"adult":false},{"id":395955,"adult":false},{"id":277396,"adult":false},{"id":11333,"adult":false},{"id":368702,"adult":false},{"id":10254,"adult":false},{"id":177008,"adult":false},{"id":53772,"adult":false},{"id":259463,"adult":false},{"id":92681,"adult":false},{"id":427438,"adult":true},{"id":29569,"adult":false},{"id":11202,"adult":false},{"id":427439,"adult":true},{"id":14818,"adult":false},{"id":427440,"adult":true},{"id":427441,"adult":true},{"id":346681,"adult":false},{"id":427442,"adult":false},{"id":308140,"adult":false},{"id":427443,"adult":true},{"id":197343,"adult":false},{"id":20941,"adult":false},{"id":427444,"adult":true},{"id":32767,"adult":false},{"id":427445,"adult":true},{"id":36183,"adult":false},{"id":427446,"adult":true},{"id":427447,"adult":false},{"id":427448,"adult":true},{"id":341034,"adult":false},{"id":46955,"adult":false},{"id":337487,"adult":false},{"id":114916,"adult":false},{"id":42862,"adult":false},{"id":116034,"adult":false},{"id":427449,"adult":false},{"id":2775,"adult":false},{"id":283568,"adult":false},{"id":331245,"adult":false},{"id":212134,"adult":false},{"id":423159,"adult":false},{"id":11866,"adult":false},{"id":249070,"adult":false},{"id":427450,"adult":false},{"id":76492,"adult":false},{"id":258685,"adult":false},{"id":159824,"adult":false},{"id":372226,"adult":false},{"id":10191,"adult":false},{"id":100241,"adult":false},{"id":98870,"adult":false},{"id":400328,"adult":false},{"id":9426,"adult":false},{"id":16911,"adult":false},{"id":262068,"adult":false},{"id":417973,"adult":false},{"id":427451,"adult":false},{"id":24134,"adult":false},{"id":427452,"adult":false},{"id":208703,"adult":false},{"id":11076,"adult":false},{"id":148430,"adult":false},{"id":427453,"adult":false},{"id":427454,"adult":false},{"id":427455,"adult":null},{"id":21616,"adult":false}],"page":86,"total_pages":119,"total_results":11862}