{"results":[{"id":35004,"adult":false},{"id":336691,"adult":false},{"id":46752,"adult":false},{"id":122249,"adult":false},{"id":248065,"adult":false},{"id":287090,"adult":false},{"id":77270,"adult":false},{"id":57157,"adult":false},{"id":84340,"adult":false},{"id":410599,"adult":false},{"id":410600,"adult":false},{"id":314029,"adult":false},{"id":14924,"adult":false},{"id":274734,"adult":false},{"id":341744,"adult":false},{"id":325562,"adult":false},{"id":410601,"adult":false},{"id":38717,"adult":false},{"id":12486,"adult":false},{"id":17908,"adult":false},{"id":408475,"adult":false},{"id":378983,"adult":false},{"id":410602,"adult":false},{"id":379963,"adult":false},{"id":410603,"adult":false},{"id":209138,"adult":false},{"id":402775,"adult":false},{"id":15713,"adult":false},{"id":321695,"adult":false},{"id":410604,"adult":false},{"id":304567,"adult":false},{"id":315973,"adult":false},{"id":410605,"adult":false},{"id":283319,"adult":false},{"id":380745,"adult":false},{"id":253303,"adult":false},{"id":410606,"adult":false},{"id":235,"adult":false},{"id":173897,"adult":false},{"id":410607,"adult":false},{"id":370887,"adult":false},{"id":359793,"adult":false},{"id":184992,"adult":false},{"id":410608,"adult":false},{"id":41851,"adult":false},{"id":410609,"adult":false},{"id":410610,"adult":false},{"id":104925,"adult":false},{"id":127752,"adult":false},{"id":135787,"adult":false},{"id":410611,"adult":false},{"id":269106,"adult":false},{"id":401755,"adult":null},{"id":28857,"adult":false},{"id":410612,"adult":null},{"id":359073,"adult":false},{"id":125886,"adult":true},{"id":104475,"adult":false},{"id":410613,"adult":false},{"id":76755,"adult":false},{"id":142876,"adult":false},{"id":218299,"adult":false},{"id":11056,"adult":false},{"id":254345,"adult":false},{"id":10388,"adult":false},{"id":377296,"adult":false},{"id":218071,"adult":false},{"id":9354,"adult":false},{"id":55177,"adult":false},{"id":410614,"adult":false},{"id":410615,"adult":false},{"id":331010,"adult":false},{"id":235877,"adult":false},{"id":235735,"adult":false},{"id":353922,"adult":false},{"id":319116,"adult":false},{"id":319117,"adult":false},{"id":39535,"adult":false},{"id":229961,"adult":false},{"id":327235,"adult":false},{"id":327236,"adult":false},{"id":353925,"adult":false},{"id":255210,"adult":false},{"id":255211,"adult":false},{"id":255212,"adult":false},{"id":255213,"adult":false},{"id":255214,"adult":false},{"id":255215,"adult":false},{"id":255216,"adult":false},{"id":255217,"adult":false},{"id":94721,"adult":false},{"id":255219,"adult":false},{"id":248916,"adult":false},{"id":255222,"adult":false},{"id":255223,"adult":false},{"id":255224,"adult":false},{"id":763,"adult":false},{"id":255225,"adult":false},{"id":255226,"adult":false},{"id":229965,"adult":false}],"page":80,"total_pages":117,"total_results":11641}