{"results":[{"id":361260,"adult":false},{"id":255737,"adult":false},{"id":330764,"adult":false},{"id":390056,"adult":false},{"id":390057,"adult":false},{"id":339967,"adult":false},{"id":189392,"adult":false},{"id":333446,"adult":false},{"id":103972,"adult":false},{"id":92257,"adult":false},{"id":390058,"adult":false},{"id":390059,"adult":false},{"id":84773,"adult":false},{"id":118948,"adult":false},{"id":343668,"adult":false},{"id":255724,"adult":false},{"id":359574,"adult":false},{"id":287904,"adult":false},{"id":375327,"adult":false},{"id":370391,"adult":false},{"id":377169,"adult":false},{"id":384699,"adult":false},{"id":295524,"adult":false},{"id":347078,"adult":false},{"id":390060,"adult":false},{"id":47182,"adult":false},{"id":248129,"adult":false},{"id":386137,"adult":false},{"id":246866,"adult":false},{"id":300668,"adult":false},{"id":369560,"adult":false},{"id":390061,"adult":false},{"id":33410,"adult":false},{"id":390062,"adult":false},{"id":243026,"adult":false},{"id":95556,"adult":false}],"page":120,"total_pages":120,"total_results":11936}