{"results":[{"id":381163,"adult":false},{"id":381164,"adult":false},{"id":381165,"adult":false},{"id":381166,"adult":false},{"id":36640,"adult":false},{"id":377139,"adult":false},{"id":381167,"adult":false},{"id":334527,"adult":false},{"id":114718,"adult":false},{"id":56023,"adult":false},{"id":344789,"adult":false},{"id":9078,"adult":false},{"id":243887,"adult":false},{"id":899,"adult":false},{"id":36106,"adult":false},{"id":962,"adult":false},{"id":381168,"adult":false},{"id":378966,"adult":null},{"id":31345,"adult":false},{"id":174943,"adult":false},{"id":44419,"adult":false},{"id":6391,"adult":false},{"id":297239,"adult":false},{"id":248087,"adult":false},{"id":374049,"adult":false},{"id":344593,"adult":false},{"id":381169,"adult":false},{"id":36686,"adult":false},{"id":381170,"adult":false},{"id":195269,"adult":false},{"id":381171,"adult":false},{"id":337161,"adult":false},{"id":381173,"adult":false},{"id":381174,"adult":false},{"id":381175,"adult":null},{"id":381176,"adult":false},{"id":70837,"adult":false},{"id":321621,"adult":false},{"id":371439,"adult":false},{"id":43382,"adult":false},{"id":144109,"adult":false},{"id":381177,"adult":false},{"id":117927,"adult":false},{"id":381178,"adult":false},{"id":71619,"adult":false},{"id":39129,"adult":false},{"id":292431,"adult":false},{"id":18935,"adult":false},{"id":34300,"adult":false},{"id":34647,"adult":false},{"id":32685,"adult":false},{"id":202785,"adult":false},{"id":360208,"adult":null},{"id":381179,"adult":false},{"id":38523,"adult":false},{"id":381182,"adult":false},{"id":4942,"adult":false},{"id":239919,"adult":false},{"id":115194,"adult":false},{"id":381183,"adult":false},{"id":346882,"adult":false},{"id":152145,"adult":false},{"id":109279,"adult":false},{"id":381184,"adult":false},{"id":381185,"adult":null},{"id":170081,"adult":false},{"id":381186,"adult":false},{"id":381187,"adult":false},{"id":61528,"adult":false},{"id":381189,"adult":false},{"id":124348,"adult":false},{"id":7096,"adult":false},{"id":37664,"adult":false},{"id":9717,"adult":false},{"id":270081,"adult":false},{"id":381190,"adult":false},{"id":147566,"adult":false},{"id":580,"adult":false},{"id":1253,"adult":false},{"id":106201,"adult":false},{"id":285360,"adult":false},{"id":277206,"adult":false},{"id":381191,"adult":false},{"id":381192,"adult":false},{"id":360761,"adult":false},{"id":258403,"adult":null},{"id":288961,"adult":false},{"id":3021,"adult":false},{"id":359634,"adult":true},{"id":381193,"adult":false},{"id":3600,"adult":false},{"id":381194,"adult":false},{"id":236938,"adult":false},{"id":367193,"adult":false},{"id":34932,"adult":false},{"id":236505,"adult":false},{"id":196171,"adult":false},{"id":184604,"adult":false},{"id":234975,"adult":false},{"id":368740,"adult":false}],"page":33,"total_pages":119,"total_results":11854}