{"results":[{"id":320000,"adult":false},{"id":13934,"adult":false},{"id":378717,"adult":false},{"id":49013,"adult":false},{"id":286192,"adult":false},{"id":200481,"adult":false},{"id":15302,"adult":false},{"id":377148,"adult":false},{"id":415799,"adult":false},{"id":13060,"adult":false},{"id":70372,"adult":false},{"id":151933,"adult":false},{"id":415800,"adult":false},{"id":76757,"adult":false},{"id":415801,"adult":false},{"id":415802,"adult":false},{"id":58336,"adult":false},{"id":256591,"adult":false},{"id":274479,"adult":false},{"id":415803,"adult":false},{"id":415804,"adult":false},{"id":415805,"adult":false},{"id":339280,"adult":false},{"id":49096,"adult":false},{"id":296099,"adult":false},{"id":399786,"adult":false},{"id":205775,"adult":false},{"id":249070,"adult":false},{"id":205436,"adult":false},{"id":314499,"adult":false},{"id":286565,"adult":false},{"id":23254,"adult":false},{"id":181283,"adult":false},{"id":12185,"adult":false},{"id":415806,"adult":null},{"id":280996,"adult":false},{"id":415807,"adult":false},{"id":291008,"adult":false},{"id":261,"adult":false},{"id":23109,"adult":false},{"id":415808,"adult":false},{"id":392048,"adult":false},{"id":266647,"adult":false},{"id":15422,"adult":false},{"id":252838,"adult":false},{"id":257445,"adult":false},{"id":254470,"adult":false},{"id":291270,"adult":false},{"id":257091,"adult":false},{"id":415809,"adult":false},{"id":42464,"adult":false},{"id":6795,"adult":false},{"id":12650,"adult":false},{"id":415810,"adult":false},{"id":415811,"adult":false},{"id":49280,"adult":false},{"id":106806,"adult":false},{"id":31204,"adult":false},{"id":415812,"adult":false},{"id":415813,"adult":false},{"id":259712,"adult":false},{"id":415814,"adult":false},{"id":393603,"adult":false},{"id":232842,"adult":false},{"id":229246,"adult":false},{"id":120802,"adult":false},{"id":116423,"adult":false},{"id":111170,"adult":false},{"id":415815,"adult":null},{"id":415816,"adult":false},{"id":57163,"adult":false},{"id":401434,"adult":false},{"id":161303,"adult":false},{"id":170178,"adult":false},{"id":397470,"adult":false},{"id":396068,"adult":false},{"id":28597,"adult":false},{"id":11077,"adult":false},{"id":28601,"adult":false},{"id":11169,"adult":false},{"id":396575,"adult":false},{"id":95383,"adult":false},{"id":415817,"adult":false},{"id":142106,"adult":false},{"id":405132,"adult":false},{"id":415818,"adult":false},{"id":397713,"adult":false},{"id":289197,"adult":false},{"id":405003,"adult":false},{"id":337167,"adult":false},{"id":309033,"adult":false},{"id":415819,"adult":false},{"id":347296,"adult":false},{"id":9332,"adult":false},{"id":340676,"adult":false},{"id":415820,"adult":false},{"id":104759,"adult":false},{"id":292259,"adult":false},{"id":415821,"adult":false},{"id":415822,"adult":false}],"page":125,"total_pages":126,"total_results":12554}