{"results":[{"id":340143,"adult":false},{"id":265851,"adult":false},{"id":51438,"adult":false},{"id":38093,"adult":false},{"id":427532,"adult":false},{"id":427533,"adult":false},{"id":37686,"adult":false},{"id":205409,"adult":false},{"id":127389,"adult":false},{"id":189150,"adult":false},{"id":427534,"adult":false},{"id":163091,"adult":false},{"id":11569,"adult":false},{"id":25748,"adult":false},{"id":370641,"adult":false},{"id":427535,"adult":false},{"id":427536,"adult":false},{"id":3026,"adult":false},{"id":243856,"adult":false},{"id":16119,"adult":false},{"id":427537,"adult":false},{"id":73442,"adult":false},{"id":427538,"adult":false},{"id":427539,"adult":false},{"id":10750,"adult":false},{"id":403450,"adult":false},{"id":261,"adult":false},{"id":265895,"adult":false},{"id":271670,"adult":false},{"id":427540,"adult":false},{"id":427541,"adult":false},{"id":6575,"adult":false},{"id":243697,"adult":false},{"id":26446,"adult":false},{"id":376492,"adult":false},{"id":112287,"adult":false},{"id":363132,"adult":false},{"id":51205,"adult":false},{"id":67700,"adult":false},{"id":427542,"adult":false},{"id":27679,"adult":false},{"id":427543,"adult":null},{"id":399875,"adult":false},{"id":296687,"adult":false},{"id":184937,"adult":false},{"id":256885,"adult":false},{"id":5820,"adult":false},{"id":383629,"adult":false},{"id":26583,"adult":false},{"id":266458,"adult":false},{"id":427544,"adult":null},{"id":427545,"adult":false},{"id":225606,"adult":false},{"id":427546,"adult":false},{"id":376579,"adult":false},{"id":427547,"adult":false},{"id":427548,"adult":false},{"id":427549,"adult":false},{"id":289071,"adult":false},{"id":9837,"adult":false},{"id":48317,"adult":false},{"id":81406,"adult":false},{"id":367943,"adult":false},{"id":337958,"adult":false},{"id":35074,"adult":false},{"id":62659,"adult":false},{"id":8374,"adult":false},{"id":194279,"adult":false},{"id":324276,"adult":false},{"id":22821,"adult":false},{"id":427550,"adult":false},{"id":387301,"adult":false},{"id":387298,"adult":false},{"id":351469,"adult":false},{"id":13307,"adult":false},{"id":9954,"adult":false},{"id":427551,"adult":false},{"id":427552,"adult":false},{"id":40735,"adult":false},{"id":13544,"adult":false},{"id":393834,"adult":false},{"id":418528,"adult":false},{"id":320033,"adult":false},{"id":336029,"adult":false},{"id":61404,"adult":false},{"id":53216,"adult":false},{"id":8953,"adult":false},{"id":55846,"adult":false},{"id":255718,"adult":false},{"id":124157,"adult":false},{"id":321303,"adult":false},{"id":299576,"adult":false},{"id":30927,"adult":false},{"id":82477,"adult":false},{"id":421017,"adult":false},{"id":54471,"adult":false},{"id":289069,"adult":false},{"id":412124,"adult":false},{"id":160237,"adult":false},{"id":41866,"adult":false}],"page":91,"total_pages":119,"total_results":11862}