{"results":[{"id":890,"adult":false},{"id":74465,"adult":false},{"id":177853,"adult":false},{"id":177852,"adult":false},{"id":278740,"adult":false},{"id":168892,"adult":false},{"id":76709,"adult":false},{"id":339355,"adult":false},{"id":206296,"adult":false},{"id":62628,"adult":false},{"id":256347,"adult":false},{"id":10376,"adult":false},{"id":199238,"adult":false},{"id":385751,"adult":false},{"id":244146,"adult":false},{"id":121995,"adult":false},{"id":92946,"adult":false},{"id":341616,"adult":null},{"id":92951,"adult":false},{"id":92950,"adult":false},{"id":177195,"adult":false},{"id":343394,"adult":null},{"id":343393,"adult":null},{"id":199263,"adult":false},{"id":343395,"adult":null},{"id":343396,"adult":null},{"id":343398,"adult":null},{"id":343397,"adult":null},{"id":399434,"adult":false},{"id":21052,"adult":false},{"id":216071,"adult":false},{"id":290555,"adult":false},{"id":216154,"adult":false},{"id":52673,"adult":false},{"id":216169,"adult":false},{"id":220169,"adult":false},{"id":342751,"adult":null},{"id":342294,"adult":null},{"id":240816,"adult":null},{"id":399435,"adult":false},{"id":260001,"adult":false},{"id":41173,"adult":false},{"id":168313,"adult":false},{"id":399437,"adult":false},{"id":168312,"adult":false},{"id":58266,"adult":false},{"id":305199,"adult":false},{"id":9072,"adult":false},{"id":11521,"adult":false},{"id":79567,"adult":true},{"id":11081,"adult":false},{"id":226486,"adult":false},{"id":76392,"adult":false},{"id":399438,"adult":false},{"id":3989,"adult":false},{"id":58857,"adult":false},{"id":65977,"adult":false},{"id":286537,"adult":false},{"id":14005,"adult":false},{"id":182380,"adult":false},{"id":9591,"adult":false},{"id":8092,"adult":false},{"id":399439,"adult":false},{"id":182372,"adult":null},{"id":1696,"adult":false},{"id":399440,"adult":false},{"id":8643,"adult":false},{"id":791,"adult":false},{"id":1970,"adult":false},{"id":206213,"adult":false},{"id":18781,"adult":false},{"id":25376,"adult":false},{"id":264163,"adult":false},{"id":18405,"adult":false},{"id":169875,"adult":null},{"id":181077,"adult":false},{"id":27581,"adult":false},{"id":254174,"adult":false},{"id":11702,"adult":false},{"id":10665,"adult":false},{"id":11812,"adult":false},{"id":16337,"adult":false},{"id":303616,"adult":false},{"id":361678,"adult":false},{"id":15239,"adult":false},{"id":28165,"adult":false},{"id":28169,"adult":false},{"id":10371,"adult":false},{"id":27601,"adult":false},{"id":399441,"adult":false},{"id":9335,"adult":false},{"id":9708,"adult":false},{"id":544,"adult":false},{"id":171933,"adult":false},{"id":50699,"adult":false},{"id":199966,"adult":false},{"id":393379,"adult":false},{"id":25493,"adult":false},{"id":50620,"adult":false},{"id":272135,"adult":false}],"page":119,"total_pages":128,"total_results":12797}