{"results":[{"id":74689,"adult":false},{"id":360799,"adult":false},{"id":202886,"adult":false},{"id":52767,"adult":false},{"id":28652,"adult":false},{"id":2087,"adult":false},{"id":172164,"adult":false},{"id":314404,"adult":false},{"id":508,"adult":false},{"id":412086,"adult":false},{"id":9086,"adult":false},{"id":412087,"adult":false},{"id":412088,"adult":false},{"id":369834,"adult":false},{"id":323021,"adult":false},{"id":352179,"adult":false},{"id":255851,"adult":false},{"id":317664,"adult":false},{"id":33226,"adult":false},{"id":373476,"adult":false},{"id":33717,"adult":false},{"id":410840,"adult":false},{"id":278,"adult":false},{"id":375012,"adult":false},{"id":369094,"adult":false},{"id":282035,"adult":false},{"id":32293,"adult":false},{"id":214312,"adult":false},{"id":20539,"adult":false},{"id":47971,"adult":false},{"id":59237,"adult":false},{"id":755,"adult":false},{"id":412089,"adult":false},{"id":70670,"adult":false},{"id":32695,"adult":false},{"id":412090,"adult":false},{"id":381491,"adult":false},{"id":86607,"adult":false},{"id":73583,"adult":false},{"id":221082,"adult":false},{"id":412091,"adult":false},{"id":408439,"adult":false},{"id":374954,"adult":false},{"id":383785,"adult":false},{"id":368583,"adult":false},{"id":412092,"adult":false},{"id":376812,"adult":false},{"id":6069,"adult":false},{"id":44943,"adult":false},{"id":109601,"adult":false},{"id":22899,"adult":false},{"id":52728,"adult":false},{"id":34131,"adult":false},{"id":373784,"adult":false},{"id":26947,"adult":false},{"id":70327,"adult":false},{"id":409411,"adult":false},{"id":54433,"adult":false},{"id":59480,"adult":false},{"id":60160,"adult":false},{"id":60159,"adult":false},{"id":11226,"adult":false},{"id":342995,"adult":false},{"id":399650,"adult":null},{"id":62934,"adult":false},{"id":341946,"adult":false},{"id":345940,"adult":false},{"id":65733,"adult":false},{"id":330861,"adult":false},{"id":370203,"adult":false},{"id":399658,"adult":null},{"id":114738,"adult":false},{"id":412093,"adult":false},{"id":592,"adult":false},{"id":374416,"adult":false},{"id":14136,"adult":false},{"id":29169,"adult":false},{"id":230222,"adult":false},{"id":19014,"adult":false},{"id":139718,"adult":false},{"id":404580,"adult":false},{"id":43560,"adult":false},{"id":334298,"adult":false},{"id":308032,"adult":false},{"id":298618,"adult":false},{"id":336806,"adult":false},{"id":308639,"adult":false},{"id":48961,"adult":false},{"id":324764,"adult":false},{"id":30117,"adult":false},{"id":357940,"adult":false},{"id":377690,"adult":false},{"id":412094,"adult":false},{"id":11655,"adult":false},{"id":17964,"adult":false},{"id":300671,"adult":false},{"id":94664,"adult":false},{"id":146202,"adult":false},{"id":13580,"adult":false},{"id":13910,"adult":false}],"page":43,"total_pages":103,"total_results":10211}