{"results":[{"id":283698,"adult":false},{"id":17938,"adult":false},{"id":410831,"adult":false},{"id":115972,"adult":false},{"id":147787,"adult":false},{"id":77084,"adult":false},{"id":41769,"adult":false},{"id":410832,"adult":false},{"id":150201,"adult":false},{"id":410833,"adult":false},{"id":116373,"adult":false},{"id":293979,"adult":false},{"id":39219,"adult":false},{"id":300673,"adult":false},{"id":53939,"adult":false},{"id":33005,"adult":false},{"id":297629,"adult":false},{"id":410834,"adult":false},{"id":117691,"adult":false},{"id":410835,"adult":false},{"id":410836,"adult":false},{"id":43039,"adult":false},{"id":326626,"adult":false},{"id":282505,"adult":false},{"id":967,"adult":false},{"id":67767,"adult":false},{"id":30784,"adult":false},{"id":39890,"adult":false},{"id":410837,"adult":false},{"id":7451,"adult":false},{"id":597,"adult":false},{"id":46935,"adult":false},{"id":38311,"adult":false},{"id":405283,"adult":false},{"id":308090,"adult":false},{"id":72354,"adult":false},{"id":439,"adult":false},{"id":33336,"adult":false},{"id":410838,"adult":false},{"id":54698,"adult":false},{"id":115872,"adult":false},{"id":23724,"adult":false},{"id":293101,"adult":false},{"id":142282,"adult":false},{"id":96231,"adult":false},{"id":31392,"adult":false},{"id":47557,"adult":false},{"id":410839,"adult":false},{"id":286912,"adult":false},{"id":24167,"adult":false},{"id":85620,"adult":false},{"id":92771,"adult":false},{"id":38336,"adult":false},{"id":410840,"adult":false},{"id":80633,"adult":false},{"id":393232,"adult":false},{"id":119886,"adult":false},{"id":13058,"adult":false},{"id":94180,"adult":false},{"id":8063,"adult":false},{"id":80324,"adult":false},{"id":146563,"adult":false},{"id":13185,"adult":false},{"id":15375,"adult":false},{"id":64442,"adult":false},{"id":91587,"adult":false},{"id":58833,"adult":false},{"id":410841,"adult":false},{"id":25606,"adult":false},{"id":220881,"adult":false},{"id":410842,"adult":false},{"id":410843,"adult":false},{"id":59917,"adult":false},{"id":23439,"adult":false},{"id":43013,"adult":false},{"id":73898,"adult":false},{"id":2982,"adult":false},{"id":410844,"adult":false},{"id":20935,"adult":false},{"id":25767,"adult":false},{"id":9044,"adult":false},{"id":410845,"adult":false},{"id":113678,"adult":false},{"id":48955,"adult":false},{"id":45608,"adult":false},{"id":6509,"adult":false},{"id":1908,"adult":false},{"id":410846,"adult":false},{"id":82311,"adult":false},{"id":307084,"adult":false},{"id":410847,"adult":false},{"id":150535,"adult":false},{"id":55420,"adult":false},{"id":2546,"adult":false},{"id":2134,"adult":false},{"id":307164,"adult":false},{"id":32634,"adult":false},{"id":28520,"adult":false},{"id":410848,"adult":false},{"id":306149,"adult":false}],"page":95,"total_pages":117,"total_results":11641}