{"results":[{"id":10518,"adult":false},{"id":403685,"adult":null},{"id":56001,"adult":false},{"id":2275,"adult":false},{"id":241257,"adult":false},{"id":340275,"adult":false},{"id":2978,"adult":false},{"id":333348,"adult":false},{"id":604,"adult":false},{"id":605,"adult":false},{"id":364083,"adult":false},{"id":81522,"adult":false},{"id":62395,"adult":false},{"id":11423,"adult":false},{"id":296313,"adult":false},{"id":75822,"adult":false},{"id":403686,"adult":false},{"id":403687,"adult":false},{"id":400664,"adult":false},{"id":403688,"adult":false},{"id":4479,"adult":false},{"id":11911,"adult":false},{"id":102877,"adult":false},{"id":42790,"adult":false},{"id":69851,"adult":false},{"id":73576,"adult":false},{"id":211672,"adult":false},{"id":388764,"adult":false},{"id":115107,"adult":false},{"id":185512,"adult":false},{"id":14376,"adult":false},{"id":124441,"adult":false},{"id":19,"adult":false},{"id":57505,"adult":false},{"id":181111,"adult":false},{"id":70005,"adult":false},{"id":313228,"adult":false},{"id":59436,"adult":false},{"id":14933,"adult":false},{"id":77889,"adult":false},{"id":62249,"adult":false},{"id":228150,"adult":false},{"id":156149,"adult":false},{"id":9717,"adult":false},{"id":20681,"adult":false},{"id":27431,"adult":false},{"id":290340,"adult":false},{"id":595,"adult":false},{"id":355353,"adult":false},{"id":20345,"adult":false},{"id":111969,"adult":false},{"id":28848,"adult":false},{"id":403689,"adult":null},{"id":25284,"adult":false},{"id":12241,"adult":false},{"id":297517,"adult":false},{"id":11859,"adult":false},{"id":293289,"adult":false},{"id":322762,"adult":false},{"id":395201,"adult":false},{"id":81477,"adult":false},{"id":221732,"adult":false},{"id":192911,"adult":false},{"id":16441,"adult":false},{"id":284764,"adult":null},{"id":221731,"adult":false},{"id":127533,"adult":false},{"id":130941,"adult":false},{"id":70247,"adult":false},{"id":1871,"adult":false},{"id":1870,"adult":false},{"id":1875,"adult":false},{"id":387068,"adult":false},{"id":403690,"adult":false},{"id":403691,"adult":true},{"id":364808,"adult":false},{"id":401322,"adult":false},{"id":301889,"adult":false},{"id":403692,"adult":false},{"id":371737,"adult":false},{"id":174641,"adult":false},{"id":367497,"adult":false},{"id":47934,"adult":false},{"id":370388,"adult":false},{"id":369778,"adult":false},{"id":21185,"adult":false},{"id":320910,"adult":false},{"id":365333,"adult":false},{"id":279459,"adult":false},{"id":340752,"adult":false},{"id":102634,"adult":false},{"id":36748,"adult":false},{"id":67764,"adult":false},{"id":387951,"adult":false},{"id":354288,"adult":false},{"id":1396,"adult":false},{"id":3082,"adult":false},{"id":375069,"adult":null},{"id":60308,"adult":false},{"id":363547,"adult":false}],"page":99,"total_pages":116,"total_results":11526}