{"results":[{"id":408543,"adult":false},{"id":111066,"adult":false},{"id":388131,"adult":false},{"id":410678,"adult":false},{"id":416049,"adult":null},{"id":790,"adult":false},{"id":46827,"adult":false},{"id":121967,"adult":false},{"id":407222,"adult":false},{"id":402456,"adult":false},{"id":41916,"adult":false},{"id":647,"adult":false},{"id":407342,"adult":false},{"id":277834,"adult":false},{"id":57744,"adult":false},{"id":302946,"adult":false},{"id":415914,"adult":false},{"id":416050,"adult":false},{"id":376280,"adult":false},{"id":325956,"adult":false},{"id":403348,"adult":false},{"id":390734,"adult":false},{"id":246167,"adult":false},{"id":26584,"adult":false},{"id":226932,"adult":false},{"id":187598,"adult":false},{"id":252160,"adult":false},{"id":244708,"adult":false},{"id":403434,"adult":false},{"id":415733,"adult":false},{"id":33725,"adult":false},{"id":36783,"adult":false},{"id":56156,"adult":false},{"id":412083,"adult":false},{"id":31294,"adult":false},{"id":257345,"adult":false},{"id":49622,"adult":false},{"id":323369,"adult":false},{"id":271110,"adult":false},{"id":416051,"adult":false},{"id":75190,"adult":false},{"id":416052,"adult":false},{"id":108665,"adult":false},{"id":416053,"adult":null},{"id":12484,"adult":false},{"id":267861,"adult":false},{"id":1849,"adult":false},{"id":74397,"adult":false},{"id":166904,"adult":false},{"id":415715,"adult":false},{"id":318559,"adult":false},{"id":343307,"adult":false},{"id":416054,"adult":false},{"id":415388,"adult":false},{"id":353415,"adult":false},{"id":381063,"adult":false},{"id":416055,"adult":false},{"id":182950,"adult":false},{"id":415926,"adult":false},{"id":42532,"adult":false},{"id":14590,"adult":false},{"id":268825,"adult":false},{"id":416056,"adult":false},{"id":24351,"adult":false},{"id":302699,"adult":false},{"id":5002,"adult":false},{"id":11145,"adult":false},{"id":4258,"adult":false},{"id":416057,"adult":false},{"id":184328,"adult":false},{"id":185289,"adult":false},{"id":409696,"adult":false},{"id":49517,"adult":false},{"id":4257,"adult":false},{"id":341170,"adult":false},{"id":1164,"adult":false},{"id":416058,"adult":false},{"id":400877,"adult":false},{"id":410794,"adult":false},{"id":242042,"adult":false},{"id":340666,"adult":false},{"id":43319,"adult":false},{"id":1723,"adult":false},{"id":259693,"adult":false},{"id":138843,"adult":false},{"id":258230,"adult":false},{"id":110158,"adult":false},{"id":416059,"adult":false},{"id":138435,"adult":false},{"id":191410,"adult":false},{"id":416060,"adult":false},{"id":377386,"adult":true},{"id":143,"adult":false},{"id":416062,"adult":false},{"id":125754,"adult":false},{"id":416063,"adult":false},{"id":14913,"adult":false},{"id":82074,"adult":false},{"id":315664,"adult":false},{"id":109752,"adult":false}],"page":6,"total_pages":141,"total_results":14019}