{"results":[{"id":287903,"adult":false},{"id":45822,"adult":false},{"id":39159,"adult":false},{"id":85545,"adult":false},{"id":39561,"adult":false},{"id":316828,"adult":false},{"id":10569,"adult":false},{"id":81312,"adult":false},{"id":226702,"adult":false},{"id":22257,"adult":false},{"id":392489,"adult":false},{"id":56078,"adult":false},{"id":39788,"adult":false},{"id":79247,"adult":false},{"id":36408,"adult":false},{"id":53150,"adult":false},{"id":96201,"adult":false},{"id":86461,"adult":false},{"id":74922,"adult":false},{"id":184795,"adult":false},{"id":8968,"adult":false},{"id":31548,"adult":false},{"id":80135,"adult":false},{"id":200118,"adult":false},{"id":128710,"adult":false},{"id":367816,"adult":false},{"id":59964,"adult":false},{"id":27902,"adult":false},{"id":231627,"adult":false},{"id":9007,"adult":false},{"id":392490,"adult":false},{"id":115744,"adult":false},{"id":390298,"adult":false},{"id":359664,"adult":false},{"id":143240,"adult":false},{"id":120729,"adult":false},{"id":392491,"adult":false},{"id":106223,"adult":false},{"id":157724,"adult":false},{"id":282476,"adult":false},{"id":361538,"adult":false},{"id":18690,"adult":false},{"id":202772,"adult":false},{"id":43711,"adult":false},{"id":179085,"adult":false},{"id":160346,"adult":false},{"id":364774,"adult":false},{"id":159622,"adult":false},{"id":252019,"adult":false},{"id":364882,"adult":false},{"id":390606,"adult":false},{"id":4396,"adult":false},{"id":352124,"adult":false},{"id":31342,"adult":false},{"id":338553,"adult":false},{"id":364622,"adult":false},{"id":321746,"adult":false},{"id":312442,"adult":false},{"id":390582,"adult":false},{"id":13068,"adult":false},{"id":392492,"adult":false},{"id":352119,"adult":false},{"id":336203,"adult":false},{"id":240633,"adult":false},{"id":74183,"adult":false},{"id":209595,"adult":false},{"id":41349,"adult":false},{"id":392493,"adult":false},{"id":325446,"adult":false},{"id":392494,"adult":true},{"id":392497,"adult":false},{"id":382607,"adult":null},{"id":263623,"adult":false},{"id":361537,"adult":false},{"id":392498,"adult":false},{"id":381375,"adult":false},{"id":323262,"adult":false},{"id":286527,"adult":false},{"id":81264,"adult":false},{"id":33387,"adult":false},{"id":33386,"adult":false},{"id":48173,"adult":false},{"id":33708,"adult":false},{"id":32559,"adult":false},{"id":392499,"adult":false},{"id":244309,"adult":false},{"id":188918,"adult":false},{"id":174658,"adult":false},{"id":15384,"adult":false},{"id":22440,"adult":false},{"id":264297,"adult":false},{"id":165068,"adult":false},{"id":392500,"adult":null},{"id":127548,"adult":false},{"id":31549,"adult":false},{"id":337208,"adult":false},{"id":315024,"adult":false},{"id":362434,"adult":false},{"id":46317,"adult":false},{"id":332411,"adult":false}],"page":103,"total_pages":118,"total_results":11761}