{"results":[{"id":357017,"adult":false},{"id":80669,"adult":false},{"id":386895,"adult":false},{"id":304941,"adult":false},{"id":338598,"adult":false},{"id":386896,"adult":false},{"id":273084,"adult":false},{"id":183865,"adult":false},{"id":386897,"adult":false},{"id":252204,"adult":false},{"id":53868,"adult":false},{"id":236983,"adult":false},{"id":87826,"adult":false},{"id":263945,"adult":false},{"id":386898,"adult":false},{"id":44752,"adult":false},{"id":86387,"adult":false},{"id":386899,"adult":false},{"id":386900,"adult":false},{"id":319389,"adult":false},{"id":386901,"adult":false},{"id":192577,"adult":false},{"id":96367,"adult":false},{"id":351584,"adult":false},{"id":386902,"adult":false},{"id":386903,"adult":false},{"id":386904,"adult":false},{"id":386905,"adult":false},{"id":177221,"adult":false},{"id":386906,"adult":false},{"id":10350,"adult":false},{"id":74237,"adult":false},{"id":386907,"adult":false},{"id":66796,"adult":false},{"id":343795,"adult":false},{"id":91979,"adult":false},{"id":81872,"adult":false},{"id":369533,"adult":false},{"id":227402,"adult":false},{"id":779,"adult":false},{"id":278093,"adult":false},{"id":348,"adult":false},{"id":679,"adult":false},{"id":8077,"adult":false},{"id":386908,"adult":false},{"id":136,"adult":false},{"id":12107,"adult":false},{"id":31682,"adult":false},{"id":86028,"adult":false},{"id":386909,"adult":false},{"id":386910,"adult":false},{"id":280049,"adult":false},{"id":38006,"adult":false},{"id":112241,"adult":false},{"id":12767,"adult":false},{"id":10785,"adult":false},{"id":334991,"adult":false},{"id":67411,"adult":false},{"id":286167,"adult":false},{"id":322977,"adult":false},{"id":386911,"adult":false},{"id":144951,"adult":false},{"id":10513,"adult":false},{"id":348583,"adult":false},{"id":330023,"adult":false},{"id":9077,"adult":false},{"id":8346,"adult":false},{"id":137450,"adult":false},{"id":2963,"adult":false},{"id":386912,"adult":false},{"id":58008,"adult":false},{"id":381375,"adult":false},{"id":71396,"adult":false},{"id":15096,"adult":false},{"id":343913,"adult":false},{"id":339474,"adult":null},{"id":353732,"adult":false},{"id":339476,"adult":false},{"id":115261,"adult":false},{"id":19997,"adult":false},{"id":339478,"adult":false},{"id":271975,"adult":false},{"id":6470,"adult":false},{"id":190956,"adult":false},{"id":26505,"adult":false},{"id":42949,"adult":false},{"id":210121,"adult":null},{"id":339480,"adult":null},{"id":26682,"adult":false},{"id":45987,"adult":false},{"id":47686,"adult":false},{"id":16269,"adult":false},{"id":167726,"adult":false},{"id":160532,"adult":false},{"id":9542,"adult":false},{"id":17734,"adult":false},{"id":341544,"adult":false},{"id":386913,"adult":null},{"id":386914,"adult":false},{"id":123755,"adult":false}],"page":96,"total_pages":123,"total_results":12230}