{"results":[{"id":398391,"adult":false},{"id":398392,"adult":false},{"id":16869,"adult":false},{"id":398393,"adult":false},{"id":341540,"adult":false},{"id":398394,"adult":false},{"id":398395,"adult":false},{"id":398396,"adult":false},{"id":10386,"adult":false},{"id":398397,"adult":false},{"id":398398,"adult":false},{"id":381705,"adult":false},{"id":398399,"adult":false},{"id":398400,"adult":false},{"id":30284,"adult":false},{"id":385962,"adult":false},{"id":196798,"adult":false},{"id":398401,"adult":false},{"id":41864,"adult":false},{"id":352202,"adult":false},{"id":97093,"adult":false},{"id":339751,"adult":false},{"id":215968,"adult":false},{"id":87464,"adult":false},{"id":121795,"adult":false},{"id":354813,"adult":false},{"id":398402,"adult":false},{"id":278643,"adult":false},{"id":11316,"adult":false},{"id":314536,"adult":false},{"id":398403,"adult":false},{"id":157354,"adult":false},{"id":199615,"adult":false},{"id":114938,"adult":false},{"id":307352,"adult":false},{"id":114741,"adult":false},{"id":82976,"adult":false},{"id":302344,"adult":false},{"id":398404,"adult":false},{"id":105576,"adult":false},{"id":298045,"adult":false},{"id":23940,"adult":false},{"id":398405,"adult":false},{"id":398406,"adult":false},{"id":9054,"adult":false},{"id":390511,"adult":false},{"id":177,"adult":false},{"id":155677,"adult":false},{"id":398407,"adult":false},{"id":384043,"adult":false},{"id":362136,"adult":false},{"id":55080,"adult":false},{"id":76758,"adult":false},{"id":81541,"adult":false},{"id":373475,"adult":false},{"id":129933,"adult":false},{"id":382406,"adult":false},{"id":25560,"adult":false},{"id":398409,"adult":false},{"id":10750,"adult":false},{"id":80601,"adult":false},{"id":11975,"adult":false},{"id":395628,"adult":false},{"id":394110,"adult":false},{"id":173966,"adult":false},{"id":398410,"adult":false},{"id":76706,"adult":false},{"id":398411,"adult":false},{"id":108928,"adult":false},{"id":25460,"adult":false},{"id":398412,"adult":false},{"id":284760,"adult":false},{"id":8885,"adult":false},{"id":207769,"adult":false},{"id":398413,"adult":false},{"id":398414,"adult":false},{"id":272718,"adult":false},{"id":2469,"adult":false},{"id":398415,"adult":false},{"id":398416,"adult":false},{"id":28940,"adult":false},{"id":398417,"adult":false},{"id":394070,"adult":false},{"id":360110,"adult":false},{"id":398418,"adult":false},{"id":357156,"adult":false},{"id":4147,"adult":false},{"id":78233,"adult":false},{"id":55,"adult":false},{"id":262402,"adult":false},{"id":398419,"adult":false},{"id":273197,"adult":false},{"id":353378,"adult":false},{"id":328111,"adult":false},{"id":91805,"adult":false},{"id":15915,"adult":false},{"id":2153,"adult":false},{"id":366901,"adult":false},{"id":22267,"adult":false},{"id":47320,"adult":false}],"page":58,"total_pages":128,"total_results":12797}