{"results":[{"id":162494,"adult":false},{"id":427262,"adult":false},{"id":9327,"adult":false},{"id":2907,"adult":false},{"id":351067,"adult":false},{"id":36202,"adult":false},{"id":11049,"adult":false},{"id":6473,"adult":false},{"id":10135,"adult":false},{"id":360640,"adult":false},{"id":427263,"adult":false},{"id":16365,"adult":false},{"id":20683,"adult":false},{"id":427264,"adult":false},{"id":64272,"adult":false},{"id":427265,"adult":false},{"id":106472,"adult":false},{"id":427266,"adult":false},{"id":427267,"adult":false},{"id":388347,"adult":false},{"id":427268,"adult":false},{"id":396011,"adult":false},{"id":277,"adult":false},{"id":87258,"adult":false},{"id":330697,"adult":false},{"id":349934,"adult":false},{"id":265329,"adult":false},{"id":347755,"adult":false},{"id":209320,"adult":false},{"id":302797,"adult":false},{"id":219917,"adult":false},{"id":301527,"adult":false},{"id":115821,"adult":false},{"id":260202,"adult":false},{"id":270010,"adult":false},{"id":270848,"adult":false},{"id":19698,"adult":false},{"id":404133,"adult":false},{"id":10246,"adult":false},{"id":300706,"adult":false},{"id":400387,"adult":false},{"id":284279,"adult":false},{"id":150039,"adult":false},{"id":420774,"adult":false},{"id":342521,"adult":false},{"id":2326,"adult":false},{"id":395883,"adult":false},{"id":27770,"adult":false},{"id":57016,"adult":false},{"id":193212,"adult":false},{"id":9269,"adult":false},{"id":144,"adult":false},{"id":88224,"adult":false},{"id":75,"adult":false},{"id":9819,"adult":false},{"id":10830,"adult":false},{"id":10861,"adult":false},{"id":427269,"adult":false},{"id":18421,"adult":false},{"id":9495,"adult":false},{"id":843,"adult":false},{"id":41843,"adult":false},{"id":184057,"adult":false},{"id":2928,"adult":false},{"id":11502,"adult":false},{"id":1770,"adult":false},{"id":427270,"adult":false},{"id":422210,"adult":null},{"id":51776,"adult":false},{"id":79,"adult":false},{"id":9305,"adult":false},{"id":12656,"adult":false},{"id":954,"adult":false},{"id":36349,"adult":false},{"id":26520,"adult":false},{"id":9101,"adult":false},{"id":36915,"adult":false},{"id":39335,"adult":false},{"id":18989,"adult":false},{"id":422696,"adult":null},{"id":20762,"adult":false},{"id":174865,"adult":false},{"id":427271,"adult":false},{"id":408,"adult":false},{"id":19953,"adult":false},{"id":29933,"adult":false},{"id":137662,"adult":false},{"id":31602,"adult":false},{"id":301906,"adult":false},{"id":79179,"adult":false},{"id":5165,"adult":false},{"id":351523,"adult":false},{"id":11068,"adult":false},{"id":41050,"adult":false},{"id":427272,"adult":false},{"id":425707,"adult":null},{"id":3480,"adult":false},{"id":23919,"adult":false},{"id":59500,"adult":false},{"id":382336,"adult":false}],"page":76,"total_pages":119,"total_results":11862}