{"results":[{"id":376753,"adult":false},{"id":337383,"adult":false},{"id":376754,"adult":false},{"id":264560,"adult":false},{"id":325358,"adult":false},{"id":348421,"adult":false},{"id":376755,"adult":false},{"id":348419,"adult":false},{"id":376756,"adult":false},{"id":249743,"adult":false},{"id":86978,"adult":false},{"id":376757,"adult":false},{"id":7988,"adult":false},{"id":314595,"adult":false},{"id":291151,"adult":false},{"id":376758,"adult":false},{"id":12591,"adult":false},{"id":28165,"adult":false},{"id":28169,"adult":false},{"id":31894,"adult":false},{"id":440,"adult":false},{"id":376759,"adult":false},{"id":270341,"adult":false},{"id":10,"adult":false},{"id":339055,"adult":false},{"id":53129,"adult":false},{"id":52538,"adult":false},{"id":376762,"adult":true},{"id":376763,"adult":false},{"id":296975,"adult":false},{"id":274858,"adult":false},{"id":367762,"adult":false},{"id":321084,"adult":false},{"id":376764,"adult":true},{"id":53023,"adult":false},{"id":376765,"adult":false},{"id":19120,"adult":false},{"id":239056,"adult":false},{"id":376768,"adult":false},{"id":271272,"adult":false},{"id":376769,"adult":false},{"id":319645,"adult":false},{"id":271714,"adult":false},{"id":9476,"adult":false},{"id":279965,"adult":false},{"id":376770,"adult":false},{"id":376771,"adult":false},{"id":317355,"adult":false},{"id":48230,"adult":false},{"id":13251,"adult":false},{"id":182134,"adult":false},{"id":107639,"adult":false},{"id":257076,"adult":false},{"id":263401,"adult":false},{"id":298235,"adult":false},{"id":299802,"adult":false},{"id":11816,"adult":false},{"id":17663,"adult":false},{"id":119947,"adult":false},{"id":193147,"adult":false},{"id":125228,"adult":false},{"id":204975,"adult":false},{"id":254584,"adult":false},{"id":324616,"adult":false},{"id":4011,"adult":false},{"id":365949,"adult":false},{"id":359463,"adult":false},{"id":164378,"adult":false},{"id":376772,"adult":false},{"id":254772,"adult":false},{"id":81025,"adult":false},{"id":38154,"adult":false},{"id":327450,"adult":false},{"id":1541,"adult":false},{"id":284537,"adult":false},{"id":10476,"adult":false},{"id":376773,"adult":false},{"id":10725,"adult":false},{"id":278545,"adult":false},{"id":253331,"adult":false},{"id":28941,"adult":false},{"id":25853,"adult":false},{"id":26444,"adult":false},{"id":234212,"adult":false},{"id":283417,"adult":false},{"id":186096,"adult":false},{"id":24832,"adult":false},{"id":144537,"adult":false},{"id":17247,"adult":false},{"id":376774,"adult":false},{"id":73,"adult":false},{"id":37178,"adult":false},{"id":314415,"adult":false},{"id":351829,"adult":false},{"id":61243,"adult":false},{"id":372075,"adult":false},{"id":38843,"adult":false},{"id":41180,"adult":false},{"id":202707,"adult":false},{"id":214047,"adult":false}],"page":88,"total_pages":121,"total_results":12060}