{"results":[{"id":55175,"adult":false},{"id":381499,"adult":false},{"id":261621,"adult":false},{"id":14912,"adult":false},{"id":107306,"adult":false},{"id":228970,"adult":false},{"id":18239,"adult":false},{"id":10207,"adult":false},{"id":16268,"adult":false},{"id":326215,"adult":false},{"id":34812,"adult":false},{"id":342464,"adult":false},{"id":362202,"adult":false},{"id":265162,"adult":false},{"id":4226,"adult":false},{"id":354499,"adult":false},{"id":381500,"adult":false},{"id":381501,"adult":null},{"id":364326,"adult":false},{"id":338518,"adult":false},{"id":381502,"adult":null},{"id":253412,"adult":false},{"id":33065,"adult":false},{"id":37750,"adult":false},{"id":103642,"adult":false},{"id":381503,"adult":false},{"id":373141,"adult":true},{"id":332016,"adult":false},{"id":381504,"adult":false},{"id":309095,"adult":false},{"id":370161,"adult":false},{"id":381505,"adult":false},{"id":149477,"adult":false},{"id":149465,"adult":false},{"id":44661,"adult":false},{"id":344123,"adult":false},{"id":24123,"adult":false},{"id":31080,"adult":false},{"id":162753,"adult":false},{"id":335906,"adult":false},{"id":190239,"adult":false},{"id":101996,"adult":false},{"id":63849,"adult":false},{"id":2503,"adult":false},{"id":381506,"adult":false},{"id":26189,"adult":false},{"id":381507,"adult":false},{"id":381508,"adult":false},{"id":120109,"adult":false},{"id":381509,"adult":false},{"id":190352,"adult":false},{"id":381510,"adult":false},{"id":233946,"adult":false},{"id":272,"adult":false},{"id":265842,"adult":false},{"id":369019,"adult":false},{"id":166581,"adult":false},{"id":228477,"adult":false},{"id":41226,"adult":false},{"id":233567,"adult":false},{"id":119425,"adult":false},{"id":381511,"adult":false},{"id":288188,"adult":false},{"id":219476,"adult":false},{"id":325206,"adult":null},{"id":373408,"adult":false},{"id":41007,"adult":false},{"id":381512,"adult":false},{"id":278912,"adult":true},{"id":127509,"adult":false},{"id":135624,"adult":false},{"id":359123,"adult":null},{"id":768,"adult":false},{"id":264434,"adult":false},{"id":363475,"adult":null},{"id":381513,"adult":false},{"id":48864,"adult":false},{"id":376789,"adult":true},{"id":28479,"adult":false},{"id":219487,"adult":false},{"id":7093,"adult":false},{"id":288509,"adult":false},{"id":46321,"adult":false},{"id":363265,"adult":true},{"id":23105,"adult":false},{"id":9310,"adult":false},{"id":205596,"adult":false},{"id":361363,"adult":false},{"id":96223,"adult":false},{"id":319868,"adult":false},{"id":97128,"adult":false},{"id":381515,"adult":true},{"id":300893,"adult":false},{"id":191101,"adult":false},{"id":252512,"adult":false},{"id":356158,"adult":false},{"id":30923,"adult":false},{"id":11900,"adult":false},{"id":381516,"adult":false},{"id":300497,"adult":true}],"page":52,"total_pages":119,"total_results":11854}