{"results":[{"id":257315,"adult":false},{"id":424409,"adult":false},{"id":400982,"adult":false},{"id":141319,"adult":false},{"id":49792,"adult":false},{"id":311243,"adult":false},{"id":379545,"adult":false},{"id":424410,"adult":false},{"id":424411,"adult":false},{"id":1830,"adult":false},{"id":424412,"adult":false},{"id":212958,"adult":false},{"id":15771,"adult":false},{"id":32692,"adult":false},{"id":83500,"adult":false},{"id":405373,"adult":false},{"id":424413,"adult":false},{"id":424414,"adult":false},{"id":352962,"adult":false},{"id":424415,"adult":false},{"id":113933,"adult":false},{"id":389490,"adult":false},{"id":567,"adult":false},{"id":64167,"adult":false},{"id":424416,"adult":false},{"id":25330,"adult":false},{"id":426,"adult":false},{"id":11691,"adult":false},{"id":31000,"adult":false},{"id":13697,"adult":false},{"id":56385,"adult":false},{"id":424417,"adult":false},{"id":416468,"adult":false},{"id":407792,"adult":false},{"id":424418,"adult":false},{"id":424419,"adult":false},{"id":111490,"adult":false},{"id":13122,"adult":false},{"id":54405,"adult":false},{"id":69869,"adult":false},{"id":52660,"adult":false},{"id":8222,"adult":false},{"id":8468,"adult":false},{"id":16191,"adult":false},{"id":10171,"adult":false},{"id":79866,"adult":false},{"id":391068,"adult":false},{"id":16096,"adult":false},{"id":424420,"adult":false},{"id":9292,"adult":false},{"id":338393,"adult":false},{"id":4643,"adult":false},{"id":78032,"adult":false},{"id":27497,"adult":false},{"id":25598,"adult":false},{"id":11058,"adult":false},{"id":253,"adult":false},{"id":339547,"adult":false},{"id":24477,"adult":false},{"id":338827,"adult":false},{"id":424421,"adult":false},{"id":47743,"adult":false},{"id":393320,"adult":false},{"id":284789,"adult":false},{"id":123324,"adult":false},{"id":390046,"adult":false},{"id":424422,"adult":false},{"id":424423,"adult":false},{"id":43759,"adult":false},{"id":146198,"adult":false},{"id":264250,"adult":false},{"id":145228,"adult":false},{"id":316142,"adult":false},{"id":9268,"adult":false},{"id":243935,"adult":false},{"id":365096,"adult":false},{"id":1523,"adult":false},{"id":409090,"adult":false},{"id":60219,"adult":false},{"id":424424,"adult":null},{"id":103731,"adult":false},{"id":424425,"adult":false},{"id":424426,"adult":null},{"id":76750,"adult":false},{"id":394080,"adult":false},{"id":423387,"adult":null},{"id":71509,"adult":false},{"id":190342,"adult":false},{"id":424427,"adult":null},{"id":177099,"adult":false},{"id":410995,"adult":false},{"id":313767,"adult":false},{"id":340101,"adult":false},{"id":422944,"adult":null},{"id":424428,"adult":null},{"id":422943,"adult":false},{"id":424430,"adult":false},{"id":424431,"adult":null},{"id":1792,"adult":false},{"id":409696,"adult":false}],"page":39,"total_pages":120,"total_results":11922}