{"results":[{"id":72113,"adult":false},{"id":87683,"adult":false},{"id":356753,"adult":false},{"id":39254,"adult":false},{"id":356752,"adult":false},{"id":393179,"adult":false},{"id":38745,"adult":false},{"id":13074,"adult":false},{"id":186,"adult":false},{"id":1620,"adult":false},{"id":254904,"adult":false},{"id":27594,"adult":false},{"id":125261,"adult":false},{"id":44264,"adult":false},{"id":201086,"adult":false},{"id":18736,"adult":false},{"id":15648,"adult":false},{"id":393180,"adult":false},{"id":391899,"adult":false},{"id":10923,"adult":false},{"id":91427,"adult":false},{"id":17047,"adult":false},{"id":318121,"adult":false},{"id":11247,"adult":false},{"id":239860,"adult":false},{"id":33196,"adult":false},{"id":283587,"adult":false},{"id":1782,"adult":false},{"id":36290,"adult":false},{"id":36648,"adult":false},{"id":388885,"adult":false},{"id":378489,"adult":false},{"id":49021,"adult":false},{"id":106845,"adult":false},{"id":227857,"adult":false},{"id":393181,"adult":false},{"id":156268,"adult":false},{"id":125264,"adult":false},{"id":216016,"adult":false},{"id":64968,"adult":false},{"id":307717,"adult":false},{"id":271909,"adult":false},{"id":46872,"adult":false},{"id":43376,"adult":false},{"id":393182,"adult":false},{"id":177888,"adult":false},{"id":78223,"adult":false},{"id":43379,"adult":false},{"id":335753,"adult":false},{"id":293970,"adult":false},{"id":393183,"adult":false},{"id":203835,"adult":false},{"id":266609,"adult":false},{"id":270400,"adult":false},{"id":393184,"adult":false},{"id":385571,"adult":false},{"id":393185,"adult":false},{"id":393186,"adult":false},{"id":392877,"adult":false},{"id":20160,"adult":false},{"id":322147,"adult":false},{"id":10748,"adult":false},{"id":338928,"adult":false},{"id":159008,"adult":false},{"id":310568,"adult":false},{"id":72841,"adult":false},{"id":85359,"adult":false},{"id":224670,"adult":false},{"id":60803,"adult":false},{"id":264767,"adult":false},{"id":328425,"adult":false},{"id":259956,"adult":false},{"id":218228,"adult":false},{"id":390641,"adult":false},{"id":342380,"adult":false},{"id":109074,"adult":false},{"id":301355,"adult":false},{"id":39946,"adult":false},{"id":312301,"adult":false},{"id":50479,"adult":false},{"id":1619,"adult":false},{"id":46169,"adult":false},{"id":232317,"adult":false},{"id":174178,"adult":false},{"id":355759,"adult":false},{"id":282332,"adult":false},{"id":17381,"adult":false},{"id":85163,"adult":false},{"id":353081,"adult":false},{"id":382908,"adult":false},{"id":370275,"adult":false},{"id":114955,"adult":false},{"id":147084,"adult":false},{"id":10521,"adult":false},{"id":81440,"adult":false},{"id":283227,"adult":false},{"id":157504,"adult":false},{"id":86651,"adult":false},{"id":103014,"adult":false},{"id":393187,"adult":false}],"page":21,"total_pages":127,"total_results":12659}