{"results":[{"id":246456,"adult":true},{"id":413746,"adult":false},{"id":394117,"adult":false},{"id":338752,"adult":false},{"id":198983,"adult":false},{"id":403987,"adult":false},{"id":413362,"adult":false},{"id":156415,"adult":false},{"id":362161,"adult":false},{"id":405376,"adult":false},{"id":419921,"adult":true},{"id":435,"adult":false},{"id":333485,"adult":false},{"id":128914,"adult":false},{"id":399369,"adult":false},{"id":84299,"adult":false},{"id":57829,"adult":false},{"id":105941,"adult":false},{"id":400458,"adult":false},{"id":15740,"adult":false},{"id":78381,"adult":false},{"id":400090,"adult":false},{"id":396321,"adult":false},{"id":361885,"adult":true},{"id":302528,"adult":false},{"id":18404,"adult":false},{"id":50066,"adult":false},{"id":41044,"adult":false},{"id":354981,"adult":false},{"id":9489,"adult":false},{"id":419922,"adult":true},{"id":45759,"adult":false},{"id":174383,"adult":false},{"id":419923,"adult":false},{"id":1825,"adult":false},{"id":48446,"adult":false},{"id":29332,"adult":false},{"id":348896,"adult":false},{"id":5205,"adult":false},{"id":304249,"adult":true},{"id":289600,"adult":false},{"id":399056,"adult":false},{"id":2636,"adult":false},{"id":302699,"adult":false},{"id":419924,"adult":false},{"id":265823,"adult":false},{"id":11228,"adult":false},{"id":284427,"adult":false},{"id":208869,"adult":false},{"id":280239,"adult":false},{"id":20348,"adult":false},{"id":399361,"adult":false},{"id":399363,"adult":false},{"id":192519,"adult":true},{"id":392958,"adult":false},{"id":115086,"adult":false},{"id":407451,"adult":false},{"id":336002,"adult":false},{"id":36093,"adult":false},{"id":401889,"adult":false},{"id":79476,"adult":null},{"id":403113,"adult":false},{"id":34478,"adult":false},{"id":38568,"adult":false},{"id":419925,"adult":true},{"id":419926,"adult":false},{"id":265200,"adult":false},{"id":42196,"adult":false},{"id":119482,"adult":false},{"id":419927,"adult":false},{"id":419928,"adult":true},{"id":6547,"adult":false},{"id":68048,"adult":false},{"id":419929,"adult":false},{"id":99987,"adult":false},{"id":419930,"adult":false},{"id":419931,"adult":true},{"id":56659,"adult":false},{"id":46536,"adult":true},{"id":343757,"adult":false},{"id":316304,"adult":false},{"id":419932,"adult":false},{"id":55600,"adult":false},{"id":75311,"adult":false},{"id":12472,"adult":false},{"id":5544,"adult":false},{"id":37591,"adult":false},{"id":419933,"adult":false},{"id":284544,"adult":false},{"id":419934,"adult":false},{"id":256697,"adult":false},{"id":419935,"adult":true},{"id":222724,"adult":false},{"id":256561,"adult":false},{"id":419936,"adult":false},{"id":31240,"adult":false},{"id":239845,"adult":false},{"id":75455,"adult":false},{"id":125619,"adult":false},{"id":419937,"adult":false}],"page":83,"total_pages":144,"total_results":14341}