{"results":[{"id":239434,"adult":false},{"id":282476,"adult":false},{"id":19034,"adult":false},{"id":161426,"adult":false},{"id":143519,"adult":false},{"id":414900,"adult":false},{"id":2413,"adult":false},{"id":44192,"adult":false},{"id":308504,"adult":false},{"id":223315,"adult":false},{"id":406279,"adult":false},{"id":34900,"adult":false},{"id":369860,"adult":false},{"id":171272,"adult":false},{"id":277594,"adult":false},{"id":138461,"adult":false},{"id":414901,"adult":false},{"id":414902,"adult":false},{"id":76451,"adult":false},{"id":414903,"adult":false},{"id":406258,"adult":false},{"id":148435,"adult":false},{"id":3935,"adult":false},{"id":339709,"adult":false},{"id":45318,"adult":false},{"id":228210,"adult":false},{"id":14283,"adult":false},{"id":248543,"adult":false},{"id":332719,"adult":false},{"id":37050,"adult":false},{"id":47493,"adult":false},{"id":412593,"adult":false},{"id":13904,"adult":false},{"id":34277,"adult":false},{"id":52333,"adult":false},{"id":291211,"adult":false},{"id":46651,"adult":false},{"id":414904,"adult":false},{"id":322740,"adult":false},{"id":395637,"adult":null},{"id":9566,"adult":false},{"id":109439,"adult":false},{"id":17418,"adult":false},{"id":414905,"adult":false},{"id":16307,"adult":false},{"id":329712,"adult":false},{"id":237460,"adult":false},{"id":360142,"adult":false},{"id":24243,"adult":false},{"id":414906,"adult":false},{"id":282439,"adult":false},{"id":414907,"adult":false},{"id":312128,"adult":false},{"id":43823,"adult":false},{"id":334521,"adult":false},{"id":201088,"adult":false},{"id":28963,"adult":false},{"id":109481,"adult":false},{"id":414908,"adult":false},{"id":334517,"adult":false},{"id":64504,"adult":false},{"id":367197,"adult":false},{"id":94854,"adult":false},{"id":167931,"adult":false},{"id":81220,"adult":false},{"id":298874,"adult":false},{"id":20293,"adult":false},{"id":414909,"adult":false},{"id":10141,"adult":false},{"id":35687,"adult":false},{"id":395419,"adult":false},{"id":12677,"adult":false},{"id":23282,"adult":false},{"id":20701,"adult":false},{"id":414910,"adult":false},{"id":414911,"adult":false},{"id":301228,"adult":false},{"id":206775,"adult":false},{"id":410607,"adult":false},{"id":51357,"adult":false},{"id":345972,"adult":false},{"id":123025,"adult":false},{"id":9396,"adult":false},{"id":347352,"adult":false},{"id":142061,"adult":false},{"id":53409,"adult":false},{"id":81571,"adult":false},{"id":10484,"adult":false},{"id":282907,"adult":false},{"id":76726,"adult":false},{"id":130044,"adult":false},{"id":351192,"adult":false},{"id":68665,"adult":false},{"id":188934,"adult":false},{"id":1566,"adult":false},{"id":376893,"adult":false},{"id":404114,"adult":false},{"id":1859,"adult":false},{"id":42692,"adult":false},{"id":58868,"adult":false}],"page":74,"total_pages":126,"total_results":12554}