{"results":[{"id":39890,"adult":false},{"id":270007,"adult":false},{"id":393946,"adult":false},{"id":393947,"adult":false},{"id":18890,"adult":false},{"id":393948,"adult":false},{"id":393949,"adult":false},{"id":393950,"adult":false},{"id":12539,"adult":false},{"id":393951,"adult":false},{"id":362009,"adult":false},{"id":637,"adult":false},{"id":393952,"adult":null},{"id":393953,"adult":false},{"id":202317,"adult":false},{"id":317244,"adult":false},{"id":330628,"adult":false},{"id":393954,"adult":false},{"id":260312,"adult":false},{"id":283235,"adult":false},{"id":69363,"adult":false},{"id":106685,"adult":false},{"id":318789,"adult":false},{"id":391774,"adult":false},{"id":180951,"adult":false},{"id":22733,"adult":false},{"id":207936,"adult":false},{"id":202307,"adult":false},{"id":257290,"adult":false},{"id":11624,"adult":false},{"id":32072,"adult":false},{"id":356865,"adult":false},{"id":393955,"adult":false},{"id":323925,"adult":false},{"id":317728,"adult":false},{"id":2322,"adult":false},{"id":172226,"adult":false},{"id":11232,"adult":false},{"id":37481,"adult":false},{"id":305638,"adult":false},{"id":9822,"adult":false},{"id":362343,"adult":false},{"id":388204,"adult":false},{"id":393956,"adult":false},{"id":393957,"adult":false},{"id":387087,"adult":false},{"id":393958,"adult":false},{"id":263983,"adult":false},{"id":129597,"adult":false},{"id":209646,"adult":false},{"id":59006,"adult":false},{"id":296750,"adult":false},{"id":332685,"adult":false},{"id":163223,"adult":false},{"id":163238,"adult":false},{"id":117588,"adult":false},{"id":157002,"adult":false},{"id":117590,"adult":false},{"id":380517,"adult":false},{"id":233719,"adult":false},{"id":147015,"adult":false},{"id":147211,"adult":false},{"id":11497,"adult":false},{"id":129850,"adult":false},{"id":37703,"adult":false},{"id":60597,"adult":false},{"id":380583,"adult":false},{"id":28740,"adult":false},{"id":393959,"adult":false},{"id":183846,"adult":false},{"id":302718,"adult":false},{"id":302761,"adult":false},{"id":36865,"adult":false},{"id":68737,"adult":false},{"id":46111,"adult":false},{"id":1729,"adult":false},{"id":53997,"adult":false},{"id":19042,"adult":false},{"id":20911,"adult":false},{"id":61271,"adult":false},{"id":132183,"adult":false},{"id":301220,"adult":false},{"id":70697,"adult":false},{"id":165,"adult":false},{"id":138372,"adult":false},{"id":282469,"adult":false},{"id":237703,"adult":false},{"id":955,"adult":false},{"id":74262,"adult":false},{"id":393960,"adult":false},{"id":74100,"adult":false},{"id":156077,"adult":false},{"id":310252,"adult":false},{"id":271706,"adult":false},{"id":42659,"adult":false},{"id":302939,"adult":false},{"id":13888,"adult":false},{"id":393961,"adult":false},{"id":38684,"adult":false},{"id":81079,"adult":false}],"page":70,"total_pages":127,"total_results":12659}