{"results":[{"id":8983,"adult":false},{"id":71556,"adult":false},{"id":44865,"adult":false},{"id":308193,"adult":false},{"id":302347,"adult":false},{"id":55653,"adult":false},{"id":56739,"adult":false},{"id":362014,"adult":true},{"id":47407,"adult":false},{"id":387722,"adult":false},{"id":19235,"adult":false},{"id":195665,"adult":false},{"id":204760,"adult":false},{"id":60818,"adult":false},{"id":351198,"adult":false},{"id":14167,"adult":false},{"id":261111,"adult":false},{"id":351208,"adult":false},{"id":30728,"adult":false},{"id":81972,"adult":false},{"id":19819,"adult":false},{"id":388764,"adult":false},{"id":345981,"adult":false},{"id":345882,"adult":false},{"id":302508,"adult":false},{"id":74518,"adult":false},{"id":332321,"adult":false},{"id":393517,"adult":false},{"id":20649,"adult":false},{"id":323665,"adult":false},{"id":385722,"adult":false},{"id":365719,"adult":false},{"id":38176,"adult":false},{"id":44442,"adult":false},{"id":22213,"adult":false},{"id":52699,"adult":false},{"id":392978,"adult":false},{"id":76148,"adult":false},{"id":189888,"adult":false},{"id":366141,"adult":false},{"id":393277,"adult":false},{"id":22488,"adult":false},{"id":366143,"adult":false},{"id":25160,"adult":false},{"id":27154,"adult":false},{"id":214464,"adult":false},{"id":73109,"adult":false},{"id":218694,"adult":false},{"id":37405,"adult":false},{"id":25119,"adult":false},{"id":70574,"adult":false},{"id":419209,"adult":false},{"id":419210,"adult":false},{"id":39453,"adult":false},{"id":64976,"adult":false},{"id":40029,"adult":false},{"id":79830,"adult":false},{"id":213681,"adult":false},{"id":47953,"adult":false},{"id":134051,"adult":false},{"id":61047,"adult":false},{"id":163551,"adult":false},{"id":145228,"adult":false},{"id":11948,"adult":false},{"id":328387,"adult":false},{"id":419211,"adult":false},{"id":29538,"adult":false},{"id":68842,"adult":false},{"id":399894,"adult":false},{"id":12186,"adult":false},{"id":95610,"adult":false},{"id":24392,"adult":false},{"id":254470,"adult":false},{"id":418673,"adult":false},{"id":1979,"adult":false},{"id":33586,"adult":false},{"id":369776,"adult":false},{"id":359687,"adult":null},{"id":52619,"adult":false},{"id":336611,"adult":true},{"id":336998,"adult":true},{"id":336487,"adult":true},{"id":365584,"adult":true},{"id":297719,"adult":false},{"id":369237,"adult":false},{"id":119807,"adult":false},{"id":404608,"adult":null},{"id":368940,"adult":false},{"id":415591,"adult":null},{"id":362762,"adult":false},{"id":81493,"adult":false},{"id":41857,"adult":false},{"id":16410,"adult":false},{"id":125250,"adult":false},{"id":160417,"adult":false},{"id":419212,"adult":false},{"id":377729,"adult":false},{"id":67630,"adult":false},{"id":419213,"adult":null},{"id":114478,"adult":false}],"page":33,"total_pages":144,"total_results":14341}