{"results":[{"id":123023,"adult":false},{"id":67619,"adult":false},{"id":127246,"adult":false},{"id":159265,"adult":false},{"id":90908,"adult":false},{"id":206819,"adult":false},{"id":77728,"adult":false},{"id":347274,"adult":false},{"id":412455,"adult":false},{"id":257345,"adult":false},{"id":293439,"adult":null},{"id":412456,"adult":false},{"id":392308,"adult":false},{"id":340829,"adult":false},{"id":151478,"adult":false},{"id":310942,"adult":false},{"id":71681,"adult":false},{"id":276905,"adult":false},{"id":27526,"adult":false},{"id":10222,"adult":false},{"id":42258,"adult":false},{"id":382336,"adult":false},{"id":315439,"adult":false},{"id":10985,"adult":false},{"id":412457,"adult":false},{"id":255709,"adult":false},{"id":52425,"adult":false},{"id":298849,"adult":false},{"id":412458,"adult":false},{"id":412459,"adult":false},{"id":39439,"adult":false},{"id":412460,"adult":false},{"id":412461,"adult":false},{"id":15775,"adult":false},{"id":65881,"adult":false},{"id":49407,"adult":false},{"id":405559,"adult":false},{"id":61062,"adult":false},{"id":18214,"adult":false},{"id":259118,"adult":false},{"id":110416,"adult":false},{"id":54117,"adult":false},{"id":9399,"adult":false},{"id":412462,"adult":false},{"id":33726,"adult":false},{"id":294016,"adult":false},{"id":412463,"adult":false},{"id":277196,"adult":false},{"id":100408,"adult":false},{"id":24238,"adult":false},{"id":260368,"adult":true},{"id":9594,"adult":false},{"id":376836,"adult":false},{"id":226948,"adult":false},{"id":324986,"adult":false},{"id":10413,"adult":false},{"id":412464,"adult":false},{"id":308642,"adult":false},{"id":52317,"adult":false},{"id":379118,"adult":false},{"id":397117,"adult":false},{"id":412465,"adult":false},{"id":266633,"adult":null},{"id":11498,"adult":false},{"id":98993,"adult":false},{"id":412466,"adult":false},{"id":36147,"adult":false},{"id":412467,"adult":false},{"id":5237,"adult":false},{"id":8831,"adult":false},{"id":9091,"adult":false},{"id":80151,"adult":false},{"id":8457,"adult":false},{"id":217778,"adult":false},{"id":412468,"adult":false},{"id":412469,"adult":false},{"id":356496,"adult":false},{"id":412470,"adult":false},{"id":9103,"adult":false},{"id":412471,"adult":false},{"id":225553,"adult":false},{"id":148858,"adult":false},{"id":358770,"adult":false},{"id":8265,"adult":false},{"id":344911,"adult":false},{"id":322740,"adult":false},{"id":20701,"adult":false},{"id":31907,"adult":false},{"id":632,"adult":false},{"id":365837,"adult":false},{"id":10596,"adult":false},{"id":172866,"adult":false},{"id":43239,"adult":false},{"id":5764,"adult":false},{"id":113673,"adult":true},{"id":24883,"adult":false},{"id":293660,"adult":false},{"id":412472,"adult":false},{"id":36651,"adult":false},{"id":14172,"adult":false}],"page":69,"total_pages":103,"total_results":10211}