{"results":[{"id":215830,"adult":false},{"id":279975,"adult":false},{"id":289394,"adult":false},{"id":366596,"adult":true},{"id":326057,"adult":false},{"id":177637,"adult":true},{"id":405825,"adult":false},{"id":351721,"adult":false},{"id":4347,"adult":false},{"id":6914,"adult":false},{"id":230873,"adult":true},{"id":401917,"adult":false},{"id":53827,"adult":false},{"id":405826,"adult":false},{"id":50075,"adult":false},{"id":3090,"adult":false},{"id":159124,"adult":false},{"id":405827,"adult":true},{"id":9426,"adult":false},{"id":405828,"adult":false},{"id":240656,"adult":false},{"id":9944,"adult":false},{"id":405829,"adult":false},{"id":102362,"adult":false},{"id":18710,"adult":false},{"id":216050,"adult":false},{"id":62541,"adult":false},{"id":328407,"adult":false},{"id":6075,"adult":false},{"id":48625,"adult":false},{"id":302960,"adult":false},{"id":404076,"adult":false},{"id":342316,"adult":false},{"id":44401,"adult":false},{"id":405830,"adult":false},{"id":334304,"adult":false},{"id":203,"adult":false},{"id":400934,"adult":false},{"id":405831,"adult":false},{"id":243688,"adult":false},{"id":361631,"adult":false},{"id":279154,"adult":false},{"id":405832,"adult":false},{"id":405833,"adult":false},{"id":30874,"adult":false},{"id":218043,"adult":false},{"id":151583,"adult":false},{"id":25569,"adult":false},{"id":58706,"adult":false},{"id":405834,"adult":false},{"id":283826,"adult":false},{"id":9524,"adult":false},{"id":14684,"adult":false},{"id":290617,"adult":false},{"id":22099,"adult":false},{"id":191238,"adult":false},{"id":191237,"adult":false},{"id":22097,"adult":false},{"id":105672,"adult":false},{"id":371961,"adult":false},{"id":39229,"adult":false},{"id":241702,"adult":false},{"id":36561,"adult":false},{"id":55685,"adult":false},{"id":405835,"adult":false},{"id":369183,"adult":false},{"id":405836,"adult":false},{"id":399226,"adult":false},{"id":405837,"adult":null},{"id":40081,"adult":false},{"id":249425,"adult":false},{"id":112869,"adult":false},{"id":381128,"adult":false},{"id":330459,"adult":false},{"id":359426,"adult":false},{"id":317994,"adult":false},{"id":396283,"adult":false},{"id":367750,"adult":false},{"id":405838,"adult":false},{"id":250231,"adult":false},{"id":236307,"adult":false},{"id":405839,"adult":true},{"id":16197,"adult":false},{"id":287893,"adult":false},{"id":405840,"adult":false},{"id":369025,"adult":true},{"id":405841,"adult":false},{"id":405842,"adult":false},{"id":405843,"adult":false},{"id":405844,"adult":false},{"id":34713,"adult":false},{"id":2006,"adult":false},{"id":57766,"adult":false},{"id":294878,"adult":false},{"id":405845,"adult":false},{"id":405846,"adult":false},{"id":39844,"adult":false},{"id":251647,"adult":false},{"id":30017,"adult":false},{"id":404049,"adult":false}],"page":85,"total_pages":112,"total_results":11190}