{"results":[{"id":374617,"adult":false},{"id":411640,"adult":false},{"id":417119,"adult":false},{"id":417120,"adult":false},{"id":256854,"adult":false},{"id":36199,"adult":false},{"id":9101,"adult":false},{"id":417121,"adult":false},{"id":414693,"adult":false},{"id":53060,"adult":false},{"id":417122,"adult":false},{"id":417123,"adult":false},{"id":27743,"adult":false},{"id":134826,"adult":false},{"id":417124,"adult":false},{"id":96635,"adult":false},{"id":225419,"adult":false},{"id":255882,"adult":false},{"id":417125,"adult":false},{"id":390409,"adult":false},{"id":412840,"adult":false},{"id":92060,"adult":false},{"id":417126,"adult":false},{"id":90724,"adult":false},{"id":285461,"adult":false},{"id":417128,"adult":false},{"id":417129,"adult":false},{"id":285217,"adult":false},{"id":384926,"adult":false},{"id":417130,"adult":false},{"id":82079,"adult":false},{"id":193539,"adult":false},{"id":417131,"adult":false},{"id":92775,"adult":false},{"id":387976,"adult":false},{"id":376660,"adult":false},{"id":276922,"adult":false},{"id":111632,"adult":false},{"id":100059,"adult":false},{"id":417132,"adult":false},{"id":417133,"adult":false},{"id":393848,"adult":false},{"id":402786,"adult":false},{"id":417134,"adult":false},{"id":417135,"adult":false},{"id":417136,"adult":false},{"id":417137,"adult":false},{"id":82362,"adult":false},{"id":326423,"adult":false},{"id":71628,"adult":false},{"id":327894,"adult":false},{"id":101887,"adult":false},{"id":49387,"adult":false},{"id":49742,"adult":false},{"id":26333,"adult":false},{"id":196204,"adult":false},{"id":44181,"adult":false},{"id":319070,"adult":false},{"id":383835,"adult":false},{"id":644,"adult":false},{"id":138,"adult":false},{"id":324429,"adult":false},{"id":417138,"adult":false},{"id":3035,"adult":false},{"id":10140,"adult":false},{"id":85202,"adult":false},{"id":73751,"adult":false},{"id":417139,"adult":false},{"id":17037,"adult":false},{"id":417140,"adult":false},{"id":11880,"adult":false},{"id":17124,"adult":false},{"id":18183,"adult":false},{"id":345220,"adult":false},{"id":1414,"adult":false},{"id":417141,"adult":false},{"id":29291,"adult":false},{"id":401154,"adult":null},{"id":42664,"adult":false},{"id":79572,"adult":false},{"id":417142,"adult":false},{"id":20927,"adult":false},{"id":10016,"adult":false},{"id":417143,"adult":false},{"id":417144,"adult":false},{"id":417145,"adult":false},{"id":31592,"adult":false},{"id":417146,"adult":false},{"id":42661,"adult":false},{"id":43636,"adult":false},{"id":405227,"adult":false},{"id":58311,"adult":false},{"id":404133,"adult":false},{"id":417147,"adult":false},{"id":17120,"adult":false},{"id":417148,"adult":false},{"id":259017,"adult":false},{"id":417149,"adult":false},{"id":417150,"adult":false},{"id":417151,"adult":false}],"page":72,"total_pages":141,"total_results":14019}