{"results":[{"id":40085,"adult":false},{"id":9092,"adult":false},{"id":13313,"adult":false},{"id":184923,"adult":false},{"id":192236,"adult":false},{"id":427979,"adult":false},{"id":85297,"adult":false},{"id":228985,"adult":false},{"id":141918,"adult":false},{"id":32982,"adult":false},{"id":245364,"adult":false},{"id":284754,"adult":false},{"id":106035,"adult":false},{"id":25719,"adult":false},{"id":134616,"adult":false},{"id":161542,"adult":false},{"id":38162,"adult":false},{"id":341165,"adult":false},{"id":424639,"adult":false},{"id":182779,"adult":false},{"id":978,"adult":false},{"id":146937,"adult":false},{"id":33657,"adult":false},{"id":9744,"adult":false},{"id":29461,"adult":false},{"id":303872,"adult":false},{"id":19287,"adult":false},{"id":424640,"adult":false},{"id":102218,"adult":false},{"id":6116,"adult":false},{"id":50835,"adult":false},{"id":424562,"adult":false},{"id":427980,"adult":false},{"id":52749,"adult":false},{"id":259085,"adult":false},{"id":12821,"adult":false},{"id":47688,"adult":false},{"id":119,"adult":false},{"id":311513,"adult":false},{"id":119396,"adult":false},{"id":63973,"adult":false},{"id":286022,"adult":false},{"id":109733,"adult":false},{"id":24983,"adult":false},{"id":56363,"adult":false},{"id":73695,"adult":false},{"id":19083,"adult":false},{"id":10668,"adult":false},{"id":10359,"adult":false},{"id":10217,"adult":false},{"id":10871,"adult":false},{"id":427981,"adult":false},{"id":18080,"adult":false},{"id":34838,"adult":false},{"id":171808,"adult":false},{"id":66588,"adult":false},{"id":135540,"adult":false},{"id":2007,"adult":false},{"id":83323,"adult":false},{"id":272385,"adult":false},{"id":427982,"adult":false},{"id":26610,"adult":false},{"id":26934,"adult":false},{"id":22503,"adult":false},{"id":11301,"adult":false},{"id":32643,"adult":false},{"id":258056,"adult":false},{"id":347581,"adult":false},{"id":61563,"adult":false},{"id":413948,"adult":false},{"id":31465,"adult":false},{"id":151087,"adult":true},{"id":11718,"adult":false},{"id":77197,"adult":false},{"id":427983,"adult":false},{"id":34314,"adult":false},{"id":55306,"adult":false},{"id":81861,"adult":false},{"id":11976,"adult":false},{"id":111652,"adult":false},{"id":71456,"adult":false},{"id":77955,"adult":false},{"id":427984,"adult":false},{"id":108128,"adult":false},{"id":331446,"adult":false},{"id":232201,"adult":false},{"id":422185,"adult":null},{"id":113162,"adult":false},{"id":148896,"adult":false},{"id":215056,"adult":false},{"id":6488,"adult":false},{"id":385412,"adult":false},{"id":253779,"adult":false},{"id":427985,"adult":false},{"id":246984,"adult":false},{"id":390490,"adult":false},{"id":427986,"adult":false},{"id":345379,"adult":false},{"id":34125,"adult":false},{"id":424348,"adult":false}],"page":118,"total_pages":119,"total_results":11862}