{"results":[{"id":9456,"adult":false},{"id":56599,"adult":false},{"id":405361,"adult":false},{"id":10844,"adult":false},{"id":4149,"adult":false},{"id":210614,"adult":false},{"id":91017,"adult":false},{"id":115150,"adult":false},{"id":41769,"adult":false},{"id":49051,"adult":false},{"id":245729,"adult":false},{"id":101231,"adult":false},{"id":9261,"adult":false},{"id":237584,"adult":false},{"id":109911,"adult":false},{"id":390096,"adult":false},{"id":15071,"adult":false},{"id":428565,"adult":false},{"id":1620,"adult":false},{"id":249070,"adult":false},{"id":269149,"adult":false},{"id":31283,"adult":false},{"id":4965,"adult":false},{"id":44090,"adult":false},{"id":10908,"adult":false},{"id":94129,"adult":false},{"id":13935,"adult":false},{"id":25773,"adult":false},{"id":27736,"adult":false},{"id":421804,"adult":false},{"id":14881,"adult":false},{"id":60658,"adult":false},{"id":301174,"adult":false},{"id":121856,"adult":false},{"id":428566,"adult":false},{"id":218646,"adult":null},{"id":428567,"adult":false},{"id":179100,"adult":false},{"id":428568,"adult":false},{"id":47971,"adult":false},{"id":428569,"adult":false},{"id":12721,"adult":false},{"id":341174,"adult":false},{"id":428570,"adult":false},{"id":42012,"adult":false},{"id":428571,"adult":false},{"id":105087,"adult":false},{"id":428573,"adult":false},{"id":340837,"adult":false},{"id":36884,"adult":false},{"id":120,"adult":false},{"id":27259,"adult":false},{"id":428574,"adult":false},{"id":428575,"adult":false},{"id":428576,"adult":false},{"id":27703,"adult":false},{"id":428577,"adult":false},{"id":428578,"adult":false},{"id":378065,"adult":false},{"id":428579,"adult":false},{"id":294512,"adult":false},{"id":324849,"adult":false},{"id":182496,"adult":false},{"id":262232,"adult":false},{"id":84040,"adult":false},{"id":377264,"adult":false},{"id":24101,"adult":false},{"id":428580,"adult":false},{"id":40130,"adult":false},{"id":85787,"adult":false},{"id":214608,"adult":false},{"id":428581,"adult":false},{"id":48874,"adult":false},{"id":26954,"adult":false},{"id":341006,"adult":false},{"id":21873,"adult":false},{"id":428582,"adult":false},{"id":39996,"adult":false},{"id":422899,"adult":null},{"id":42326,"adult":false},{"id":422901,"adult":null},{"id":259993,"adult":false},{"id":422895,"adult":false},{"id":45232,"adult":false},{"id":428122,"adult":false},{"id":294795,"adult":false},{"id":381284,"adult":false},{"id":64666,"adult":false},{"id":266601,"adult":false},{"id":428583,"adult":false},{"id":422907,"adult":false},{"id":334543,"adult":false},{"id":428584,"adult":false},{"id":60497,"adult":false},{"id":53342,"adult":false},{"id":345090,"adult":false},{"id":41669,"adult":false},{"id":356326,"adult":false},{"id":411268,"adult":false},{"id":32035,"adult":false}],"page":9,"total_pages":123,"total_results":12242}