{"results":[{"id":49500,"adult":false},{"id":13811,"adult":false},{"id":429426,"adult":false},{"id":24988,"adult":false},{"id":109843,"adult":false},{"id":13354,"adult":false},{"id":2059,"adult":false},{"id":8884,"adult":false},{"id":53027,"adult":false},{"id":35728,"adult":false},{"id":21505,"adult":false},{"id":9773,"adult":false},{"id":52984,"adult":false},{"id":377495,"adult":false},{"id":429427,"adult":false},{"id":429428,"adult":false},{"id":429429,"adult":false},{"id":429430,"adult":false},{"id":50549,"adult":false},{"id":429431,"adult":false},{"id":137854,"adult":false},{"id":52520,"adult":false},{"id":29592,"adult":false},{"id":15373,"adult":false},{"id":429432,"adult":false},{"id":246655,"adult":false},{"id":429433,"adult":false},{"id":36658,"adult":false},{"id":384303,"adult":false},{"id":89385,"adult":false},{"id":1091,"adult":false},{"id":4517,"adult":false},{"id":429434,"adult":false},{"id":8831,"adult":false},{"id":394315,"adult":false},{"id":28807,"adult":false},{"id":249238,"adult":false},{"id":412147,"adult":false},{"id":26041,"adult":false},{"id":8247,"adult":false},{"id":31923,"adult":false},{"id":44741,"adult":false},{"id":45486,"adult":false},{"id":99599,"adult":false},{"id":405827,"adult":true},{"id":404178,"adult":false},{"id":415036,"adult":false},{"id":70856,"adult":false},{"id":429435,"adult":false},{"id":219591,"adult":false},{"id":283552,"adult":false},{"id":425943,"adult":true},{"id":422514,"adult":false},{"id":228048,"adult":false},{"id":152118,"adult":null},{"id":240874,"adult":false},{"id":415005,"adult":false},{"id":412232,"adult":null},{"id":429436,"adult":false},{"id":378135,"adult":false},{"id":17979,"adult":false},{"id":70903,"adult":false},{"id":401981,"adult":false},{"id":347266,"adult":false},{"id":85878,"adult":false},{"id":9870,"adult":false},{"id":51942,"adult":false},{"id":374556,"adult":true},{"id":28090,"adult":false},{"id":376969,"adult":false},{"id":91284,"adult":false},{"id":341013,"adult":false},{"id":41762,"adult":false},{"id":393411,"adult":false},{"id":52854,"adult":false},{"id":420533,"adult":true},{"id":5187,"adult":false},{"id":375503,"adult":false},{"id":389640,"adult":true},{"id":95018,"adult":false},{"id":13355,"adult":false},{"id":10189,"adult":false},{"id":37009,"adult":false},{"id":73150,"adult":true},{"id":53010,"adult":false},{"id":87788,"adult":false},{"id":14785,"adult":false},{"id":62132,"adult":false},{"id":26189,"adult":false},{"id":410456,"adult":false},{"id":415351,"adult":false},{"id":282988,"adult":false},{"id":129364,"adult":false},{"id":244122,"adult":false},{"id":77949,"adult":false},{"id":10019,"adult":false},{"id":374561,"adult":true},{"id":374559,"adult":true},{"id":30782,"adult":false},{"id":374558,"adult":true}],"page":78,"total_pages":123,"total_results":12242}