{"results":[{"id":369033,"adult":false},{"id":87771,"adult":false},{"id":397385,"adult":false},{"id":800,"adult":false},{"id":240634,"adult":false},{"id":176297,"adult":false},{"id":417296,"adult":false},{"id":293,"adult":false},{"id":12573,"adult":false},{"id":37206,"adult":false},{"id":414392,"adult":false},{"id":34653,"adult":false},{"id":208391,"adult":false},{"id":39208,"adult":false},{"id":35614,"adult":false},{"id":171863,"adult":false},{"id":169917,"adult":false},{"id":1892,"adult":false},{"id":4011,"adult":false},{"id":28029,"adult":false},{"id":1374,"adult":false},{"id":60047,"adult":false},{"id":14306,"adult":false},{"id":207,"adult":false},{"id":1367,"adult":false},{"id":864,"adult":false},{"id":10229,"adult":false},{"id":8413,"adult":false},{"id":85,"adult":false},{"id":1246,"adult":false},{"id":34446,"adult":false},{"id":11231,"adult":false},{"id":386273,"adult":false},{"id":417297,"adult":false},{"id":1894,"adult":false},{"id":1366,"adult":false},{"id":9359,"adult":false},{"id":1371,"adult":false},{"id":91207,"adult":false},{"id":20526,"adult":false},{"id":42234,"adult":false},{"id":280640,"adult":false},{"id":417299,"adult":false},{"id":21386,"adult":false},{"id":417300,"adult":false},{"id":362584,"adult":false},{"id":417301,"adult":false},{"id":395627,"adult":false},{"id":159822,"adult":false},{"id":349526,"adult":true},{"id":417302,"adult":false},{"id":417303,"adult":false},{"id":172698,"adult":false},{"id":359355,"adult":false},{"id":345069,"adult":false},{"id":360551,"adult":false},{"id":311146,"adult":false},{"id":75810,"adult":false},{"id":172745,"adult":false},{"id":144003,"adult":false},{"id":161532,"adult":null},{"id":199740,"adult":false},{"id":417304,"adult":false},{"id":417305,"adult":false},{"id":345922,"adult":false},{"id":148526,"adult":false},{"id":31166,"adult":false},{"id":417306,"adult":false},{"id":949,"adult":false},{"id":146238,"adult":false},{"id":199615,"adult":false},{"id":10250,"adult":false},{"id":290796,"adult":false},{"id":389059,"adult":false},{"id":44685,"adult":false},{"id":13,"adult":false},{"id":119316,"adult":false},{"id":37047,"adult":false},{"id":359242,"adult":true},{"id":36967,"adult":false},{"id":47564,"adult":false},{"id":129509,"adult":false},{"id":25518,"adult":false},{"id":129095,"adult":true},{"id":329833,"adult":false},{"id":352789,"adult":false},{"id":410929,"adult":false},{"id":251082,"adult":false},{"id":257853,"adult":true},{"id":32015,"adult":false},{"id":322445,"adult":false},{"id":100710,"adult":false},{"id":417307,"adult":false},{"id":363689,"adult":false},{"id":10676,"adult":false},{"id":287903,"adult":false},{"id":218329,"adult":false},{"id":24420,"adult":false},{"id":272687,"adult":false},{"id":10489,"adult":false}],"page":79,"total_pages":141,"total_results":14019}