{"results":[{"id":303991,"adult":false},{"id":296834,"adult":false},{"id":73516,"adult":false},{"id":430660,"adult":false},{"id":278392,"adult":false},{"id":278404,"adult":false},{"id":393347,"adult":true},{"id":278400,"adult":false},{"id":278397,"adult":false},{"id":1422,"adult":false},{"id":13519,"adult":false},{"id":430661,"adult":true},{"id":278394,"adult":false},{"id":422892,"adult":false},{"id":4788,"adult":false},{"id":51873,"adult":false},{"id":10340,"adult":false},{"id":65057,"adult":false},{"id":278391,"adult":false},{"id":15261,"adult":false},{"id":430662,"adult":true},{"id":278401,"adult":false},{"id":278405,"adult":false},{"id":8068,"adult":false},{"id":19183,"adult":false},{"id":278409,"adult":false},{"id":74394,"adult":false},{"id":430663,"adult":true},{"id":278407,"adult":false},{"id":278411,"adult":false},{"id":75623,"adult":false},{"id":404141,"adult":false},{"id":55798,"adult":false},{"id":278416,"adult":false},{"id":277964,"adult":false},{"id":278406,"adult":false},{"id":31676,"adult":false},{"id":354979,"adult":false},{"id":278413,"adult":false},{"id":290003,"adult":false},{"id":224397,"adult":false},{"id":299113,"adult":false},{"id":323178,"adult":false},{"id":251994,"adult":false},{"id":312114,"adult":true},{"id":311667,"adult":false},{"id":430668,"adult":true},{"id":430671,"adult":false},{"id":430672,"adult":false},{"id":430673,"adult":false},{"id":390123,"adult":true},{"id":14375,"adult":false},{"id":430674,"adult":false},{"id":430678,"adult":true},{"id":45127,"adult":false},{"id":168399,"adult":false},{"id":421625,"adult":false},{"id":6917,"adult":false},{"id":419315,"adult":false},{"id":257521,"adult":false},{"id":430679,"adult":true},{"id":9929,"adult":false},{"id":430680,"adult":false},{"id":108195,"adult":true},{"id":429056,"adult":null},{"id":411486,"adult":null},{"id":70009,"adult":false},{"id":398393,"adult":false},{"id":430681,"adult":false},{"id":313883,"adult":false},{"id":65872,"adult":false},{"id":387005,"adult":false},{"id":51101,"adult":null},{"id":406100,"adult":null},{"id":387279,"adult":false},{"id":430682,"adult":false},{"id":172803,"adult":false},{"id":430683,"adult":true},{"id":19059,"adult":false},{"id":74536,"adult":false},{"id":429209,"adult":false},{"id":91817,"adult":false},{"id":430684,"adult":false},{"id":15371,"adult":false},{"id":430686,"adult":false},{"id":426594,"adult":false},{"id":118932,"adult":false},{"id":430687,"adult":false},{"id":317661,"adult":false},{"id":267118,"adult":false},{"id":9992,"adult":false},{"id":44826,"adult":false},{"id":70578,"adult":false},{"id":31638,"adult":false},{"id":62213,"adult":false},{"id":430688,"adult":false},{"id":122095,"adult":false},{"id":280967,"adult":false},{"id":19913,"adult":false},{"id":430689,"adult":false}],"page":33,"total_pages":114,"total_results":11339}