{"results":[{"id":431649,"adult":false},{"id":89665,"adult":false},{"id":431650,"adult":false},{"id":431651,"adult":false},{"id":431652,"adult":false},{"id":431653,"adult":false},{"id":431654,"adult":false},{"id":302626,"adult":false},{"id":11454,"adult":false},{"id":431655,"adult":false},{"id":40219,"adult":false},{"id":1611,"adult":false},{"id":431656,"adult":false},{"id":431657,"adult":false},{"id":431658,"adult":false},{"id":431659,"adult":false},{"id":431660,"adult":false},{"id":431661,"adult":false},{"id":431662,"adult":false},{"id":431663,"adult":false},{"id":431664,"adult":false},{"id":70057,"adult":false},{"id":93424,"adult":false},{"id":431665,"adult":false},{"id":431666,"adult":false},{"id":431667,"adult":false},{"id":431668,"adult":false},{"id":407917,"adult":false},{"id":431669,"adult":false},{"id":11400,"adult":false},{"id":431670,"adult":false},{"id":431671,"adult":false},{"id":431672,"adult":false},{"id":431673,"adult":false},{"id":431674,"adult":false},{"id":431675,"adult":false},{"id":89135,"adult":false},{"id":35698,"adult":false},{"id":10748,"adult":false},{"id":17168,"adult":false},{"id":25992,"adult":false},{"id":13380,"adult":false},{"id":403360,"adult":false},{"id":37565,"adult":false},{"id":256857,"adult":false},{"id":324807,"adult":false},{"id":9609,"adult":false},{"id":41233,"adult":false},{"id":17198,"adult":false},{"id":85446,"adult":false},{"id":11866,"adult":false},{"id":264200,"adult":false},{"id":27976,"adult":false},{"id":12313,"adult":false},{"id":8224,"adult":false},{"id":276839,"adult":false},{"id":8764,"adult":false},{"id":259316,"adult":false},{"id":9843,"adult":false},{"id":389849,"adult":false},{"id":300872,"adult":false},{"id":11095,"adult":false},{"id":9890,"adult":false},{"id":42502,"adult":false},{"id":133925,"adult":false},{"id":18780,"adult":false},{"id":55261,"adult":false},{"id":43737,"adult":false},{"id":423313,"adult":false},{"id":60897,"adult":false},{"id":431676,"adult":false},{"id":32695,"adult":false},{"id":351964,"adult":false},{"id":23487,"adult":false},{"id":31154,"adult":false},{"id":127475,"adult":false},{"id":101308,"adult":false},{"id":15577,"adult":false},{"id":2669,"adult":false},{"id":15046,"adult":false},{"id":419901,"adult":false},{"id":131882,"adult":false},{"id":431677,"adult":false},{"id":426114,"adult":false},{"id":22804,"adult":false},{"id":61005,"adult":false},{"id":267176,"adult":false},{"id":52913,"adult":false},{"id":211144,"adult":false},{"id":19402,"adult":false},{"id":187022,"adult":false},{"id":76739,"adult":false},{"id":214,"adult":false},{"id":431678,"adult":false},{"id":22314,"adult":false},{"id":44136,"adult":false},{"id":215,"adult":false},{"id":9616,"adult":false},{"id":12090,"adult":false},{"id":52238,"adult":false}],"page":94,"total_pages":114,"total_results":11339}