{"results":[{"id":82224,"adult":false},{"id":342878,"adult":false},{"id":50438,"adult":false},{"id":156649,"adult":false},{"id":12648,"adult":false},{"id":59268,"adult":false},{"id":13282,"adult":false},{"id":415789,"adult":false},{"id":66,"adult":false},{"id":321191,"adult":false},{"id":91471,"adult":false},{"id":418375,"adult":false},{"id":39282,"adult":false},{"id":7095,"adult":false},{"id":236303,"adult":null},{"id":236301,"adult":null},{"id":254011,"adult":false},{"id":371950,"adult":false},{"id":12476,"adult":false},{"id":161823,"adult":false},{"id":323447,"adult":false},{"id":3089,"adult":false},{"id":92285,"adult":false},{"id":323599,"adult":false},{"id":411859,"adult":false},{"id":221014,"adult":false},{"id":64750,"adult":false},{"id":8383,"adult":false},{"id":113388,"adult":false},{"id":77561,"adult":false},{"id":381427,"adult":false},{"id":418376,"adult":false},{"id":511,"adult":false},{"id":1829,"adult":false},{"id":418377,"adult":false},{"id":87859,"adult":false},{"id":325263,"adult":false},{"id":51250,"adult":false},{"id":334084,"adult":false},{"id":58248,"adult":false},{"id":336028,"adult":false},{"id":4546,"adult":false},{"id":32042,"adult":false},{"id":332679,"adult":false},{"id":52216,"adult":false},{"id":17599,"adult":false},{"id":393921,"adult":false},{"id":394650,"adult":false},{"id":27076,"adult":false},{"id":18901,"adult":false},{"id":28323,"adult":false},{"id":93655,"adult":false},{"id":36129,"adult":false},{"id":20187,"adult":false},{"id":37412,"adult":false},{"id":418378,"adult":false},{"id":41131,"adult":false},{"id":123961,"adult":false},{"id":418379,"adult":null},{"id":272712,"adult":false},{"id":188585,"adult":false},{"id":59227,"adult":false},{"id":105635,"adult":false},{"id":5642,"adult":false},{"id":43430,"adult":false},{"id":58259,"adult":false},{"id":258386,"adult":false},{"id":418380,"adult":null},{"id":289201,"adult":false},{"id":170237,"adult":false},{"id":378061,"adult":true},{"id":164894,"adult":false},{"id":195812,"adult":false},{"id":36125,"adult":false},{"id":365583,"adult":false},{"id":396709,"adult":false},{"id":3482,"adult":false},{"id":418381,"adult":true},{"id":137011,"adult":false},{"id":403510,"adult":false},{"id":418382,"adult":true},{"id":418383,"adult":false},{"id":81857,"adult":false},{"id":418384,"adult":true},{"id":418385,"adult":true},{"id":359314,"adult":false},{"id":418386,"adult":true},{"id":126277,"adult":false},{"id":401033,"adult":false},{"id":418387,"adult":true},{"id":210577,"adult":false},{"id":418388,"adult":true},{"id":214990,"adult":false},{"id":418389,"adult":false},{"id":418390,"adult":true},{"id":11548,"adult":false},{"id":11353,"adult":false},{"id":17609,"adult":false},{"id":418391,"adult":null},{"id":125490,"adult":false}],"page":140,"total_pages":141,"total_results":14019}