{"results":[{"id":201970,"adult":false},{"id":202010,"adult":false},{"id":377226,"adult":null},{"id":5651,"adult":false},{"id":12,"adult":false},{"id":186320,"adult":false},{"id":84450,"adult":false},{"id":22584,"adult":false},{"id":380812,"adult":false},{"id":380813,"adult":false},{"id":49521,"adult":false},{"id":380814,"adult":false},{"id":219535,"adult":false},{"id":202281,"adult":false},{"id":219557,"adult":false},{"id":380815,"adult":false},{"id":219540,"adult":false},{"id":219545,"adult":false},{"id":219527,"adult":false},{"id":83360,"adult":false},{"id":255930,"adult":false},{"id":209509,"adult":false},{"id":219556,"adult":false},{"id":380816,"adult":false},{"id":374020,"adult":false},{"id":380817,"adult":false},{"id":377911,"adult":false},{"id":1487,"adult":false},{"id":11253,"adult":false},{"id":354869,"adult":false},{"id":992,"adult":false},{"id":380818,"adult":false},{"id":243418,"adult":false},{"id":11522,"adult":false},{"id":322456,"adult":false},{"id":24021,"adult":false},{"id":380819,"adult":false},{"id":353595,"adult":false},{"id":254007,"adult":false},{"id":340247,"adult":false},{"id":294510,"adult":false},{"id":5172,"adult":false},{"id":219544,"adult":false},{"id":219555,"adult":false},{"id":219552,"adult":false},{"id":219548,"adult":false},{"id":219533,"adult":false},{"id":204034,"adult":false},{"id":236183,"adult":false},{"id":236190,"adult":false},{"id":336222,"adult":false},{"id":236184,"adult":false},{"id":236185,"adult":false},{"id":237290,"adult":false},{"id":26316,"adult":false},{"id":24751,"adult":false},{"id":380820,"adult":false},{"id":380821,"adult":false},{"id":53906,"adult":false},{"id":214690,"adult":false},{"id":369734,"adult":false},{"id":204753,"adult":false},{"id":44982,"adult":false},{"id":380822,"adult":false},{"id":13051,"adult":false},{"id":380823,"adult":false},{"id":212005,"adult":false},{"id":296612,"adult":false},{"id":63381,"adult":false},{"id":9603,"adult":false},{"id":380824,"adult":true},{"id":333815,"adult":false},{"id":26956,"adult":false},{"id":271273,"adult":false},{"id":181442,"adult":false},{"id":321258,"adult":false},{"id":686,"adult":false},{"id":1633,"adult":false},{"id":52608,"adult":false},{"id":20536,"adult":false},{"id":160787,"adult":false},{"id":269644,"adult":false},{"id":209699,"adult":false},{"id":64682,"adult":false},{"id":380825,"adult":false},{"id":18531,"adult":false},{"id":119830,"adult":false},{"id":380826,"adult":false},{"id":257211,"adult":false},{"id":380827,"adult":false},{"id":76140,"adult":false},{"id":371266,"adult":false},{"id":357690,"adult":null},{"id":326142,"adult":false},{"id":203,"adult":false},{"id":229466,"adult":false},{"id":251542,"adult":false},{"id":145159,"adult":false},{"id":380828,"adult":false},{"id":66954,"adult":false}],"page":17,"total_pages":119,"total_results":11854}