{"results":[{"id":10283,"adult":false},{"id":225466,"adult":false},{"id":10285,"adult":false},{"id":11470,"adult":false},{"id":29813,"adult":false},{"id":77117,"adult":false},{"id":35836,"adult":false},{"id":271164,"adult":false},{"id":386764,"adult":false},{"id":391134,"adult":false},{"id":18384,"adult":false},{"id":24134,"adult":false},{"id":401598,"adult":false},{"id":39498,"adult":false},{"id":10068,"adult":false},{"id":349243,"adult":false},{"id":348674,"adult":false},{"id":267227,"adult":false},{"id":349241,"adult":false},{"id":200482,"adult":false},{"id":21734,"adult":false},{"id":401599,"adult":false},{"id":349430,"adult":false},{"id":401600,"adult":false},{"id":268678,"adult":false},{"id":249134,"adult":false},{"id":216826,"adult":false},{"id":209868,"adult":false},{"id":31773,"adult":false},{"id":14588,"adult":false},{"id":335977,"adult":false},{"id":121006,"adult":false},{"id":25364,"adult":false},{"id":189012,"adult":false},{"id":15602,"adult":false},{"id":182282,"adult":false},{"id":322784,"adult":false},{"id":177160,"adult":false},{"id":131964,"adult":false},{"id":176324,"adult":false},{"id":266417,"adult":false},{"id":260525,"adult":false},{"id":168589,"adult":false},{"id":113638,"adult":false},{"id":307263,"adult":false},{"id":62637,"adult":false},{"id":82036,"adult":false},{"id":11520,"adult":false},{"id":296597,"adult":false},{"id":103875,"adult":false},{"id":188194,"adult":false},{"id":126318,"adult":false},{"id":81616,"adult":false},{"id":401601,"adult":false},{"id":46705,"adult":false},{"id":38325,"adult":false},{"id":78182,"adult":false},{"id":243720,"adult":false},{"id":84427,"adult":false},{"id":116437,"adult":false},{"id":194101,"adult":false},{"id":244031,"adult":false},{"id":181886,"adult":false},{"id":214251,"adult":false},{"id":253258,"adult":false},{"id":282983,"adult":false},{"id":157851,"adult":false},{"id":278106,"adult":false},{"id":316828,"adult":false},{"id":350904,"adult":false},{"id":146147,"adult":false},{"id":176841,"adult":false},{"id":96396,"adult":false},{"id":38721,"adult":false},{"id":40135,"adult":false},{"id":401602,"adult":true},{"id":127815,"adult":false},{"id":182899,"adult":false},{"id":4204,"adult":false},{"id":118695,"adult":false},{"id":376975,"adult":false},{"id":61260,"adult":false},{"id":340084,"adult":false},{"id":246540,"adult":false},{"id":119900,"adult":false},{"id":395627,"adult":false},{"id":319602,"adult":false},{"id":387235,"adult":false},{"id":383577,"adult":false},{"id":401603,"adult":false},{"id":319598,"adult":false},{"id":401604,"adult":true},{"id":319210,"adult":false},{"id":322841,"adult":false},{"id":319293,"adult":false},{"id":319601,"adult":false},{"id":42676,"adult":false},{"id":319593,"adult":false},{"id":136340,"adult":false},{"id":319425,"adult":false}],"page":91,"total_pages":116,"total_results":11568}