{"results":[{"id":407584,"adult":null},{"id":44189,"adult":false},{"id":44049,"adult":false},{"id":202952,"adult":false},{"id":407585,"adult":false},{"id":26661,"adult":false},{"id":1907,"adult":false},{"id":74899,"adult":false},{"id":396929,"adult":false},{"id":14807,"adult":false},{"id":347742,"adult":false},{"id":407587,"adult":false},{"id":407588,"adult":false},{"id":373473,"adult":false},{"id":314096,"adult":false},{"id":313524,"adult":false},{"id":18612,"adult":false},{"id":289170,"adult":false},{"id":44120,"adult":false},{"id":5801,"adult":false},{"id":58431,"adult":false},{"id":95597,"adult":false},{"id":14243,"adult":false},{"id":407589,"adult":false},{"id":350160,"adult":false},{"id":121906,"adult":false},{"id":152732,"adult":false},{"id":51620,"adult":false},{"id":84109,"adult":false},{"id":44388,"adult":false},{"id":42196,"adult":false},{"id":274854,"adult":false},{"id":359770,"adult":false},{"id":33218,"adult":false},{"id":68339,"adult":false},{"id":279641,"adult":false},{"id":122791,"adult":true},{"id":240766,"adult":false},{"id":255160,"adult":false},{"id":407590,"adult":false},{"id":44674,"adult":false},{"id":216564,"adult":false},{"id":53830,"adult":false},{"id":407591,"adult":false},{"id":126219,"adult":false},{"id":117412,"adult":false},{"id":293488,"adult":false},{"id":4291,"adult":false},{"id":299969,"adult":false},{"id":675,"adult":false},{"id":66489,"adult":false},{"id":600,"adult":false},{"id":9606,"adult":false},{"id":361793,"adult":null},{"id":90301,"adult":false},{"id":377587,"adult":false},{"id":400216,"adult":false},{"id":407592,"adult":false},{"id":390611,"adult":false},{"id":390612,"adult":false},{"id":390613,"adult":false},{"id":75168,"adult":false},{"id":37324,"adult":false},{"id":390371,"adult":false},{"id":407593,"adult":false},{"id":390374,"adult":false},{"id":390378,"adult":false},{"id":94834,"adult":false},{"id":390379,"adult":false},{"id":390382,"adult":false},{"id":390383,"adult":false},{"id":390385,"adult":false},{"id":390386,"adult":false},{"id":390387,"adult":false},{"id":390316,"adult":false},{"id":390225,"adult":false},{"id":390230,"adult":false},{"id":390232,"adult":false},{"id":390233,"adult":false},{"id":39175,"adult":false},{"id":116912,"adult":false},{"id":318190,"adult":false},{"id":390227,"adult":false},{"id":407594,"adult":false},{"id":390229,"adult":false},{"id":390306,"adult":false},{"id":315465,"adult":false},{"id":390307,"adult":false},{"id":390308,"adult":false},{"id":390314,"adult":false},{"id":172295,"adult":false},{"id":374714,"adult":false},{"id":309609,"adult":false},{"id":390183,"adult":false},{"id":390186,"adult":false},{"id":390192,"adult":false},{"id":390193,"adult":false},{"id":78340,"adult":false},{"id":390197,"adult":false},{"id":390201,"adult":false}],"page":78,"total_pages":120,"total_results":11946}