{"results":[{"id":388248,"adult":false},{"id":391540,"adult":false},{"id":415566,"adult":false},{"id":412602,"adult":false},{"id":416535,"adult":null},{"id":416536,"adult":false},{"id":77811,"adult":false},{"id":317,"adult":false},{"id":24103,"adult":false},{"id":252290,"adult":false},{"id":383379,"adult":false},{"id":297458,"adult":false},{"id":6970,"adult":false},{"id":416537,"adult":false},{"id":24742,"adult":false},{"id":394170,"adult":false},{"id":95269,"adult":false},{"id":13313,"adult":false},{"id":110160,"adult":false},{"id":234862,"adult":false},{"id":416538,"adult":false},{"id":362991,"adult":false},{"id":253560,"adult":false},{"id":250731,"adult":false},{"id":74092,"adult":false},{"id":416539,"adult":false},{"id":193687,"adult":false},{"id":416540,"adult":false},{"id":416541,"adult":false},{"id":43330,"adult":false},{"id":416542,"adult":false},{"id":72580,"adult":false},{"id":44549,"adult":false},{"id":113512,"adult":false},{"id":117136,"adult":false},{"id":416543,"adult":false},{"id":416544,"adult":false},{"id":335578,"adult":false},{"id":74436,"adult":false},{"id":16620,"adult":false},{"id":377148,"adult":false},{"id":136835,"adult":false},{"id":137145,"adult":false},{"id":178530,"adult":false},{"id":260552,"adult":true},{"id":127531,"adult":false},{"id":7509,"adult":false},{"id":203110,"adult":false},{"id":343404,"adult":false},{"id":14159,"adult":false},{"id":130184,"adult":false},{"id":19666,"adult":false},{"id":21210,"adult":false},{"id":97449,"adult":false},{"id":14785,"adult":false},{"id":79731,"adult":false},{"id":45129,"adult":false},{"id":10842,"adult":false},{"id":416545,"adult":false},{"id":335761,"adult":false},{"id":320168,"adult":false},{"id":326745,"adult":false},{"id":219961,"adult":false},{"id":416546,"adult":false},{"id":25756,"adult":false},{"id":77883,"adult":false},{"id":208277,"adult":false},{"id":137093,"adult":false},{"id":40807,"adult":false},{"id":399049,"adult":false},{"id":12182,"adult":false},{"id":37930,"adult":false},{"id":121927,"adult":false},{"id":10194,"adult":false},{"id":18320,"adult":false},{"id":47410,"adult":false},{"id":364422,"adult":false},{"id":387,"adult":false},{"id":409316,"adult":null},{"id":404902,"adult":false},{"id":76131,"adult":false},{"id":253414,"adult":false},{"id":416547,"adult":false},{"id":153789,"adult":false},{"id":384940,"adult":false},{"id":282636,"adult":false},{"id":416548,"adult":false},{"id":10379,"adult":false},{"id":8358,"adult":false},{"id":407655,"adult":false},{"id":226672,"adult":false},{"id":26912,"adult":false},{"id":15925,"adult":false},{"id":85973,"adult":false},{"id":154951,"adult":false},{"id":401909,"adult":false},{"id":79771,"adult":false},{"id":24580,"adult":false},{"id":26278,"adult":false},{"id":31354,"adult":false}],"page":41,"total_pages":141,"total_results":14019}