{"results":[{"id":115572,"adult":false},{"id":409427,"adult":false},{"id":52728,"adult":false},{"id":48211,"adult":false},{"id":409428,"adult":false},{"id":133563,"adult":false},{"id":409429,"adult":false},{"id":105470,"adult":false},{"id":409430,"adult":false},{"id":41077,"adult":false},{"id":326359,"adult":false},{"id":409431,"adult":false},{"id":57081,"adult":false},{"id":41050,"adult":false},{"id":10540,"adult":false},{"id":409432,"adult":false},{"id":335541,"adult":true},{"id":31104,"adult":false},{"id":409433,"adult":false},{"id":84378,"adult":false},{"id":159213,"adult":false},{"id":409434,"adult":false},{"id":240483,"adult":false},{"id":32008,"adult":false},{"id":191824,"adult":false},{"id":11936,"adult":false},{"id":7944,"adult":false},{"id":409435,"adult":false},{"id":12633,"adult":false},{"id":71142,"adult":false},{"id":113040,"adult":false},{"id":251460,"adult":false},{"id":636,"adult":false},{"id":11696,"adult":false},{"id":12159,"adult":false},{"id":23943,"adult":false},{"id":109099,"adult":false},{"id":1583,"adult":false},{"id":10755,"adult":false},{"id":22643,"adult":false},{"id":317588,"adult":false},{"id":121470,"adult":false},{"id":409436,"adult":false},{"id":31619,"adult":false},{"id":194031,"adult":false},{"id":302586,"adult":false},{"id":43959,"adult":false},{"id":47435,"adult":false},{"id":6646,"adult":false},{"id":397366,"adult":false},{"id":42506,"adult":false},{"id":10107,"adult":false},{"id":73246,"adult":false},{"id":322400,"adult":false},{"id":219233,"adult":false},{"id":409437,"adult":false},{"id":155084,"adult":false},{"id":336782,"adult":false},{"id":185269,"adult":false},{"id":20483,"adult":false},{"id":384262,"adult":false},{"id":21765,"adult":false},{"id":364138,"adult":false},{"id":69559,"adult":false},{"id":200184,"adult":false},{"id":5915,"adult":false},{"id":76492,"adult":false},{"id":185103,"adult":false},{"id":347264,"adult":false},{"id":80021,"adult":false},{"id":83191,"adult":false},{"id":409438,"adult":false},{"id":38849,"adult":false},{"id":409439,"adult":false},{"id":351242,"adult":false},{"id":371449,"adult":false},{"id":86985,"adult":false},{"id":409440,"adult":false},{"id":16448,"adult":false},{"id":342672,"adult":false},{"id":5825,"adult":false},{"id":409441,"adult":false},{"id":409442,"adult":null},{"id":352492,"adult":false},{"id":409443,"adult":false},{"id":409444,"adult":false},{"id":256731,"adult":false},{"id":353311,"adult":false},{"id":409445,"adult":false},{"id":290300,"adult":false},{"id":231401,"adult":false},{"id":402573,"adult":false},{"id":348089,"adult":false},{"id":377448,"adult":false},{"id":14305,"adult":false},{"id":67062,"adult":false},{"id":409446,"adult":false},{"id":409447,"adult":false},{"id":409448,"adult":false},{"id":393414,"adult":false}],"page":27,"total_pages":117,"total_results":11641}