{"results":[{"id":14192,"adult":false},{"id":202438,"adult":false},{"id":13964,"adult":false},{"id":36119,"adult":false},{"id":48309,"adult":false},{"id":338418,"adult":false},{"id":34280,"adult":false},{"id":195408,"adult":false},{"id":2076,"adult":false},{"id":349371,"adult":false},{"id":644,"adult":false},{"id":45447,"adult":false},{"id":11286,"adult":false},{"id":154694,"adult":false},{"id":269834,"adult":false},{"id":56491,"adult":false},{"id":37516,"adult":false},{"id":43637,"adult":false},{"id":160045,"adult":false},{"id":22171,"adult":false},{"id":26877,"adult":false},{"id":127329,"adult":false},{"id":37712,"adult":false},{"id":1835,"adult":false},{"id":45029,"adult":false},{"id":36282,"adult":false},{"id":106651,"adult":false},{"id":18671,"adult":false},{"id":73843,"adult":false},{"id":73844,"adult":false},{"id":45468,"adult":false},{"id":51719,"adult":false},{"id":390719,"adult":false},{"id":51720,"adult":false},{"id":40577,"adult":false},{"id":22021,"adult":false},{"id":91465,"adult":false},{"id":20481,"adult":false},{"id":144146,"adult":false},{"id":283881,"adult":false},{"id":9271,"adult":false},{"id":274325,"adult":false},{"id":413076,"adult":false},{"id":211798,"adult":false},{"id":413078,"adult":false},{"id":413079,"adult":false},{"id":279096,"adult":false},{"id":206237,"adult":false},{"id":413080,"adult":false},{"id":44945,"adult":false},{"id":19587,"adult":false},{"id":68728,"adult":false},{"id":118694,"adult":false},{"id":17381,"adult":false},{"id":11537,"adult":false},{"id":316007,"adult":false},{"id":52077,"adult":false},{"id":83382,"adult":false},{"id":413081,"adult":false},{"id":141687,"adult":false},{"id":189219,"adult":false},{"id":173779,"adult":false},{"id":410295,"adult":false},{"id":151826,"adult":false},{"id":413082,"adult":false},{"id":299884,"adult":false},{"id":325389,"adult":false},{"id":413083,"adult":false},{"id":934,"adult":false},{"id":863,"adult":false},{"id":306373,"adult":false},{"id":86148,"adult":false},{"id":25305,"adult":false},{"id":20187,"adult":false},{"id":11644,"adult":false},{"id":4307,"adult":false},{"id":242097,"adult":false},{"id":104607,"adult":false},{"id":410280,"adult":false},{"id":413084,"adult":false},{"id":382509,"adult":false},{"id":413085,"adult":false},{"id":413086,"adult":false},{"id":407984,"adult":false},{"id":8664,"adult":false},{"id":68335,"adult":false},{"id":386809,"adult":false},{"id":81926,"adult":false},{"id":248185,"adult":false},{"id":260836,"adult":false},{"id":302037,"adult":false},{"id":43832,"adult":false},{"id":53858,"adult":false},{"id":395735,"adult":false},{"id":410416,"adult":false},{"id":281162,"adult":false},{"id":406282,"adult":false},{"id":245225,"adult":false},{"id":325527,"adult":false},{"id":34106,"adult":false}],"page":100,"total_pages":103,"total_results":10211}