{"results":[{"id":11531,"adult":false},{"id":417152,"adult":false},{"id":334354,"adult":false},{"id":417153,"adult":false},{"id":117237,"adult":false},{"id":417154,"adult":null},{"id":13091,"adult":false},{"id":417155,"adult":false},{"id":32615,"adult":false},{"id":40619,"adult":false},{"id":60595,"adult":false},{"id":231298,"adult":false},{"id":417156,"adult":false},{"id":61237,"adult":false},{"id":360133,"adult":false},{"id":413043,"adult":false},{"id":9759,"adult":false},{"id":14881,"adult":false},{"id":46565,"adult":false},{"id":2312,"adult":false},{"id":115265,"adult":false},{"id":11428,"adult":false},{"id":49519,"adult":false},{"id":14293,"adult":false},{"id":10851,"adult":false},{"id":263476,"adult":false},{"id":59296,"adult":false},{"id":12616,"adult":false},{"id":373472,"adult":false},{"id":77228,"adult":false},{"id":324322,"adult":false},{"id":97033,"adult":false},{"id":241004,"adult":false},{"id":417158,"adult":false},{"id":46439,"adult":false},{"id":29496,"adult":false},{"id":340223,"adult":false},{"id":5624,"adult":false},{"id":62660,"adult":false},{"id":24571,"adult":false},{"id":131926,"adult":false},{"id":10796,"adult":false},{"id":276456,"adult":false},{"id":364689,"adult":false},{"id":69872,"adult":false},{"id":78403,"adult":false},{"id":30934,"adult":false},{"id":58,"adult":false},{"id":209504,"adult":false},{"id":171871,"adult":false},{"id":417159,"adult":false},{"id":91487,"adult":false},{"id":133985,"adult":false},{"id":417160,"adult":false},{"id":61766,"adult":false},{"id":324671,"adult":false},{"id":24271,"adult":false},{"id":207270,"adult":false},{"id":57163,"adult":false},{"id":285,"adult":false},{"id":183320,"adult":false},{"id":417161,"adult":false},{"id":417162,"adult":false},{"id":462,"adult":false},{"id":131279,"adult":false},{"id":182,"adult":false},{"id":166,"adult":false},{"id":267314,"adult":false},{"id":378695,"adult":false},{"id":382591,"adult":false},{"id":417163,"adult":false},{"id":417166,"adult":null},{"id":417167,"adult":false},{"id":208983,"adult":false},{"id":417168,"adult":false},{"id":216304,"adult":false},{"id":148725,"adult":false},{"id":417169,"adult":false},{"id":417170,"adult":false},{"id":417171,"adult":false},{"id":265208,"adult":false},{"id":417172,"adult":false},{"id":117251,"adult":false},{"id":141213,"adult":false},{"id":408667,"adult":false},{"id":417173,"adult":false},{"id":396378,"adult":false},{"id":417174,"adult":false},{"id":417175,"adult":false},{"id":19576,"adult":false},{"id":214096,"adult":false},{"id":226814,"adult":false},{"id":275636,"adult":false},{"id":417176,"adult":false},{"id":40474,"adult":false},{"id":37172,"adult":false},{"id":417177,"adult":false},{"id":50551,"adult":false},{"id":417178,"adult":false},{"id":253350,"adult":false}],"page":73,"total_pages":141,"total_results":14019}