{"results":[{"id":12405,"adult":false},{"id":9545,"adult":false},{"id":328532,"adult":false},{"id":14245,"adult":false},{"id":14247,"adult":false},{"id":9473,"adult":false},{"id":9348,"adult":false},{"id":23988,"adult":false},{"id":14416,"adult":false},{"id":1266,"adult":false},{"id":9091,"adult":false},{"id":14236,"adult":false},{"id":13827,"adult":false},{"id":25425,"adult":false},{"id":26342,"adult":false},{"id":4195,"adult":false},{"id":11031,"adult":false},{"id":109,"adult":false},{"id":187252,"adult":false},{"id":8831,"adult":false},{"id":11969,"adult":false},{"id":159773,"adult":false},{"id":2034,"adult":false},{"id":6687,"adult":false},{"id":65,"adult":false},{"id":13428,"adult":false},{"id":33,"adult":false},{"id":42903,"adult":false},{"id":315058,"adult":false},{"id":391091,"adult":false},{"id":28510,"adult":false},{"id":10366,"adult":false},{"id":10027,"adult":false},{"id":8090,"adult":false},{"id":380655,"adult":false},{"id":17317,"adult":false},{"id":281224,"adult":false},{"id":381416,"adult":false},{"id":10294,"adult":false},{"id":13990,"adult":false},{"id":7553,"adult":false},{"id":9462,"adult":false},{"id":19901,"adult":false},{"id":2001,"adult":false},{"id":7839,"adult":false},{"id":15749,"adult":false},{"id":391092,"adult":false},{"id":2069,"adult":false},{"id":13186,"adult":false},{"id":13019,"adult":false},{"id":24655,"adult":false},{"id":246,"adult":false},{"id":1949,"adult":false},{"id":391,"adult":false},{"id":386565,"adult":false},{"id":36658,"adult":false},{"id":52736,"adult":false},{"id":49521,"adult":false},{"id":227914,"adult":false},{"id":324298,"adult":false},{"id":81168,"adult":false},{"id":8998,"adult":false},{"id":253127,"adult":false},{"id":206296,"adult":false},{"id":79974,"adult":false},{"id":197155,"adult":false},{"id":350962,"adult":false},{"id":49711,"adult":false},{"id":10483,"adult":false},{"id":34175,"adult":false},{"id":61560,"adult":false},{"id":51543,"adult":false},{"id":47643,"adult":false},{"id":16698,"adult":null},{"id":1588,"adult":false},{"id":3877,"adult":false},{"id":362045,"adult":false},{"id":75641,"adult":false},{"id":391093,"adult":false},{"id":391094,"adult":false},{"id":29903,"adult":false},{"id":391095,"adult":false},{"id":19844,"adult":false},{"id":38073,"adult":false},{"id":274854,"adult":false},{"id":11449,"adult":false},{"id":19206,"adult":false},{"id":42611,"adult":false},{"id":46104,"adult":false},{"id":335872,"adult":false},{"id":15895,"adult":false},{"id":66588,"adult":false},{"id":65317,"adult":false},{"id":391096,"adult":false},{"id":151022,"adult":false},{"id":140870,"adult":false},{"id":391097,"adult":false},{"id":391098,"adult":null},{"id":99708,"adult":false},{"id":382084,"adult":false}],"page":22,"total_pages":118,"total_results":11761}