{"results":[{"id":416114,"adult":false},{"id":140607,"adult":false},{"id":250014,"adult":false},{"id":416115,"adult":false},{"id":68393,"adult":false},{"id":205588,"adult":false},{"id":337874,"adult":false},{"id":416116,"adult":false},{"id":13156,"adult":false},{"id":25472,"adult":false},{"id":10258,"adult":false},{"id":369883,"adult":false},{"id":416117,"adult":false},{"id":320413,"adult":false},{"id":416118,"adult":false},{"id":403052,"adult":false},{"id":416119,"adult":false},{"id":416120,"adult":false},{"id":380124,"adult":false},{"id":413276,"adult":false},{"id":147198,"adult":false},{"id":340402,"adult":false},{"id":416121,"adult":false},{"id":66150,"adult":false},{"id":415202,"adult":false},{"id":414637,"adult":false},{"id":162215,"adult":false},{"id":412186,"adult":false},{"id":6075,"adult":false},{"id":11194,"adult":false},{"id":416122,"adult":false},{"id":345938,"adult":false},{"id":293452,"adult":false},{"id":158359,"adult":false},{"id":400965,"adult":false},{"id":117582,"adult":false},{"id":416123,"adult":false},{"id":416124,"adult":false},{"id":404426,"adult":null},{"id":334543,"adult":false},{"id":413953,"adult":false},{"id":415598,"adult":false},{"id":38507,"adult":false},{"id":1597,"adult":false},{"id":693,"adult":false},{"id":4488,"adult":false},{"id":401090,"adult":false},{"id":9725,"adult":false},{"id":4291,"adult":false},{"id":9728,"adult":false},{"id":9730,"adult":false},{"id":399128,"adult":false},{"id":355950,"adult":false},{"id":9731,"adult":false},{"id":348545,"adult":false},{"id":10225,"adult":false},{"id":291211,"adult":false},{"id":10281,"adult":false},{"id":10283,"adult":false},{"id":10285,"adult":false},{"id":39449,"adult":false},{"id":359151,"adult":false},{"id":214991,"adult":false},{"id":55453,"adult":false},{"id":11470,"adult":false},{"id":4552,"adult":false},{"id":28355,"adult":false},{"id":6466,"adult":false},{"id":13207,"adult":false},{"id":755,"adult":false},{"id":12095,"adult":false},{"id":415943,"adult":false},{"id":10213,"adult":false},{"id":334524,"adult":false},{"id":633,"adult":false},{"id":8920,"adult":false},{"id":304030,"adult":false},{"id":11980,"adult":false},{"id":391663,"adult":false},{"id":33217,"adult":false},{"id":300687,"adult":false},{"id":324552,"adult":false},{"id":948,"adult":false},{"id":376680,"adult":false},{"id":11281,"adult":false},{"id":308084,"adult":false},{"id":11357,"adult":false},{"id":11361,"adult":false},{"id":406699,"adult":false},{"id":384521,"adult":false},{"id":11442,"adult":false},{"id":11844,"adult":false},{"id":2082,"adult":false},{"id":72655,"adult":false},{"id":321044,"adult":false},{"id":215924,"adult":false},{"id":346681,"adult":false},{"id":1358,"adult":false},{"id":314580,"adult":false},{"id":671,"adult":false}],"page":9,"total_pages":141,"total_results":14019}