{"results":[{"id":168279,"adult":false},{"id":10,"adult":false},{"id":12613,"adult":false},{"id":101878,"adult":false},{"id":187756,"adult":false},{"id":404779,"adult":false},{"id":9480,"adult":false},{"id":17318,"adult":false},{"id":315981,"adult":false},{"id":404780,"adult":false},{"id":28229,"adult":false},{"id":40446,"adult":false},{"id":81082,"adult":false},{"id":404781,"adult":false},{"id":404782,"adult":false},{"id":16365,"adult":false},{"id":350362,"adult":false},{"id":330485,"adult":false},{"id":241119,"adult":false},{"id":66491,"adult":false},{"id":321335,"adult":false},{"id":404783,"adult":false},{"id":14503,"adult":false},{"id":404784,"adult":false},{"id":228432,"adult":false},{"id":382651,"adult":false},{"id":256032,"adult":false},{"id":19318,"adult":false},{"id":198187,"adult":false},{"id":9552,"adult":false},{"id":402572,"adult":false},{"id":396497,"adult":false},{"id":18826,"adult":false},{"id":240916,"adult":false},{"id":18133,"adult":false},{"id":10855,"adult":false},{"id":208529,"adult":false},{"id":329556,"adult":false},{"id":13982,"adult":false},{"id":125978,"adult":false},{"id":839,"adult":false},{"id":402160,"adult":false},{"id":401480,"adult":false},{"id":351072,"adult":false},{"id":24951,"adult":false},{"id":36939,"adult":false},{"id":369415,"adult":false},{"id":244857,"adult":false},{"id":334394,"adult":false},{"id":66566,"adult":false},{"id":211258,"adult":false},{"id":349006,"adult":false},{"id":404021,"adult":false},{"id":17794,"adult":false},{"id":404785,"adult":false},{"id":159346,"adult":false},{"id":228101,"adult":false},{"id":268917,"adult":false},{"id":404786,"adult":false},{"id":226393,"adult":false},{"id":401133,"adult":false},{"id":39043,"adult":false},{"id":286953,"adult":false},{"id":357441,"adult":false},{"id":361759,"adult":false},{"id":30829,"adult":false},{"id":383056,"adult":false},{"id":404787,"adult":false},{"id":11335,"adult":false},{"id":224282,"adult":false},{"id":404788,"adult":false},{"id":25932,"adult":true},{"id":109565,"adult":false},{"id":9359,"adult":false},{"id":116743,"adult":false},{"id":113775,"adult":false},{"id":404789,"adult":false},{"id":116942,"adult":false},{"id":287233,"adult":false},{"id":404790,"adult":false},{"id":55699,"adult":false},{"id":308695,"adult":false},{"id":61773,"adult":false},{"id":282040,"adult":false},{"id":404791,"adult":false},{"id":281388,"adult":false},{"id":404792,"adult":false},{"id":360188,"adult":false},{"id":33470,"adult":false},{"id":25475,"adult":false},{"id":1892,"adult":false},{"id":271110,"adult":false},{"id":4982,"adult":false},{"id":401074,"adult":null},{"id":13937,"adult":false},{"id":102899,"adult":false},{"id":107323,"adult":false},{"id":246655,"adult":false},{"id":68735,"adult":false},{"id":60991,"adult":false}],"page":31,"total_pages":112,"total_results":11190}