{"results":[{"id":22688,"adult":false},{"id":373579,"adult":false},{"id":390280,"adult":false},{"id":219637,"adult":false},{"id":346993,"adult":false},{"id":249846,"adult":false},{"id":94618,"adult":false},{"id":44536,"adult":false},{"id":166883,"adult":false},{"id":200386,"adult":false},{"id":239149,"adult":false},{"id":401585,"adult":false},{"id":149116,"adult":false},{"id":2069,"adult":false},{"id":83354,"adult":false},{"id":113073,"adult":false},{"id":142339,"adult":false},{"id":43034,"adult":false},{"id":44249,"adult":false},{"id":86226,"adult":false},{"id":182127,"adult":false},{"id":294957,"adult":false},{"id":283412,"adult":false},{"id":186171,"adult":false},{"id":351000,"adult":false},{"id":137509,"adult":false},{"id":102671,"adult":false},{"id":1558,"adult":false},{"id":291207,"adult":false},{"id":200668,"adult":false},{"id":99737,"adult":false},{"id":60904,"adult":false},{"id":106449,"adult":false},{"id":385453,"adult":false},{"id":90342,"adult":false},{"id":347809,"adult":false},{"id":340216,"adult":false},{"id":246874,"adult":false},{"id":46623,"adult":false},{"id":275,"adult":false},{"id":349082,"adult":false},{"id":263618,"adult":false},{"id":129959,"adult":false},{"id":377273,"adult":false},{"id":92254,"adult":false},{"id":401586,"adult":false},{"id":180611,"adult":null},{"id":180606,"adult":null},{"id":353208,"adult":false},{"id":41959,"adult":false},{"id":123291,"adult":false},{"id":229471,"adult":false},{"id":260923,"adult":false},{"id":8914,"adult":false},{"id":399345,"adult":null},{"id":55424,"adult":false},{"id":401587,"adult":false},{"id":2111,"adult":false},{"id":27053,"adult":false},{"id":30552,"adult":false},{"id":29572,"adult":false},{"id":10930,"adult":false},{"id":229182,"adult":false},{"id":374374,"adult":false},{"id":401588,"adult":false},{"id":41609,"adult":false},{"id":315669,"adult":false},{"id":60915,"adult":false},{"id":267293,"adult":false},{"id":401589,"adult":false},{"id":401590,"adult":false},{"id":349209,"adult":false},{"id":401591,"adult":false},{"id":401592,"adult":false},{"id":9397,"adult":false},{"id":401593,"adult":false},{"id":125094,"adult":false},{"id":32300,"adult":false},{"id":43487,"adult":false},{"id":295887,"adult":false},{"id":334934,"adult":false},{"id":17006,"adult":false},{"id":168880,"adult":false},{"id":401594,"adult":false},{"id":401595,"adult":false},{"id":401596,"adult":false},{"id":9489,"adult":false},{"id":84281,"adult":false},{"id":10358,"adult":false},{"id":60270,"adult":false},{"id":4488,"adult":false},{"id":9735,"adult":false},{"id":9725,"adult":false},{"id":265418,"adult":false},{"id":9728,"adult":false},{"id":9730,"adult":false},{"id":9731,"adult":false},{"id":10225,"adult":false},{"id":401597,"adult":false},{"id":10281,"adult":false}],"page":90,"total_pages":116,"total_results":11568}