{"results":[{"id":398164,"adult":false},{"id":398165,"adult":false},{"id":398166,"adult":false},{"id":398167,"adult":false},{"id":398168,"adult":false},{"id":381751,"adult":false},{"id":398169,"adult":false},{"id":398170,"adult":false},{"id":324605,"adult":null},{"id":78581,"adult":false},{"id":16241,"adult":false},{"id":48323,"adult":false},{"id":263999,"adult":false},{"id":388914,"adult":false},{"id":841,"adult":false},{"id":398171,"adult":false},{"id":282370,"adult":false},{"id":187010,"adult":false},{"id":347872,"adult":false},{"id":15513,"adult":false},{"id":398172,"adult":false},{"id":374252,"adult":false},{"id":333367,"adult":false},{"id":398173,"adult":false},{"id":395938,"adult":false},{"id":325373,"adult":false},{"id":398174,"adult":false},{"id":54542,"adult":false},{"id":172438,"adult":false},{"id":22633,"adult":false},{"id":101669,"adult":false},{"id":398175,"adult":false},{"id":398176,"adult":false},{"id":131761,"adult":false},{"id":398177,"adult":false},{"id":375814,"adult":false},{"id":398178,"adult":false},{"id":398179,"adult":false},{"id":30462,"adult":false},{"id":20225,"adult":false},{"id":21775,"adult":false},{"id":341043,"adult":false},{"id":390404,"adult":null},{"id":396446,"adult":false},{"id":93950,"adult":false},{"id":126227,"adult":false},{"id":398180,"adult":false},{"id":165667,"adult":false},{"id":398181,"adult":false},{"id":391709,"adult":false},{"id":12503,"adult":false},{"id":16048,"adult":false},{"id":298513,"adult":false},{"id":22489,"adult":false},{"id":398182,"adult":false},{"id":41971,"adult":false},{"id":279641,"adult":false},{"id":14,"adult":false},{"id":398183,"adult":false},{"id":393894,"adult":false},{"id":45162,"adult":false},{"id":118761,"adult":false},{"id":227738,"adult":false},{"id":18754,"adult":false},{"id":74524,"adult":false},{"id":230132,"adult":false},{"id":187464,"adult":false},{"id":394143,"adult":false},{"id":270010,"adult":false},{"id":302699,"adult":false},{"id":302349,"adult":false},{"id":5677,"adult":false},{"id":266425,"adult":false},{"id":24930,"adult":false},{"id":362434,"adult":false},{"id":393870,"adult":false},{"id":376007,"adult":false},{"id":369778,"adult":false},{"id":309581,"adult":false},{"id":342521,"adult":false},{"id":1091,"adult":false},{"id":11478,"adult":false},{"id":398184,"adult":false},{"id":368596,"adult":false},{"id":107784,"adult":false},{"id":329479,"adult":false},{"id":513,"adult":false},{"id":311667,"adult":false},{"id":398185,"adult":false},{"id":22855,"adult":false},{"id":303991,"adult":false},{"id":393561,"adult":false},{"id":10714,"adult":false},{"id":398186,"adult":false},{"id":540,"adult":false},{"id":136118,"adult":null},{"id":398187,"adult":false},{"id":13640,"adult":false},{"id":315617,"adult":false},{"id":395693,"adult":false}],"page":45,"total_pages":128,"total_results":12797}