{"results":[{"id":34463,"adult":false},{"id":367962,"adult":false},{"id":80927,"adult":false},{"id":419347,"adult":false},{"id":6538,"adult":false},{"id":429102,"adult":false},{"id":295693,"adult":false},{"id":435,"adult":false},{"id":290,"adult":false},{"id":5595,"adult":false},{"id":176762,"adult":false},{"id":381918,"adult":false},{"id":429103,"adult":false},{"id":300187,"adult":false},{"id":421224,"adult":false},{"id":202792,"adult":false},{"id":32499,"adult":false},{"id":161605,"adult":false},{"id":22440,"adult":false},{"id":423276,"adult":false},{"id":79939,"adult":false},{"id":395038,"adult":false},{"id":34636,"adult":false},{"id":31658,"adult":false},{"id":395076,"adult":false},{"id":254841,"adult":false},{"id":157851,"adult":false},{"id":333344,"adult":false},{"id":411457,"adult":false},{"id":398803,"adult":false},{"id":293077,"adult":false},{"id":1578,"adult":false},{"id":398802,"adult":false},{"id":105836,"adult":false},{"id":411514,"adult":false},{"id":319373,"adult":false},{"id":382597,"adult":false},{"id":323656,"adult":false},{"id":45017,"adult":false},{"id":258456,"adult":false},{"id":24789,"adult":false},{"id":144630,"adult":false},{"id":402074,"adult":false},{"id":31644,"adult":false},{"id":49633,"adult":false},{"id":629,"adult":false},{"id":15807,"adult":false},{"id":98548,"adult":false},{"id":39983,"adult":false},{"id":429104,"adult":true},{"id":429105,"adult":false},{"id":348765,"adult":false},{"id":295418,"adult":false},{"id":142971,"adult":false},{"id":191369,"adult":false},{"id":42466,"adult":false},{"id":104321,"adult":false},{"id":429106,"adult":false},{"id":52017,"adult":false},{"id":33341,"adult":false},{"id":400387,"adult":false},{"id":429107,"adult":false},{"id":644,"adult":false},{"id":215152,"adult":false},{"id":174919,"adult":false},{"id":429108,"adult":true},{"id":422996,"adult":false},{"id":429109,"adult":false},{"id":384873,"adult":false},{"id":338983,"adult":false},{"id":163897,"adult":false},{"id":10501,"adult":false},{"id":383987,"adult":false},{"id":166428,"adult":false},{"id":46106,"adult":false},{"id":21208,"adult":false},{"id":340579,"adult":false},{"id":2977,"adult":false},{"id":75658,"adult":false},{"id":270748,"adult":false},{"id":429110,"adult":false},{"id":412052,"adult":false},{"id":174953,"adult":false},{"id":18670,"adult":false},{"id":429111,"adult":false},{"id":429112,"adult":false},{"id":10376,"adult":false},{"id":414977,"adult":false},{"id":28468,"adult":false},{"id":377954,"adult":false},{"id":392140,"adult":false},{"id":77970,"adult":false},{"id":290900,"adult":false},{"id":81874,"adult":false},{"id":300148,"adult":false},{"id":189334,"adult":false},{"id":67824,"adult":false},{"id":429113,"adult":null},{"id":56085,"adult":false},{"id":400456,"adult":false}],"page":58,"total_pages":123,"total_results":12242}