{"results":[{"id":75121,"adult":false},{"id":163446,"adult":false},{"id":237768,"adult":false},{"id":62316,"adult":false},{"id":37807,"adult":false},{"id":234004,"adult":false},{"id":195692,"adult":false},{"id":35636,"adult":false},{"id":54348,"adult":false},{"id":62187,"adult":false},{"id":272011,"adult":false},{"id":76008,"adult":false},{"id":281608,"adult":false},{"id":54349,"adult":false},{"id":115960,"adult":false},{"id":62180,"adult":false},{"id":280627,"adult":false},{"id":429270,"adult":true},{"id":37064,"adult":false},{"id":285894,"adult":false},{"id":53605,"adult":false},{"id":54345,"adult":false},{"id":287268,"adult":false},{"id":140532,"adult":false},{"id":73689,"adult":false},{"id":63025,"adult":false},{"id":333323,"adult":false},{"id":45479,"adult":false},{"id":294593,"adult":false},{"id":180903,"adult":false},{"id":45999,"adult":false},{"id":371673,"adult":false},{"id":82036,"adult":false},{"id":371674,"adult":false},{"id":54179,"adult":false},{"id":46026,"adult":false},{"id":370518,"adult":false},{"id":101230,"adult":false},{"id":44775,"adult":false},{"id":11285,"adult":false},{"id":262715,"adult":false},{"id":9876,"adult":false},{"id":329666,"adult":false},{"id":49568,"adult":false},{"id":262719,"adult":false},{"id":3573,"adult":false},{"id":262717,"adult":false},{"id":42664,"adult":false},{"id":267853,"adult":false},{"id":19971,"adult":false},{"id":429271,"adult":false},{"id":10431,"adult":false},{"id":317294,"adult":false},{"id":92002,"adult":false},{"id":429272,"adult":false},{"id":9510,"adult":false},{"id":12153,"adult":false},{"id":106631,"adult":false},{"id":199330,"adult":false},{"id":195919,"adult":false},{"id":55559,"adult":false},{"id":176068,"adult":false},{"id":52932,"adult":false},{"id":263780,"adult":false},{"id":429273,"adult":false},{"id":150709,"adult":false},{"id":394196,"adult":false},{"id":14903,"adult":false},{"id":13682,"adult":false},{"id":137475,"adult":false},{"id":412471,"adult":false},{"id":34377,"adult":false},{"id":20646,"adult":false},{"id":261339,"adult":false},{"id":291290,"adult":false},{"id":10194,"adult":false},{"id":402402,"adult":false},{"id":429274,"adult":false},{"id":331178,"adult":false},{"id":55422,"adult":false},{"id":40513,"adult":false},{"id":277827,"adult":false},{"id":353692,"adult":false},{"id":93619,"adult":false},{"id":198226,"adult":false},{"id":38848,"adult":false},{"id":861,"adult":false},{"id":291343,"adult":false},{"id":283335,"adult":false},{"id":28967,"adult":false},{"id":16632,"adult":false},{"id":429275,"adult":false},{"id":364540,"adult":false},{"id":92297,"adult":false},{"id":75770,"adult":false},{"id":182228,"adult":false},{"id":324234,"adult":false},{"id":79082,"adult":false},{"id":56700,"adult":false},{"id":22067,"adult":false}],"page":67,"total_pages":123,"total_results":12242}