{"results":[{"id":10606,"adult":false},{"id":340802,"adult":false},{"id":275329,"adult":false},{"id":213681,"adult":false},{"id":394528,"adult":false},{"id":396291,"adult":false},{"id":20943,"adult":false},{"id":396292,"adult":false},{"id":396293,"adult":false},{"id":275860,"adult":false},{"id":27573,"adult":false},{"id":28983,"adult":false},{"id":396294,"adult":false},{"id":389391,"adult":null},{"id":87513,"adult":false},{"id":348693,"adult":false},{"id":396295,"adult":false},{"id":84327,"adult":false},{"id":26246,"adult":false},{"id":8470,"adult":false},{"id":239541,"adult":false},{"id":393510,"adult":false},{"id":396296,"adult":false},{"id":202312,"adult":false},{"id":381868,"adult":false},{"id":97735,"adult":false},{"id":252416,"adult":false},{"id":396297,"adult":null},{"id":312030,"adult":false},{"id":322723,"adult":false},{"id":30914,"adult":false},{"id":39344,"adult":false},{"id":9481,"adult":false},{"id":318474,"adult":false},{"id":8409,"adult":false},{"id":108433,"adult":false},{"id":88509,"adult":false},{"id":202310,"adult":false},{"id":15363,"adult":false},{"id":215130,"adult":false},{"id":202316,"adult":false},{"id":396298,"adult":false},{"id":104052,"adult":false},{"id":100334,"adult":false},{"id":235935,"adult":false},{"id":26015,"adult":false},{"id":361074,"adult":false},{"id":234747,"adult":false},{"id":317691,"adult":false},{"id":130851,"adult":false},{"id":234737,"adult":false},{"id":238204,"adult":false},{"id":45233,"adult":false},{"id":317347,"adult":false},{"id":344982,"adult":false},{"id":234734,"adult":false},{"id":376946,"adult":false},{"id":235783,"adult":false},{"id":10744,"adult":false},{"id":377266,"adult":false},{"id":234752,"adult":false},{"id":600,"adult":false},{"id":234725,"adult":false},{"id":234722,"adult":false},{"id":112988,"adult":false},{"id":123950,"adult":false},{"id":234736,"adult":false},{"id":40602,"adult":false},{"id":234988,"adult":false},{"id":119376,"adult":false},{"id":86615,"adult":false},{"id":8348,"adult":false},{"id":254439,"adult":false},{"id":235008,"adult":false},{"id":40514,"adult":false},{"id":139255,"adult":false},{"id":210802,"adult":false},{"id":243294,"adult":false},{"id":379012,"adult":false},{"id":267016,"adult":false},{"id":235015,"adult":false},{"id":235151,"adult":false},{"id":379079,"adult":false},{"id":235016,"adult":false},{"id":235004,"adult":false},{"id":396299,"adult":false},{"id":100364,"adult":false},{"id":177340,"adult":false},{"id":379014,"adult":false},{"id":296270,"adult":false},{"id":379052,"adult":false},{"id":379051,"adult":false},{"id":379049,"adult":false},{"id":6977,"adult":false},{"id":379048,"adult":false},{"id":235019,"adult":false},{"id":235018,"adult":false},{"id":118677,"adult":false},{"id":49026,"adult":false},{"id":175056,"adult":false}],"page":58,"total_pages":130,"total_results":12927}