{"results":[{"id":380829,"adult":false},{"id":380830,"adult":false},{"id":31390,"adult":false},{"id":702,"adult":false},{"id":25188,"adult":false},{"id":347142,"adult":false},{"id":34740,"adult":false},{"id":380831,"adult":false},{"id":306751,"adult":false},{"id":362703,"adult":false},{"id":159389,"adult":false},{"id":2646,"adult":false},{"id":10754,"adult":false},{"id":380832,"adult":null},{"id":10187,"adult":false},{"id":15496,"adult":false},{"id":1979,"adult":false},{"id":95597,"adult":false},{"id":328063,"adult":false},{"id":188984,"adult":false},{"id":323661,"adult":false},{"id":24713,"adult":false},{"id":231032,"adult":false},{"id":371449,"adult":false},{"id":110397,"adult":false},{"id":42218,"adult":false},{"id":380835,"adult":false},{"id":249021,"adult":false},{"id":52913,"adult":false},{"id":50380,"adult":false},{"id":331,"adult":false},{"id":209112,"adult":false},{"id":19848,"adult":false},{"id":51634,"adult":false},{"id":78848,"adult":false},{"id":68996,"adult":false},{"id":130925,"adult":false},{"id":269369,"adult":false},{"id":380836,"adult":false},{"id":252883,"adult":false},{"id":281413,"adult":false},{"id":13633,"adult":false},{"id":360108,"adult":false},{"id":243699,"adult":false},{"id":49636,"adult":false},{"id":219061,"adult":false},{"id":293565,"adult":false},{"id":9424,"adult":false},{"id":11891,"adult":false},{"id":1485,"adult":false},{"id":380837,"adult":false},{"id":301,"adult":false},{"id":287284,"adult":false},{"id":380838,"adult":false},{"id":380839,"adult":false},{"id":231805,"adult":false},{"id":380840,"adult":null},{"id":231401,"adult":false},{"id":11442,"adult":false},{"id":212413,"adult":false},{"id":290300,"adult":false},{"id":46795,"adult":false},{"id":210390,"adult":false},{"id":263416,"adult":false},{"id":63181,"adult":false},{"id":42114,"adult":false},{"id":35847,"adult":false},{"id":329,"adult":false},{"id":295377,"adult":false},{"id":100685,"adult":false},{"id":40370,"adult":false},{"id":303643,"adult":false},{"id":281718,"adult":false},{"id":245190,"adult":false},{"id":380841,"adult":false},{"id":184098,"adult":false},{"id":48669,"adult":false},{"id":212409,"adult":false},{"id":380842,"adult":false},{"id":194251,"adult":false},{"id":14574,"adult":false},{"id":5123,"adult":false},{"id":380843,"adult":false},{"id":212794,"adult":false},{"id":364154,"adult":false},{"id":72986,"adult":false},{"id":262304,"adult":false},{"id":83201,"adult":false},{"id":251577,"adult":false},{"id":27936,"adult":false},{"id":20681,"adult":false},{"id":9743,"adult":false},{"id":13850,"adult":false},{"id":9654,"adult":false},{"id":14709,"adult":false},{"id":7456,"adult":false},{"id":380844,"adult":false},{"id":353610,"adult":false},{"id":204810,"adult":false},{"id":380847,"adult":false}],"page":18,"total_pages":119,"total_results":11854}