{"results":[{"id":408143,"adult":false},{"id":408144,"adult":false},{"id":408145,"adult":false},{"id":46014,"adult":false},{"id":408147,"adult":false},{"id":408148,"adult":false},{"id":268956,"adult":false},{"id":191229,"adult":false},{"id":408149,"adult":false},{"id":408150,"adult":false},{"id":336937,"adult":false},{"id":42476,"adult":false},{"id":328483,"adult":false},{"id":251768,"adult":false},{"id":408151,"adult":false},{"id":408152,"adult":false},{"id":348666,"adult":false},{"id":353609,"adult":false},{"id":331446,"adult":false},{"id":408153,"adult":false},{"id":69890,"adult":false},{"id":408154,"adult":false},{"id":135531,"adult":false},{"id":381034,"adult":false},{"id":316410,"adult":false},{"id":408155,"adult":false},{"id":395797,"adult":false},{"id":376311,"adult":false},{"id":297401,"adult":false},{"id":273756,"adult":false},{"id":386857,"adult":false},{"id":408156,"adult":false},{"id":408157,"adult":false},{"id":15356,"adult":false},{"id":279235,"adult":false},{"id":398851,"adult":null},{"id":125715,"adult":false},{"id":408158,"adult":null},{"id":264467,"adult":false},{"id":126319,"adult":false},{"id":408159,"adult":false},{"id":175050,"adult":false},{"id":59573,"adult":false},{"id":28603,"adult":false},{"id":192963,"adult":false},{"id":192965,"adult":false},{"id":78168,"adult":false},{"id":355042,"adult":false},{"id":216662,"adult":false},{"id":241251,"adult":false},{"id":408160,"adult":false},{"id":43124,"adult":false},{"id":408161,"adult":false},{"id":338964,"adult":false},{"id":408162,"adult":null},{"id":329057,"adult":false},{"id":408163,"adult":false},{"id":29993,"adult":false},{"id":408164,"adult":null},{"id":408165,"adult":false},{"id":10925,"adult":false},{"id":408166,"adult":null},{"id":408167,"adult":false},{"id":265847,"adult":null},{"id":373247,"adult":false},{"id":408168,"adult":false},{"id":136764,"adult":false},{"id":63974,"adult":false},{"id":408169,"adult":false},{"id":325261,"adult":false},{"id":408170,"adult":false},{"id":408171,"adult":false},{"id":408172,"adult":false},{"id":408173,"adult":false},{"id":408174,"adult":false},{"id":272787,"adult":false},{"id":21910,"adult":false},{"id":253254,"adult":false},{"id":11037,"adult":false},{"id":408175,"adult":false},{"id":42567,"adult":false},{"id":408176,"adult":false},{"id":11978,"adult":false},{"id":63982,"adult":false},{"id":392569,"adult":false},{"id":242332,"adult":false},{"id":276648,"adult":false},{"id":274323,"adult":false},{"id":84858,"adult":false},{"id":377151,"adult":false},{"id":271963,"adult":false},{"id":114045,"adult":false},{"id":174631,"adult":false},{"id":281291,"adult":false},{"id":363669,"adult":false},{"id":345144,"adult":null},{"id":12118,"adult":false},{"id":10587,"adult":false},{"id":379321,"adult":false},{"id":408177,"adult":false}],"page":106,"total_pages":120,"total_results":11946}