{"results":[{"id":368708,"adult":false},{"id":38267,"adult":false},{"id":251232,"adult":false},{"id":376559,"adult":false},{"id":376560,"adult":false},{"id":376561,"adult":false},{"id":317144,"adult":false},{"id":109086,"adult":false},{"id":376562,"adult":false},{"id":199788,"adult":false},{"id":8054,"adult":false},{"id":86170,"adult":false},{"id":38357,"adult":false},{"id":376563,"adult":false},{"id":47318,"adult":false},{"id":376564,"adult":false},{"id":376565,"adult":false},{"id":88273,"adult":false},{"id":186254,"adult":false},{"id":19126,"adult":false},{"id":10543,"adult":false},{"id":376566,"adult":false},{"id":38312,"adult":false},{"id":263855,"adult":false},{"id":11797,"adult":false},{"id":376567,"adult":false},{"id":9504,"adult":false},{"id":308453,"adult":false},{"id":228970,"adult":false},{"id":32671,"adult":false},{"id":373895,"adult":false},{"id":76138,"adult":false},{"id":376568,"adult":false},{"id":373903,"adult":false},{"id":25221,"adult":false},{"id":177865,"adult":false},{"id":19415,"adult":false},{"id":376569,"adult":false},{"id":342927,"adult":false},{"id":376570,"adult":false},{"id":181886,"adult":false},{"id":168338,"adult":false},{"id":12151,"adult":false},{"id":93767,"adult":false},{"id":376571,"adult":false},{"id":335225,"adult":false},{"id":25713,"adult":false},{"id":314644,"adult":false},{"id":21137,"adult":false},{"id":1642,"adult":false},{"id":11978,"adult":false},{"id":376572,"adult":false},{"id":376573,"adult":false},{"id":365708,"adult":false},{"id":320298,"adult":false},{"id":208763,"adult":false},{"id":376574,"adult":false},{"id":302869,"adult":false},{"id":376575,"adult":false},{"id":376576,"adult":false},{"id":369840,"adult":false},{"id":11217,"adult":false},{"id":376577,"adult":false},{"id":207342,"adult":false},{"id":376578,"adult":false},{"id":367224,"adult":false},{"id":352085,"adult":false},{"id":376579,"adult":false},{"id":376580,"adult":false},{"id":376581,"adult":false},{"id":317040,"adult":false},{"id":376582,"adult":false},{"id":376583,"adult":false},{"id":376584,"adult":false},{"id":376585,"adult":false},{"id":376586,"adult":false},{"id":376587,"adult":false},{"id":376588,"adult":false},{"id":80304,"adult":false},{"id":252444,"adult":false},{"id":94709,"adult":false},{"id":37596,"adult":false},{"id":45612,"adult":false},{"id":199420,"adult":false},{"id":357600,"adult":false},{"id":16237,"adult":false},{"id":42984,"adult":false},{"id":21250,"adult":false},{"id":28333,"adult":false},{"id":221646,"adult":false},{"id":2395,"adult":false},{"id":215456,"adult":false},{"id":9973,"adult":false},{"id":376589,"adult":false},{"id":4929,"adult":false},{"id":284685,"adult":false},{"id":100617,"adult":false},{"id":376590,"adult":false},{"id":63,"adult":false},{"id":376591,"adult":false}],"page":79,"total_pages":121,"total_results":12060}