{"results":[{"id":290595,"adult":false},{"id":12837,"adult":false},{"id":361422,"adult":false},{"id":46304,"adult":false},{"id":420688,"adult":false},{"id":400874,"adult":false},{"id":410869,"adult":false},{"id":420689,"adult":false},{"id":108072,"adult":false},{"id":267804,"adult":false},{"id":28328,"adult":true},{"id":13025,"adult":false},{"id":13613,"adult":false},{"id":8408,"adult":false},{"id":266275,"adult":false},{"id":24927,"adult":false},{"id":301608,"adult":false},{"id":10331,"adult":false},{"id":420690,"adult":false},{"id":19185,"adult":false},{"id":924,"adult":false},{"id":11683,"adult":false},{"id":4488,"adult":false},{"id":33155,"adult":false},{"id":250766,"adult":false},{"id":56547,"adult":false},{"id":417912,"adult":false},{"id":44932,"adult":false},{"id":51444,"adult":false},{"id":74023,"adult":false},{"id":136678,"adult":false},{"id":346079,"adult":false},{"id":217429,"adult":false},{"id":12703,"adult":false},{"id":54989,"adult":false},{"id":351189,"adult":false},{"id":254874,"adult":false},{"id":392629,"adult":false},{"id":10889,"adult":false},{"id":66697,"adult":false},{"id":8393,"adult":false},{"id":16149,"adult":false},{"id":28319,"adult":false},{"id":42158,"adult":false},{"id":19267,"adult":false},{"id":420691,"adult":false},{"id":312839,"adult":false},{"id":31112,"adult":false},{"id":10162,"adult":false},{"id":67866,"adult":false},{"id":11559,"adult":false},{"id":332270,"adult":false},{"id":8963,"adult":false},{"id":778,"adult":false},{"id":420692,"adult":false},{"id":347126,"adult":false},{"id":10935,"adult":false},{"id":24575,"adult":false},{"id":185183,"adult":false},{"id":892,"adult":false},{"id":412369,"adult":false},{"id":68,"adult":false},{"id":420693,"adult":false},{"id":420694,"adult":false},{"id":11379,"adult":false},{"id":135286,"adult":false},{"id":80310,"adult":false},{"id":80767,"adult":false},{"id":127746,"adult":false},{"id":26179,"adult":false},{"id":21380,"adult":false},{"id":9783,"adult":false},{"id":147538,"adult":false},{"id":420695,"adult":true},{"id":80624,"adult":false},{"id":30924,"adult":false},{"id":212435,"adult":false},{"id":225823,"adult":false},{"id":80340,"adult":false},{"id":14128,"adult":false},{"id":18970,"adult":false},{"id":55419,"adult":false},{"id":420696,"adult":false},{"id":195152,"adult":false},{"id":420697,"adult":false},{"id":113,"adult":false},{"id":409099,"adult":false},{"id":420698,"adult":false},{"id":417751,"adult":false},{"id":843,"adult":false},{"id":14139,"adult":false},{"id":11042,"adult":false},{"id":216859,"adult":false},{"id":420699,"adult":false},{"id":420700,"adult":true},{"id":24173,"adult":false},{"id":16,"adult":false},{"id":3133,"adult":false},{"id":232455,"adult":true},{"id":15485,"adult":false}],"page":122,"total_pages":144,"total_results":14341}