{"results":[{"id":242328,"adult":false},{"id":327947,"adult":false},{"id":365192,"adult":false},{"id":243656,"adult":false},{"id":264104,"adult":false},{"id":371983,"adult":false},{"id":72776,"adult":false},{"id":291066,"adult":null},{"id":37061,"adult":false},{"id":127424,"adult":false},{"id":377324,"adult":false},{"id":293082,"adult":false},{"id":97872,"adult":false},{"id":19026,"adult":false},{"id":34867,"adult":false},{"id":13576,"adult":false},{"id":9397,"adult":false},{"id":83456,"adult":false},{"id":59965,"adult":false},{"id":71,"adult":false},{"id":17886,"adult":false},{"id":377325,"adult":false},{"id":266609,"adult":false},{"id":185341,"adult":false},{"id":80280,"adult":false},{"id":676,"adult":false},{"id":1941,"adult":false},{"id":8329,"adult":false},{"id":297270,"adult":false},{"id":377326,"adult":false},{"id":210971,"adult":false},{"id":377327,"adult":false},{"id":301929,"adult":false},{"id":107719,"adult":false},{"id":792,"adult":false},{"id":39690,"adult":false},{"id":139314,"adult":false},{"id":2503,"adult":false},{"id":52101,"adult":false},{"id":377328,"adult":false},{"id":10227,"adult":false},{"id":6028,"adult":false},{"id":19562,"adult":false},{"id":34671,"adult":false},{"id":293601,"adult":false},{"id":19429,"adult":false},{"id":5445,"adult":false},{"id":276303,"adult":false},{"id":102805,"adult":false},{"id":334133,"adult":false},{"id":67792,"adult":false},{"id":363857,"adult":false},{"id":377329,"adult":false},{"id":90034,"adult":false},{"id":297265,"adult":false},{"id":377330,"adult":false},{"id":10306,"adult":false},{"id":259556,"adult":false},{"id":340551,"adult":false},{"id":377331,"adult":false},{"id":135313,"adult":false},{"id":361042,"adult":false},{"id":59095,"adult":false},{"id":316053,"adult":false},{"id":53807,"adult":false},{"id":13401,"adult":false},{"id":293412,"adult":false},{"id":282671,"adult":false},{"id":210769,"adult":false},{"id":377332,"adult":false},{"id":259358,"adult":false},{"id":185066,"adult":false},{"id":318183,"adult":false},{"id":14506,"adult":false},{"id":139815,"adult":false},{"id":377333,"adult":false},{"id":281351,"adult":false},{"id":47951,"adult":false},{"id":361854,"adult":false},{"id":902,"adult":false},{"id":377334,"adult":false},{"id":85139,"adult":false},{"id":333411,"adult":false},{"id":341283,"adult":null},{"id":299738,"adult":false},{"id":85590,"adult":false},{"id":46669,"adult":false},{"id":54549,"adult":false},{"id":369124,"adult":false},{"id":29977,"adult":false},{"id":46129,"adult":false},{"id":15470,"adult":false},{"id":152748,"adult":false},{"id":373477,"adult":false},{"id":371433,"adult":false},{"id":377335,"adult":false},{"id":377336,"adult":false},{"id":147482,"adult":false},{"id":248741,"adult":false},{"id":12491,"adult":false}],"page":116,"total_pages":121,"total_results":12060}