{"results":[{"id":139851,"adult":false},{"id":14696,"adult":false},{"id":29819,"adult":false},{"id":52758,"adult":false},{"id":154748,"adult":true},{"id":62752,"adult":false},{"id":282467,"adult":true},{"id":97831,"adult":false},{"id":85599,"adult":false},{"id":1914,"adult":false},{"id":69272,"adult":false},{"id":167246,"adult":false},{"id":180494,"adult":false},{"id":382808,"adult":false},{"id":63750,"adult":false},{"id":381124,"adult":false},{"id":346699,"adult":false},{"id":388235,"adult":false},{"id":71655,"adult":false},{"id":262606,"adult":false},{"id":11950,"adult":false},{"id":281908,"adult":false},{"id":328368,"adult":false},{"id":228349,"adult":false},{"id":71092,"adult":false},{"id":413756,"adult":false},{"id":263300,"adult":false},{"id":416469,"adult":false},{"id":92772,"adult":false},{"id":416470,"adult":false},{"id":92152,"adult":false},{"id":411749,"adult":false},{"id":116537,"adult":false},{"id":216419,"adult":false},{"id":114525,"adult":false},{"id":12625,"adult":false},{"id":102933,"adult":false},{"id":402324,"adult":false},{"id":129858,"adult":false},{"id":401224,"adult":false},{"id":354143,"adult":false},{"id":26170,"adult":false},{"id":380664,"adult":false},{"id":65775,"adult":false},{"id":53935,"adult":false},{"id":273728,"adult":false},{"id":335988,"adult":false},{"id":144539,"adult":false},{"id":40535,"adult":false},{"id":186744,"adult":false},{"id":380665,"adult":false},{"id":410497,"adult":false},{"id":394692,"adult":false},{"id":398735,"adult":false},{"id":319043,"adult":false},{"id":253298,"adult":false},{"id":189201,"adult":false},{"id":262749,"adult":false},{"id":2608,"adult":false},{"id":368014,"adult":false},{"id":300801,"adult":false},{"id":143885,"adult":false},{"id":238569,"adult":false},{"id":392320,"adult":false},{"id":2205,"adult":false},{"id":366386,"adult":false},{"id":241438,"adult":false},{"id":327752,"adult":false},{"id":248870,"adult":false},{"id":298412,"adult":false},{"id":229483,"adult":false},{"id":242318,"adult":false},{"id":314109,"adult":false},{"id":236310,"adult":false},{"id":338657,"adult":false},{"id":416471,"adult":false},{"id":257882,"adult":false},{"id":171742,"adult":false},{"id":361744,"adult":false},{"id":44440,"adult":false},{"id":71321,"adult":false},{"id":126679,"adult":false},{"id":300982,"adult":false},{"id":115052,"adult":false},{"id":318066,"adult":false},{"id":191376,"adult":false},{"id":156031,"adult":false},{"id":416472,"adult":false},{"id":205816,"adult":false},{"id":407692,"adult":false},{"id":378477,"adult":false},{"id":321549,"adult":false},{"id":372565,"adult":false},{"id":361313,"adult":false},{"id":139543,"adult":false},{"id":408956,"adult":false},{"id":341517,"adult":false},{"id":392435,"adult":false},{"id":402925,"adult":false},{"id":340485,"adult":false}],"page":34,"total_pages":141,"total_results":14019}