{"results":[{"id":274086,"adult":false},{"id":341174,"adult":false},{"id":707,"adult":false},{"id":363807,"adult":false},{"id":271416,"adult":false},{"id":5548,"adult":false},{"id":20681,"adult":false},{"id":123678,"adult":false},{"id":13681,"adult":false},{"id":391813,"adult":false},{"id":265195,"adult":false},{"id":391814,"adult":false},{"id":153750,"adult":false},{"id":12153,"adult":false},{"id":391815,"adult":false},{"id":92095,"adult":false},{"id":10607,"adult":false},{"id":149893,"adult":false},{"id":4247,"adult":false},{"id":149727,"adult":false},{"id":391816,"adult":false},{"id":295968,"adult":false},{"id":391817,"adult":false},{"id":391818,"adult":false},{"id":250372,"adult":false},{"id":88796,"adult":false},{"id":391819,"adult":false},{"id":70211,"adult":false},{"id":32943,"adult":false},{"id":391820,"adult":false},{"id":747,"adult":false},{"id":9554,"adult":false},{"id":11191,"adult":false},{"id":391821,"adult":false},{"id":43680,"adult":false},{"id":109535,"adult":false},{"id":391822,"adult":false},{"id":52760,"adult":false},{"id":391823,"adult":false},{"id":321039,"adult":false},{"id":75948,"adult":false},{"id":220233,"adult":false},{"id":491,"adult":false},{"id":316854,"adult":false},{"id":391824,"adult":false},{"id":391825,"adult":false},{"id":22242,"adult":false},{"id":391826,"adult":false},{"id":290825,"adult":false},{"id":74677,"adult":false},{"id":208266,"adult":false},{"id":329829,"adult":false},{"id":19576,"adult":false},{"id":391827,"adult":false},{"id":48812,"adult":false},{"id":251184,"adult":false},{"id":155593,"adult":false},{"id":75522,"adult":false},{"id":391828,"adult":false},{"id":94899,"adult":false},{"id":77683,"adult":false},{"id":391829,"adult":false},{"id":250278,"adult":false},{"id":391830,"adult":false},{"id":166378,"adult":false},{"id":10380,"adult":false},{"id":338027,"adult":false},{"id":126954,"adult":false},{"id":391831,"adult":false},{"id":169408,"adult":false},{"id":391832,"adult":false},{"id":2176,"adult":false},{"id":391833,"adult":false},{"id":165855,"adult":false},{"id":54752,"adult":false},{"id":210945,"adult":false},{"id":70032,"adult":false},{"id":369727,"adult":false},{"id":146638,"adult":false},{"id":391834,"adult":false},{"id":391835,"adult":false},{"id":391836,"adult":false},{"id":68416,"adult":false},{"id":391837,"adult":false},{"id":391838,"adult":false},{"id":391839,"adult":false},{"id":391840,"adult":false},{"id":391841,"adult":false},{"id":2643,"adult":false},{"id":391842,"adult":false},{"id":281,"adult":false},{"id":391843,"adult":false},{"id":68829,"adult":false},{"id":391844,"adult":false},{"id":104902,"adult":false},{"id":391845,"adult":false},{"id":114323,"adult":false},{"id":4108,"adult":false},{"id":391846,"adult":false},{"id":391847,"adult":false}],"page":63,"total_pages":118,"total_results":11761}