{"results":[{"id":80035,"adult":false},{"id":10718,"adult":false},{"id":36955,"adult":false},{"id":70578,"adult":false},{"id":2026,"adult":false},{"id":22004,"adult":false},{"id":75074,"adult":false},{"id":206563,"adult":false},{"id":271718,"adult":false},{"id":379779,"adult":false},{"id":236399,"adult":false},{"id":43064,"adult":false},{"id":14438,"adult":false},{"id":109608,"adult":false},{"id":29427,"adult":false},{"id":140212,"adult":false},{"id":106129,"adult":false},{"id":72431,"adult":false},{"id":31945,"adult":false},{"id":107678,"adult":false},{"id":118,"adult":false},{"id":124470,"adult":false},{"id":403005,"adult":false},{"id":11344,"adult":false},{"id":286987,"adult":false},{"id":23202,"adult":false},{"id":7214,"adult":false},{"id":95516,"adult":false},{"id":29211,"adult":false},{"id":307226,"adult":false},{"id":386829,"adult":false},{"id":403006,"adult":false},{"id":224141,"adult":false},{"id":74128,"adult":false},{"id":335360,"adult":false},{"id":152603,"adult":false},{"id":381214,"adult":false},{"id":23752,"adult":false},{"id":37973,"adult":false},{"id":210947,"adult":false},{"id":200085,"adult":false},{"id":403007,"adult":false},{"id":296678,"adult":false},{"id":403008,"adult":false},{"id":122231,"adult":false},{"id":269100,"adult":false},{"id":303982,"adult":false},{"id":403010,"adult":false},{"id":403011,"adult":false},{"id":34295,"adult":false},{"id":400190,"adult":false},{"id":403013,"adult":false},{"id":22537,"adult":false},{"id":384127,"adult":false},{"id":292280,"adult":false},{"id":22914,"adult":false},{"id":54648,"adult":false},{"id":403014,"adult":false},{"id":272198,"adult":false},{"id":294069,"adult":false},{"id":403015,"adult":false},{"id":57126,"adult":false},{"id":403016,"adult":false},{"id":59147,"adult":false},{"id":403017,"adult":false},{"id":403018,"adult":false},{"id":199225,"adult":false},{"id":382004,"adult":false},{"id":210227,"adult":false},{"id":145675,"adult":false},{"id":44370,"adult":false},{"id":36613,"adult":false},{"id":336801,"adult":false},{"id":339323,"adult":false},{"id":403019,"adult":false},{"id":382885,"adult":false},{"id":39977,"adult":false},{"id":248043,"adult":false},{"id":98420,"adult":false},{"id":363044,"adult":false},{"id":37047,"adult":false},{"id":44685,"adult":false},{"id":166639,"adult":false},{"id":87073,"adult":false},{"id":335808,"adult":false},{"id":186666,"adult":false},{"id":272108,"adult":false},{"id":142141,"adult":false},{"id":403020,"adult":false},{"id":358922,"adult":false},{"id":275493,"adult":false},{"id":169298,"adult":false},{"id":9452,"adult":false},{"id":245168,"adult":false},{"id":403021,"adult":false},{"id":51971,"adult":false},{"id":8470,"adult":false},{"id":403022,"adult":false},{"id":11112,"adult":false},{"id":14299,"adult":false}],"page":61,"total_pages":116,"total_results":11526}