{"results":[{"id":20312,"adult":false},{"id":179340,"adult":false},{"id":13975,"adult":false},{"id":39928,"adult":false},{"id":1999,"adult":false},{"id":404286,"adult":false},{"id":12163,"adult":false},{"id":25350,"adult":false},{"id":2043,"adult":false},{"id":357446,"adult":false},{"id":9685,"adult":false},{"id":406266,"adult":false},{"id":8427,"adult":false},{"id":1599,"adult":false},{"id":407108,"adult":false},{"id":407109,"adult":false},{"id":441,"adult":false},{"id":407110,"adult":false},{"id":407111,"adult":false},{"id":1927,"adult":false},{"id":407112,"adult":false},{"id":407113,"adult":false},{"id":407114,"adult":false},{"id":10066,"adult":false},{"id":407115,"adult":false},{"id":76750,"adult":false},{"id":23706,"adult":false},{"id":83072,"adult":false},{"id":13942,"adult":false},{"id":365077,"adult":false},{"id":11550,"adult":false},{"id":87078,"adult":false},{"id":2001,"adult":false},{"id":5236,"adult":false},{"id":381255,"adult":false},{"id":407116,"adult":false},{"id":8960,"adult":false},{"id":10652,"adult":false},{"id":250449,"adult":false},{"id":66916,"adult":false},{"id":124240,"adult":false},{"id":11683,"adult":false},{"id":1962,"adult":false},{"id":284052,"adult":false},{"id":9566,"adult":false},{"id":25941,"adult":false},{"id":138595,"adult":false},{"id":298286,"adult":false},{"id":10817,"adult":false},{"id":8461,"adult":false},{"id":42748,"adult":false},{"id":3683,"adult":false},{"id":9754,"adult":false},{"id":393457,"adult":false},{"id":9286,"adult":false},{"id":9358,"adult":false},{"id":9759,"adult":false},{"id":407117,"adult":false},{"id":36136,"adult":false},{"id":18516,"adult":false},{"id":13027,"adult":false},{"id":9487,"adult":false},{"id":16558,"adult":false},{"id":3865,"adult":false},{"id":169881,"adult":false},{"id":7979,"adult":false},{"id":407118,"adult":false},{"id":12143,"adult":false},{"id":407119,"adult":false},{"id":27799,"adult":false},{"id":333378,"adult":false},{"id":3527,"adult":false},{"id":9787,"adult":false},{"id":17035,"adult":false},{"id":1278,"adult":false},{"id":8270,"adult":false},{"id":622,"adult":false},{"id":1635,"adult":false},{"id":13201,"adult":false},{"id":14832,"adult":false},{"id":10922,"adult":false},{"id":407120,"adult":false},{"id":12113,"adult":false},{"id":6538,"adult":false},{"id":275331,"adult":false},{"id":3580,"adult":false},{"id":382143,"adult":false},{"id":9777,"adult":false},{"id":4614,"adult":false},{"id":407121,"adult":false},{"id":10743,"adult":false},{"id":398,"adult":false},{"id":39938,"adult":false},{"id":4551,"adult":false},{"id":10065,"adult":false},{"id":297336,"adult":false},{"id":245,"adult":false},{"id":4629,"adult":false},{"id":399420,"adult":false},{"id":440,"adult":false}],"page":44,"total_pages":120,"total_results":11946}