{"results":[{"id":127381,"adult":false},{"id":372769,"adult":false},{"id":10705,"adult":false},{"id":225667,"adult":false},{"id":225703,"adult":false},{"id":332503,"adult":false},{"id":12445,"adult":false},{"id":309,"adult":false},{"id":60576,"adult":false},{"id":767,"adult":false},{"id":672,"adult":false},{"id":673,"adult":false},{"id":674,"adult":false},{"id":671,"adult":false},{"id":12444,"adult":false},{"id":4879,"adult":false},{"id":260141,"adult":false},{"id":24152,"adult":false},{"id":217300,"adult":false},{"id":173466,"adult":false},{"id":338016,"adult":false},{"id":5589,"adult":false},{"id":250415,"adult":false},{"id":33733,"adult":false},{"id":315144,"adult":false},{"id":368278,"adult":false},{"id":109636,"adult":false},{"id":95751,"adult":false},{"id":88662,"adult":false},{"id":29645,"adult":false},{"id":400472,"adult":false},{"id":238070,"adult":false},{"id":82471,"adult":false},{"id":156030,"adult":false},{"id":169664,"adult":false},{"id":407672,"adult":false},{"id":284286,"adult":false},{"id":407673,"adult":false},{"id":184323,"adult":false},{"id":131634,"adult":false},{"id":374954,"adult":false},{"id":407674,"adult":false},{"id":407675,"adult":false},{"id":300671,"adult":false},{"id":403613,"adult":false},{"id":403611,"adult":false},{"id":403606,"adult":false},{"id":80754,"adult":false},{"id":407676,"adult":false},{"id":54156,"adult":false},{"id":386598,"adult":false},{"id":246087,"adult":false},{"id":407677,"adult":false},{"id":407678,"adult":false},{"id":281957,"adult":false},{"id":4254,"adult":false},{"id":407679,"adult":false},{"id":17047,"adult":false},{"id":116847,"adult":false},{"id":163149,"adult":false},{"id":221755,"adult":false},{"id":317669,"adult":false},{"id":407681,"adult":false},{"id":10923,"adult":false},{"id":329815,"adult":false},{"id":405991,"adult":false},{"id":330492,"adult":false},{"id":339403,"adult":false},{"id":244054,"adult":false},{"id":164563,"adult":false},{"id":151637,"adult":false},{"id":160873,"adult":false},{"id":102899,"adult":false},{"id":253412,"adult":false},{"id":270595,"adult":false},{"id":407682,"adult":false},{"id":89115,"adult":false},{"id":307168,"adult":false},{"id":127585,"adult":false},{"id":285783,"adult":false},{"id":49051,"adult":false},{"id":407683,"adult":true},{"id":151878,"adult":false},{"id":68737,"adult":false},{"id":407684,"adult":false},{"id":257088,"adult":false},{"id":191278,"adult":false},{"id":257344,"adult":false},{"id":266647,"adult":false},{"id":102651,"adult":false},{"id":79650,"adult":false},{"id":262500,"adult":false},{"id":10192,"adult":false},{"id":398136,"adult":true},{"id":180286,"adult":false},{"id":257445,"adult":false},{"id":75116,"adult":false},{"id":252911,"adult":false},{"id":9529,"adult":false},{"id":87246,"adult":false}],"page":84,"total_pages":120,"total_results":11946}