{"results":[{"id":1428,"adult":false},{"id":55093,"adult":false},{"id":337397,"adult":false},{"id":10258,"adult":false},{"id":25472,"adult":false},{"id":143933,"adult":false},{"id":1269,"adult":false},{"id":24555,"adult":false},{"id":337382,"adult":null},{"id":155,"adult":false},{"id":409156,"adult":false},{"id":100684,"adult":false},{"id":65033,"adult":false},{"id":355829,"adult":false},{"id":179469,"adult":false},{"id":14688,"adult":false},{"id":102201,"adult":false},{"id":87101,"adult":false},{"id":290035,"adult":false},{"id":408148,"adult":false},{"id":409157,"adult":false},{"id":382511,"adult":false},{"id":107659,"adult":false},{"id":270212,"adult":false},{"id":361076,"adult":false},{"id":297761,"adult":false},{"id":64401,"adult":false},{"id":409158,"adult":null},{"id":209112,"adult":false},{"id":872,"adult":false},{"id":397127,"adult":false},{"id":229347,"adult":false},{"id":384243,"adult":false},{"id":388191,"adult":false},{"id":111244,"adult":false},{"id":19580,"adult":false},{"id":213924,"adult":false},{"id":45974,"adult":false},{"id":325789,"adult":false},{"id":338341,"adult":false},{"id":409159,"adult":false},{"id":13509,"adult":false},{"id":46612,"adult":false},{"id":188927,"adult":false},{"id":348060,"adult":false},{"id":378607,"adult":false},{"id":407173,"adult":false},{"id":375798,"adult":false},{"id":265586,"adult":false},{"id":377263,"adult":false},{"id":203842,"adult":false},{"id":333484,"adult":false},{"id":292010,"adult":false},{"id":359412,"adult":false},{"id":295693,"adult":false},{"id":334538,"adult":false},{"id":298467,"adult":false},{"id":409160,"adult":false},{"id":377151,"adult":false},{"id":409161,"adult":false},{"id":279435,"adult":false},{"id":250497,"adult":false},{"id":295591,"adult":false},{"id":327040,"adult":false},{"id":116309,"adult":false},{"id":271969,"adult":false},{"id":8975,"adult":false},{"id":87296,"adult":false},{"id":394220,"adult":false},{"id":302305,"adult":false},{"id":126889,"adult":false},{"id":354581,"adult":false},{"id":290543,"adult":false},{"id":192971,"adult":false},{"id":82703,"adult":false},{"id":377264,"adult":false},{"id":409162,"adult":false},{"id":379291,"adult":false},{"id":409054,"adult":null},{"id":194980,"adult":false},{"id":141342,"adult":false},{"id":408982,"adult":false},{"id":102787,"adult":false},{"id":121087,"adult":false},{"id":125259,"adult":false},{"id":129691,"adult":false},{"id":282903,"adult":false},{"id":787,"adult":false},{"id":308603,"adult":false},{"id":172729,"adult":false},{"id":1558,"adult":false},{"id":409163,"adult":false},{"id":409164,"adult":false},{"id":10350,"adult":false},{"id":2616,"adult":false},{"id":62385,"adult":false},{"id":409165,"adult":false},{"id":16538,"adult":false},{"id":83411,"adult":false},{"id":369779,"adult":false}],"page":5,"total_pages":117,"total_results":11641}