{"results":[{"id":305392,"adult":false},{"id":110415,"adult":false},{"id":585,"adult":false},{"id":82881,"adult":false},{"id":106448,"adult":false},{"id":49222,"adult":false},{"id":296,"adult":false},{"id":126693,"adult":false},{"id":87487,"adult":false},{"id":218,"adult":false},{"id":290256,"adult":false},{"id":43501,"adult":false},{"id":534,"adult":false},{"id":49519,"adult":false},{"id":201778,"adult":false},{"id":59447,"adult":false},{"id":33910,"adult":false},{"id":222767,"adult":false},{"id":90438,"adult":false},{"id":413043,"adult":false},{"id":11561,"adult":false},{"id":51912,"adult":false},{"id":410071,"adult":false},{"id":109439,"adult":false},{"id":353686,"adult":false},{"id":49051,"adult":false},{"id":763,"adult":false},{"id":319673,"adult":false},{"id":418850,"adult":false},{"id":57201,"adult":false},{"id":27022,"adult":false},{"id":287948,"adult":false},{"id":46528,"adult":false},{"id":47318,"adult":false},{"id":14979,"adult":false},{"id":75258,"adult":false},{"id":56946,"adult":false},{"id":109240,"adult":false},{"id":332411,"adult":false},{"id":175112,"adult":false},{"id":290250,"adult":false},{"id":297270,"adult":false},{"id":418851,"adult":false},{"id":82695,"adult":false},{"id":76987,"adult":false},{"id":418852,"adult":false},{"id":418853,"adult":false},{"id":1858,"adult":false},{"id":30137,"adult":false},{"id":8373,"adult":false},{"id":269332,"adult":false},{"id":417366,"adult":null},{"id":416464,"adult":null},{"id":155893,"adult":false},{"id":10681,"adult":false},{"id":72190,"adult":false},{"id":416458,"adult":true},{"id":418854,"adult":false},{"id":86643,"adult":false},{"id":2080,"adult":false},{"id":418855,"adult":false},{"id":415524,"adult":false},{"id":30458,"adult":false},{"id":302551,"adult":false},{"id":390952,"adult":false},{"id":31962,"adult":false},{"id":88613,"adult":false},{"id":417952,"adult":null},{"id":396535,"adult":false},{"id":390953,"adult":false},{"id":13403,"adult":false},{"id":208562,"adult":false},{"id":418856,"adult":false},{"id":9788,"adult":false},{"id":334707,"adult":false},{"id":145821,"adult":false},{"id":342018,"adult":false},{"id":11622,"adult":false},{"id":385962,"adult":false},{"id":344268,"adult":false},{"id":56776,"adult":false},{"id":415766,"adult":false},{"id":418857,"adult":false},{"id":139319,"adult":false},{"id":150456,"adult":false},{"id":329715,"adult":false},{"id":245184,"adult":false},{"id":74885,"adult":false},{"id":418858,"adult":false},{"id":416883,"adult":false},{"id":405033,"adult":false},{"id":402123,"adult":false},{"id":418859,"adult":false},{"id":335373,"adult":false},{"id":147755,"adult":false},{"id":418860,"adult":false},{"id":704,"adult":false},{"id":68341,"adult":false},{"id":155884,"adult":false},{"id":418861,"adult":false}],"page":4,"total_pages":144,"total_results":14341}