{"results":[{"id":127610,"adult":false},{"id":270889,"adult":false},{"id":136593,"adult":false},{"id":36751,"adult":false},{"id":341077,"adult":false},{"id":384699,"adult":false},{"id":4579,"adult":false},{"id":264264,"adult":false},{"id":384700,"adult":false},{"id":384701,"adult":false},{"id":869,"adult":false},{"id":384702,"adult":false},{"id":138448,"adult":false},{"id":372684,"adult":false},{"id":72607,"adult":false},{"id":215297,"adult":false},{"id":188826,"adult":false},{"id":384703,"adult":false},{"id":384704,"adult":false},{"id":384705,"adult":false},{"id":384706,"adult":false},{"id":10692,"adult":false},{"id":384707,"adult":false},{"id":362912,"adult":false},{"id":384708,"adult":false},{"id":384709,"adult":false},{"id":235029,"adult":false},{"id":192304,"adult":false},{"id":47423,"adult":false},{"id":240362,"adult":false},{"id":243602,"adult":false},{"id":78085,"adult":false},{"id":285768,"adult":false},{"id":355520,"adult":false},{"id":219452,"adult":false},{"id":381783,"adult":false},{"id":362474,"adult":false},{"id":384710,"adult":false},{"id":226910,"adult":false},{"id":226859,"adult":false},{"id":228052,"adult":false},{"id":193939,"adult":false},{"id":326081,"adult":false},{"id":219577,"adult":false},{"id":87413,"adult":false},{"id":189524,"adult":false},{"id":111573,"adult":false},{"id":232064,"adult":false},{"id":235168,"adult":false},{"id":351058,"adult":false},{"id":353200,"adult":false},{"id":384712,"adult":false},{"id":270152,"adult":false},{"id":139264,"adult":false},{"id":233089,"adult":false},{"id":219554,"adult":false},{"id":100330,"adult":false},{"id":380222,"adult":false},{"id":235023,"adult":false},{"id":236622,"adult":false},{"id":100337,"adult":false},{"id":314877,"adult":null},{"id":236470,"adult":false},{"id":186425,"adult":false},{"id":174060,"adult":false},{"id":362759,"adult":false},{"id":353039,"adult":false},{"id":236335,"adult":false},{"id":243577,"adult":false},{"id":195982,"adult":false},{"id":164384,"adult":false},{"id":319279,"adult":false},{"id":76465,"adult":false},{"id":285248,"adult":false},{"id":161979,"adult":false},{"id":184624,"adult":false},{"id":194148,"adult":false},{"id":337995,"adult":false},{"id":306742,"adult":false},{"id":384713,"adult":false},{"id":236576,"adult":false},{"id":321972,"adult":false},{"id":193926,"adult":false},{"id":261420,"adult":false},{"id":187323,"adult":false},{"id":314880,"adult":null},{"id":151230,"adult":false},{"id":174085,"adult":false},{"id":193833,"adult":false},{"id":235176,"adult":false},{"id":289657,"adult":false},{"id":384714,"adult":false},{"id":236567,"adult":false},{"id":215160,"adult":false},{"id":337469,"adult":false},{"id":201997,"adult":false},{"id":196813,"adult":false},{"id":300124,"adult":false},{"id":236196,"adult":false},{"id":285677,"adult":false}],"page":111,"total_pages":123,"total_results":12205}