{"results":[{"id":124471,"adult":false},{"id":374385,"adult":false},{"id":275657,"adult":false},{"id":217923,"adult":false},{"id":81870,"adult":false},{"id":343140,"adult":false},{"id":10200,"adult":false},{"id":44092,"adult":false},{"id":247954,"adult":false},{"id":46171,"adult":false},{"id":72063,"adult":false},{"id":254155,"adult":false},{"id":365283,"adult":false},{"id":44673,"adult":false},{"id":334281,"adult":false},{"id":318334,"adult":false},{"id":16052,"adult":false},{"id":233112,"adult":false},{"id":164295,"adult":false},{"id":291692,"adult":false},{"id":376461,"adult":false},{"id":16699,"adult":false},{"id":19173,"adult":false},{"id":244114,"adult":false},{"id":349086,"adult":false},{"id":166562,"adult":false},{"id":51720,"adult":false},{"id":248376,"adult":false},{"id":376462,"adult":false},{"id":28833,"adult":false},{"id":265520,"adult":false},{"id":231530,"adult":false},{"id":376463,"adult":false},{"id":127421,"adult":false},{"id":376464,"adult":false},{"id":38559,"adult":false},{"id":376465,"adult":null},{"id":80709,"adult":false},{"id":8224,"adult":false},{"id":2168,"adult":false},{"id":376466,"adult":false},{"id":373372,"adult":false},{"id":132236,"adult":false},{"id":264264,"adult":false},{"id":376467,"adult":false},{"id":193726,"adult":false},{"id":295629,"adult":false},{"id":376468,"adult":false},{"id":67793,"adult":false},{"id":287420,"adult":false},{"id":131739,"adult":false},{"id":309302,"adult":false},{"id":317868,"adult":false},{"id":376469,"adult":false},{"id":294993,"adult":false},{"id":141476,"adult":false},{"id":376470,"adult":false},{"id":21345,"adult":false},{"id":58968,"adult":false},{"id":294991,"adult":false},{"id":119892,"adult":false},{"id":320132,"adult":false},{"id":145916,"adult":false},{"id":277519,"adult":false},{"id":376471,"adult":null},{"id":60282,"adult":false},{"id":318040,"adult":false},{"id":50256,"adult":false},{"id":24889,"adult":false},{"id":74639,"adult":false},{"id":3934,"adult":false},{"id":262137,"adult":false},{"id":206260,"adult":false},{"id":376472,"adult":false},{"id":269506,"adult":false},{"id":5691,"adult":false},{"id":36257,"adult":false},{"id":278464,"adult":false},{"id":371121,"adult":false},{"id":376473,"adult":null},{"id":376474,"adult":false},{"id":297859,"adult":false},{"id":155059,"adult":false},{"id":115559,"adult":false},{"id":103951,"adult":false},{"id":70289,"adult":false},{"id":262468,"adult":false},{"id":352702,"adult":null},{"id":238178,"adult":false},{"id":376475,"adult":false},{"id":162510,"adult":false},{"id":93858,"adult":false},{"id":256042,"adult":false},{"id":11890,"adult":false},{"id":33548,"adult":false},{"id":13200,"adult":false},{"id":9473,"adult":false},{"id":252959,"adult":false},{"id":369867,"adult":false},{"id":376476,"adult":false}],"page":73,"total_pages":121,"total_results":12060}