{"results":[{"id":229357,"adult":false},{"id":420312,"adult":false},{"id":209232,"adult":false},{"id":107812,"adult":false},{"id":65066,"adult":false},{"id":420313,"adult":false},{"id":420314,"adult":false},{"id":217061,"adult":false},{"id":2805,"adult":false},{"id":420315,"adult":false},{"id":420316,"adult":false},{"id":375366,"adult":false},{"id":10199,"adult":false},{"id":16323,"adult":false},{"id":420317,"adult":false},{"id":163580,"adult":false},{"id":420318,"adult":false},{"id":413795,"adult":false},{"id":339988,"adult":false},{"id":420319,"adult":false},{"id":413765,"adult":false},{"id":420320,"adult":false},{"id":15655,"adult":false},{"id":350037,"adult":false},{"id":405796,"adult":false},{"id":420321,"adult":false},{"id":335940,"adult":false},{"id":420322,"adult":false},{"id":389455,"adult":false},{"id":352179,"adult":false},{"id":420324,"adult":false},{"id":38119,"adult":false},{"id":98851,"adult":false},{"id":420325,"adult":false},{"id":420326,"adult":false},{"id":21597,"adult":false},{"id":862,"adult":false},{"id":334305,"adult":false},{"id":213992,"adult":false},{"id":149511,"adult":false},{"id":182617,"adult":false},{"id":19312,"adult":false},{"id":420327,"adult":false},{"id":420328,"adult":false},{"id":9570,"adult":false},{"id":273799,"adult":false},{"id":257974,"adult":false},{"id":420329,"adult":false},{"id":338913,"adult":false},{"id":4909,"adult":false},{"id":29881,"adult":false},{"id":383280,"adult":false},{"id":2576,"adult":false},{"id":420330,"adult":false},{"id":420331,"adult":false},{"id":203102,"adult":false},{"id":91901,"adult":false},{"id":863,"adult":false},{"id":19664,"adult":false},{"id":373030,"adult":false},{"id":64349,"adult":false},{"id":277066,"adult":false},{"id":242,"adult":false},{"id":246655,"adult":false},{"id":420332,"adult":false},{"id":132560,"adult":false},{"id":9593,"adult":false},{"id":86938,"adult":false},{"id":240,"adult":false},{"id":238,"adult":false},{"id":390253,"adult":false},{"id":413794,"adult":false},{"id":140648,"adult":false},{"id":152,"adult":false},{"id":292992,"adult":false},{"id":47327,"adult":false},{"id":74080,"adult":false},{"id":420333,"adult":false},{"id":129390,"adult":false},{"id":10841,"adult":false},{"id":410876,"adult":false},{"id":420334,"adult":false},{"id":86822,"adult":false},{"id":420335,"adult":false},{"id":392800,"adult":false},{"id":264958,"adult":false},{"id":420336,"adult":false},{"id":342895,"adult":false},{"id":49538,"adult":false},{"id":28482,"adult":false},{"id":394041,"adult":false},{"id":84968,"adult":false},{"id":47486,"adult":false},{"id":17635,"adult":false},{"id":11121,"adult":false},{"id":44914,"adult":false},{"id":37923,"adult":false},{"id":13570,"adult":false},{"id":420337,"adult":false},{"id":17443,"adult":false}],"page":103,"total_pages":144,"total_results":14341}