{"results":[{"id":424503,"adult":false},{"id":10436,"adult":false},{"id":49444,"adult":false},{"id":49368,"adult":false},{"id":429987,"adult":false},{"id":429988,"adult":false},{"id":416609,"adult":false},{"id":14326,"adult":false},{"id":280996,"adult":false},{"id":286567,"adult":false},{"id":10495,"adult":false},{"id":276907,"adult":false},{"id":76406,"adult":false},{"id":9746,"adult":false},{"id":404782,"adult":false},{"id":356994,"adult":false},{"id":14784,"adult":false},{"id":10341,"adult":false},{"id":53086,"adult":false},{"id":118905,"adult":false},{"id":287358,"adult":false},{"id":156896,"adult":false},{"id":1598,"adult":false},{"id":26820,"adult":false},{"id":2000,"adult":false},{"id":286519,"adult":false},{"id":36108,"adult":false},{"id":1862,"adult":false},{"id":355975,"adult":false},{"id":41010,"adult":false},{"id":382410,"adult":false},{"id":22112,"adult":false},{"id":29455,"adult":false},{"id":639,"adult":false},{"id":23574,"adult":false},{"id":268705,"adult":false},{"id":279739,"adult":false},{"id":221902,"adult":false},{"id":76344,"adult":false},{"id":146768,"adult":false},{"id":80337,"adult":false},{"id":11798,"adult":false},{"id":111464,"adult":false},{"id":199229,"adult":false},{"id":82270,"adult":false},{"id":33639,"adult":false},{"id":1092,"adult":false},{"id":76568,"adult":false},{"id":490,"adult":false},{"id":360142,"adult":false},{"id":317112,"adult":false},{"id":11393,"adult":false},{"id":429989,"adult":false},{"id":91254,"adult":false},{"id":156627,"adult":false},{"id":22784,"adult":false},{"id":17258,"adult":false},{"id":240629,"adult":false},{"id":31973,"adult":false},{"id":20139,"adult":false},{"id":38725,"adult":false},{"id":309,"adult":false},{"id":236395,"adult":false},{"id":8469,"adult":false},{"id":429990,"adult":false},{"id":258193,"adult":false},{"id":272401,"adult":false},{"id":198419,"adult":false},{"id":42618,"adult":false},{"id":129564,"adult":false},{"id":80441,"adult":false},{"id":48669,"adult":false},{"id":92927,"adult":false},{"id":85617,"adult":false},{"id":56231,"adult":false},{"id":225414,"adult":false},{"id":429991,"adult":false},{"id":1931,"adult":false},{"id":47096,"adult":false},{"id":38724,"adult":false},{"id":263411,"adult":false},{"id":153067,"adult":false},{"id":458,"adult":false},{"id":105908,"adult":false},{"id":459,"adult":false},{"id":108465,"adult":false},{"id":457,"adult":false},{"id":104984,"adult":false},{"id":13827,"adult":false},{"id":82358,"adult":false},{"id":74004,"adult":false},{"id":108445,"adult":false},{"id":11796,"adult":false},{"id":173177,"adult":false},{"id":239350,"adult":false},{"id":389857,"adult":false},{"id":335931,"adult":false},{"id":70942,"adult":false},{"id":9800,"adult":false},{"id":108437,"adult":false}],"page":111,"total_pages":123,"total_results":12242}