{"results":[{"id":28173,"adult":false},{"id":412211,"adult":false},{"id":39129,"adult":false},{"id":412212,"adult":false},{"id":339527,"adult":false},{"id":18935,"adult":false},{"id":18943,"adult":false},{"id":412213,"adult":false},{"id":377276,"adult":false},{"id":389952,"adult":false},{"id":21610,"adult":false},{"id":282346,"adult":false},{"id":140842,"adult":false},{"id":48124,"adult":false},{"id":38542,"adult":false},{"id":75564,"adult":false},{"id":59115,"adult":false},{"id":169792,"adult":false},{"id":412214,"adult":false},{"id":153141,"adult":false},{"id":373451,"adult":false},{"id":365620,"adult":false},{"id":32563,"adult":false},{"id":29627,"adult":false},{"id":1367,"adult":false},{"id":60853,"adult":false},{"id":415,"adult":false},{"id":34069,"adult":false},{"id":381277,"adult":false},{"id":24920,"adult":false},{"id":26888,"adult":false},{"id":101664,"adult":false},{"id":232729,"adult":false},{"id":327536,"adult":false},{"id":407250,"adult":false},{"id":314367,"adult":false},{"id":32613,"adult":false},{"id":330348,"adult":false},{"id":343829,"adult":false},{"id":330070,"adult":false},{"id":404845,"adult":false},{"id":276972,"adult":false},{"id":393379,"adult":false},{"id":405670,"adult":false},{"id":235620,"adult":false},{"id":412215,"adult":false},{"id":55971,"adult":false},{"id":41499,"adult":false},{"id":412216,"adult":null},{"id":412217,"adult":false},{"id":408302,"adult":false},{"id":412218,"adult":null},{"id":64586,"adult":false},{"id":396398,"adult":false},{"id":317841,"adult":false},{"id":65016,"adult":false},{"id":412219,"adult":null},{"id":17974,"adult":false},{"id":28680,"adult":false},{"id":41264,"adult":false},{"id":75233,"adult":false},{"id":14626,"adult":false},{"id":412220,"adult":false},{"id":227973,"adult":false},{"id":37932,"adult":false},{"id":233905,"adult":false},{"id":335487,"adult":false},{"id":29578,"adult":false},{"id":35109,"adult":false},{"id":397023,"adult":false},{"id":12228,"adult":false},{"id":234305,"adult":false},{"id":15144,"adult":false},{"id":179721,"adult":false},{"id":50544,"adult":false},{"id":60285,"adult":false},{"id":289747,"adult":false},{"id":11522,"adult":false},{"id":37982,"adult":true},{"id":6589,"adult":false},{"id":367936,"adult":false},{"id":204313,"adult":false},{"id":22183,"adult":false},{"id":23030,"adult":false},{"id":14169,"adult":false},{"id":404773,"adult":false},{"id":547,"adult":false},{"id":21042,"adult":false},{"id":54156,"adult":false},{"id":2661,"adult":false},{"id":2525,"adult":false},{"id":42728,"adult":false},{"id":19728,"adult":false},{"id":11383,"adult":false},{"id":1052,"adult":false},{"id":17102,"adult":false},{"id":4733,"adult":false},{"id":317908,"adult":false},{"id":4708,"adult":false},{"id":212005,"adult":false}],"page":53,"total_pages":103,"total_results":10211}