{"results":[{"id":53000,"adult":false},{"id":32035,"adult":false},{"id":171485,"adult":false},{"id":10548,"adult":false},{"id":132201,"adult":false},{"id":378373,"adult":false},{"id":420446,"adult":false},{"id":227690,"adult":false},{"id":44129,"adult":false},{"id":228331,"adult":false},{"id":402529,"adult":false},{"id":81764,"adult":false},{"id":420818,"adult":false},{"id":301348,"adult":false},{"id":2378,"adult":false},{"id":55428,"adult":false},{"id":362150,"adult":false},{"id":422617,"adult":null},{"id":345820,"adult":false},{"id":95730,"adult":false},{"id":327674,"adult":false},{"id":65257,"adult":false},{"id":89543,"adult":false},{"id":111476,"adult":false},{"id":425820,"adult":false},{"id":354401,"adult":false},{"id":425821,"adult":false},{"id":425822,"adult":false},{"id":425823,"adult":false},{"id":425824,"adult":false},{"id":425825,"adult":false},{"id":425826,"adult":true},{"id":3049,"adult":false},{"id":9273,"adult":false},{"id":108877,"adult":false},{"id":37136,"adult":false},{"id":129324,"adult":false},{"id":36593,"adult":false},{"id":10779,"adult":false},{"id":267193,"adult":false},{"id":39451,"adult":false},{"id":232408,"adult":false},{"id":9772,"adult":false},{"id":422656,"adult":false},{"id":284674,"adult":false},{"id":21700,"adult":false},{"id":137113,"adult":false},{"id":425827,"adult":false},{"id":46653,"adult":false},{"id":251526,"adult":false},{"id":25977,"adult":false},{"id":89578,"adult":false},{"id":281513,"adult":false},{"id":425828,"adult":false},{"id":416026,"adult":false},{"id":337709,"adult":false},{"id":44801,"adult":false},{"id":425829,"adult":false},{"id":135940,"adult":false},{"id":70339,"adult":false},{"id":341289,"adult":false},{"id":425831,"adult":false},{"id":392939,"adult":false},{"id":39084,"adult":false},{"id":241875,"adult":false},{"id":58010,"adult":false},{"id":425832,"adult":false},{"id":425833,"adult":false},{"id":252296,"adult":false},{"id":425834,"adult":false},{"id":410869,"adult":false},{"id":88466,"adult":false},{"id":425835,"adult":false},{"id":425836,"adult":false},{"id":425837,"adult":null},{"id":28774,"adult":false},{"id":425838,"adult":false},{"id":425839,"adult":false},{"id":30361,"adult":false},{"id":425840,"adult":false},{"id":401306,"adult":false},{"id":39087,"adult":false},{"id":422604,"adult":false},{"id":40649,"adult":false},{"id":425841,"adult":false},{"id":389020,"adult":false},{"id":112058,"adult":false},{"id":19592,"adult":false},{"id":12233,"adult":false},{"id":30830,"adult":false},{"id":353614,"adult":false},{"id":139324,"adult":false},{"id":425842,"adult":false},{"id":193603,"adult":false},{"id":42089,"adult":false},{"id":272452,"adult":false},{"id":12519,"adult":false},{"id":425843,"adult":false},{"id":10784,"adult":false},{"id":157827,"adult":false}],"page":115,"total_pages":120,"total_results":11922}