{"results":[{"id":47594,"adult":false},{"id":221732,"adult":false},{"id":41745,"adult":false},{"id":106530,"adult":false},{"id":47602,"adult":false},{"id":272940,"adult":false},{"id":382486,"adult":false},{"id":74612,"adult":false},{"id":382487,"adult":false},{"id":27288,"adult":false},{"id":158589,"adult":false},{"id":177365,"adult":false},{"id":33272,"adult":false},{"id":54487,"adult":false},{"id":59293,"adult":false},{"id":382488,"adult":null},{"id":116466,"adult":false},{"id":73066,"adult":false},{"id":30830,"adult":false},{"id":380172,"adult":false},{"id":130370,"adult":false},{"id":162374,"adult":false},{"id":372362,"adult":false},{"id":302935,"adult":false},{"id":92642,"adult":false},{"id":126886,"adult":false},{"id":114021,"adult":false},{"id":210745,"adult":false},{"id":274336,"adult":false},{"id":329791,"adult":false},{"id":174348,"adult":false},{"id":70022,"adult":false},{"id":300024,"adult":false},{"id":118,"adult":false},{"id":174332,"adult":false},{"id":225815,"adult":false},{"id":370570,"adult":false},{"id":273271,"adult":false},{"id":25581,"adult":false},{"id":196268,"adult":false},{"id":195346,"adult":false},{"id":318739,"adult":false},{"id":327115,"adult":false},{"id":279775,"adult":false},{"id":145160,"adult":false},{"id":124158,"adult":false},{"id":382489,"adult":false},{"id":71730,"adult":false},{"id":299364,"adult":false},{"id":79224,"adult":false},{"id":343961,"adult":false},{"id":233271,"adult":false},{"id":186974,"adult":false},{"id":82390,"adult":false},{"id":26958,"adult":false},{"id":382490,"adult":false},{"id":212716,"adult":false},{"id":382491,"adult":false},{"id":365472,"adult":null},{"id":190876,"adult":false},{"id":363165,"adult":false},{"id":208831,"adult":false},{"id":316083,"adult":false},{"id":303542,"adult":false},{"id":167810,"adult":false},{"id":382492,"adult":false},{"id":257698,"adult":false},{"id":382493,"adult":false},{"id":33615,"adult":false},{"id":266040,"adult":false},{"id":158519,"adult":false},{"id":44048,"adult":false},{"id":382494,"adult":null},{"id":51471,"adult":false},{"id":41135,"adult":false},{"id":51472,"adult":false},{"id":2621,"adult":false},{"id":51358,"adult":false},{"id":382495,"adult":false},{"id":375063,"adult":false},{"id":185843,"adult":false},{"id":2977,"adult":false},{"id":246127,"adult":false},{"id":146755,"adult":false},{"id":382496,"adult":false},{"id":324953,"adult":false},{"id":268133,"adult":false},{"id":382497,"adult":false},{"id":312951,"adult":false},{"id":382498,"adult":false},{"id":325054,"adult":false},{"id":339405,"adult":false},{"id":369557,"adult":false},{"id":260683,"adult":false},{"id":242076,"adult":false},{"id":144436,"adult":false},{"id":74878,"adult":false},{"id":254905,"adult":false},{"id":138772,"adult":false},{"id":265622,"adult":false}],"page":110,"total_pages":119,"total_results":11854}