{"results":[{"id":381667,"adult":false},{"id":391629,"adult":false},{"id":196133,"adult":false},{"id":315544,"adult":false},{"id":35068,"adult":false},{"id":56156,"adult":false},{"id":219243,"adult":false},{"id":70479,"adult":false},{"id":53962,"adult":false},{"id":42719,"adult":false},{"id":347981,"adult":false},{"id":351728,"adult":false},{"id":208530,"adult":false},{"id":178977,"adult":false},{"id":119809,"adult":false},{"id":275994,"adult":false},{"id":410440,"adult":false},{"id":24099,"adult":false},{"id":139272,"adult":false},{"id":22099,"adult":false},{"id":207903,"adult":false},{"id":22097,"adult":false},{"id":132165,"adult":false},{"id":119589,"adult":false},{"id":357264,"adult":false},{"id":360695,"adult":false},{"id":14069,"adult":false},{"id":405867,"adult":false},{"id":396866,"adult":false},{"id":100084,"adult":false},{"id":158718,"adult":false},{"id":12101,"adult":false},{"id":49178,"adult":false},{"id":47193,"adult":false},{"id":95291,"adult":false},{"id":41163,"adult":false},{"id":215612,"adult":false},{"id":140894,"adult":false},{"id":47844,"adult":false},{"id":406092,"adult":false},{"id":410441,"adult":false},{"id":49945,"adult":false},{"id":82980,"adult":false},{"id":50314,"adult":false},{"id":571,"adult":false},{"id":320298,"adult":false},{"id":55012,"adult":false},{"id":97933,"adult":false},{"id":405199,"adult":false},{"id":101383,"adult":false},{"id":410442,"adult":false},{"id":410444,"adult":false},{"id":410445,"adult":false},{"id":339216,"adult":false},{"id":396581,"adult":false},{"id":4176,"adult":false},{"id":129151,"adult":false},{"id":58955,"adult":false},{"id":49221,"adult":false},{"id":89946,"adult":false},{"id":312321,"adult":false},{"id":113312,"adult":false},{"id":290656,"adult":false},{"id":147773,"adult":false},{"id":26398,"adult":false},{"id":410446,"adult":false},{"id":404903,"adult":false},{"id":42737,"adult":false},{"id":410447,"adult":false},{"id":285783,"adult":false},{"id":9542,"adult":false},{"id":410448,"adult":false},{"id":338,"adult":false},{"id":4192,"adult":false},{"id":410449,"adult":false},{"id":73774,"adult":false},{"id":39925,"adult":false},{"id":152097,"adult":false},{"id":115107,"adult":false},{"id":208982,"adult":false},{"id":35866,"adult":false},{"id":194931,"adult":false},{"id":209534,"adult":false},{"id":47871,"adult":false},{"id":38675,"adult":null},{"id":30238,"adult":false},{"id":301950,"adult":false},{"id":404932,"adult":false},{"id":62327,"adult":false},{"id":230840,"adult":false},{"id":410450,"adult":false},{"id":137737,"adult":false},{"id":301629,"adult":false},{"id":4193,"adult":false},{"id":85887,"adult":false},{"id":198677,"adult":false},{"id":29794,"adult":false},{"id":381947,"adult":false},{"id":397,"adult":false},{"id":23668,"adult":false}],"page":70,"total_pages":117,"total_results":11641}