{"results":[{"id":383879,"adult":false},{"id":383880,"adult":false},{"id":4512,"adult":false},{"id":383881,"adult":false},{"id":104909,"adult":false},{"id":261392,"adult":false},{"id":303577,"adult":false},{"id":264999,"adult":false},{"id":269583,"adult":false},{"id":294050,"adult":false},{"id":383882,"adult":false},{"id":264730,"adult":false},{"id":650,"adult":false},{"id":1430,"adult":false},{"id":360994,"adult":false},{"id":297074,"adult":false},{"id":383883,"adult":false},{"id":317783,"adult":null},{"id":116741,"adult":false},{"id":366241,"adult":false},{"id":25891,"adult":false},{"id":40557,"adult":false},{"id":71940,"adult":false},{"id":344,"adult":false},{"id":368694,"adult":false},{"id":368839,"adult":false},{"id":64942,"adult":false},{"id":383884,"adult":false},{"id":10865,"adult":false},{"id":383885,"adult":false},{"id":65,"adult":false},{"id":40297,"adult":false},{"id":382653,"adult":false},{"id":323487,"adult":false},{"id":383886,"adult":false},{"id":5966,"adult":false},{"id":338343,"adult":false},{"id":7840,"adult":false},{"id":144342,"adult":false},{"id":383887,"adult":false},{"id":253350,"adult":false},{"id":366736,"adult":false},{"id":383888,"adult":false},{"id":6072,"adult":false},{"id":382212,"adult":false},{"id":328595,"adult":false},{"id":383889,"adult":null},{"id":366334,"adult":false},{"id":383890,"adult":true},{"id":69372,"adult":null},{"id":383891,"adult":true},{"id":40676,"adult":false},{"id":383892,"adult":true},{"id":383893,"adult":false},{"id":383894,"adult":false},{"id":34544,"adult":false},{"id":294272,"adult":false},{"id":383895,"adult":true},{"id":383896,"adult":false},{"id":383897,"adult":true},{"id":49479,"adult":false},{"id":158554,"adult":true},{"id":347354,"adult":null},{"id":28971,"adult":false},{"id":19403,"adult":false},{"id":176339,"adult":false},{"id":383898,"adult":false},{"id":207207,"adult":false},{"id":383899,"adult":false},{"id":326638,"adult":false},{"id":103344,"adult":false},{"id":37684,"adult":false},{"id":383900,"adult":false},{"id":77691,"adult":false},{"id":364116,"adult":false},{"id":383901,"adult":false},{"id":383902,"adult":false},{"id":84233,"adult":false},{"id":383903,"adult":false},{"id":228817,"adult":false},{"id":366551,"adult":false},{"id":383904,"adult":false},{"id":622,"adult":false},{"id":102000,"adult":false},{"id":11389,"adult":false},{"id":248561,"adult":false},{"id":125589,"adult":false},{"id":383905,"adult":false},{"id":10657,"adult":false},{"id":314228,"adult":false},{"id":383906,"adult":false},{"id":266983,"adult":false},{"id":363861,"adult":false},{"id":11025,"adult":false},{"id":323024,"adult":false},{"id":320166,"adult":false},{"id":690,"adult":false},{"id":214142,"adult":false},{"id":59881,"adult":false},{"id":8843,"adult":false}],"page":64,"total_pages":123,"total_results":12205}