{"results":[{"id":137566,"adult":false},{"id":10956,"adult":false},{"id":386218,"adult":false},{"id":369087,"adult":false},{"id":11403,"adult":false},{"id":386219,"adult":false},{"id":45103,"adult":false},{"id":10952,"adult":false},{"id":330348,"adult":false},{"id":51358,"adult":false},{"id":2661,"adult":false},{"id":125249,"adult":false},{"id":96727,"adult":false},{"id":546,"adult":false},{"id":173380,"adult":false},{"id":10855,"adult":false},{"id":50546,"adult":false},{"id":1933,"adult":false},{"id":602,"adult":false},{"id":377308,"adult":false},{"id":377295,"adult":false},{"id":366965,"adult":false},{"id":377355,"adult":false},{"id":329,"adult":false},{"id":331,"adult":false},{"id":330,"adult":false},{"id":325348,"adult":false},{"id":386220,"adult":false},{"id":10623,"adult":false},{"id":267936,"adult":false},{"id":386221,"adult":false},{"id":5548,"adult":false},{"id":97020,"adult":false},{"id":5549,"adult":false},{"id":5550,"adult":false},{"id":386222,"adult":false},{"id":39641,"adult":false},{"id":608,"adult":false},{"id":59248,"adult":false},{"id":383018,"adult":false},{"id":607,"adult":false},{"id":80052,"adult":false},{"id":286221,"adult":false},{"id":380390,"adult":false},{"id":122917,"adult":false},{"id":57158,"adult":false},{"id":49051,"adult":false},{"id":10169,"adult":false},{"id":6166,"adult":false},{"id":393,"adult":false},{"id":147554,"adult":false},{"id":10161,"adult":false},{"id":64868,"adult":false},{"id":289231,"adult":false},{"id":10024,"adult":false},{"id":12,"adult":false},{"id":66458,"adult":false},{"id":386223,"adult":false},{"id":66455,"adult":false},{"id":379018,"adult":false},{"id":125337,"adult":false},{"id":36657,"adult":false},{"id":49538,"adult":false},{"id":2080,"adult":false},{"id":36658,"adult":false},{"id":172540,"adult":false},{"id":10155,"adult":false},{"id":78025,"adult":false},{"id":386224,"adult":false},{"id":334975,"adult":false},{"id":10142,"adult":false},{"id":386225,"adult":false},{"id":10135,"adult":false},{"id":57818,"adult":false},{"id":386226,"adult":false},{"id":386227,"adult":false},{"id":266700,"adult":false},{"id":10110,"adult":false},{"id":8092,"adult":false},{"id":386228,"adult":false},{"id":386229,"adult":false},{"id":10077,"adult":false},{"id":10074,"adult":false},{"id":10065,"adult":false},{"id":386230,"adult":false},{"id":285549,"adult":false},{"id":9642,"adult":false},{"id":14831,"adult":false},{"id":10403,"adult":false},{"id":386231,"adult":false},{"id":386232,"adult":false},{"id":10060,"adult":false},{"id":100542,"adult":false},{"id":100529,"adult":false},{"id":10019,"adult":false},{"id":273404,"adult":false},{"id":386234,"adult":false},{"id":10015,"adult":false},{"id":386235,"adult":false},{"id":10002,"adult":false}],"page":63,"total_pages":123,"total_results":12230}