{"results":[{"id":398571,"adult":true},{"id":57508,"adult":false},{"id":317348,"adult":false},{"id":245509,"adult":false},{"id":20345,"adult":false},{"id":11072,"adult":false},{"id":206637,"adult":false},{"id":962,"adult":false},{"id":28978,"adult":false},{"id":234439,"adult":false},{"id":398572,"adult":false},{"id":13939,"adult":false},{"id":14373,"adult":false},{"id":26263,"adult":false},{"id":34746,"adult":false},{"id":17792,"adult":false},{"id":411,"adult":false},{"id":10648,"adult":false},{"id":394599,"adult":false},{"id":57189,"adult":false},{"id":5914,"adult":false},{"id":243230,"adult":false},{"id":234496,"adult":false},{"id":372640,"adult":false},{"id":202318,"adult":false},{"id":157544,"adult":false},{"id":233358,"adult":false},{"id":277130,"adult":false},{"id":10644,"adult":false},{"id":103739,"adult":false},{"id":317258,"adult":false},{"id":317245,"adult":false},{"id":21564,"adult":false},{"id":289354,"adult":false},{"id":385747,"adult":false},{"id":17729,"adult":false},{"id":233356,"adult":false},{"id":398573,"adult":true},{"id":23620,"adult":false},{"id":279266,"adult":false},{"id":122355,"adult":false},{"id":396,"adult":false},{"id":397391,"adult":false},{"id":135748,"adult":false},{"id":13580,"adult":false},{"id":338028,"adult":false},{"id":67201,"adult":false},{"id":92285,"adult":false},{"id":192884,"adult":false},{"id":27443,"adult":false},{"id":2321,"adult":false},{"id":226948,"adult":false},{"id":168530,"adult":false},{"id":72232,"adult":false},{"id":398574,"adult":false},{"id":347033,"adult":false},{"id":333484,"adult":false},{"id":20496,"adult":false},{"id":373471,"adult":false},{"id":27259,"adult":false},{"id":132923,"adult":false},{"id":233665,"adult":false},{"id":398577,"adult":false},{"id":398578,"adult":false},{"id":398579,"adult":false},{"id":258518,"adult":false},{"id":398580,"adult":true},{"id":124597,"adult":false},{"id":339527,"adult":false},{"id":117415,"adult":false},{"id":110677,"adult":false},{"id":266644,"adult":false},{"id":14756,"adult":false},{"id":258019,"adult":false},{"id":347524,"adult":false},{"id":366678,"adult":false},{"id":18015,"adult":false},{"id":267762,"adult":false},{"id":242491,"adult":false},{"id":58856,"adult":false},{"id":283055,"adult":false},{"id":398581,"adult":false},{"id":256057,"adult":false},{"id":35201,"adult":false},{"id":285637,"adult":false},{"id":341833,"adult":false},{"id":398582,"adult":false},{"id":395202,"adult":false},{"id":249570,"adult":false},{"id":161179,"adult":false},{"id":254719,"adult":false},{"id":292387,"adult":false},{"id":374173,"adult":false},{"id":280795,"adult":false},{"id":255207,"adult":false},{"id":210526,"adult":false},{"id":208207,"adult":false},{"id":16327,"adult":false},{"id":398583,"adult":false},{"id":364433,"adult":false}],"page":68,"total_pages":128,"total_results":12797}