{"results":[{"id":81401,"adult":false},{"id":414032,"adult":false},{"id":1404,"adult":false},{"id":4982,"adult":false},{"id":55420,"adult":false},{"id":1715,"adult":false},{"id":109091,"adult":false},{"id":20123,"adult":false},{"id":414033,"adult":false},{"id":20024,"adult":false},{"id":112205,"adult":false},{"id":64,"adult":false},{"id":11934,"adult":false},{"id":76640,"adult":false},{"id":7548,"adult":false},{"id":414034,"adult":false},{"id":11615,"adult":false},{"id":68722,"adult":false},{"id":365451,"adult":false},{"id":15472,"adult":false},{"id":33613,"adult":false},{"id":24253,"adult":false},{"id":414035,"adult":false},{"id":24657,"adult":false},{"id":84892,"adult":false},{"id":155939,"adult":false},{"id":9428,"adult":false},{"id":1896,"adult":false},{"id":399055,"adult":false},{"id":26963,"adult":false},{"id":2668,"adult":false},{"id":149870,"adult":false},{"id":9545,"adult":false},{"id":2117,"adult":false},{"id":157117,"adult":false},{"id":164580,"adult":false},{"id":4960,"adult":false},{"id":86555,"adult":false},{"id":16520,"adult":false},{"id":8741,"adult":false},{"id":45694,"adult":false},{"id":157351,"adult":false},{"id":1923,"adult":false},{"id":11902,"adult":false},{"id":4734,"adult":false},{"id":10994,"adult":false},{"id":14629,"adult":false},{"id":414036,"adult":false},{"id":414037,"adult":null},{"id":10604,"adult":false},{"id":185567,"adult":false},{"id":24858,"adult":false},{"id":22549,"adult":false},{"id":414038,"adult":false},{"id":72994,"adult":false},{"id":387426,"adult":false},{"id":414039,"adult":false},{"id":63418,"adult":false},{"id":414040,"adult":false},{"id":414041,"adult":false},{"id":140447,"adult":false},{"id":339263,"adult":false},{"id":402428,"adult":false},{"id":90369,"adult":false},{"id":8881,"adult":false},{"id":347629,"adult":false},{"id":136204,"adult":false},{"id":414042,"adult":false},{"id":414043,"adult":false},{"id":414044,"adult":false},{"id":414045,"adult":false},{"id":414046,"adult":false},{"id":74639,"adult":false},{"id":13105,"adult":false},{"id":414047,"adult":true},{"id":18917,"adult":false},{"id":405879,"adult":false},{"id":414048,"adult":false},{"id":86070,"adult":false},{"id":412974,"adult":false},{"id":414049,"adult":false},{"id":336560,"adult":false},{"id":413441,"adult":false},{"id":413440,"adult":false},{"id":414050,"adult":false},{"id":5486,"adult":false},{"id":4232,"adult":false},{"id":287821,"adult":false},{"id":409063,"adult":false},{"id":11074,"adult":false},{"id":402609,"adult":false},{"id":28049,"adult":false},{"id":9679,"adult":false},{"id":414051,"adult":false},{"id":414052,"adult":false},{"id":69968,"adult":false},{"id":414053,"adult":false},{"id":333385,"adult":false},{"id":89088,"adult":false},{"id":412540,"adult":false}],"page":31,"total_pages":126,"total_results":12554}