{"results":[{"id":405463,"adult":false},{"id":89698,"adult":false},{"id":27202,"adult":false},{"id":333848,"adult":false},{"id":405464,"adult":false},{"id":37247,"adult":false},{"id":405465,"adult":false},{"id":405466,"adult":false},{"id":284368,"adult":false},{"id":405467,"adult":false},{"id":119920,"adult":false},{"id":14533,"adult":false},{"id":398205,"adult":false},{"id":403659,"adult":false},{"id":405468,"adult":false},{"id":53360,"adult":false},{"id":80380,"adult":false},{"id":22327,"adult":false},{"id":87217,"adult":false},{"id":169497,"adult":false},{"id":399417,"adult":false},{"id":399636,"adult":false},{"id":80432,"adult":false},{"id":110416,"adult":false},{"id":22342,"adult":false},{"id":260767,"adult":false},{"id":344268,"adult":false},{"id":332660,"adult":false},{"id":388347,"adult":false},{"id":405469,"adult":false},{"id":405470,"adult":false},{"id":122924,"adult":false},{"id":405471,"adult":false},{"id":66193,"adult":false},{"id":405472,"adult":false},{"id":391710,"adult":false},{"id":136368,"adult":false},{"id":23382,"adult":false},{"id":396011,"adult":false},{"id":354469,"adult":false},{"id":47615,"adult":false},{"id":220700,"adult":false},{"id":259090,"adult":false},{"id":253021,"adult":false},{"id":50173,"adult":false},{"id":405473,"adult":false},{"id":257345,"adult":false},{"id":86482,"adult":false},{"id":405474,"adult":false},{"id":20919,"adult":false},{"id":85757,"adult":false},{"id":11357,"adult":false},{"id":18183,"adult":false},{"id":405475,"adult":false},{"id":325245,"adult":false},{"id":325696,"adult":false},{"id":325698,"adult":false},{"id":405476,"adult":false},{"id":325700,"adult":false},{"id":325704,"adult":false},{"id":405477,"adult":false},{"id":59871,"adult":false},{"id":325707,"adult":false},{"id":405478,"adult":false},{"id":336812,"adult":null},{"id":351995,"adult":false},{"id":351996,"adult":false},{"id":352001,"adult":false},{"id":405479,"adult":false},{"id":352830,"adult":false},{"id":352835,"adult":false},{"id":352837,"adult":false},{"id":352852,"adult":false},{"id":352862,"adult":false},{"id":352868,"adult":false},{"id":352990,"adult":false},{"id":178664,"adult":false},{"id":352992,"adult":false},{"id":91311,"adult":false},{"id":353727,"adult":false},{"id":353729,"adult":false},{"id":353737,"adult":false},{"id":405480,"adult":false},{"id":353738,"adult":false},{"id":354690,"adult":false},{"id":354691,"adult":false},{"id":354696,"adult":false},{"id":354698,"adult":false},{"id":355077,"adult":false},{"id":40132,"adult":false},{"id":405481,"adult":false},{"id":333112,"adult":false},{"id":355079,"adult":false},{"id":405482,"adult":false},{"id":355082,"adult":false},{"id":273189,"adult":false},{"id":355084,"adult":false},{"id":355085,"adult":false},{"id":25862,"adult":false},{"id":355087,"adult":false}],"page":69,"total_pages":112,"total_results":11190}