{"results":[{"id":16323,"adult":false},{"id":40650,"adult":false},{"id":25680,"adult":false},{"id":394743,"adult":false},{"id":112229,"adult":false},{"id":45218,"adult":false},{"id":16305,"adult":false},{"id":10238,"adult":false},{"id":14275,"adult":false},{"id":14285,"adult":false},{"id":30142,"adult":false},{"id":24998,"adult":false},{"id":18871,"adult":false},{"id":80924,"adult":false},{"id":1719,"adult":false},{"id":11837,"adult":false},{"id":61594,"adult":false},{"id":394744,"adult":false},{"id":37247,"adult":false},{"id":52449,"adult":false},{"id":394745,"adult":false},{"id":394746,"adult":false},{"id":279307,"adult":false},{"id":394747,"adult":false},{"id":209764,"adult":false},{"id":64145,"adult":false},{"id":394748,"adult":false},{"id":394749,"adult":false},{"id":375122,"adult":false},{"id":394750,"adult":false},{"id":14024,"adult":false},{"id":394751,"adult":false},{"id":1775,"adult":false},{"id":1930,"adult":false},{"id":180375,"adult":false},{"id":25560,"adult":false},{"id":357096,"adult":false},{"id":394752,"adult":false},{"id":394753,"adult":false},{"id":74608,"adult":false},{"id":394754,"adult":false},{"id":394755,"adult":false},{"id":39135,"adult":false},{"id":59191,"adult":false},{"id":81857,"adult":false},{"id":339148,"adult":false},{"id":389058,"adult":false},{"id":1585,"adult":false},{"id":54165,"adult":false},{"id":55689,"adult":false},{"id":391962,"adult":false},{"id":3175,"adult":false},{"id":394756,"adult":false},{"id":58699,"adult":false},{"id":58691,"adult":false},{"id":50435,"adult":false},{"id":257117,"adult":false},{"id":11817,"adult":false},{"id":394757,"adult":false},{"id":148850,"adult":false},{"id":47717,"adult":false},{"id":46970,"adult":false},{"id":258290,"adult":false},{"id":65058,"adult":false},{"id":234961,"adult":false},{"id":9636,"adult":false},{"id":47010,"adult":false},{"id":394758,"adult":false},{"id":884,"adult":false},{"id":392421,"adult":false},{"id":155494,"adult":false},{"id":394759,"adult":false},{"id":349069,"adult":false},{"id":83972,"adult":false},{"id":20319,"adult":false},{"id":135905,"adult":false},{"id":110876,"adult":false},{"id":218312,"adult":false},{"id":11103,"adult":false},{"id":127750,"adult":false},{"id":33112,"adult":false},{"id":31459,"adult":false},{"id":297253,"adult":false},{"id":81640,"adult":false},{"id":43443,"adult":false},{"id":83668,"adult":false},{"id":394760,"adult":false},{"id":45611,"adult":false},{"id":354500,"adult":false},{"id":84105,"adult":false},{"id":272880,"adult":false},{"id":186149,"adult":false},{"id":32895,"adult":false},{"id":326206,"adult":false},{"id":331017,"adult":false},{"id":394761,"adult":false},{"id":180718,"adult":false},{"id":394762,"adult":false},{"id":246446,"adult":false},{"id":215580,"adult":false}],"page":119,"total_pages":127,"total_results":12659}