{"results":[{"id":53712,"adult":false},{"id":65249,"adult":false},{"id":43463,"adult":false},{"id":402910,"adult":false},{"id":67754,"adult":false},{"id":53179,"adult":false},{"id":16166,"adult":false},{"id":24260,"adult":false},{"id":46175,"adult":false},{"id":40812,"adult":false},{"id":207177,"adult":false},{"id":61828,"adult":false},{"id":407620,"adult":false},{"id":160897,"adult":false},{"id":52440,"adult":false},{"id":267498,"adult":false},{"id":136799,"adult":false},{"id":247357,"adult":false},{"id":407621,"adult":false},{"id":208897,"adult":false},{"id":407622,"adult":false},{"id":407623,"adult":false},{"id":375366,"adult":false},{"id":25121,"adult":false},{"id":407624,"adult":false},{"id":9656,"adult":false},{"id":47942,"adult":false},{"id":377264,"adult":false},{"id":407625,"adult":false},{"id":763,"adult":false},{"id":407626,"adult":false},{"id":115068,"adult":false},{"id":69900,"adult":false},{"id":90677,"adult":false},{"id":407627,"adult":false},{"id":266293,"adult":false},{"id":34814,"adult":false},{"id":36876,"adult":false},{"id":125368,"adult":false},{"id":407628,"adult":false},{"id":358986,"adult":false},{"id":244857,"adult":false},{"id":407629,"adult":false},{"id":127872,"adult":false},{"id":10070,"adult":false},{"id":333355,"adult":false},{"id":236935,"adult":false},{"id":17214,"adult":false},{"id":385931,"adult":false},{"id":407630,"adult":false},{"id":90076,"adult":false},{"id":330697,"adult":false},{"id":353267,"adult":false},{"id":129715,"adult":false},{"id":30713,"adult":false},{"id":293167,"adult":false},{"id":274504,"adult":false},{"id":400995,"adult":false},{"id":347881,"adult":false},{"id":382511,"adult":false},{"id":407631,"adult":false},{"id":407632,"adult":false},{"id":158611,"adult":true},{"id":375742,"adult":false},{"id":342473,"adult":false},{"id":270007,"adult":false},{"id":296670,"adult":false},{"id":847,"adult":false},{"id":28296,"adult":false},{"id":9869,"adult":false},{"id":78256,"adult":false},{"id":11222,"adult":false},{"id":174065,"adult":false},{"id":10017,"adult":false},{"id":2518,"adult":false},{"id":25952,"adult":false},{"id":9331,"adult":false},{"id":49587,"adult":false},{"id":264772,"adult":false},{"id":28087,"adult":false},{"id":259579,"adult":false},{"id":22832,"adult":false},{"id":16320,"adult":false},{"id":277834,"adult":false},{"id":97211,"adult":false},{"id":76600,"adult":false},{"id":389484,"adult":false},{"id":22342,"adult":false},{"id":297038,"adult":false},{"id":139799,"adult":false},{"id":391950,"adult":null},{"id":391976,"adult":null},{"id":267184,"adult":false},{"id":8651,"adult":false},{"id":1902,"adult":false},{"id":407633,"adult":false},{"id":86834,"adult":false},{"id":80767,"adult":false},{"id":277380,"adult":false},{"id":333865,"adult":false}],"page":81,"total_pages":120,"total_results":11946}