{"results":[{"id":168529,"adult":false},{"id":410259,"adult":false},{"id":41288,"adult":false},{"id":153,"adult":false},{"id":1575,"adult":false},{"id":419595,"adult":true},{"id":1246,"adult":false},{"id":289134,"adult":false},{"id":96786,"adult":false},{"id":263261,"adult":false},{"id":227306,"adult":false},{"id":321068,"adult":false},{"id":251783,"adult":false},{"id":201576,"adult":false},{"id":298778,"adult":false},{"id":11472,"adult":false},{"id":335904,"adult":false},{"id":10799,"adult":false},{"id":24137,"adult":false},{"id":189233,"adult":false},{"id":9507,"adult":false},{"id":283726,"adult":false},{"id":2149,"adult":false},{"id":12090,"adult":false},{"id":419596,"adult":false},{"id":409921,"adult":false},{"id":419598,"adult":true},{"id":419599,"adult":false},{"id":417615,"adult":false},{"id":208399,"adult":false},{"id":419600,"adult":false},{"id":94440,"adult":false},{"id":419601,"adult":false},{"id":273153,"adult":false},{"id":419602,"adult":false},{"id":3482,"adult":false},{"id":352209,"adult":false},{"id":293205,"adult":false},{"id":9260,"adult":false},{"id":249616,"adult":false},{"id":238513,"adult":false},{"id":180145,"adult":false},{"id":308266,"adult":false},{"id":215752,"adult":false},{"id":176715,"adult":false},{"id":419603,"adult":false},{"id":12574,"adult":false},{"id":281982,"adult":false},{"id":162911,"adult":false},{"id":306325,"adult":false},{"id":14353,"adult":false},{"id":372103,"adult":false},{"id":160075,"adult":false},{"id":144725,"adult":false},{"id":49850,"adult":false},{"id":72057,"adult":false},{"id":384588,"adult":false},{"id":411529,"adult":false},{"id":40978,"adult":false},{"id":28209,"adult":false},{"id":57308,"adult":false},{"id":419604,"adult":false},{"id":374915,"adult":false},{"id":46028,"adult":false},{"id":25665,"adult":false},{"id":4351,"adult":false},{"id":315449,"adult":false},{"id":163661,"adult":false},{"id":315440,"adult":false},{"id":142635,"adult":false},{"id":134500,"adult":false},{"id":1391,"adult":false},{"id":122280,"adult":false},{"id":45387,"adult":false},{"id":14399,"adult":false},{"id":7008,"adult":false},{"id":415962,"adult":false},{"id":56381,"adult":false},{"id":20171,"adult":false},{"id":36259,"adult":false},{"id":239018,"adult":false},{"id":56948,"adult":false},{"id":225667,"adult":false},{"id":183963,"adult":false},{"id":419605,"adult":false},{"id":275032,"adult":false},{"id":173496,"adult":false},{"id":189341,"adult":false},{"id":67055,"adult":false},{"id":25935,"adult":false},{"id":73252,"adult":false},{"id":30351,"adult":false},{"id":17286,"adult":false},{"id":136075,"adult":false},{"id":137894,"adult":false},{"id":109236,"adult":false},{"id":292791,"adult":false},{"id":34465,"adult":false},{"id":10580,"adult":false},{"id":419606,"adult":false}],"page":64,"total_pages":144,"total_results":14341}