{"results":[{"id":391593,"adult":false},{"id":101539,"adult":false},{"id":62929,"adult":false},{"id":371859,"adult":false},{"id":375841,"adult":false},{"id":15397,"adult":false},{"id":15600,"adult":false},{"id":368163,"adult":false},{"id":165549,"adult":false},{"id":401421,"adult":false},{"id":195759,"adult":false},{"id":14921,"adult":false},{"id":371596,"adult":false},{"id":41115,"adult":false},{"id":112941,"adult":false},{"id":4780,"adult":false},{"id":320701,"adult":false},{"id":380770,"adult":false},{"id":29083,"adult":false},{"id":159510,"adult":false},{"id":138514,"adult":false},{"id":401422,"adult":false},{"id":345771,"adult":false},{"id":136894,"adult":false},{"id":344998,"adult":false},{"id":292200,"adult":false},{"id":297676,"adult":false},{"id":355329,"adult":false},{"id":243940,"adult":false},{"id":401423,"adult":false},{"id":199873,"adult":false},{"id":394093,"adult":false},{"id":355733,"adult":false},{"id":156343,"adult":false},{"id":352162,"adult":false},{"id":370060,"adult":true},{"id":256311,"adult":false},{"id":401424,"adult":null},{"id":286558,"adult":false},{"id":263552,"adult":false},{"id":12527,"adult":false},{"id":108454,"adult":false},{"id":376558,"adult":false},{"id":341218,"adult":false},{"id":105234,"adult":false},{"id":190112,"adult":false},{"id":317381,"adult":false},{"id":263151,"adult":false},{"id":31610,"adult":false},{"id":264246,"adult":false},{"id":364462,"adult":false},{"id":13078,"adult":false},{"id":341036,"adult":false},{"id":124409,"adult":false},{"id":334674,"adult":false},{"id":401425,"adult":false},{"id":1878,"adult":false},{"id":401426,"adult":false},{"id":4349,"adult":false},{"id":401427,"adult":false},{"id":81721,"adult":false},{"id":14887,"adult":false},{"id":119652,"adult":false},{"id":262027,"adult":false},{"id":25571,"adult":false},{"id":373479,"adult":false},{"id":361144,"adult":false},{"id":393318,"adult":false},{"id":240671,"adult":false},{"id":12247,"adult":false},{"id":106176,"adult":false},{"id":16083,"adult":false},{"id":396481,"adult":null},{"id":77855,"adult":false},{"id":335203,"adult":false},{"id":13919,"adult":false},{"id":281650,"adult":false},{"id":27063,"adult":true},{"id":34078,"adult":false},{"id":82700,"adult":false},{"id":339325,"adult":false},{"id":65638,"adult":false},{"id":401428,"adult":false},{"id":377587,"adult":false},{"id":234212,"adult":false},{"id":401429,"adult":false},{"id":297596,"adult":false},{"id":32634,"adult":false},{"id":46441,"adult":false},{"id":86718,"adult":false},{"id":40767,"adult":false},{"id":28304,"adult":false},{"id":286680,"adult":false},{"id":65873,"adult":false},{"id":401430,"adult":false},{"id":821,"adult":false},{"id":401431,"adult":false},{"id":129851,"adult":false},{"id":401432,"adult":false},{"id":1908,"adult":false}],"page":82,"total_pages":116,"total_results":11568}