{"results":[{"id":131634,"adult":false},{"id":296098,"adult":false},{"id":104320,"adult":false},{"id":344803,"adult":false},{"id":55723,"adult":false},{"id":24919,"adult":false},{"id":179621,"adult":false},{"id":69570,"adult":false},{"id":298044,"adult":false},{"id":91990,"adult":false},{"id":91987,"adult":false},{"id":51900,"adult":false},{"id":64729,"adult":true},{"id":68735,"adult":false},{"id":40528,"adult":false},{"id":268717,"adult":false},{"id":158618,"adult":false},{"id":50461,"adult":false},{"id":307627,"adult":false},{"id":918,"adult":false},{"id":290250,"adult":false},{"id":348141,"adult":false},{"id":28638,"adult":false},{"id":299404,"adult":false},{"id":293923,"adult":false},{"id":238,"adult":false},{"id":280526,"adult":false},{"id":283592,"adult":false},{"id":260346,"adult":false},{"id":271110,"adult":false},{"id":104751,"adult":false},{"id":224455,"adult":false},{"id":9904,"adult":false},{"id":161837,"adult":false},{"id":214761,"adult":false},{"id":129332,"adult":false},{"id":11970,"adult":false},{"id":174492,"adult":false},{"id":225671,"adult":false},{"id":10545,"adult":false},{"id":150226,"adult":false},{"id":375278,"adult":false},{"id":254188,"adult":false},{"id":247788,"adult":false},{"id":360142,"adult":false},{"id":369817,"adult":false},{"id":60086,"adult":false},{"id":361243,"adult":false},{"id":10632,"adult":false},{"id":10198,"adult":false},{"id":131325,"adult":false},{"id":38757,"adult":false},{"id":329440,"adult":false},{"id":228165,"adult":false},{"id":297761,"adult":false},{"id":255268,"adult":false},{"id":352789,"adult":false},{"id":299563,"adult":false},{"id":380696,"adult":false},{"id":209403,"adult":false},{"id":14765,"adult":false},{"id":53358,"adult":false},{"id":373679,"adult":false},{"id":13517,"adult":false},{"id":9988,"adult":false},{"id":343118,"adult":false},{"id":171540,"adult":false},{"id":13161,"adult":false},{"id":163758,"adult":false},{"id":7978,"adult":false},{"id":380697,"adult":true},{"id":22881,"adult":false},{"id":380698,"adult":false},{"id":11547,"adult":false},{"id":40938,"adult":false},{"id":445,"adult":false},{"id":13612,"adult":false},{"id":148418,"adult":false},{"id":74751,"adult":null},{"id":72691,"adult":null},{"id":211649,"adult":false},{"id":46095,"adult":false},{"id":286654,"adult":false},{"id":54075,"adult":false},{"id":380699,"adult":false},{"id":380700,"adult":true},{"id":202088,"adult":false},{"id":7343,"adult":false},{"id":1542,"adult":false},{"id":96936,"adult":false},{"id":37257,"adult":false},{"id":320701,"adult":false},{"id":362590,"adult":false},{"id":380701,"adult":false},{"id":172520,"adult":false},{"id":7445,"adult":false},{"id":12138,"adult":false},{"id":112454,"adult":false},{"id":55628,"adult":false},{"id":380702,"adult":true}],"page":11,"total_pages":119,"total_results":11854}