{"results":[{"id":27135,"adult":false},{"id":417404,"adult":false},{"id":347019,"adult":false},{"id":417405,"adult":false},{"id":398745,"adult":false},{"id":691,"adult":false},{"id":39460,"adult":false},{"id":14035,"adult":false},{"id":417406,"adult":false},{"id":39796,"adult":false},{"id":290078,"adult":false},{"id":379966,"adult":false},{"id":417407,"adult":false},{"id":417408,"adult":false},{"id":417409,"adult":false},{"id":417410,"adult":false},{"id":81750,"adult":false},{"id":361275,"adult":false},{"id":417411,"adult":false},{"id":9624,"adult":false},{"id":417412,"adult":false},{"id":301978,"adult":false},{"id":36583,"adult":false},{"id":66340,"adult":false},{"id":383535,"adult":false},{"id":547,"adult":false},{"id":291562,"adult":false},{"id":290030,"adult":false},{"id":374678,"adult":false},{"id":224957,"adult":false},{"id":417413,"adult":false},{"id":411193,"adult":false},{"id":374667,"adult":false},{"id":417414,"adult":false},{"id":369544,"adult":false},{"id":40909,"adult":false},{"id":11091,"adult":false},{"id":294596,"adult":false},{"id":318654,"adult":false},{"id":256868,"adult":false},{"id":417415,"adult":false},{"id":256869,"adult":false},{"id":417416,"adult":false},{"id":369502,"adult":false},{"id":417417,"adult":false},{"id":339421,"adult":false},{"id":264063,"adult":false},{"id":417418,"adult":false},{"id":417419,"adult":false},{"id":417420,"adult":false},{"id":24133,"adult":false},{"id":115,"adult":false},{"id":417421,"adult":false},{"id":411014,"adult":false},{"id":260139,"adult":false},{"id":4437,"adult":false},{"id":400618,"adult":false},{"id":293350,"adult":false},{"id":364865,"adult":false},{"id":353880,"adult":false},{"id":417422,"adult":false},{"id":297976,"adult":false},{"id":361358,"adult":false},{"id":81175,"adult":false},{"id":408401,"adult":false},{"id":412885,"adult":false},{"id":289855,"adult":false},{"id":48542,"adult":false},{"id":389533,"adult":false},{"id":21619,"adult":false},{"id":287357,"adult":false},{"id":412884,"adult":false},{"id":270144,"adult":false},{"id":101784,"adult":false},{"id":381299,"adult":false},{"id":389534,"adult":false},{"id":390590,"adult":false},{"id":412203,"adult":false},{"id":320588,"adult":false},{"id":245891,"adult":false},{"id":393803,"adult":false},{"id":417423,"adult":null},{"id":182181,"adult":false},{"id":213366,"adult":false},{"id":417424,"adult":false},{"id":417425,"adult":false},{"id":349077,"adult":false},{"id":417426,"adult":false},{"id":379924,"adult":false},{"id":417427,"adult":false},{"id":417428,"adult":false},{"id":417429,"adult":false},{"id":409618,"adult":false},{"id":417430,"adult":false},{"id":293015,"adult":false},{"id":417431,"adult":false},{"id":272548,"adult":false},{"id":10226,"adult":false},{"id":115466,"adult":false},{"id":12251,"adult":false}],"page":84,"total_pages":141,"total_results":14019}