{"results":[{"id":380509,"adult":false},{"id":380510,"adult":false},{"id":380511,"adult":false},{"id":375777,"adult":true},{"id":380512,"adult":false},{"id":380513,"adult":false},{"id":377681,"adult":false},{"id":11202,"adult":false},{"id":10128,"adult":false},{"id":31640,"adult":false},{"id":380514,"adult":false},{"id":44214,"adult":false},{"id":378208,"adult":false},{"id":380515,"adult":false},{"id":37169,"adult":false},{"id":74997,"adult":false},{"id":380516,"adult":false},{"id":57165,"adult":false},{"id":18823,"adult":false},{"id":114726,"adult":false},{"id":281957,"adult":false},{"id":380517,"adult":false},{"id":5916,"adult":false},{"id":11857,"adult":false},{"id":27993,"adult":false},{"id":380518,"adult":false},{"id":36647,"adult":false},{"id":43956,"adult":false},{"id":12153,"adult":false},{"id":380519,"adult":false},{"id":380520,"adult":false},{"id":80035,"adult":false},{"id":169497,"adult":false},{"id":238343,"adult":false},{"id":10661,"adult":false},{"id":109420,"adult":false},{"id":380521,"adult":false},{"id":379220,"adult":false},{"id":134784,"adult":false},{"id":380522,"adult":false},{"id":293022,"adult":false},{"id":903,"adult":false},{"id":261392,"adult":false},{"id":380523,"adult":false},{"id":380524,"adult":false},{"id":58431,"adult":false},{"id":380525,"adult":false},{"id":380526,"adult":false},{"id":380527,"adult":false},{"id":36586,"adult":false},{"id":380528,"adult":false},{"id":380529,"adult":false},{"id":323870,"adult":false},{"id":380530,"adult":false},{"id":52612,"adult":false},{"id":43213,"adult":false},{"id":380531,"adult":false},{"id":380532,"adult":false},{"id":242641,"adult":false},{"id":25296,"adult":false},{"id":42434,"adult":false},{"id":244217,"adult":false},{"id":268621,"adult":false},{"id":246875,"adult":false},{"id":31532,"adult":false},{"id":380533,"adult":false},{"id":214087,"adult":false},{"id":144128,"adult":false},{"id":276913,"adult":false},{"id":380466,"adult":false},{"id":107768,"adult":false},{"id":380534,"adult":false},{"id":240875,"adult":false},{"id":236682,"adult":false},{"id":10803,"adult":false},{"id":187534,"adult":false},{"id":15506,"adult":false},{"id":8452,"adult":false},{"id":10204,"adult":false},{"id":8665,"adult":false},{"id":316000,"adult":false},{"id":380535,"adult":false},{"id":14571,"adult":false},{"id":14572,"adult":false},{"id":16402,"adult":false},{"id":380536,"adult":false},{"id":19525,"adult":false},{"id":9257,"adult":false},{"id":3536,"adult":false},{"id":23603,"adult":false},{"id":380537,"adult":false},{"id":363618,"adult":false},{"id":9645,"adult":false},{"id":23173,"adult":false},{"id":11362,"adult":false},{"id":301947,"adult":false},{"id":242512,"adult":false},{"id":380538,"adult":false},{"id":380,"adult":false},{"id":12169,"adult":false}],"page":2,"total_pages":119,"total_results":11854}