{"results":[{"id":26842,"adult":false},{"id":8970,"adult":false},{"id":202197,"adult":false},{"id":290731,"adult":false},{"id":5769,"adult":false},{"id":794,"adult":false},{"id":379497,"adult":null},{"id":190458,"adult":false},{"id":190481,"adult":false},{"id":190440,"adult":false},{"id":68768,"adult":false},{"id":379498,"adult":null},{"id":250272,"adult":false},{"id":333696,"adult":false},{"id":55292,"adult":false},{"id":51868,"adult":false},{"id":162480,"adult":false},{"id":176167,"adult":false},{"id":192911,"adult":false},{"id":1967,"adult":false},{"id":46800,"adult":false},{"id":37091,"adult":false},{"id":482,"adult":false},{"id":36992,"adult":false},{"id":84449,"adult":false},{"id":1245,"adult":false},{"id":51227,"adult":false},{"id":60405,"adult":false},{"id":205321,"adult":false},{"id":317954,"adult":false},{"id":128210,"adult":false},{"id":68784,"adult":false},{"id":18635,"adult":false},{"id":178062,"adult":false},{"id":178060,"adult":false},{"id":28593,"adult":false},{"id":178057,"adult":false},{"id":17179,"adult":false},{"id":165214,"adult":false},{"id":15035,"adult":false},{"id":65872,"adult":false},{"id":13853,"adult":false},{"id":25935,"adult":false},{"id":334231,"adult":false},{"id":375224,"adult":null},{"id":71880,"adult":false},{"id":11847,"adult":false},{"id":10786,"adult":false},{"id":1718,"adult":false},{"id":26175,"adult":false},{"id":3133,"adult":false},{"id":352386,"adult":false},{"id":975,"adult":false},{"id":280028,"adult":false},{"id":379499,"adult":false},{"id":11348,"adult":false},{"id":159430,"adult":false},{"id":332032,"adult":false},{"id":68770,"adult":false},{"id":68777,"adult":false},{"id":202570,"adult":false},{"id":68781,"adult":false},{"id":45693,"adult":false},{"id":375119,"adult":false},{"id":27579,"adult":false},{"id":182177,"adult":false},{"id":13570,"adult":false},{"id":316431,"adult":false},{"id":1648,"adult":false},{"id":33157,"adult":false},{"id":43333,"adult":false},{"id":481,"adult":false},{"id":136426,"adult":false},{"id":38274,"adult":false},{"id":11706,"adult":false},{"id":9873,"adult":false},{"id":1919,"adult":false},{"id":8418,"adult":false},{"id":379500,"adult":false},{"id":16563,"adult":false},{"id":8978,"adult":false},{"id":51405,"adult":false},{"id":24180,"adult":false},{"id":10006,"adult":false},{"id":69715,"adult":false},{"id":154060,"adult":false},{"id":32080,"adult":false},{"id":99796,"adult":false},{"id":47471,"adult":false},{"id":81861,"adult":false},{"id":297018,"adult":false},{"id":278974,"adult":false},{"id":159841,"adult":false},{"id":12581,"adult":false},{"id":33145,"adult":false},{"id":43320,"adult":false},{"id":53410,"adult":false},{"id":23518,"adult":false},{"id":15476,"adult":false},{"id":50791,"adult":false}],"page":109,"total_pages":226,"total_results":22514}