{"results":[{"id":118670,"adult":false},{"id":99802,"adult":false},{"id":25571,"adult":false},{"id":429173,"adult":false},{"id":895,"adult":false},{"id":121380,"adult":false},{"id":367732,"adult":false},{"id":171507,"adult":false},{"id":395834,"adult":false},{"id":429174,"adult":false},{"id":395814,"adult":false},{"id":429175,"adult":false},{"id":419472,"adult":false},{"id":291264,"adult":false},{"id":429176,"adult":false},{"id":11530,"adult":false},{"id":429177,"adult":false},{"id":382127,"adult":false},{"id":163863,"adult":false},{"id":376134,"adult":false},{"id":429178,"adult":false},{"id":429179,"adult":false},{"id":107,"adult":false},{"id":382572,"adult":false},{"id":256354,"adult":false},{"id":429180,"adult":false},{"id":87631,"adult":false},{"id":36196,"adult":false},{"id":267443,"adult":false},{"id":11027,"adult":false},{"id":141653,"adult":false},{"id":426321,"adult":false},{"id":429181,"adult":false},{"id":297160,"adult":false},{"id":205357,"adult":null},{"id":411873,"adult":false},{"id":155796,"adult":false},{"id":409617,"adult":false},{"id":418927,"adult":false},{"id":189128,"adult":false},{"id":189127,"adult":null},{"id":75969,"adult":false},{"id":63966,"adult":false},{"id":429182,"adult":false},{"id":334325,"adult":false},{"id":429183,"adult":false},{"id":24461,"adult":false},{"id":188740,"adult":null},{"id":16344,"adult":false},{"id":429184,"adult":false},{"id":429185,"adult":false},{"id":20496,"adult":false},{"id":256355,"adult":false},{"id":429186,"adult":false},{"id":429187,"adult":false},{"id":429188,"adult":false},{"id":27307,"adult":false},{"id":423428,"adult":null},{"id":423314,"adult":null},{"id":423258,"adult":null},{"id":426994,"adult":false},{"id":423646,"adult":false},{"id":620,"adult":false},{"id":2978,"adult":false},{"id":41812,"adult":false},{"id":429189,"adult":false},{"id":429190,"adult":false},{"id":104155,"adult":false},{"id":429191,"adult":false},{"id":314237,"adult":false},{"id":429192,"adult":false},{"id":429193,"adult":false},{"id":429194,"adult":false},{"id":109969,"adult":null},{"id":429195,"adult":false},{"id":277822,"adult":false},{"id":10557,"adult":false},{"id":429196,"adult":false},{"id":429197,"adult":false},{"id":27590,"adult":false},{"id":429198,"adult":null},{"id":332721,"adult":false},{"id":11374,"adult":false},{"id":16172,"adult":false},{"id":429199,"adult":false},{"id":9451,"adult":false},{"id":2896,"adult":false},{"id":429200,"adult":false},{"id":429201,"adult":false},{"id":35727,"adult":false},{"id":36105,"adult":false},{"id":121179,"adult":false},{"id":429202,"adult":false},{"id":25789,"adult":false},{"id":145926,"adult":false},{"id":1946,"adult":false},{"id":429203,"adult":false},{"id":345,"adult":false},{"id":49948,"adult":false},{"id":45515,"adult":false}],"page":62,"total_pages":123,"total_results":12242}