{"results":[{"id":388077,"adult":false},{"id":63310,"adult":false},{"id":39434,"adult":false},{"id":245597,"adult":false},{"id":332312,"adult":false},{"id":2286,"adult":false},{"id":301554,"adult":false},{"id":388078,"adult":false},{"id":388079,"adult":false},{"id":33078,"adult":false},{"id":12445,"adult":false},{"id":127594,"adult":false},{"id":437,"adult":false},{"id":268689,"adult":false},{"id":338127,"adult":false},{"id":38255,"adult":false},{"id":381058,"adult":false},{"id":797,"adult":false},{"id":368758,"adult":false},{"id":371910,"adult":false},{"id":374430,"adult":false},{"id":10558,"adult":false},{"id":388081,"adult":false},{"id":163752,"adult":false},{"id":301919,"adult":false},{"id":1073,"adult":false},{"id":24042,"adult":false},{"id":388082,"adult":false},{"id":148107,"adult":false},{"id":70378,"adult":null},{"id":387663,"adult":false},{"id":378112,"adult":false},{"id":370978,"adult":false},{"id":300671,"adult":false},{"id":85761,"adult":false},{"id":161389,"adult":false},{"id":6972,"adult":false},{"id":79740,"adult":false},{"id":14492,"adult":false},{"id":264654,"adult":false},{"id":330298,"adult":false},{"id":386725,"adult":false},{"id":388083,"adult":false},{"id":388084,"adult":null},{"id":169175,"adult":false},{"id":386804,"adult":false},{"id":243445,"adult":false},{"id":386152,"adult":false},{"id":80499,"adult":false},{"id":378331,"adult":false},{"id":300456,"adult":false},{"id":95812,"adult":false},{"id":17209,"adult":false},{"id":388085,"adult":false},{"id":31503,"adult":false},{"id":315378,"adult":false},{"id":295631,"adult":false},{"id":50730,"adult":false},{"id":134218,"adult":false},{"id":48583,"adult":false},{"id":86042,"adult":false},{"id":388086,"adult":false},{"id":388087,"adult":false},{"id":62395,"adult":false},{"id":135696,"adult":false},{"id":96721,"adult":false},{"id":36807,"adult":false},{"id":277171,"adult":false},{"id":124347,"adult":false},{"id":228915,"adult":false},{"id":74345,"adult":false},{"id":75762,"adult":false},{"id":70308,"adult":false},{"id":298504,"adult":false},{"id":13376,"adult":false},{"id":265895,"adult":false},{"id":95403,"adult":false},{"id":187915,"adult":false},{"id":385168,"adult":true},{"id":388088,"adult":false},{"id":106651,"adult":false},{"id":368708,"adult":false},{"id":308461,"adult":false},{"id":105404,"adult":false},{"id":266633,"adult":null},{"id":130011,"adult":false},{"id":153853,"adult":false},{"id":388089,"adult":false},{"id":347591,"adult":true},{"id":92710,"adult":false},{"id":246510,"adult":false},{"id":388092,"adult":false},{"id":54859,"adult":false},{"id":86047,"adult":false},{"id":197841,"adult":false},{"id":99576,"adult":false},{"id":388093,"adult":false},{"id":388094,"adult":false},{"id":104876,"adult":false},{"id":10380,"adult":false}],"page":24,"total_pages":120,"total_results":11936}