{"results":[{"id":426414,"adult":false},{"id":402123,"adult":false},{"id":298312,"adult":false},{"id":24732,"adult":false},{"id":269698,"adult":false},{"id":333669,"adult":false},{"id":275665,"adult":false},{"id":31357,"adult":false},{"id":406,"adult":false},{"id":157827,"adult":false},{"id":289193,"adult":false},{"id":57361,"adult":false},{"id":17207,"adult":false},{"id":296769,"adult":false},{"id":409387,"adult":false},{"id":123377,"adult":false},{"id":426415,"adult":false},{"id":18725,"adult":false},{"id":426416,"adult":null},{"id":426417,"adult":false},{"id":397379,"adult":false},{"id":245597,"adult":false},{"id":16295,"adult":false},{"id":270759,"adult":false},{"id":44137,"adult":false},{"id":425006,"adult":false},{"id":407887,"adult":false},{"id":274504,"adult":false},{"id":395763,"adult":false},{"id":182307,"adult":false},{"id":4416,"adult":false},{"id":261333,"adult":false},{"id":265389,"adult":false},{"id":118624,"adult":false},{"id":54648,"adult":false},{"id":242454,"adult":false},{"id":94771,"adult":false},{"id":11876,"adult":false},{"id":426418,"adult":false},{"id":262795,"adult":false},{"id":11359,"adult":false},{"id":37141,"adult":false},{"id":50575,"adult":false},{"id":710,"adult":false},{"id":13949,"adult":false},{"id":331251,"adult":false},{"id":17447,"adult":false},{"id":33517,"adult":false},{"id":9482,"adult":false},{"id":366187,"adult":false},{"id":24823,"adult":false},{"id":202140,"adult":false},{"id":426419,"adult":false},{"id":29801,"adult":false},{"id":182484,"adult":false},{"id":144283,"adult":false},{"id":397305,"adult":false},{"id":244252,"adult":false},{"id":69931,"adult":false},{"id":19556,"adult":false},{"id":426420,"adult":false},{"id":40490,"adult":false},{"id":275011,"adult":false},{"id":40661,"adult":false},{"id":426421,"adult":false},{"id":9344,"adult":false},{"id":61813,"adult":false},{"id":292631,"adult":false},{"id":5511,"adult":false},{"id":130641,"adult":false},{"id":16388,"adult":false},{"id":256959,"adult":false},{"id":37108,"adult":false},{"id":82992,"adult":false},{"id":374070,"adult":false},{"id":426422,"adult":false},{"id":426423,"adult":false},{"id":341516,"adult":false},{"id":360354,"adult":false},{"id":1165,"adult":false},{"id":330417,"adult":false},{"id":426424,"adult":false},{"id":217925,"adult":false},{"id":2360,"adult":false},{"id":36159,"adult":false},{"id":259401,"adult":false},{"id":373558,"adult":false},{"id":52420,"adult":false},{"id":18823,"adult":false},{"id":20605,"adult":false},{"id":238337,"adult":false},{"id":101766,"adult":false},{"id":115100,"adult":false},{"id":28465,"adult":false},{"id":214263,"adult":false},{"id":174213,"adult":false},{"id":9647,"adult":false},{"id":426425,"adult":false},{"id":57165,"adult":false},{"id":362699,"adult":false}],"page":26,"total_pages":119,"total_results":11862}