{"results":[{"id":38602,"adult":false},{"id":4835,"adult":false},{"id":658,"adult":false},{"id":52542,"adult":false},{"id":53521,"adult":false},{"id":32030,"adult":false},{"id":389456,"adult":false},{"id":28830,"adult":false},{"id":15925,"adult":false},{"id":37315,"adult":false},{"id":27517,"adult":false},{"id":67286,"adult":false},{"id":127122,"adult":false},{"id":96394,"adult":false},{"id":215928,"adult":false},{"id":2094,"adult":false},{"id":53021,"adult":false},{"id":128775,"adult":false},{"id":375090,"adult":false},{"id":77409,"adult":false},{"id":42787,"adult":false},{"id":4657,"adult":false},{"id":197053,"adult":false},{"id":411539,"adult":false},{"id":21159,"adult":false},{"id":411540,"adult":null},{"id":71638,"adult":false},{"id":3011,"adult":false},{"id":49519,"adult":false},{"id":67212,"adult":false},{"id":189393,"adult":false},{"id":104098,"adult":false},{"id":128437,"adult":false},{"id":129062,"adult":false},{"id":173798,"adult":false},{"id":151217,"adult":false},{"id":239630,"adult":false},{"id":60437,"adult":false},{"id":20629,"adult":false},{"id":246309,"adult":false},{"id":104324,"adult":false},{"id":366052,"adult":false},{"id":377662,"adult":false},{"id":108141,"adult":false},{"id":30086,"adult":false},{"id":317557,"adult":false},{"id":65208,"adult":false},{"id":311777,"adult":false},{"id":202326,"adult":false},{"id":410900,"adult":null},{"id":410899,"adult":null},{"id":202351,"adult":false},{"id":66526,"adult":false},{"id":400130,"adult":false},{"id":333367,"adult":false},{"id":400127,"adult":false},{"id":202360,"adult":false},{"id":19829,"adult":false},{"id":317728,"adult":false},{"id":353600,"adult":false},{"id":66524,"adult":null},{"id":33457,"adult":false},{"id":411541,"adult":false},{"id":239589,"adult":false},{"id":202324,"adult":false},{"id":411542,"adult":false},{"id":75076,"adult":false},{"id":411543,"adult":false},{"id":411544,"adult":false},{"id":33339,"adult":false},{"id":376651,"adult":false},{"id":268533,"adult":null},{"id":411545,"adult":false},{"id":411546,"adult":false},{"id":66377,"adult":false},{"id":411547,"adult":false},{"id":277867,"adult":false},{"id":411548,"adult":false},{"id":411549,"adult":false},{"id":88991,"adult":false},{"id":411550,"adult":true},{"id":75513,"adult":false},{"id":407434,"adult":false},{"id":388558,"adult":false},{"id":30231,"adult":false},{"id":5054,"adult":false},{"id":411551,"adult":false},{"id":403127,"adult":false},{"id":311585,"adult":false},{"id":260920,"adult":false},{"id":260911,"adult":false},{"id":108115,"adult":false},{"id":411552,"adult":true},{"id":19978,"adult":false},{"id":411553,"adult":false},{"id":411554,"adult":true},{"id":277869,"adult":false},{"id":411555,"adult":true},{"id":277864,"adult":false},{"id":277862,"adult":false}],"page":9,"total_pages":103,"total_results":10211}