{"results":[{"id":7454,"adult":false},{"id":665,"adult":false},{"id":7278,"adult":false},{"id":7183,"adult":false},{"id":7095,"adult":false},{"id":6951,"adult":false},{"id":6589,"adult":false},{"id":6399,"adult":false},{"id":5689,"adult":false},{"id":5072,"adult":false},{"id":4964,"adult":false},{"id":4958,"adult":false},{"id":553,"adult":false},{"id":4816,"adult":false},{"id":4379,"adult":false},{"id":2800,"adult":false},{"id":2294,"adult":false},{"id":2044,"adult":false},{"id":1961,"adult":false},{"id":1721,"adult":false},{"id":1493,"adult":false},{"id":37773,"adult":false},{"id":1125,"adult":false},{"id":858,"adult":false},{"id":19619,"adult":false},{"id":78215,"adult":false},{"id":10735,"adult":false},{"id":348660,"adult":false},{"id":409327,"adult":false},{"id":378932,"adult":false},{"id":347469,"adult":false},{"id":79524,"adult":false},{"id":198277,"adult":false},{"id":353172,"adult":false},{"id":318043,"adult":false},{"id":53965,"adult":false},{"id":314285,"adult":false},{"id":4952,"adult":false},{"id":21496,"adult":false},{"id":117360,"adult":false},{"id":135682,"adult":false},{"id":103073,"adult":false},{"id":92484,"adult":false},{"id":103077,"adult":false},{"id":355065,"adult":false},{"id":208608,"adult":false},{"id":46387,"adult":false},{"id":174388,"adult":false},{"id":295422,"adult":false},{"id":50011,"adult":false},{"id":254201,"adult":false},{"id":248679,"adult":false},{"id":285900,"adult":false},{"id":407617,"adult":null},{"id":316391,"adult":false},{"id":407620,"adult":false},{"id":18205,"adult":false},{"id":58902,"adult":false},{"id":83539,"adult":false},{"id":232572,"adult":false},{"id":14603,"adult":false},{"id":17057,"adult":false},{"id":320421,"adult":false},{"id":409328,"adult":false},{"id":400441,"adult":false},{"id":409329,"adult":false},{"id":287459,"adult":false},{"id":71991,"adult":false},{"id":409330,"adult":false},{"id":409331,"adult":false},{"id":286383,"adult":false},{"id":186992,"adult":false},{"id":22843,"adult":false},{"id":409332,"adult":false},{"id":183443,"adult":false},{"id":42871,"adult":false},{"id":400877,"adult":false},{"id":400871,"adult":false},{"id":400872,"adult":false},{"id":70773,"adult":false},{"id":286272,"adult":false},{"id":409333,"adult":false},{"id":74494,"adult":false},{"id":81598,"adult":false},{"id":296221,"adult":false},{"id":66564,"adult":false},{"id":85800,"adult":false},{"id":290091,"adult":false},{"id":409334,"adult":false},{"id":42076,"adult":false},{"id":94135,"adult":false},{"id":183654,"adult":false},{"id":137180,"adult":false},{"id":41462,"adult":false},{"id":248781,"adult":false},{"id":296191,"adult":false},{"id":409335,"adult":false},{"id":409336,"adult":false},{"id":198436,"adult":false},{"id":173603,"adult":false}],"page":21,"total_pages":117,"total_results":11641}