{"results":[{"id":11324,"adult":false},{"id":28410,"adult":false},{"id":77756,"adult":false},{"id":363482,"adult":false},{"id":14869,"adult":false},{"id":38356,"adult":false},{"id":353979,"adult":false},{"id":23280,"adult":false},{"id":79934,"adult":false},{"id":47884,"adult":false},{"id":426572,"adult":false},{"id":163985,"adult":false},{"id":44846,"adult":false},{"id":426573,"adult":false},{"id":19095,"adult":false},{"id":388357,"adult":false},{"id":305582,"adult":false},{"id":305447,"adult":false},{"id":189937,"adult":false},{"id":10771,"adult":false},{"id":40720,"adult":false},{"id":407518,"adult":false},{"id":234267,"adult":false},{"id":426574,"adult":false},{"id":293926,"adult":false},{"id":418718,"adult":false},{"id":61461,"adult":false},{"id":82631,"adult":false},{"id":158637,"adult":false},{"id":121674,"adult":false},{"id":414391,"adult":false},{"id":82390,"adult":false},{"id":426575,"adult":false},{"id":285841,"adult":false},{"id":225036,"adult":false},{"id":28204,"adult":false},{"id":417820,"adult":false},{"id":57930,"adult":false},{"id":106446,"adult":false},{"id":298931,"adult":false},{"id":63773,"adult":false},{"id":315868,"adult":false},{"id":64166,"adult":false},{"id":426576,"adult":false},{"id":426577,"adult":false},{"id":403310,"adult":false},{"id":381011,"adult":false},{"id":288710,"adult":false},{"id":426578,"adult":false},{"id":5255,"adult":false},{"id":425715,"adult":false},{"id":417406,"adult":false},{"id":414221,"adult":false},{"id":426579,"adult":false},{"id":311469,"adult":false},{"id":424194,"adult":false},{"id":383893,"adult":false},{"id":419566,"adult":false},{"id":426580,"adult":false},{"id":413198,"adult":false},{"id":423038,"adult":false},{"id":376081,"adult":false},{"id":401061,"adult":false},{"id":117251,"adult":false},{"id":20652,"adult":false},{"id":376424,"adult":false},{"id":371741,"adult":false},{"id":381043,"adult":false},{"id":608,"adult":false},{"id":377263,"adult":false},{"id":339258,"adult":false},{"id":339060,"adult":false},{"id":220010,"adult":false},{"id":426581,"adult":false},{"id":110412,"adult":false},{"id":254302,"adult":false},{"id":290637,"adult":false},{"id":426582,"adult":false},{"id":117906,"adult":false},{"id":299939,"adult":false},{"id":52474,"adult":false},{"id":77948,"adult":false},{"id":403793,"adult":false},{"id":297333,"adult":false},{"id":66144,"adult":false},{"id":216898,"adult":false},{"id":56339,"adult":false},{"id":93230,"adult":false},{"id":39254,"adult":false},{"id":60825,"adult":false},{"id":426583,"adult":false},{"id":106909,"adult":false},{"id":86334,"adult":false},{"id":426584,"adult":false},{"id":151029,"adult":false},{"id":121743,"adult":false},{"id":421742,"adult":false},{"id":210059,"adult":false},{"id":426585,"adult":false},{"id":426586,"adult":false}],"page":35,"total_pages":119,"total_results":11862}