{"results":[{"id":171593,"adult":false},{"id":21032,"adult":false},{"id":202141,"adult":false},{"id":123983,"adult":false},{"id":130490,"adult":false},{"id":239416,"adult":false},{"id":59049,"adult":false},{"id":290802,"adult":false},{"id":256668,"adult":false},{"id":288968,"adult":false},{"id":38342,"adult":false},{"id":227678,"adult":false},{"id":397040,"adult":false},{"id":2742,"adult":false},{"id":103122,"adult":false},{"id":45995,"adult":false},{"id":73755,"adult":false},{"id":41823,"adult":false},{"id":74195,"adult":false},{"id":198185,"adult":false},{"id":203,"adult":false},{"id":333388,"adult":false},{"id":429992,"adult":false},{"id":1850,"adult":false},{"id":802,"adult":false},{"id":395767,"adult":false},{"id":10803,"adult":false},{"id":426928,"adult":false},{"id":255913,"adult":false},{"id":322,"adult":false},{"id":11457,"adult":false},{"id":11976,"adult":false},{"id":5511,"adult":false},{"id":772,"adult":false},{"id":16620,"adult":false},{"id":21634,"adult":false},{"id":427819,"adult":false},{"id":408537,"adult":false},{"id":11314,"adult":false},{"id":1585,"adult":false},{"id":319075,"adult":false},{"id":103117,"adult":false},{"id":110265,"adult":false},{"id":38575,"adult":false},{"id":163875,"adult":false},{"id":429993,"adult":false},{"id":336768,"adult":false},{"id":11430,"adult":false},{"id":358807,"adult":false},{"id":82810,"adult":false},{"id":398924,"adult":false},{"id":14030,"adult":false},{"id":201810,"adult":false},{"id":3603,"adult":false},{"id":65733,"adult":false},{"id":21474,"adult":false},{"id":421447,"adult":false},{"id":39282,"adult":false},{"id":161497,"adult":false},{"id":169607,"adult":false},{"id":37472,"adult":false},{"id":62752,"adult":false},{"id":20483,"adult":false},{"id":279816,"adult":false},{"id":279185,"adult":false},{"id":37609,"adult":false},{"id":220,"adult":false},{"id":2295,"adult":false},{"id":12767,"adult":false},{"id":44249,"adult":false},{"id":137298,"adult":false},{"id":321507,"adult":false},{"id":296206,"adult":false},{"id":27422,"adult":false},{"id":429994,"adult":false},{"id":129416,"adult":false},{"id":419213,"adult":null},{"id":429995,"adult":null},{"id":296669,"adult":false},{"id":247814,"adult":false},{"id":297628,"adult":false},{"id":429996,"adult":false},{"id":265623,"adult":false},{"id":429997,"adult":false},{"id":9053,"adult":false},{"id":99367,"adult":false},{"id":10780,"adult":false},{"id":13613,"adult":false},{"id":312079,"adult":false},{"id":60666,"adult":false},{"id":267983,"adult":false},{"id":267402,"adult":false},{"id":15426,"adult":false},{"id":407901,"adult":false},{"id":267173,"adult":false},{"id":429998,"adult":false},{"id":429999,"adult":false},{"id":307084,"adult":false},{"id":387017,"adult":false},{"id":468,"adult":false}],"page":112,"total_pages":123,"total_results":12242}