{"results":[{"id":5465,"adult":false},{"id":9527,"adult":false},{"id":56671,"adult":false},{"id":29267,"adult":false},{"id":265622,"adult":false},{"id":385827,"adult":false},{"id":170524,"adult":false},{"id":288255,"adult":false},{"id":122683,"adult":false},{"id":332502,"adult":false},{"id":358721,"adult":false},{"id":385828,"adult":false},{"id":10705,"adult":false},{"id":19238,"adult":false},{"id":76871,"adult":false},{"id":371806,"adult":false},{"id":385829,"adult":false},{"id":385830,"adult":false},{"id":109985,"adult":false},{"id":27221,"adult":false},{"id":346298,"adult":false},{"id":385831,"adult":false},{"id":56772,"adult":false},{"id":52053,"adult":false},{"id":327314,"adult":false},{"id":385832,"adult":false},{"id":264962,"adult":false},{"id":73454,"adult":false},{"id":385833,"adult":false},{"id":49409,"adult":false},{"id":385834,"adult":false},{"id":17926,"adult":false},{"id":385835,"adult":false},{"id":385836,"adult":false},{"id":10923,"adult":false},{"id":379970,"adult":false},{"id":295014,"adult":false},{"id":241771,"adult":false},{"id":18131,"adult":false},{"id":385837,"adult":false},{"id":13172,"adult":false},{"id":22683,"adult":false},{"id":2899,"adult":false},{"id":139166,"adult":false},{"id":254014,"adult":false},{"id":275521,"adult":false},{"id":11188,"adult":false},{"id":4311,"adult":false},{"id":378785,"adult":false},{"id":385838,"adult":false},{"id":120,"adult":false},{"id":122,"adult":false},{"id":121,"adult":false},{"id":385839,"adult":false},{"id":99770,"adult":false},{"id":61107,"adult":false},{"id":170522,"adult":false},{"id":1771,"adult":false},{"id":385840,"adult":false},{"id":253626,"adult":false},{"id":94365,"adult":false},{"id":207703,"adult":false},{"id":60175,"adult":false},{"id":12568,"adult":false},{"id":9355,"adult":false},{"id":275160,"adult":false},{"id":15588,"adult":false},{"id":385841,"adult":false},{"id":385842,"adult":false},{"id":15152,"adult":false},{"id":257916,"adult":false},{"id":385843,"adult":false},{"id":363980,"adult":false},{"id":51994,"adult":false},{"id":70779,"adult":false},{"id":252938,"adult":false},{"id":4379,"adult":false},{"id":276636,"adult":false},{"id":350499,"adult":false},{"id":242117,"adult":false},{"id":9762,"adult":false},{"id":46924,"adult":false},{"id":41233,"adult":false},{"id":328901,"adult":false},{"id":223894,"adult":false},{"id":385844,"adult":false},{"id":380590,"adult":false},{"id":75965,"adult":false},{"id":98514,"adult":false},{"id":385845,"adult":false},{"id":362703,"adult":false},{"id":4517,"adult":false},{"id":193296,"adult":false},{"id":270201,"adult":false},{"id":4415,"adult":false},{"id":369364,"adult":false},{"id":9651,"adult":false},{"id":300555,"adult":false},{"id":142308,"adult":false},{"id":330483,"adult":false}],"page":37,"total_pages":123,"total_results":12230}