{"results":[{"id":271714,"adult":false},{"id":7500,"adult":false},{"id":41992,"adult":false},{"id":418945,"adult":false},{"id":149548,"adult":false},{"id":31214,"adult":false},{"id":336049,"adult":false},{"id":25050,"adult":false},{"id":469,"adult":false},{"id":428673,"adult":false},{"id":125346,"adult":false},{"id":4173,"adult":false},{"id":43122,"adult":false},{"id":1721,"adult":false},{"id":3033,"adult":false},{"id":37232,"adult":false},{"id":593,"adult":false},{"id":24559,"adult":false},{"id":50435,"adult":false},{"id":42637,"adult":false},{"id":43936,"adult":false},{"id":378970,"adult":false},{"id":11121,"adult":false},{"id":11830,"adult":false},{"id":338927,"adult":false},{"id":415184,"adult":false},{"id":361519,"adult":false},{"id":28974,"adult":false},{"id":43423,"adult":false},{"id":428674,"adult":false},{"id":322359,"adult":false},{"id":428675,"adult":false},{"id":350041,"adult":false},{"id":402098,"adult":false},{"id":176496,"adult":false},{"id":13505,"adult":false},{"id":64858,"adult":false},{"id":398116,"adult":false},{"id":11541,"adult":false},{"id":428676,"adult":false},{"id":11506,"adult":false},{"id":428677,"adult":false},{"id":19552,"adult":false},{"id":2056,"adult":false},{"id":33409,"adult":false},{"id":8936,"adult":false},{"id":12577,"adult":false},{"id":404,"adult":false},{"id":2134,"adult":false},{"id":233,"adult":false},{"id":3541,"adult":false},{"id":27329,"adult":false},{"id":371560,"adult":false},{"id":10991,"adult":false},{"id":1116,"adult":false},{"id":428678,"adult":false},{"id":65229,"adult":false},{"id":1923,"adult":false},{"id":11378,"adult":false},{"id":18148,"adult":false},{"id":353979,"adult":false},{"id":21106,"adult":false},{"id":428679,"adult":false},{"id":8905,"adult":false},{"id":47104,"adult":false},{"id":11602,"adult":false},{"id":10937,"adult":false},{"id":31439,"adult":false},{"id":10017,"adult":false},{"id":88794,"adult":false},{"id":34742,"adult":false},{"id":2441,"adult":false},{"id":27412,"adult":false},{"id":9081,"adult":false},{"id":270435,"adult":false},{"id":36040,"adult":false},{"id":14905,"adult":false},{"id":2998,"adult":false},{"id":46916,"adult":false},{"id":48150,"adult":false},{"id":69644,"adult":false},{"id":68123,"adult":false},{"id":409307,"adult":false},{"id":241927,"adult":false},{"id":428680,"adult":false},{"id":103597,"adult":false},{"id":428681,"adult":false},{"id":363447,"adult":false},{"id":360784,"adult":false},{"id":12521,"adult":false},{"id":222936,"adult":false},{"id":329909,"adult":false},{"id":290098,"adult":false},{"id":406785,"adult":false},{"id":351819,"adult":false},{"id":248574,"adult":false},{"id":410212,"adult":false},{"id":26203,"adult":false},{"id":309425,"adult":false},{"id":428682,"adult":false}],"page":18,"total_pages":123,"total_results":12242}