{"results":[{"id":374889,"adult":null},{"id":28501,"adult":false},{"id":374894,"adult":null},{"id":396942,"adult":false},{"id":32569,"adult":false},{"id":396943,"adult":false},{"id":29486,"adult":false},{"id":296855,"adult":false},{"id":72693,"adult":false},{"id":396944,"adult":false},{"id":394666,"adult":false},{"id":14411,"adult":false},{"id":13195,"adult":false},{"id":69012,"adult":false},{"id":131196,"adult":false},{"id":396945,"adult":false},{"id":363651,"adult":false},{"id":384621,"adult":false},{"id":314093,"adult":false},{"id":337770,"adult":false},{"id":10785,"adult":false},{"id":86006,"adult":false},{"id":335019,"adult":false},{"id":352075,"adult":false},{"id":396946,"adult":false},{"id":138022,"adult":false},{"id":131209,"adult":false},{"id":300768,"adult":false},{"id":26022,"adult":false},{"id":396947,"adult":false},{"id":396948,"adult":false},{"id":45284,"adult":false},{"id":396949,"adult":false},{"id":335023,"adult":false},{"id":291887,"adult":false},{"id":352074,"adult":false},{"id":266212,"adult":false},{"id":308617,"adult":false},{"id":78124,"adult":false},{"id":363650,"adult":false},{"id":110416,"adult":false},{"id":396950,"adult":false},{"id":170522,"adult":false},{"id":396951,"adult":false},{"id":86938,"adult":false},{"id":6537,"adult":false},{"id":306819,"adult":false},{"id":396952,"adult":false},{"id":396953,"adult":false},{"id":86184,"adult":false},{"id":26119,"adult":false},{"id":315841,"adult":false},{"id":374486,"adult":false},{"id":396954,"adult":false},{"id":17677,"adult":false},{"id":27211,"adult":false},{"id":4809,"adult":false},{"id":102082,"adult":false},{"id":396955,"adult":false},{"id":36634,"adult":false},{"id":108580,"adult":false},{"id":33197,"adult":false},{"id":396956,"adult":false},{"id":106417,"adult":false},{"id":55922,"adult":false},{"id":212065,"adult":false},{"id":133535,"adult":false},{"id":338814,"adult":false},{"id":364116,"adult":false},{"id":396957,"adult":false},{"id":396958,"adult":false},{"id":327156,"adult":false},{"id":381433,"adult":false},{"id":233843,"adult":false},{"id":341705,"adult":false},{"id":12535,"adult":false},{"id":396959,"adult":false},{"id":379835,"adult":false},{"id":217919,"adult":false},{"id":39177,"adult":false},{"id":82633,"adult":false},{"id":300492,"adult":false},{"id":396960,"adult":false},{"id":200342,"adult":false},{"id":396961,"adult":false},{"id":980,"adult":false},{"id":293299,"adult":false},{"id":263598,"adult":false},{"id":31534,"adult":false},{"id":282605,"adult":false},{"id":301687,"adult":false},{"id":296023,"adult":false},{"id":86004,"adult":false},{"id":370478,"adult":false},{"id":307954,"adult":false},{"id":276233,"adult":false},{"id":378657,"adult":null},{"id":348969,"adult":false},{"id":301198,"adult":false},{"id":282630,"adult":false}],"page":101,"total_pages":130,"total_results":12927}