{"results":[{"id":115103,"adult":false},{"id":197878,"adult":false},{"id":38421,"adult":false},{"id":202423,"adult":false},{"id":84089,"adult":false},{"id":10950,"adult":false},{"id":397732,"adult":null},{"id":366910,"adult":false},{"id":361790,"adult":false},{"id":132540,"adult":false},{"id":381085,"adult":false},{"id":370841,"adult":false},{"id":392623,"adult":null},{"id":366863,"adult":false},{"id":397733,"adult":false},{"id":105539,"adult":false},{"id":345573,"adult":false},{"id":257098,"adult":false},{"id":7549,"adult":false},{"id":397734,"adult":false},{"id":340060,"adult":false},{"id":341056,"adult":false},{"id":19976,"adult":false},{"id":56373,"adult":false},{"id":288708,"adult":false},{"id":351180,"adult":false},{"id":274479,"adult":false},{"id":37412,"adult":false},{"id":151471,"adult":false},{"id":300814,"adult":false},{"id":348968,"adult":false},{"id":6420,"adult":false},{"id":298286,"adult":false},{"id":392325,"adult":false},{"id":1485,"adult":false},{"id":392328,"adult":false},{"id":392376,"adult":false},{"id":8052,"adult":false},{"id":392323,"adult":false},{"id":392512,"adult":false},{"id":1553,"adult":false},{"id":393914,"adult":false},{"id":306959,"adult":false},{"id":122160,"adult":false},{"id":121810,"adult":false},{"id":85639,"adult":false},{"id":275039,"adult":false},{"id":157286,"adult":false},{"id":3089,"adult":false},{"id":89899,"adult":false},{"id":379471,"adult":false},{"id":10157,"adult":false},{"id":397735,"adult":false},{"id":8130,"adult":false},{"id":27795,"adult":false},{"id":137857,"adult":false},{"id":76205,"adult":false},{"id":9295,"adult":false},{"id":28294,"adult":false},{"id":5203,"adult":false},{"id":345628,"adult":false},{"id":397736,"adult":false},{"id":107033,"adult":false},{"id":8348,"adult":false},{"id":10744,"adult":false},{"id":1406,"adult":false},{"id":155890,"adult":false},{"id":104239,"adult":false},{"id":104949,"adult":false},{"id":9676,"adult":false},{"id":19345,"adult":false},{"id":2193,"adult":false},{"id":581,"adult":false},{"id":70387,"adult":false},{"id":6320,"adult":false},{"id":134018,"adult":false},{"id":99573,"adult":true},{"id":42245,"adult":false},{"id":292791,"adult":false},{"id":30301,"adult":false},{"id":1677,"adult":false},{"id":5722,"adult":false},{"id":111945,"adult":false},{"id":168536,"adult":false},{"id":258216,"adult":false},{"id":28673,"adult":false},{"id":327040,"adult":false},{"id":339148,"adult":false},{"id":7364,"adult":false},{"id":289984,"adult":false},{"id":339304,"adult":false},{"id":64124,"adult":false},{"id":397737,"adult":false},{"id":350548,"adult":false},{"id":1631,"adult":false},{"id":1639,"adult":false},{"id":294182,"adult":false},{"id":10747,"adult":false},{"id":305829,"adult":false},{"id":397738,"adult":false}],"page":16,"total_pages":128,"total_results":12797}