{"results":[{"id":50620,"adult":false},{"id":265098,"adult":false},{"id":964,"adult":false},{"id":400601,"adult":false},{"id":256990,"adult":false},{"id":296096,"adult":false},{"id":400602,"adult":false},{"id":76115,"adult":false},{"id":234,"adult":false},{"id":341035,"adult":false},{"id":353433,"adult":false},{"id":901,"adult":false},{"id":357126,"adult":false},{"id":273241,"adult":false},{"id":393242,"adult":false},{"id":400603,"adult":false},{"id":325348,"adult":false},{"id":52615,"adult":false},{"id":4952,"adult":false},{"id":229154,"adult":false},{"id":10960,"adult":false},{"id":173,"adult":false},{"id":273850,"adult":false},{"id":291825,"adult":false},{"id":366736,"adult":false},{"id":50506,"adult":false},{"id":262971,"adult":false},{"id":342354,"adult":false},{"id":334090,"adult":false},{"id":340419,"adult":false},{"id":39472,"adult":false},{"id":297181,"adult":false},{"id":133372,"adult":false},{"id":232290,"adult":false},{"id":125266,"adult":false},{"id":18890,"adult":false},{"id":311407,"adult":false},{"id":119259,"adult":false},{"id":49967,"adult":false},{"id":41337,"adult":false},{"id":271153,"adult":false},{"id":62196,"adult":false},{"id":400604,"adult":false},{"id":93280,"adult":false},{"id":216969,"adult":false},{"id":347881,"adult":false},{"id":115330,"adult":false},{"id":252067,"adult":false},{"id":385174,"adult":false},{"id":400605,"adult":false},{"id":11091,"adult":false},{"id":300433,"adult":false},{"id":58060,"adult":false},{"id":335430,"adult":false},{"id":277806,"adult":false},{"id":400606,"adult":false},{"id":12139,"adult":false},{"id":150037,"adult":false},{"id":400607,"adult":false},{"id":394259,"adult":false},{"id":388347,"adult":false},{"id":292011,"adult":false},{"id":400608,"adult":false},{"id":37445,"adult":false},{"id":50348,"adult":false},{"id":124173,"adult":false},{"id":1582,"adult":false},{"id":12448,"adult":false},{"id":313368,"adult":null},{"id":209159,"adult":false},{"id":39368,"adult":false},{"id":394257,"adult":false},{"id":74687,"adult":false},{"id":152340,"adult":null},{"id":400609,"adult":false},{"id":9563,"adult":false},{"id":170,"adult":false},{"id":32077,"adult":false},{"id":80185,"adult":false},{"id":49517,"adult":false},{"id":151558,"adult":null},{"id":400610,"adult":false},{"id":10637,"adult":false},{"id":255914,"adult":false},{"id":207076,"adult":false},{"id":42844,"adult":false},{"id":130396,"adult":false},{"id":13002,"adult":false},{"id":396175,"adult":false},{"id":10673,"adult":false},{"id":35614,"adult":false},{"id":13283,"adult":false},{"id":24341,"adult":false},{"id":120,"adult":false},{"id":121,"adult":false},{"id":206690,"adult":false},{"id":122,"adult":false},{"id":353396,"adult":false},{"id":12159,"adult":false},{"id":19789,"adult":false}],"page":25,"total_pages":116,"total_results":11568}