{"results":[{"id":28762,"adult":false},{"id":28751,"adult":false},{"id":28994,"adult":false},{"id":7392,"adult":false},{"id":28989,"adult":false},{"id":274934,"adult":false},{"id":360551,"adult":false},{"id":431718,"adult":false},{"id":39917,"adult":false},{"id":70490,"adult":false},{"id":266058,"adult":false},{"id":14324,"adult":false},{"id":49773,"adult":false},{"id":29863,"adult":false},{"id":67717,"adult":false},{"id":12122,"adult":false},{"id":354669,"adult":false},{"id":41237,"adult":false},{"id":431720,"adult":null},{"id":113344,"adult":false},{"id":9789,"adult":false},{"id":40463,"adult":false},{"id":19898,"adult":false},{"id":63900,"adult":false},{"id":27390,"adult":false},{"id":35664,"adult":false},{"id":29669,"adult":false},{"id":291650,"adult":false},{"id":56725,"adult":false},{"id":87462,"adult":false},{"id":16159,"adult":false},{"id":260599,"adult":false},{"id":30656,"adult":false},{"id":87517,"adult":false},{"id":426254,"adult":false},{"id":31578,"adult":false},{"id":55563,"adult":false},{"id":263339,"adult":false},{"id":127390,"adult":false},{"id":331212,"adult":false},{"id":39195,"adult":false},{"id":239059,"adult":false},{"id":66474,"adult":false},{"id":105,"adult":false},{"id":165,"adult":false},{"id":72190,"adult":false},{"id":51608,"adult":false},{"id":180252,"adult":false},{"id":137113,"adult":false},{"id":431721,"adult":false},{"id":431722,"adult":false},{"id":431723,"adult":false},{"id":382551,"adult":false},{"id":431724,"adult":false},{"id":431725,"adult":false},{"id":431726,"adult":false},{"id":98084,"adult":false},{"id":431727,"adult":false},{"id":54186,"adult":false},{"id":287410,"adult":false},{"id":431728,"adult":null},{"id":49040,"adult":false},{"id":41182,"adult":false},{"id":378607,"adult":false},{"id":82954,"adult":false},{"id":426441,"adult":false},{"id":201639,"adult":false},{"id":366445,"adult":false},{"id":394110,"adult":false},{"id":353728,"adult":false},{"id":413414,"adult":false},{"id":5393,"adult":false},{"id":431729,"adult":null},{"id":18183,"adult":false},{"id":175435,"adult":false},{"id":431730,"adult":false},{"id":431731,"adult":false},{"id":5176,"adult":false},{"id":2035,"adult":false},{"id":131295,"adult":false},{"id":429774,"adult":false},{"id":431732,"adult":null},{"id":151742,"adult":false},{"id":35102,"adult":false},{"id":415781,"adult":false},{"id":424961,"adult":false},{"id":416146,"adult":false},{"id":277640,"adult":false},{"id":229304,"adult":false},{"id":431733,"adult":false},{"id":710,"adult":false},{"id":4680,"adult":false},{"id":64623,"adult":false},{"id":327045,"adult":false},{"id":9721,"adult":false},{"id":431734,"adult":false},{"id":31753,"adult":false},{"id":431735,"adult":false},{"id":431736,"adult":false},{"id":431737,"adult":false}],"page":99,"total_pages":114,"total_results":11339}