{"results":[{"id":323688,"adult":false},{"id":170759,"adult":false},{"id":616,"adult":false},{"id":422554,"adult":false},{"id":2882,"adult":false},{"id":268831,"adult":false},{"id":286565,"adult":false},{"id":422555,"adult":false},{"id":291982,"adult":false},{"id":268920,"adult":false},{"id":242661,"adult":false},{"id":396109,"adult":false},{"id":422556,"adult":false},{"id":154748,"adult":true},{"id":11115,"adult":false},{"id":86232,"adult":false},{"id":328327,"adult":false},{"id":37352,"adult":false},{"id":422557,"adult":false},{"id":12162,"adult":false},{"id":57090,"adult":false},{"id":43508,"adult":false},{"id":354312,"adult":false},{"id":271323,"adult":false},{"id":76341,"adult":false},{"id":76492,"adult":false},{"id":413799,"adult":false},{"id":81922,"adult":false},{"id":93456,"adult":false},{"id":296287,"adult":false},{"id":255873,"adult":false},{"id":422558,"adult":false},{"id":43872,"adult":false},{"id":422559,"adult":false},{"id":191850,"adult":false},{"id":422560,"adult":false},{"id":41505,"adult":false},{"id":334538,"adult":false},{"id":422561,"adult":false},{"id":422562,"adult":false},{"id":13523,"adult":false},{"id":402423,"adult":false},{"id":63382,"adult":false},{"id":127493,"adult":false},{"id":422563,"adult":false},{"id":14980,"adult":false},{"id":1949,"adult":false},{"id":199575,"adult":false},{"id":115668,"adult":false},{"id":398626,"adult":false},{"id":2252,"adult":false},{"id":543,"adult":false},{"id":358703,"adult":false},{"id":88679,"adult":false},{"id":168643,"adult":false},{"id":360208,"adult":null},{"id":363475,"adult":null},{"id":88678,"adult":false},{"id":400767,"adult":null},{"id":109431,"adult":false},{"id":78684,"adult":false},{"id":372956,"adult":null},{"id":422564,"adult":false},{"id":232672,"adult":false},{"id":31997,"adult":false},{"id":415593,"adult":false},{"id":31930,"adult":false},{"id":146223,"adult":false},{"id":393522,"adult":false},{"id":412458,"adult":false},{"id":277547,"adult":false},{"id":352654,"adult":false},{"id":411838,"adult":false},{"id":373349,"adult":false},{"id":273833,"adult":false},{"id":38152,"adult":false},{"id":422565,"adult":false},{"id":365222,"adult":false},{"id":422566,"adult":false},{"id":422567,"adult":false},{"id":182127,"adult":false},{"id":422568,"adult":false},{"id":323162,"adult":false},{"id":373221,"adult":false},{"id":388422,"adult":false},{"id":401136,"adult":false},{"id":181043,"adult":false},{"id":17585,"adult":false},{"id":16175,"adult":false},{"id":172039,"adult":false},{"id":63398,"adult":false},{"id":303146,"adult":false},{"id":296435,"adult":false},{"id":376808,"adult":false},{"id":85165,"adult":false},{"id":180948,"adult":false},{"id":6548,"adult":false},{"id":274854,"adult":false},{"id":314443,"adult":false},{"id":422569,"adult":false}],"page":90,"total_pages":123,"total_results":12202}