{"results":[{"id":50078,"adult":false},{"id":160045,"adult":false},{"id":334661,"adult":false},{"id":414845,"adult":false},{"id":232345,"adult":false},{"id":63555,"adult":false},{"id":19422,"adult":false},{"id":9508,"adult":false},{"id":414846,"adult":false},{"id":2165,"adult":false},{"id":98335,"adult":false},{"id":21174,"adult":false},{"id":338544,"adult":false},{"id":26323,"adult":false},{"id":414847,"adult":false},{"id":90147,"adult":false},{"id":52175,"adult":false},{"id":200505,"adult":false},{"id":194756,"adult":null},{"id":414848,"adult":false},{"id":28156,"adult":false},{"id":852,"adult":false},{"id":348386,"adult":false},{"id":318133,"adult":false},{"id":44115,"adult":false},{"id":414849,"adult":false},{"id":414850,"adult":false},{"id":7301,"adult":false},{"id":16151,"adult":false},{"id":370213,"adult":false},{"id":414851,"adult":false},{"id":317417,"adult":true},{"id":173185,"adult":false},{"id":414852,"adult":false},{"id":25074,"adult":false},{"id":6639,"adult":false},{"id":11316,"adult":false},{"id":192102,"adult":false},{"id":238018,"adult":false},{"id":14016,"adult":false},{"id":2647,"adult":false},{"id":2648,"adult":false},{"id":242310,"adult":false},{"id":77557,"adult":false},{"id":414853,"adult":false},{"id":11403,"adult":false},{"id":314405,"adult":false},{"id":47327,"adult":false},{"id":9562,"adult":false},{"id":190859,"adult":false},{"id":414854,"adult":false},{"id":414855,"adult":false},{"id":303616,"adult":false},{"id":414856,"adult":false},{"id":9711,"adult":false},{"id":9487,"adult":false},{"id":15212,"adult":false},{"id":32855,"adult":false},{"id":414857,"adult":false},{"id":113700,"adult":false},{"id":414858,"adult":false},{"id":11590,"adult":false},{"id":11067,"adult":false},{"id":25756,"adult":false},{"id":275269,"adult":false},{"id":290825,"adult":false},{"id":414859,"adult":false},{"id":156441,"adult":false},{"id":414860,"adult":false},{"id":412093,"adult":false},{"id":414861,"adult":false},{"id":280883,"adult":false},{"id":11044,"adult":false},{"id":42488,"adult":false},{"id":297596,"adult":false},{"id":4816,"adult":false},{"id":118312,"adult":false},{"id":87308,"adult":false},{"id":383934,"adult":false},{"id":40732,"adult":false},{"id":149893,"adult":false},{"id":414862,"adult":false},{"id":254200,"adult":false},{"id":414863,"adult":false},{"id":235260,"adult":false},{"id":378193,"adult":false},{"id":318279,"adult":false},{"id":251959,"adult":false},{"id":60575,"adult":false},{"id":295885,"adult":false},{"id":414864,"adult":false},{"id":228201,"adult":false},{"id":414865,"adult":false},{"id":359772,"adult":null},{"id":51072,"adult":false},{"id":414866,"adult":false},{"id":352431,"adult":false},{"id":156031,"adult":false},{"id":44125,"adult":false},{"id":73169,"adult":false}],"page":71,"total_pages":126,"total_results":12554}