{"results":[{"id":1705,"adult":false},{"id":10368,"adult":false},{"id":277690,"adult":false},{"id":49527,"adult":false},{"id":250538,"adult":false},{"id":290999,"adult":false},{"id":266553,"adult":false},{"id":9350,"adult":false},{"id":11371,"adult":false},{"id":385955,"adult":false},{"id":11377,"adult":false},{"id":118,"adult":false},{"id":252,"adult":false},{"id":384879,"adult":false},{"id":135397,"adult":false},{"id":2907,"adult":false},{"id":2275,"adult":false},{"id":112205,"adult":false},{"id":146243,"adult":false},{"id":384884,"adult":false},{"id":9348,"adult":false},{"id":71864,"adult":false},{"id":114150,"adult":false},{"id":13825,"adult":false},{"id":319850,"adult":false},{"id":283739,"adult":false},{"id":254470,"adult":false},{"id":66894,"adult":false},{"id":11782,"adult":false},{"id":12799,"adult":false},{"id":228967,"adult":false},{"id":12578,"adult":false},{"id":357173,"adult":false},{"id":223988,"adult":false},{"id":385957,"adult":false},{"id":9445,"adult":false},{"id":384885,"adult":false},{"id":285746,"adult":false},{"id":1701,"adult":false},{"id":9421,"adult":false},{"id":4421,"adult":false},{"id":9342,"adult":false},{"id":9563,"adult":false},{"id":10383,"adult":false},{"id":2642,"adult":false},{"id":10194,"adult":false},{"id":8649,"adult":false},{"id":384895,"adult":false},{"id":301528,"adult":false},{"id":153158,"adult":false},{"id":12783,"adult":false},{"id":1688,"adult":false},{"id":178809,"adult":false},{"id":138030,"adult":false},{"id":384891,"adult":false},{"id":10159,"adult":false},{"id":219691,"adult":false},{"id":15664,"adult":false},{"id":229182,"adult":false},{"id":385958,"adult":false},{"id":16853,"adult":false},{"id":60935,"adult":false},{"id":9042,"adult":false},{"id":174316,"adult":false},{"id":84293,"adult":false},{"id":69668,"adult":false},{"id":2044,"adult":false},{"id":199887,"adult":false},{"id":53838,"adult":false},{"id":52015,"adult":false},{"id":10170,"adult":false},{"id":156708,"adult":false},{"id":385959,"adult":false},{"id":381347,"adult":false},{"id":358742,"adult":false},{"id":378607,"adult":false},{"id":385960,"adult":false},{"id":79683,"adult":false},{"id":385961,"adult":false},{"id":345742,"adult":false},{"id":10823,"adult":false},{"id":184625,"adult":false},{"id":98,"adult":false},{"id":385962,"adult":false},{"id":141581,"adult":false},{"id":385963,"adult":false},{"id":60304,"adult":false},{"id":85955,"adult":false},{"id":13864,"adult":false},{"id":104543,"adult":false},{"id":131634,"adult":false},{"id":385964,"adult":false},{"id":385965,"adult":null},{"id":7979,"adult":false},{"id":378949,"adult":false},{"id":89492,"adult":false},{"id":385967,"adult":false},{"id":20856,"adult":false},{"id":241251,"adult":false},{"id":325439,"adult":false}],"page":46,"total_pages":123,"total_results":12230}