{"results":[{"id":1498,"adult":false},{"id":425401,"adult":false},{"id":407872,"adult":false},{"id":430000,"adult":false},{"id":33557,"adult":false},{"id":49529,"adult":false},{"id":9593,"adult":false},{"id":93387,"adult":false},{"id":422288,"adult":null},{"id":143434,"adult":false},{"id":262651,"adult":false},{"id":422660,"adult":null},{"id":67707,"adult":false},{"id":430001,"adult":false},{"id":65283,"adult":false},{"id":384120,"adult":true},{"id":430002,"adult":false},{"id":4365,"adult":false},{"id":53977,"adult":false},{"id":430003,"adult":false},{"id":13121,"adult":false},{"id":300496,"adult":false},{"id":303160,"adult":true},{"id":288626,"adult":false},{"id":34130,"adult":false},{"id":156360,"adult":false},{"id":290618,"adult":false},{"id":335051,"adult":false},{"id":10222,"adult":false},{"id":430004,"adult":null},{"id":244426,"adult":false},{"id":342737,"adult":false},{"id":10131,"adult":false},{"id":28322,"adult":false},{"id":256569,"adult":false},{"id":166590,"adult":false},{"id":430005,"adult":false},{"id":430006,"adult":false},{"id":273010,"adult":false},{"id":59912,"adult":false},{"id":227262,"adult":false},{"id":430007,"adult":false},{"id":32761,"adult":false},{"id":430010,"adult":false},{"id":338509,"adult":false},{"id":81593,"adult":false},{"id":348964,"adult":false},{"id":398106,"adult":false},{"id":389105,"adult":false},{"id":328390,"adult":false},{"id":327064,"adult":false},{"id":279576,"adult":false},{"id":327056,"adult":false},{"id":394412,"adult":false},{"id":81349,"adult":false},{"id":46103,"adult":false},{"id":299058,"adult":false},{"id":306516,"adult":false},{"id":393573,"adult":false},{"id":393578,"adult":false},{"id":288670,"adult":false},{"id":294846,"adult":false},{"id":430011,"adult":false},{"id":233095,"adult":false},{"id":303842,"adult":false},{"id":406946,"adult":false},{"id":407246,"adult":false},{"id":347320,"adult":false},{"id":270732,"adult":false},{"id":403348,"adult":false},{"id":354861,"adult":false},{"id":226923,"adult":false},{"id":233344,"adult":false},{"id":334524,"adult":false},{"id":430012,"adult":false},{"id":128514,"adult":false},{"id":23522,"adult":false},{"id":11169,"adult":false},{"id":11081,"adult":false},{"id":262391,"adult":false},{"id":394910,"adult":true},{"id":430013,"adult":false},{"id":23622,"adult":false},{"id":430015,"adult":false},{"id":36200,"adult":false},{"id":207278,"adult":false},{"id":310548,"adult":false},{"id":1678,"adult":false},{"id":1403,"adult":false},{"id":85757,"adult":false},{"id":49782,"adult":false},{"id":376489,"adult":false},{"id":430016,"adult":false},{"id":17654,"adult":false},{"id":17792,"adult":false},{"id":383146,"adult":false},{"id":296769,"adult":false},{"id":366612,"adult":false},{"id":99511,"adult":false},{"id":2501,"adult":false}],"page":113,"total_pages":123,"total_results":12242}