{"results":[{"id":399894,"adult":false},{"id":10823,"adult":false},{"id":143418,"adult":false},{"id":398818,"adult":false},{"id":360339,"adult":false},{"id":25754,"adult":false},{"id":278618,"adult":false},{"id":70575,"adult":false},{"id":414470,"adult":false},{"id":147951,"adult":false},{"id":21355,"adult":false},{"id":356090,"adult":false},{"id":147943,"adult":false},{"id":377935,"adult":false},{"id":219624,"adult":false},{"id":186060,"adult":false},{"id":393019,"adult":false},{"id":414471,"adult":false},{"id":302580,"adult":false},{"id":405886,"adult":false},{"id":147953,"adult":false},{"id":41463,"adult":false},{"id":31679,"adult":false},{"id":34027,"adult":false},{"id":396681,"adult":false},{"id":380375,"adult":false},{"id":69605,"adult":false},{"id":352012,"adult":false},{"id":414476,"adult":false},{"id":118780,"adult":true},{"id":399171,"adult":false},{"id":118777,"adult":true},{"id":160762,"adult":false},{"id":399228,"adult":false},{"id":333653,"adult":false},{"id":414477,"adult":true},{"id":333658,"adult":false},{"id":414478,"adult":true},{"id":260759,"adult":false},{"id":139262,"adult":false},{"id":205660,"adult":false},{"id":62838,"adult":false},{"id":414479,"adult":true},{"id":114746,"adult":false},{"id":414480,"adult":true},{"id":414481,"adult":false},{"id":414482,"adult":false},{"id":414483,"adult":true},{"id":414484,"adult":false},{"id":407778,"adult":false},{"id":414485,"adult":true},{"id":55593,"adult":true},{"id":414486,"adult":true},{"id":210886,"adult":false},{"id":86480,"adult":false},{"id":412692,"adult":false},{"id":414487,"adult":null},{"id":354900,"adult":false},{"id":414488,"adult":false},{"id":412652,"adult":false},{"id":199256,"adult":false},{"id":97914,"adult":true},{"id":755,"adult":false},{"id":322052,"adult":null},{"id":414489,"adult":true},{"id":269148,"adult":false},{"id":414490,"adult":false},{"id":11390,"adult":false},{"id":414491,"adult":true},{"id":414492,"adult":false},{"id":15498,"adult":false},{"id":414493,"adult":true},{"id":414494,"adult":false},{"id":414495,"adult":true},{"id":358644,"adult":false},{"id":145197,"adult":false},{"id":111839,"adult":false},{"id":180948,"adult":false},{"id":173113,"adult":false},{"id":316042,"adult":false},{"id":414496,"adult":false},{"id":414497,"adult":true},{"id":131634,"adult":false},{"id":41061,"adult":false},{"id":340677,"adult":false},{"id":414498,"adult":false},{"id":414499,"adult":false},{"id":131631,"adult":false},{"id":2614,"adult":false},{"id":399998,"adult":false},{"id":414500,"adult":false},{"id":414501,"adult":false},{"id":13553,"adult":false},{"id":13554,"adult":false},{"id":111015,"adult":false},{"id":26889,"adult":false},{"id":414502,"adult":null},{"id":95636,"adult":false},{"id":39525,"adult":false},{"id":262554,"adult":false}],"page":54,"total_pages":126,"total_results":12554}