{"results":[{"id":287232,"adult":false},{"id":337694,"adult":false},{"id":377546,"adult":false},{"id":327193,"adult":false},{"id":377547,"adult":false},{"id":377548,"adult":false},{"id":10134,"adult":false},{"id":265169,"adult":false},{"id":354368,"adult":true},{"id":64328,"adult":false},{"id":86829,"adult":false},{"id":51826,"adult":true},{"id":159824,"adult":false},{"id":377549,"adult":false},{"id":373453,"adult":false},{"id":288615,"adult":true},{"id":306832,"adult":false},{"id":11836,"adult":false},{"id":16219,"adult":false},{"id":288512,"adult":false},{"id":9541,"adult":false},{"id":323272,"adult":false},{"id":287744,"adult":true},{"id":287628,"adult":false},{"id":377550,"adult":false},{"id":335720,"adult":true},{"id":157336,"adult":false},{"id":31659,"adult":false},{"id":637,"adult":false},{"id":213695,"adult":false},{"id":355020,"adult":false},{"id":228968,"adult":false},{"id":232572,"adult":false},{"id":3686,"adult":false},{"id":45534,"adult":false},{"id":45262,"adult":true},{"id":336804,"adult":false},{"id":309809,"adult":false},{"id":322488,"adult":false},{"id":365222,"adult":false},{"id":19101,"adult":false},{"id":377551,"adult":false},{"id":58409,"adult":false},{"id":325419,"adult":false},{"id":375543,"adult":false},{"id":276437,"adult":false},{"id":11902,"adult":false},{"id":201136,"adult":false},{"id":367412,"adult":false},{"id":343795,"adult":false},{"id":137548,"adult":false},{"id":162745,"adult":false},{"id":216221,"adult":true},{"id":279229,"adult":false},{"id":90958,"adult":false},{"id":377467,"adult":false},{"id":164997,"adult":false},{"id":285783,"adult":false},{"id":319396,"adult":false},{"id":298312,"adult":false},{"id":94348,"adult":false},{"id":265180,"adult":false},{"id":167032,"adult":false},{"id":9361,"adult":false},{"id":18939,"adult":false},{"id":310593,"adult":false},{"id":18438,"adult":false},{"id":35560,"adult":true},{"id":112454,"adult":false},{"id":2196,"adult":false},{"id":281,"adult":false},{"id":377552,"adult":false},{"id":11426,"adult":false},{"id":345139,"adult":false},{"id":323052,"adult":false},{"id":342917,"adult":false},{"id":377553,"adult":false},{"id":686,"adult":false},{"id":300671,"adult":false},{"id":348746,"adult":false},{"id":242643,"adult":false},{"id":10585,"adult":false},{"id":11186,"adult":false},{"id":66006,"adult":false},{"id":377249,"adult":false},{"id":11187,"adult":false},{"id":329876,"adult":false},{"id":11932,"adult":false},{"id":11249,"adult":false},{"id":377554,"adult":false},{"id":350555,"adult":false},{"id":10919,"adult":false},{"id":328901,"adult":false},{"id":315054,"adult":false},{"id":361228,"adult":false},{"id":4935,"adult":false},{"id":377555,"adult":false},{"id":51273,"adult":false},{"id":257445,"adult":false},{"id":9275,"adult":false}],"page":3,"total_pages":226,"total_results":22514}