{"results":[{"id":75641,"adult":false},{"id":48618,"adult":false},{"id":22090,"adult":false},{"id":354803,"adult":false},{"id":180714,"adult":false},{"id":421884,"adult":false},{"id":14822,"adult":false},{"id":121575,"adult":false},{"id":19378,"adult":false},{"id":169066,"adult":false},{"id":9453,"adult":false},{"id":409122,"adult":false},{"id":74896,"adult":false},{"id":411692,"adult":false},{"id":18086,"adult":false},{"id":38082,"adult":false},{"id":82744,"adult":false},{"id":29723,"adult":false},{"id":293380,"adult":false},{"id":239529,"adult":false},{"id":41034,"adult":false},{"id":25678,"adult":false},{"id":26200,"adult":false},{"id":413051,"adult":false},{"id":19267,"adult":false},{"id":25682,"adult":false},{"id":42158,"adult":false},{"id":25528,"adult":false},{"id":25684,"adult":false},{"id":141824,"adult":false},{"id":283860,"adult":false},{"id":339749,"adult":false},{"id":36133,"adult":false},{"id":333949,"adult":false},{"id":262837,"adult":false},{"id":334221,"adult":false},{"id":21158,"adult":false},{"id":45962,"adult":false},{"id":368408,"adult":false},{"id":45881,"adult":false},{"id":65257,"adult":false},{"id":5175,"adult":false},{"id":27339,"adult":false},{"id":65749,"adult":false},{"id":9416,"adult":false},{"id":291337,"adult":false},{"id":182543,"adult":false},{"id":59487,"adult":false},{"id":365304,"adult":false},{"id":88,"adult":false},{"id":22543,"adult":false},{"id":695,"adult":false},{"id":365311,"adult":false},{"id":365303,"adult":false},{"id":421885,"adult":false},{"id":376311,"adult":false},{"id":421886,"adult":false},{"id":421887,"adult":false},{"id":339405,"adult":false},{"id":370048,"adult":false},{"id":105715,"adult":false},{"id":114,"adult":false},{"id":401070,"adult":false},{"id":411969,"adult":false},{"id":360597,"adult":false},{"id":421888,"adult":false},{"id":128253,"adult":false},{"id":315843,"adult":false},{"id":42360,"adult":false},{"id":421889,"adult":false},{"id":361500,"adult":false},{"id":360575,"adult":false},{"id":421890,"adult":false},{"id":334917,"adult":false},{"id":415823,"adult":false},{"id":334912,"adult":false},{"id":754,"adult":false},{"id":186383,"adult":false},{"id":187795,"adult":false},{"id":13336,"adult":false},{"id":421891,"adult":false},{"id":400711,"adult":false},{"id":91227,"adult":false},{"id":328480,"adult":false},{"id":334275,"adult":false},{"id":10033,"adult":false},{"id":3066,"adult":false},{"id":416547,"adult":false},{"id":175457,"adult":false},{"id":9606,"adult":false},{"id":409471,"adult":false},{"id":236876,"adult":false},{"id":59593,"adult":false},{"id":49037,"adult":false},{"id":74617,"adult":false},{"id":97187,"adult":false},{"id":393002,"adult":null},{"id":12607,"adult":false},{"id":297669,"adult":false},{"id":421892,"adult":false}],"page":44,"total_pages":123,"total_results":12202}