{"results":[{"id":227437,"adult":false},{"id":77338,"adult":false},{"id":345854,"adult":false},{"id":82726,"adult":false},{"id":401253,"adult":false},{"id":119450,"adult":false},{"id":401254,"adult":false},{"id":13635,"adult":false},{"id":2110,"adult":false},{"id":228341,"adult":false},{"id":357529,"adult":false},{"id":10795,"adult":false},{"id":146611,"adult":false},{"id":392629,"adult":false},{"id":401255,"adult":false},{"id":95698,"adult":false},{"id":132169,"adult":false},{"id":214974,"adult":false},{"id":302639,"adult":false},{"id":77565,"adult":false},{"id":300654,"adult":false},{"id":401256,"adult":false},{"id":38472,"adult":false},{"id":37842,"adult":false},{"id":347675,"adult":false},{"id":10516,"adult":false},{"id":93840,"adult":false},{"id":208084,"adult":false},{"id":15794,"adult":false},{"id":401258,"adult":false},{"id":13387,"adult":false},{"id":386827,"adult":false},{"id":108279,"adult":false},{"id":340697,"adult":false},{"id":360901,"adult":false},{"id":371064,"adult":false},{"id":370745,"adult":false},{"id":399706,"adult":false},{"id":260339,"adult":false},{"id":294922,"adult":false},{"id":339517,"adult":false},{"id":371065,"adult":false},{"id":371067,"adult":false},{"id":290348,"adult":false},{"id":371532,"adult":false},{"id":220352,"adult":false},{"id":105997,"adult":false},{"id":9450,"adult":false},{"id":401259,"adult":false},{"id":370861,"adult":false},{"id":118110,"adult":false},{"id":401260,"adult":false},{"id":377138,"adult":false},{"id":326673,"adult":false},{"id":371165,"adult":false},{"id":401261,"adult":false},{"id":368998,"adult":false},{"id":316433,"adult":false},{"id":266040,"adult":false},{"id":47226,"adult":false},{"id":324360,"adult":false},{"id":201749,"adult":false},{"id":60596,"adult":false},{"id":1845,"adult":false},{"id":14235,"adult":false},{"id":29008,"adult":false},{"id":10228,"adult":false},{"id":77458,"adult":false},{"id":47107,"adult":false},{"id":69032,"adult":false},{"id":372213,"adult":false},{"id":29682,"adult":false},{"id":330764,"adult":false},{"id":57581,"adult":false},{"id":259146,"adult":false},{"id":10179,"adult":false},{"id":78396,"adult":false},{"id":36265,"adult":false},{"id":36773,"adult":false},{"id":748,"adult":false},{"id":401262,"adult":null},{"id":31088,"adult":false},{"id":64871,"adult":false},{"id":66122,"adult":false},{"id":269148,"adult":false},{"id":1268,"adult":false},{"id":19100,"adult":false},{"id":40192,"adult":false},{"id":55653,"adult":false},{"id":70476,"adult":false},{"id":71134,"adult":false},{"id":84345,"adult":false},{"id":8005,"adult":false},{"id":344465,"adult":false},{"id":401263,"adult":false},{"id":108251,"adult":false},{"id":401264,"adult":false},{"id":209802,"adult":false},{"id":172940,"adult":false},{"id":58254,"adult":false}],"page":72,"total_pages":116,"total_results":11568}