{"results":[{"id":313519,"adult":false},{"id":46516,"adult":false},{"id":285733,"adult":false},{"id":11129,"adult":false},{"id":352946,"adult":false},{"id":158242,"adult":false},{"id":158820,"adult":false},{"id":172391,"adult":false},{"id":237870,"adult":false},{"id":41070,"adult":false},{"id":371950,"adult":false},{"id":59981,"adult":false},{"id":411045,"adult":null},{"id":336884,"adult":false},{"id":281475,"adult":false},{"id":35225,"adult":false},{"id":226268,"adult":false},{"id":16406,"adult":false},{"id":340361,"adult":false},{"id":319154,"adult":false},{"id":411046,"adult":false},{"id":361854,"adult":false},{"id":371302,"adult":false},{"id":10204,"adult":false},{"id":280,"adult":false},{"id":377185,"adult":false},{"id":386669,"adult":false},{"id":61791,"adult":false},{"id":119450,"adult":false},{"id":869,"adult":false},{"id":330947,"adult":false},{"id":264419,"adult":false},{"id":30129,"adult":false},{"id":9645,"adult":false},{"id":411047,"adult":false},{"id":411048,"adult":false},{"id":82914,"adult":false},{"id":400659,"adult":false},{"id":5747,"adult":false},{"id":18645,"adult":false},{"id":348,"adult":false},{"id":4253,"adult":false},{"id":464,"adult":false},{"id":47434,"adult":false},{"id":201088,"adult":false},{"id":404459,"adult":false},{"id":83549,"adult":false},{"id":352836,"adult":false},{"id":28588,"adult":false},{"id":361558,"adult":false},{"id":28589,"adult":false},{"id":94296,"adult":false},{"id":244870,"adult":false},{"id":67064,"adult":false},{"id":14551,"adult":false},{"id":100592,"adult":false},{"id":4484,"adult":false},{"id":5719,"adult":false},{"id":68472,"adult":false},{"id":21512,"adult":false},{"id":411049,"adult":false},{"id":411050,"adult":false},{"id":411051,"adult":false},{"id":411052,"adult":false},{"id":84664,"adult":false},{"id":10938,"adult":false},{"id":87380,"adult":false},{"id":388616,"adult":false},{"id":96551,"adult":false},{"id":15728,"adult":false},{"id":406394,"adult":false},{"id":22597,"adult":false},{"id":90324,"adult":false},{"id":174372,"adult":false},{"id":374461,"adult":false},{"id":40535,"adult":false},{"id":79120,"adult":false},{"id":344041,"adult":false},{"id":9453,"adult":false},{"id":15708,"adult":false},{"id":81774,"adult":false},{"id":116846,"adult":false},{"id":42135,"adult":false},{"id":411053,"adult":false},{"id":382602,"adult":false},{"id":1378,"adult":false},{"id":72819,"adult":false},{"id":359772,"adult":null},{"id":44716,"adult":false},{"id":411054,"adult":false},{"id":16218,"adult":false},{"id":411055,"adult":false},{"id":38365,"adult":false},{"id":411056,"adult":false},{"id":411057,"adult":false},{"id":50237,"adult":false},{"id":411058,"adult":false},{"id":752,"adult":false},{"id":45269,"adult":false},{"id":3055,"adult":false}],"page":107,"total_pages":117,"total_results":11641}