{"results":[{"id":363269,"adult":false},{"id":363657,"adult":false},{"id":363784,"adult":false},{"id":385322,"adult":false},{"id":296603,"adult":false},{"id":180571,"adult":false},{"id":792,"adult":false},{"id":344176,"adult":false},{"id":74836,"adult":false},{"id":189298,"adult":false},{"id":363660,"adult":false},{"id":79021,"adult":false},{"id":347762,"adult":false},{"id":336423,"adult":false},{"id":263284,"adult":false},{"id":335025,"adult":false},{"id":397102,"adult":false},{"id":397103,"adult":false},{"id":309689,"adult":false},{"id":397104,"adult":false},{"id":180573,"adult":false},{"id":363995,"adult":false},{"id":395220,"adult":false},{"id":137174,"adult":false},{"id":50400,"adult":false},{"id":43387,"adult":false},{"id":39323,"adult":false},{"id":327835,"adult":false},{"id":64682,"adult":false},{"id":253196,"adult":false},{"id":225564,"adult":false},{"id":131935,"adult":false},{"id":140241,"adult":false},{"id":112568,"adult":false},{"id":38594,"adult":false},{"id":397105,"adult":false},{"id":336114,"adult":false},{"id":81987,"adult":false},{"id":134502,"adult":false},{"id":397106,"adult":false},{"id":296449,"adult":false},{"id":307114,"adult":false},{"id":352617,"adult":false},{"id":88677,"adult":false},{"id":397107,"adult":false},{"id":11216,"adult":false},{"id":392145,"adult":false},{"id":332630,"adult":false},{"id":397108,"adult":false},{"id":397109,"adult":false},{"id":820,"adult":false},{"id":150025,"adult":false},{"id":397110,"adult":false},{"id":316385,"adult":false},{"id":73518,"adult":false},{"id":68952,"adult":false},{"id":59731,"adult":false},{"id":38539,"adult":false},{"id":81049,"adult":false},{"id":362154,"adult":false},{"id":289097,"adult":false},{"id":10618,"adult":false},{"id":397111,"adult":false},{"id":171719,"adult":false},{"id":397112,"adult":false},{"id":397113,"adult":false},{"id":50663,"adult":false},{"id":88674,"adult":false},{"id":351759,"adult":false},{"id":14191,"adult":false},{"id":10619,"adult":false},{"id":397114,"adult":null},{"id":85495,"adult":false},{"id":12889,"adult":false},{"id":63498,"adult":false},{"id":379873,"adult":false},{"id":59112,"adult":false},{"id":397115,"adult":null},{"id":58576,"adult":false},{"id":210911,"adult":false},{"id":25796,"adult":false},{"id":74658,"adult":false},{"id":397116,"adult":false},{"id":373571,"adult":false},{"id":57392,"adult":false},{"id":388202,"adult":false},{"id":88679,"adult":false},{"id":302926,"adult":false},{"id":401,"adult":false},{"id":131156,"adult":false},{"id":386644,"adult":false},{"id":260887,"adult":false},{"id":292992,"adult":false},{"id":306076,"adult":false},{"id":304212,"adult":false},{"id":53456,"adult":false},{"id":18080,"adult":false},{"id":319249,"adult":false},{"id":44962,"adult":false},{"id":140406,"adult":false}],"page":110,"total_pages":130,"total_results":12927}