{"results":[{"id":53034,"adult":false},{"id":335387,"adult":false},{"id":10056,"adult":false},{"id":4923,"adult":false},{"id":5923,"adult":false},{"id":361500,"adult":false},{"id":912,"adult":false},{"id":47567,"adult":false},{"id":1092,"adult":false},{"id":310742,"adult":false},{"id":8537,"adult":false},{"id":360575,"adult":false},{"id":361499,"adult":false},{"id":261111,"adult":false},{"id":204391,"adult":false},{"id":25079,"adult":false},{"id":173901,"adult":false},{"id":80897,"adult":false},{"id":187795,"adult":false},{"id":197270,"adult":false},{"id":404526,"adult":false},{"id":404527,"adult":false},{"id":49521,"adult":false},{"id":395841,"adult":false},{"id":378674,"adult":false},{"id":297761,"adult":false},{"id":353452,"adult":false},{"id":320146,"adult":false},{"id":370234,"adult":false},{"id":20032,"adult":false},{"id":19961,"adult":false},{"id":351339,"adult":false},{"id":388764,"adult":false},{"id":388757,"adult":false},{"id":77731,"adult":false},{"id":332567,"adult":false},{"id":59297,"adult":false},{"id":403264,"adult":false},{"id":49481,"adult":false},{"id":149870,"adult":false},{"id":157,"adult":false},{"id":404528,"adult":false},{"id":404529,"adult":false},{"id":15227,"adult":false},{"id":207932,"adult":false},{"id":219250,"adult":false},{"id":39544,"adult":false},{"id":204755,"adult":false},{"id":397531,"adult":false},{"id":355577,"adult":false},{"id":24154,"adult":false},{"id":11824,"adult":false},{"id":58704,"adult":false},{"id":196761,"adult":false},{"id":182131,"adult":false},{"id":12924,"adult":false},{"id":212167,"adult":false},{"id":239367,"adult":false},{"id":290344,"adult":false},{"id":403333,"adult":false},{"id":329302,"adult":false},{"id":11967,"adult":false},{"id":243352,"adult":false},{"id":165353,"adult":false},{"id":98068,"adult":false},{"id":158895,"adult":false},{"id":404530,"adult":false},{"id":404531,"adult":false},{"id":47717,"adult":false},{"id":306947,"adult":false},{"id":354220,"adult":false},{"id":404114,"adult":false},{"id":366622,"adult":false},{"id":338277,"adult":false},{"id":323676,"adult":false},{"id":253687,"adult":false},{"id":4547,"adult":false},{"id":334531,"adult":false},{"id":268238,"adult":false},{"id":74534,"adult":false},{"id":404532,"adult":false},{"id":404533,"adult":false},{"id":368596,"adult":false},{"id":301729,"adult":false},{"id":404534,"adult":false},{"id":191482,"adult":false},{"id":269286,"adult":false},{"id":16140,"adult":false},{"id":9414,"adult":false},{"id":264785,"adult":false},{"id":3423,"adult":false},{"id":404535,"adult":false},{"id":16007,"adult":false},{"id":404536,"adult":false},{"id":88,"adult":false},{"id":88930,"adult":false},{"id":56704,"adult":false},{"id":404537,"adult":false},{"id":340357,"adult":false},{"id":288563,"adult":false}],"page":11,"total_pages":112,"total_results":11190}