{"results":[{"id":379291,"adult":false},{"id":220873,"adult":false},{"id":168,"adult":false},{"id":2202,"adult":false},{"id":334376,"adult":false},{"id":390849,"adult":false},{"id":19899,"adult":false},{"id":8997,"adult":false},{"id":14037,"adult":false},{"id":18586,"adult":false},{"id":375197,"adult":null},{"id":5552,"adult":false},{"id":114779,"adult":false},{"id":4824,"adult":false},{"id":340560,"adult":false},{"id":12094,"adult":false},{"id":2291,"adult":false},{"id":2140,"adult":false},{"id":2118,"adult":false},{"id":12520,"adult":false},{"id":12834,"adult":false},{"id":12207,"adult":false},{"id":9809,"adult":false},{"id":1251,"adult":false},{"id":773,"adult":false},{"id":8270,"adult":false},{"id":1830,"adult":false},{"id":13,"adult":false},{"id":186,"adult":false},{"id":375572,"adult":false},{"id":10861,"adult":false},{"id":8838,"adult":false},{"id":1988,"adult":false},{"id":13515,"adult":false},{"id":12251,"adult":false},{"id":504,"adult":false},{"id":14435,"adult":false},{"id":372973,"adult":false},{"id":38317,"adult":false},{"id":373451,"adult":false},{"id":375290,"adult":false},{"id":358009,"adult":false},{"id":358011,"adult":false},{"id":358008,"adult":false},{"id":390850,"adult":false},{"id":365737,"adult":false},{"id":2486,"adult":false},{"id":14271,"adult":false},{"id":350762,"adult":false},{"id":338388,"adult":false},{"id":295699,"adult":false},{"id":172,"adult":false},{"id":107294,"adult":false},{"id":383807,"adult":false},{"id":388468,"adult":false},{"id":808,"adult":false},{"id":339405,"adult":false},{"id":311061,"adult":false},{"id":291867,"adult":false},{"id":64984,"adult":false},{"id":129868,"adult":false},{"id":358005,"adult":false},{"id":347473,"adult":false},{"id":184878,"adult":false},{"id":184481,"adult":false},{"id":184476,"adult":false},{"id":176309,"adult":false},{"id":176338,"adult":false},{"id":807,"adult":false},{"id":339362,"adult":false},{"id":50930,"adult":false},{"id":101299,"adult":false},{"id":358002,"adult":false},{"id":358001,"adult":false},{"id":390851,"adult":null},{"id":68728,"adult":false},{"id":317231,"adult":false},{"id":390670,"adult":false},{"id":99899,"adult":false},{"id":356216,"adult":false},{"id":80283,"adult":false},{"id":390852,"adult":false},{"id":119093,"adult":false},{"id":9354,"adult":false},{"id":128871,"adult":false},{"id":390853,"adult":false},{"id":219535,"adult":false},{"id":67713,"adult":false},{"id":12681,"adult":false},{"id":359243,"adult":false},{"id":388885,"adult":false},{"id":390854,"adult":false},{"id":264746,"adult":false},{"id":278631,"adult":false},{"id":390855,"adult":false},{"id":330348,"adult":false},{"id":60867,"adult":false},{"id":66800,"adult":false},{"id":74876,"adult":false},{"id":23962,"adult":false}],"page":2,"total_pages":118,"total_results":11761}