{"results":[{"id":18892,"adult":false},{"id":393199,"adult":true},{"id":63710,"adult":false},{"id":393200,"adult":true},{"id":112959,"adult":false},{"id":28409,"adult":false},{"id":18650,"adult":false},{"id":327989,"adult":false},{"id":26252,"adult":false},{"id":393201,"adult":true},{"id":393202,"adult":true},{"id":393203,"adult":false},{"id":393204,"adult":true},{"id":40347,"adult":false},{"id":44334,"adult":false},{"id":393205,"adult":true},{"id":212221,"adult":false},{"id":368273,"adult":false},{"id":392013,"adult":false},{"id":393206,"adult":false},{"id":393207,"adult":false},{"id":393208,"adult":false},{"id":76600,"adult":false},{"id":83533,"adult":false},{"id":216527,"adult":false},{"id":393209,"adult":false},{"id":49984,"adult":false},{"id":393210,"adult":false},{"id":231209,"adult":false},{"id":393211,"adult":false},{"id":68822,"adult":false},{"id":393212,"adult":false},{"id":245170,"adult":false},{"id":390446,"adult":false},{"id":393213,"adult":false},{"id":259963,"adult":false},{"id":27362,"adult":false},{"id":265312,"adult":false},{"id":300235,"adult":false},{"id":393214,"adult":false},{"id":393215,"adult":false},{"id":125410,"adult":false},{"id":388047,"adult":false},{"id":9431,"adult":false},{"id":11694,"adult":false},{"id":270845,"adult":false},{"id":258922,"adult":false},{"id":21799,"adult":false},{"id":147479,"adult":false},{"id":393218,"adult":false},{"id":336313,"adult":false},{"id":393219,"adult":false},{"id":11327,"adult":false},{"id":244049,"adult":false},{"id":63401,"adult":false},{"id":393220,"adult":false},{"id":393221,"adult":false},{"id":40218,"adult":false},{"id":138978,"adult":false},{"id":47473,"adult":false},{"id":393222,"adult":false},{"id":164251,"adult":false},{"id":372358,"adult":false},{"id":36321,"adult":false},{"id":50247,"adult":false},{"id":102282,"adult":false},{"id":273477,"adult":false},{"id":148355,"adult":false},{"id":207706,"adult":false},{"id":131176,"adult":false},{"id":370756,"adult":false},{"id":339877,"adult":false},{"id":392820,"adult":false},{"id":47721,"adult":false},{"id":308361,"adult":false},{"id":353393,"adult":false},{"id":124300,"adult":false},{"id":1564,"adult":false},{"id":47735,"adult":false},{"id":162215,"adult":false},{"id":51141,"adult":false},{"id":51143,"adult":false},{"id":146381,"adult":false},{"id":72710,"adult":false},{"id":74585,"adult":false},{"id":393223,"adult":false},{"id":323182,"adult":false},{"id":171513,"adult":false},{"id":7980,"adult":false},{"id":346492,"adult":false},{"id":393224,"adult":false},{"id":409,"adult":false},{"id":308715,"adult":false},{"id":4347,"adult":false},{"id":135237,"adult":false},{"id":353047,"adult":false},{"id":393225,"adult":false},{"id":393226,"adult":false},{"id":309302,"adult":false},{"id":393227,"adult":false}],"page":23,"total_pages":127,"total_results":12659}