{"results":[{"id":10256,"adult":false},{"id":389365,"adult":false},{"id":358907,"adult":false},{"id":389366,"adult":false},{"id":6435,"adult":false},{"id":74443,"adult":false},{"id":389367,"adult":true},{"id":389368,"adult":false},{"id":189065,"adult":false},{"id":389370,"adult":false},{"id":389371,"adult":false},{"id":7551,"adult":false},{"id":345622,"adult":false},{"id":278403,"adult":false},{"id":147773,"adult":false},{"id":8978,"adult":false},{"id":389372,"adult":false},{"id":900,"adult":false},{"id":276624,"adult":false},{"id":256735,"adult":false},{"id":389373,"adult":false},{"id":9488,"adult":false},{"id":389374,"adult":false},{"id":12279,"adult":false},{"id":389375,"adult":false},{"id":381519,"adult":false},{"id":46890,"adult":false},{"id":1962,"adult":false},{"id":373418,"adult":false},{"id":377897,"adult":false},{"id":385462,"adult":false},{"id":196750,"adult":false},{"id":35188,"adult":false},{"id":212168,"adult":false},{"id":240341,"adult":false},{"id":279254,"adult":false},{"id":133470,"adult":false},{"id":389376,"adult":false},{"id":63175,"adult":false},{"id":366885,"adult":false},{"id":62188,"adult":false},{"id":47150,"adult":false},{"id":384510,"adult":false},{"id":114255,"adult":false},{"id":389378,"adult":false},{"id":389379,"adult":false},{"id":283566,"adult":false},{"id":280924,"adult":false},{"id":376787,"adult":false},{"id":89253,"adult":false},{"id":336666,"adult":false},{"id":389380,"adult":false},{"id":389381,"adult":false},{"id":355008,"adult":false},{"id":157409,"adult":false},{"id":360365,"adult":false},{"id":389382,"adult":false},{"id":211466,"adult":false},{"id":158317,"adult":false},{"id":344831,"adult":false},{"id":386852,"adult":null},{"id":327146,"adult":false},{"id":386854,"adult":false},{"id":389383,"adult":false},{"id":279979,"adult":false},{"id":240015,"adult":false},{"id":185302,"adult":false},{"id":389384,"adult":false},{"id":374734,"adult":false},{"id":277806,"adult":false},{"id":126446,"adult":false},{"id":18776,"adult":false},{"id":296799,"adult":false},{"id":386866,"adult":null},{"id":265867,"adult":false},{"id":197260,"adult":false},{"id":384753,"adult":false},{"id":389385,"adult":false},{"id":340502,"adult":false},{"id":41727,"adult":false},{"id":203593,"adult":false},{"id":336683,"adult":false},{"id":339663,"adult":false},{"id":193366,"adult":true},{"id":289346,"adult":false},{"id":286392,"adult":false},{"id":65821,"adult":false},{"id":389386,"adult":false},{"id":51215,"adult":false},{"id":360532,"adult":false},{"id":14847,"adult":false},{"id":389387,"adult":false},{"id":85611,"adult":false},{"id":49928,"adult":false},{"id":210121,"adult":null},{"id":389388,"adult":false},{"id":18966,"adult":false},{"id":201004,"adult":false},{"id":88614,"adult":false},{"id":389389,"adult":false}],"page":88,"total_pages":120,"total_results":11936}