{"results":[{"id":25214,"adult":false},{"id":156488,"adult":false},{"id":156468,"adult":false},{"id":156500,"adult":false},{"id":156465,"adult":false},{"id":156456,"adult":false},{"id":161614,"adult":false},{"id":81338,"adult":false},{"id":29564,"adult":false},{"id":161884,"adult":false},{"id":377807,"adult":false},{"id":161841,"adult":false},{"id":161865,"adult":false},{"id":161887,"adult":false},{"id":74287,"adult":false},{"id":174303,"adult":false},{"id":107524,"adult":false},{"id":135908,"adult":false},{"id":174508,"adult":false},{"id":184673,"adult":false},{"id":184657,"adult":false},{"id":274437,"adult":false},{"id":231242,"adult":false},{"id":362289,"adult":false},{"id":376379,"adult":null},{"id":139357,"adult":false},{"id":67171,"adult":false},{"id":290235,"adult":false},{"id":67599,"adult":false},{"id":250652,"adult":false},{"id":67703,"adult":false},{"id":158895,"adult":false},{"id":67161,"adult":false},{"id":336853,"adult":false},{"id":377808,"adult":false},{"id":67132,"adult":false},{"id":89322,"adult":false},{"id":67592,"adult":false},{"id":67594,"adult":false},{"id":377809,"adult":false},{"id":373701,"adult":false},{"id":67154,"adult":false},{"id":1541,"adult":false},{"id":222422,"adult":false},{"id":67009,"adult":false},{"id":115201,"adult":false},{"id":34814,"adult":false},{"id":212968,"adult":false},{"id":67502,"adult":false},{"id":67043,"adult":false},{"id":227319,"adult":false},{"id":142276,"adult":false},{"id":377810,"adult":false},{"id":67004,"adult":false},{"id":177434,"adult":false},{"id":67001,"adult":false},{"id":67160,"adult":false},{"id":136466,"adult":false},{"id":67164,"adult":false},{"id":228970,"adult":false},{"id":167502,"adult":false},{"id":300693,"adult":false},{"id":67163,"adult":false},{"id":377811,"adult":false},{"id":157409,"adult":false},{"id":371464,"adult":false},{"id":67600,"adult":false},{"id":184346,"adult":false},{"id":377812,"adult":false},{"id":8645,"adult":false},{"id":273907,"adult":false},{"id":28422,"adult":false},{"id":67572,"adult":false},{"id":37472,"adult":false},{"id":67110,"adult":false},{"id":377813,"adult":false},{"id":23127,"adult":false},{"id":67152,"adult":false},{"id":177146,"adult":false},{"id":345875,"adult":false},{"id":133319,"adult":false},{"id":67162,"adult":false},{"id":67049,"adult":false},{"id":246741,"adult":false},{"id":67661,"adult":false},{"id":308187,"adult":false},{"id":67010,"adult":false},{"id":786,"adult":false},{"id":67047,"adult":false},{"id":377814,"adult":false},{"id":377815,"adult":null},{"id":64246,"adult":false},{"id":67111,"adult":false},{"id":67113,"adult":false},{"id":66819,"adult":false},{"id":331781,"adult":false},{"id":67130,"adult":false},{"id":78332,"adult":false},{"id":67115,"adult":false},{"id":26985,"adult":false}],"page":20,"total_pages":226,"total_results":22514}