{"results":[{"id":103663,"adult":false},{"id":293670,"adult":false},{"id":220677,"adult":false},{"id":268994,"adult":false},{"id":4286,"adult":false},{"id":407084,"adult":false},{"id":133776,"adult":false},{"id":257975,"adult":false},{"id":29453,"adult":false},{"id":314065,"adult":false},{"id":2757,"adult":false},{"id":295699,"adult":false},{"id":75638,"adult":false},{"id":182219,"adult":false},{"id":85608,"adult":false},{"id":39930,"adult":false},{"id":251367,"adult":false},{"id":423403,"adult":false},{"id":205686,"adult":false},{"id":327833,"adult":false},{"id":421745,"adult":false},{"id":35648,"adult":false},{"id":149427,"adult":false},{"id":313664,"adult":false},{"id":88677,"adult":false},{"id":193610,"adult":false},{"id":88674,"adult":false},{"id":424004,"adult":false},{"id":342550,"adult":false},{"id":108266,"adult":false},{"id":82969,"adult":false},{"id":272252,"adult":false},{"id":296867,"adult":false},{"id":190539,"adult":false},{"id":16048,"adult":false},{"id":415855,"adult":false},{"id":28293,"adult":false},{"id":346685,"adult":false},{"id":75888,"adult":false},{"id":92352,"adult":false},{"id":424005,"adult":false},{"id":424006,"adult":false},{"id":424007,"adult":false},{"id":424008,"adult":false},{"id":424009,"adult":false},{"id":424010,"adult":false},{"id":344168,"adult":false},{"id":83683,"adult":false},{"id":424011,"adult":false},{"id":424012,"adult":false},{"id":424013,"adult":false},{"id":424014,"adult":false},{"id":419502,"adult":false},{"id":424015,"adult":null},{"id":14604,"adult":false},{"id":129648,"adult":false},{"id":424016,"adult":false},{"id":424017,"adult":false},{"id":135579,"adult":false},{"id":424018,"adult":false},{"id":422066,"adult":false},{"id":386898,"adult":false},{"id":91663,"adult":false},{"id":424019,"adult":false},{"id":52785,"adult":false},{"id":424020,"adult":false},{"id":424021,"adult":false},{"id":424023,"adult":false},{"id":424024,"adult":false},{"id":424025,"adult":false},{"id":424026,"adult":false},{"id":1725,"adult":false},{"id":8055,"adult":false},{"id":268591,"adult":false},{"id":155581,"adult":false},{"id":92984,"adult":false},{"id":424027,"adult":false},{"id":85820,"adult":false},{"id":346672,"adult":false},{"id":39495,"adult":false},{"id":249800,"adult":false},{"id":424028,"adult":false},{"id":424029,"adult":null},{"id":424030,"adult":false},{"id":194310,"adult":false},{"id":424031,"adult":false},{"id":424032,"adult":false},{"id":424033,"adult":false},{"id":43189,"adult":false},{"id":169721,"adult":false},{"id":80879,"adult":false},{"id":424034,"adult":false},{"id":424035,"adult":false},{"id":424036,"adult":false},{"id":197527,"adult":false},{"id":258363,"adult":false},{"id":326790,"adult":false},{"id":310804,"adult":false},{"id":417859,"adult":false},{"id":171297,"adult":false}],"page":15,"total_pages":120,"total_results":11922}