{"results":[{"id":218746,"adult":false},{"id":387840,"adult":false},{"id":276126,"adult":false},{"id":386716,"adult":false},{"id":264660,"adult":false},{"id":11535,"adult":false},{"id":241,"adult":false},{"id":13551,"adult":false},{"id":96239,"adult":false},{"id":387841,"adult":false},{"id":292014,"adult":false},{"id":387842,"adult":false},{"id":387843,"adult":false},{"id":275318,"adult":false},{"id":132086,"adult":false},{"id":302945,"adult":true},{"id":288743,"adult":false},{"id":374909,"adult":false},{"id":197796,"adult":false},{"id":372251,"adult":null},{"id":387844,"adult":false},{"id":192126,"adult":false},{"id":122740,"adult":false},{"id":20540,"adult":false},{"id":387845,"adult":false},{"id":387846,"adult":false},{"id":387847,"adult":false},{"id":64807,"adult":false},{"id":87445,"adult":false},{"id":51892,"adult":false},{"id":387848,"adult":false},{"id":387849,"adult":false},{"id":411,"adult":false},{"id":2454,"adult":false},{"id":387850,"adult":false},{"id":10140,"adult":false},{"id":286709,"adult":false},{"id":297239,"adult":false},{"id":31127,"adult":false},{"id":114866,"adult":false},{"id":75641,"adult":false},{"id":188738,"adult":false},{"id":90048,"adult":false},{"id":169917,"adult":false},{"id":54097,"adult":false},{"id":42813,"adult":false},{"id":3035,"adult":false},{"id":42814,"adult":false},{"id":9667,"adult":false},{"id":387851,"adult":false},{"id":371801,"adult":false},{"id":186263,"adult":false},{"id":120843,"adult":false},{"id":180254,"adult":false},{"id":180805,"adult":false},{"id":100402,"adult":false},{"id":236632,"adult":false},{"id":95004,"adult":false},{"id":162284,"adult":false},{"id":265116,"adult":false},{"id":319910,"adult":false},{"id":120597,"adult":false},{"id":151590,"adult":false},{"id":156345,"adult":false},{"id":387852,"adult":false},{"id":40961,"adult":false},{"id":387853,"adult":false},{"id":286565,"adult":false},{"id":121020,"adult":false},{"id":154515,"adult":false},{"id":10396,"adult":false},{"id":329809,"adult":false},{"id":18239,"adult":false},{"id":24021,"adult":false},{"id":50619,"adult":false},{"id":244563,"adult":false},{"id":50620,"adult":false},{"id":181283,"adult":false},{"id":387854,"adult":false},{"id":48863,"adult":false},{"id":357727,"adult":false},{"id":36819,"adult":false},{"id":40837,"adult":false},{"id":382517,"adult":false},{"id":47638,"adult":false},{"id":356841,"adult":false},{"id":387855,"adult":false},{"id":3172,"adult":false},{"id":69225,"adult":false},{"id":283366,"adult":false},{"id":9705,"adult":false},{"id":354382,"adult":false},{"id":387856,"adult":false},{"id":387857,"adult":false},{"id":309304,"adult":false},{"id":274167,"adult":false},{"id":362534,"adult":false},{"id":338941,"adult":false},{"id":233088,"adult":false},{"id":205584,"adult":false}],"page":8,"total_pages":120,"total_results":11936}