{"results":[{"id":358451,"adult":false},{"id":19644,"adult":false},{"id":344057,"adult":false},{"id":12659,"adult":false},{"id":238737,"adult":false},{"id":103260,"adult":false},{"id":138103,"adult":false},{"id":9550,"adult":false},{"id":232175,"adult":false},{"id":212996,"adult":false},{"id":358306,"adult":false},{"id":50542,"adult":false},{"id":45706,"adult":false},{"id":81829,"adult":false},{"id":25694,"adult":false},{"id":130816,"adult":false},{"id":353325,"adult":false},{"id":238898,"adult":false},{"id":102384,"adult":false},{"id":120019,"adult":false},{"id":197814,"adult":false},{"id":71317,"adult":false},{"id":85795,"adult":false},{"id":85878,"adult":false},{"id":141249,"adult":null},{"id":79151,"adult":false},{"id":140822,"adult":false},{"id":27936,"adult":false},{"id":119273,"adult":false},{"id":134990,"adult":false},{"id":10247,"adult":false},{"id":81344,"adult":false},{"id":334298,"adult":false},{"id":332980,"adult":false},{"id":11704,"adult":false},{"id":308264,"adult":false},{"id":348812,"adult":false},{"id":142746,"adult":false},{"id":318977,"adult":false},{"id":376488,"adult":null},{"id":345235,"adult":false},{"id":286995,"adult":false},{"id":32582,"adult":false},{"id":79597,"adult":false},{"id":1613,"adult":false},{"id":259943,"adult":false},{"id":376489,"adult":false},{"id":79,"adult":false},{"id":95919,"adult":false},{"id":376490,"adult":null},{"id":362862,"adult":false},{"id":20342,"adult":false},{"id":10997,"adult":false},{"id":192289,"adult":false},{"id":31451,"adult":false},{"id":118913,"adult":false},{"id":51306,"adult":false},{"id":341077,"adult":false},{"id":96686,"adult":false},{"id":376491,"adult":null},{"id":2357,"adult":false},{"id":8967,"adult":false},{"id":209049,"adult":false},{"id":8953,"adult":false},{"id":376492,"adult":false},{"id":82450,"adult":false},{"id":376493,"adult":false},{"id":376494,"adult":false},{"id":14098,"adult":false},{"id":246864,"adult":false},{"id":5998,"adult":false},{"id":211711,"adult":false},{"id":270842,"adult":false},{"id":52653,"adult":false},{"id":121791,"adult":false},{"id":376495,"adult":false},{"id":376496,"adult":false},{"id":335619,"adult":false},{"id":265760,"adult":false},{"id":263038,"adult":null},{"id":251146,"adult":null},{"id":54219,"adult":false},{"id":294005,"adult":false},{"id":49556,"adult":false},{"id":368749,"adult":false},{"id":97534,"adult":false},{"id":314923,"adult":null},{"id":265137,"adult":false},{"id":320701,"adult":false},{"id":376497,"adult":false},{"id":208507,"adult":false},{"id":132342,"adult":false},{"id":374112,"adult":false},{"id":305044,"adult":false},{"id":376498,"adult":false},{"id":219577,"adult":false},{"id":85507,"adult":false},{"id":52932,"adult":false},{"id":174012,"adult":false},{"id":345065,"adult":null}],"page":75,"total_pages":121,"total_results":12060}