{"results":[{"id":364067,"adult":false},{"id":10234,"adult":false},{"id":14001,"adult":false},{"id":13515,"adult":false},{"id":5994,"adult":false},{"id":67354,"adult":false},{"id":10195,"adult":false},{"id":247814,"adult":false},{"id":9279,"adult":false},{"id":9479,"adult":false},{"id":276765,"adult":false},{"id":27660,"adult":false},{"id":82290,"adult":false},{"id":6537,"adult":false},{"id":8871,"adult":false},{"id":508,"adult":false},{"id":694,"adult":false},{"id":11621,"adult":false},{"id":430274,"adult":false},{"id":9792,"adult":false},{"id":430213,"adult":false},{"id":9030,"adult":false},{"id":11058,"adult":false},{"id":62101,"adult":false},{"id":16342,"adult":false},{"id":257471,"adult":false},{"id":50698,"adult":false},{"id":27205,"adult":false},{"id":10138,"adult":false},{"id":149100,"adult":false},{"id":14160,"adult":false},{"id":430275,"adult":false},{"id":101264,"adult":false},{"id":17336,"adult":false},{"id":68750,"adult":false},{"id":154442,"adult":false},{"id":430276,"adult":false},{"id":356266,"adult":false},{"id":430277,"adult":false},{"id":306354,"adult":false},{"id":58,"adult":false},{"id":12477,"adult":false},{"id":70098,"adult":false},{"id":430278,"adult":false},{"id":267371,"adult":false},{"id":367278,"adult":false},{"id":430279,"adult":false},{"id":251705,"adult":false},{"id":430280,"adult":false},{"id":52512,"adult":false},{"id":26710,"adult":false},{"id":302183,"adult":false},{"id":2076,"adult":false},{"id":153378,"adult":false},{"id":355297,"adult":false},{"id":357805,"adult":false},{"id":5967,"adult":false},{"id":339612,"adult":false},{"id":396196,"adult":false},{"id":320822,"adult":false},{"id":31066,"adult":false},{"id":400711,"adult":false},{"id":241258,"adult":false},{"id":1366,"adult":false},{"id":204466,"adult":false},{"id":398358,"adult":false},{"id":14593,"adult":false},{"id":197581,"adult":false},{"id":358034,"adult":false},{"id":340677,"adult":false},{"id":206932,"adult":false},{"id":206961,"adult":false},{"id":43209,"adult":false},{"id":207259,"adult":false},{"id":206944,"adult":false},{"id":339408,"adult":false},{"id":146260,"adult":false},{"id":206939,"adult":false},{"id":63710,"adult":false},{"id":375950,"adult":false},{"id":119258,"adult":false},{"id":66765,"adult":false},{"id":239732,"adult":false},{"id":253782,"adult":false},{"id":239712,"adult":false},{"id":309716,"adult":false},{"id":11087,"adult":false},{"id":205831,"adult":false},{"id":265933,"adult":false},{"id":115418,"adult":false},{"id":419508,"adult":false},{"id":206946,"adult":false},{"id":430281,"adult":false},{"id":292797,"adult":false},{"id":220099,"adult":false},{"id":403535,"adult":null},{"id":366413,"adult":false},{"id":427989,"adult":false},{"id":15278,"adult":false},{"id":419507,"adult":false}],"page":5,"total_pages":114,"total_results":11339}