{"results":[{"id":319186,"adult":false},{"id":380913,"adult":false},{"id":380408,"adult":null},{"id":319191,"adult":false},{"id":380412,"adult":false},{"id":380914,"adult":false},{"id":347842,"adult":false},{"id":318256,"adult":false},{"id":1523,"adult":false},{"id":345468,"adult":false},{"id":4147,"adult":false},{"id":96494,"adult":false},{"id":319161,"adult":false},{"id":95808,"adult":false},{"id":380915,"adult":false},{"id":380916,"adult":false},{"id":8939,"adult":false},{"id":12404,"adult":false},{"id":380917,"adult":false},{"id":304386,"adult":false},{"id":292053,"adult":false},{"id":10521,"adult":false},{"id":314642,"adult":false},{"id":76739,"adult":false},{"id":216709,"adult":false},{"id":380918,"adult":false},{"id":46814,"adult":false},{"id":67615,"adult":false},{"id":108755,"adult":false},{"id":97618,"adult":false},{"id":273153,"adult":false},{"id":305243,"adult":false},{"id":287869,"adult":false},{"id":380919,"adult":false},{"id":380920,"adult":false},{"id":366141,"adult":false},{"id":380921,"adult":false},{"id":55721,"adult":false},{"id":380922,"adult":false},{"id":101,"adult":false},{"id":380923,"adult":false},{"id":380924,"adult":false},{"id":83865,"adult":false},{"id":63441,"adult":false},{"id":11232,"adult":false},{"id":40081,"adult":false},{"id":13481,"adult":false},{"id":38540,"adult":false},{"id":45736,"adult":false},{"id":149961,"adult":false},{"id":5052,"adult":false},{"id":208364,"adult":false},{"id":380925,"adult":false},{"id":1265,"adult":false},{"id":181844,"adult":false},{"id":27412,"adult":false},{"id":41383,"adult":false},{"id":1884,"adult":false},{"id":356666,"adult":false},{"id":258372,"adult":false},{"id":7229,"adult":false},{"id":87118,"adult":false},{"id":59934,"adult":false},{"id":142,"adult":false},{"id":130724,"adult":false},{"id":360186,"adult":false},{"id":380926,"adult":false},{"id":9208,"adult":false},{"id":186927,"adult":false},{"id":187749,"adult":false},{"id":41378,"adult":false},{"id":261023,"adult":false},{"id":100693,"adult":false},{"id":64260,"adult":false},{"id":10764,"adult":false},{"id":98357,"adult":false},{"id":352978,"adult":false},{"id":67076,"adult":false},{"id":1607,"adult":false},{"id":297,"adult":false},{"id":73457,"adult":false},{"id":26390,"adult":false},{"id":16921,"adult":false},{"id":260601,"adult":false},{"id":380927,"adult":false},{"id":357146,"adult":false},{"id":10009,"adult":false},{"id":251321,"adult":false},{"id":99270,"adult":false},{"id":283701,"adult":false},{"id":62215,"adult":false},{"id":201086,"adult":false},{"id":248933,"adult":false},{"id":380928,"adult":false},{"id":330115,"adult":false},{"id":77306,"adult":false},{"id":167531,"adult":false},{"id":380929,"adult":false},{"id":380930,"adult":false},{"id":373442,"adult":false}],"page":24,"total_pages":119,"total_results":11854}