{"results":[{"id":46536,"adult":true},{"id":247028,"adult":false},{"id":18441,"adult":false},{"id":376446,"adult":false},{"id":411180,"adult":false},{"id":64847,"adult":false},{"id":411181,"adult":false},{"id":411182,"adult":false},{"id":411183,"adult":false},{"id":411184,"adult":false},{"id":411185,"adult":false},{"id":411186,"adult":false},{"id":186747,"adult":false},{"id":411187,"adult":false},{"id":411188,"adult":false},{"id":411189,"adult":false},{"id":302429,"adult":false},{"id":411190,"adult":false},{"id":294376,"adult":false},{"id":163801,"adult":false},{"id":262091,"adult":false},{"id":411191,"adult":false},{"id":293188,"adult":false},{"id":264654,"adult":false},{"id":60266,"adult":true},{"id":411192,"adult":false},{"id":216785,"adult":false},{"id":300203,"adult":false},{"id":411193,"adult":false},{"id":19893,"adult":false},{"id":58019,"adult":false},{"id":411194,"adult":false},{"id":74089,"adult":false},{"id":13103,"adult":false},{"id":85640,"adult":false},{"id":4195,"adult":false},{"id":343407,"adult":false},{"id":411195,"adult":false},{"id":32896,"adult":false},{"id":135614,"adult":false},{"id":153439,"adult":false},{"id":380667,"adult":false},{"id":26535,"adult":false},{"id":60875,"adult":false},{"id":28303,"adult":false},{"id":42988,"adult":false},{"id":62243,"adult":false},{"id":46074,"adult":false},{"id":1894,"adult":false},{"id":411196,"adult":false},{"id":60612,"adult":false},{"id":348347,"adult":false},{"id":331272,"adult":false},{"id":239136,"adult":false},{"id":229237,"adult":false},{"id":176815,"adult":false},{"id":12262,"adult":false},{"id":336481,"adult":false},{"id":362313,"adult":false},{"id":411197,"adult":false},{"id":55493,"adult":false},{"id":160008,"adult":false},{"id":369769,"adult":false},{"id":296358,"adult":false},{"id":386018,"adult":false},{"id":92000,"adult":false},{"id":187017,"adult":false},{"id":15875,"adult":false},{"id":27573,"adult":false},{"id":58383,"adult":false},{"id":1812,"adult":false},{"id":42344,"adult":false},{"id":196759,"adult":false},{"id":185183,"adult":false},{"id":411198,"adult":false},{"id":11699,"adult":false},{"id":279669,"adult":false},{"id":383580,"adult":false},{"id":53182,"adult":false},{"id":411199,"adult":false},{"id":69839,"adult":false},{"id":397619,"adult":false},{"id":157544,"adult":false},{"id":178695,"adult":false},{"id":44457,"adult":false},{"id":37222,"adult":false},{"id":201710,"adult":false},{"id":210947,"adult":false},{"id":330160,"adult":false},{"id":102382,"adult":false},{"id":359983,"adult":false},{"id":334924,"adult":false},{"id":24016,"adult":false},{"id":9387,"adult":false},{"id":3604,"adult":false},{"id":25566,"adult":false},{"id":20891,"adult":false},{"id":114996,"adult":false},{"id":6592,"adult":false},{"id":257359,"adult":false}],"page":113,"total_pages":117,"total_results":11641}