{"results":[{"id":11651,"adult":false},{"id":287278,"adult":false},{"id":397152,"adult":false},{"id":12650,"adult":false},{"id":60948,"adult":false},{"id":10103,"adult":false},{"id":397153,"adult":false},{"id":18426,"adult":false},{"id":78831,"adult":false},{"id":29717,"adult":false},{"id":124157,"adult":false},{"id":1450,"adult":false},{"id":13243,"adult":false},{"id":71346,"adult":false},{"id":61243,"adult":false},{"id":397154,"adult":false},{"id":397155,"adult":false},{"id":397156,"adult":false},{"id":397157,"adult":false},{"id":31927,"adult":false},{"id":95453,"adult":false},{"id":4550,"adult":false},{"id":29157,"adult":false},{"id":180829,"adult":false},{"id":20619,"adult":false},{"id":368363,"adult":false},{"id":14255,"adult":false},{"id":1592,"adult":false},{"id":61004,"adult":false},{"id":95482,"adult":false},{"id":15805,"adult":false},{"id":180583,"adult":false},{"id":52663,"adult":false},{"id":4689,"adult":false},{"id":26113,"adult":false},{"id":11423,"adult":false},{"id":38053,"adult":false},{"id":49190,"adult":false},{"id":397158,"adult":false},{"id":10156,"adult":false},{"id":267959,"adult":false},{"id":55771,"adult":false},{"id":78349,"adult":false},{"id":284457,"adult":false},{"id":397159,"adult":false},{"id":84914,"adult":false},{"id":143055,"adult":false},{"id":50090,"adult":false},{"id":20077,"adult":false},{"id":227673,"adult":false},{"id":81460,"adult":false},{"id":19323,"adult":false},{"id":336508,"adult":false},{"id":116227,"adult":false},{"id":1923,"adult":false},{"id":80035,"adult":false},{"id":385925,"adult":false},{"id":153998,"adult":false},{"id":14011,"adult":false},{"id":397160,"adult":false},{"id":220176,"adult":false},{"id":57165,"adult":false},{"id":306564,"adult":false},{"id":13851,"adult":false},{"id":28229,"adult":false},{"id":38359,"adult":false},{"id":293648,"adult":false},{"id":390443,"adult":false},{"id":13475,"adult":false},{"id":664,"adult":false},{"id":70627,"adult":false},{"id":14569,"adult":false},{"id":397161,"adult":false},{"id":9438,"adult":false},{"id":94755,"adult":false},{"id":397162,"adult":false},{"id":1371,"adult":false},{"id":304257,"adult":false},{"id":397163,"adult":false},{"id":325522,"adult":false},{"id":163409,"adult":false},{"id":393659,"adult":false},{"id":9353,"adult":false},{"id":397164,"adult":false},{"id":397165,"adult":false},{"id":397166,"adult":false},{"id":397167,"adult":false},{"id":395442,"adult":false},{"id":397168,"adult":false},{"id":188093,"adult":false},{"id":397169,"adult":false},{"id":397170,"adult":false},{"id":224141,"adult":false},{"id":355592,"adult":null},{"id":309401,"adult":false},{"id":397171,"adult":false},{"id":30596,"adult":false},{"id":355182,"adult":false},{"id":64380,"adult":false},{"id":91208,"adult":false}],"page":113,"total_pages":130,"total_results":12927}