{"results":[{"id":332502,"adult":false},{"id":29425,"adult":false},{"id":86835,"adult":false},{"id":236904,"adult":false},{"id":205358,"adult":false},{"id":273271,"adult":false},{"id":237756,"adult":false},{"id":317952,"adult":false},{"id":1059,"adult":false},{"id":239374,"adult":false},{"id":290762,"adult":false},{"id":277546,"adult":false},{"id":234212,"adult":false},{"id":388185,"adult":false},{"id":342878,"adult":false},{"id":10775,"adult":false},{"id":386075,"adult":false},{"id":250113,"adult":false},{"id":381035,"adult":false},{"id":385031,"adult":false},{"id":244458,"adult":false},{"id":72490,"adult":false},{"id":346388,"adult":false},{"id":90071,"adult":false},{"id":223485,"adult":false},{"id":388186,"adult":false},{"id":27742,"adult":false},{"id":351561,"adult":false},{"id":364585,"adult":false},{"id":360142,"adult":false},{"id":78489,"adult":false},{"id":11366,"adult":false},{"id":337154,"adult":false},{"id":388187,"adult":false},{"id":132713,"adult":false},{"id":16233,"adult":false},{"id":69599,"adult":false},{"id":347096,"adult":false},{"id":321068,"adult":false},{"id":221536,"adult":false},{"id":270116,"adult":false},{"id":182311,"adult":false},{"id":234227,"adult":false},{"id":26875,"adult":false},{"id":298269,"adult":false},{"id":291869,"adult":false},{"id":385445,"adult":false},{"id":351593,"adult":false},{"id":363092,"adult":false},{"id":370687,"adult":false},{"id":10169,"adult":false},{"id":66978,"adult":false},{"id":236910,"adult":false},{"id":295637,"adult":false},{"id":187749,"adult":false},{"id":167461,"adult":false},{"id":252631,"adult":false},{"id":236989,"adult":false},{"id":347848,"adult":false},{"id":351582,"adult":false},{"id":147404,"adult":false},{"id":64328,"adult":false},{"id":236999,"adult":false},{"id":381032,"adult":false},{"id":272,"adult":false},{"id":388190,"adult":false},{"id":198303,"adult":false},{"id":83190,"adult":false},{"id":328387,"adult":false},{"id":388191,"adult":false},{"id":388192,"adult":false},{"id":388193,"adult":null},{"id":278,"adult":false},{"id":199635,"adult":false},{"id":388194,"adult":false},{"id":6075,"adult":false},{"id":71987,"adult":false},{"id":144049,"adult":false},{"id":1262,"adult":false},{"id":253145,"adult":false},{"id":276902,"adult":false},{"id":236095,"adult":false},{"id":115,"adult":false},{"id":205650,"adult":false},{"id":236267,"adult":false},{"id":353069,"adult":false},{"id":388195,"adult":false},{"id":11016,"adult":false},{"id":15809,"adult":false},{"id":106500,"adult":false},{"id":206408,"adult":false},{"id":47145,"adult":false},{"id":227136,"adult":false},{"id":388196,"adult":null},{"id":388197,"adult":false},{"id":388198,"adult":null},{"id":388199,"adult":false},{"id":388200,"adult":false},{"id":331132,"adult":false},{"id":41368,"adult":false}],"page":28,"total_pages":120,"total_results":11936}