{"results":[{"id":2641,"adult":false},{"id":421856,"adult":false},{"id":288984,"adult":false},{"id":264253,"adult":false},{"id":346281,"adult":false},{"id":242582,"adult":false},{"id":166158,"adult":false},{"id":349966,"adult":false},{"id":68064,"adult":false},{"id":59967,"adult":false},{"id":15268,"adult":false},{"id":68173,"adult":false},{"id":11665,"adult":false},{"id":421857,"adult":false},{"id":19259,"adult":false},{"id":300153,"adult":false},{"id":10384,"adult":false},{"id":143918,"adult":false},{"id":2124,"adult":false},{"id":421858,"adult":false},{"id":333759,"adult":false},{"id":173739,"adult":false},{"id":69310,"adult":false},{"id":351069,"adult":false},{"id":18487,"adult":false},{"id":160588,"adult":false},{"id":421859,"adult":false},{"id":28214,"adult":false},{"id":57397,"adult":false},{"id":421860,"adult":false},{"id":50319,"adult":false},{"id":71504,"adult":false},{"id":29960,"adult":false},{"id":54825,"adult":false},{"id":331583,"adult":false},{"id":178106,"adult":false},{"id":386818,"adult":false},{"id":387219,"adult":false},{"id":395637,"adult":null},{"id":403374,"adult":false},{"id":88735,"adult":false},{"id":369856,"adult":null},{"id":393290,"adult":false},{"id":64650,"adult":false},{"id":83122,"adult":false},{"id":302699,"adult":false},{"id":418872,"adult":false},{"id":301888,"adult":null},{"id":416468,"adult":false},{"id":11636,"adult":false},{"id":400172,"adult":false},{"id":191773,"adult":false},{"id":270362,"adult":false},{"id":197481,"adult":false},{"id":391195,"adult":false},{"id":421861,"adult":null},{"id":42189,"adult":false},{"id":149945,"adult":false},{"id":25007,"adult":false},{"id":209283,"adult":false},{"id":74349,"adult":false},{"id":9626,"adult":false},{"id":2288,"adult":false},{"id":67062,"adult":false},{"id":270008,"adult":false},{"id":421862,"adult":false},{"id":66184,"adult":false},{"id":140894,"adult":false},{"id":270010,"adult":false},{"id":316000,"adult":false},{"id":396393,"adult":false},{"id":29233,"adult":false},{"id":414635,"adult":false},{"id":270423,"adult":false},{"id":26201,"adult":false},{"id":100271,"adult":false},{"id":414633,"adult":false},{"id":421863,"adult":false},{"id":386389,"adult":false},{"id":421864,"adult":false},{"id":76816,"adult":false},{"id":108560,"adult":false},{"id":375794,"adult":false},{"id":186908,"adult":false},{"id":52458,"adult":false},{"id":222843,"adult":false},{"id":74359,"adult":false},{"id":328252,"adult":false},{"id":354924,"adult":false},{"id":421865,"adult":false},{"id":421866,"adult":false},{"id":70140,"adult":false},{"id":60141,"adult":false},{"id":421867,"adult":false},{"id":249397,"adult":false},{"id":118056,"adult":false},{"id":94542,"adult":false},{"id":203684,"adult":false},{"id":314525,"adult":false},{"id":417695,"adult":false}],"page":42,"total_pages":123,"total_results":12202}