{"results":[{"id":79080,"adult":false},{"id":176526,"adult":false},{"id":10003,"adult":false},{"id":27576,"adult":false},{"id":381728,"adult":false},{"id":46736,"adult":false},{"id":247794,"adult":false},{"id":381729,"adult":false},{"id":186173,"adult":false},{"id":31374,"adult":false},{"id":381730,"adult":false},{"id":129743,"adult":false},{"id":111988,"adult":false},{"id":381731,"adult":false},{"id":73802,"adult":false},{"id":63500,"adult":false},{"id":381732,"adult":false},{"id":238466,"adult":false},{"id":20929,"adult":false},{"id":141476,"adult":false},{"id":381733,"adult":false},{"id":1241,"adult":false},{"id":281479,"adult":false},{"id":381734,"adult":false},{"id":58680,"adult":false},{"id":1960,"adult":false},{"id":15462,"adult":false},{"id":381737,"adult":false},{"id":381738,"adult":false},{"id":104998,"adult":false},{"id":381739,"adult":false},{"id":303475,"adult":false},{"id":231035,"adult":false},{"id":381740,"adult":false},{"id":2150,"adult":false},{"id":15104,"adult":false},{"id":60548,"adult":false},{"id":227394,"adult":false},{"id":381741,"adult":false},{"id":2344,"adult":false},{"id":41979,"adult":false},{"id":4421,"adult":false},{"id":98416,"adult":false},{"id":159190,"adult":false},{"id":65591,"adult":false},{"id":22752,"adult":false},{"id":65594,"adult":false},{"id":2366,"adult":false},{"id":203720,"adult":false},{"id":285428,"adult":false},{"id":280459,"adult":false},{"id":305436,"adult":false},{"id":1701,"adult":false},{"id":381742,"adult":false},{"id":314370,"adult":false},{"id":222091,"adult":false},{"id":11853,"adult":false},{"id":174117,"adult":false},{"id":22067,"adult":false},{"id":873,"adult":false},{"id":54982,"adult":false},{"id":38560,"adult":false},{"id":168281,"adult":false},{"id":12582,"adult":false},{"id":45547,"adult":false},{"id":357434,"adult":false},{"id":24059,"adult":false},{"id":59930,"adult":false},{"id":231377,"adult":false},{"id":228379,"adult":false},{"id":61752,"adult":false},{"id":78556,"adult":false},{"id":357572,"adult":false},{"id":41955,"adult":false},{"id":174122,"adult":false},{"id":362835,"adult":false},{"id":247500,"adult":false},{"id":10619,"adult":false},{"id":287903,"adult":false},{"id":311717,"adult":false},{"id":10457,"adult":false},{"id":251417,"adult":false},{"id":45021,"adult":false},{"id":290898,"adult":false},{"id":53415,"adult":false},{"id":350555,"adult":false},{"id":30049,"adult":false},{"id":329237,"adult":false},{"id":84672,"adult":false},{"id":84104,"adult":false},{"id":325352,"adult":false},{"id":583,"adult":false},{"id":112999,"adult":false},{"id":9604,"adult":false},{"id":59336,"adult":false},{"id":381743,"adult":false},{"id":2755,"adult":false},{"id":13168,"adult":false},{"id":40732,"adult":false},{"id":6278,"adult":false}],"page":67,"total_pages":119,"total_results":11854}