{"results":[{"id":142163,"adult":false},{"id":49171,"adult":false},{"id":136482,"adult":false},{"id":324631,"adult":false},{"id":140720,"adult":false},{"id":18187,"adult":false},{"id":408428,"adult":false},{"id":408030,"adult":false},{"id":177895,"adult":false},{"id":359552,"adult":false},{"id":407576,"adult":false},{"id":219280,"adult":false},{"id":300767,"adult":false},{"id":170967,"adult":false},{"id":383682,"adult":false},{"id":391238,"adult":false},{"id":398979,"adult":false},{"id":209442,"adult":false},{"id":368194,"adult":false},{"id":270822,"adult":false},{"id":317990,"adult":false},{"id":416529,"adult":false},{"id":287597,"adult":false},{"id":21194,"adult":false},{"id":146551,"adult":false},{"id":223680,"adult":false},{"id":272719,"adult":false},{"id":228617,"adult":false},{"id":401584,"adult":false},{"id":266945,"adult":false},{"id":362650,"adult":false},{"id":215247,"adult":false},{"id":345270,"adult":false},{"id":373627,"adult":false},{"id":136745,"adult":false},{"id":342550,"adult":false},{"id":209436,"adult":false},{"id":416530,"adult":false},{"id":412643,"adult":false},{"id":392048,"adult":false},{"id":39145,"adult":false},{"id":55809,"adult":false},{"id":39545,"adult":false},{"id":97015,"adult":false},{"id":265509,"adult":false},{"id":131336,"adult":false},{"id":399300,"adult":false},{"id":384368,"adult":false},{"id":287929,"adult":false},{"id":170856,"adult":false},{"id":44809,"adult":false},{"id":358842,"adult":false},{"id":357955,"adult":false},{"id":384375,"adult":false},{"id":384369,"adult":false},{"id":411531,"adult":null},{"id":148188,"adult":false},{"id":16325,"adult":false},{"id":416531,"adult":false},{"id":404503,"adult":false},{"id":393139,"adult":false},{"id":392303,"adult":false},{"id":91371,"adult":false},{"id":14451,"adult":false},{"id":343022,"adult":false},{"id":276614,"adult":false},{"id":133240,"adult":false},{"id":42482,"adult":false},{"id":286038,"adult":false},{"id":241842,"adult":false},{"id":10520,"adult":false},{"id":46069,"adult":false},{"id":312474,"adult":false},{"id":414559,"adult":false},{"id":19796,"adult":false},{"id":365542,"adult":false},{"id":415358,"adult":false},{"id":368273,"adult":false},{"id":317812,"adult":false},{"id":316705,"adult":false},{"id":210894,"adult":false},{"id":320701,"adult":false},{"id":21193,"adult":false},{"id":197377,"adult":false},{"id":397116,"adult":false},{"id":316744,"adult":false},{"id":416532,"adult":false},{"id":381692,"adult":false},{"id":300663,"adult":false},{"id":344196,"adult":false},{"id":416533,"adult":null},{"id":348988,"adult":false},{"id":416534,"adult":false},{"id":381016,"adult":false},{"id":96015,"adult":false},{"id":23105,"adult":false},{"id":104464,"adult":false},{"id":241553,"adult":false},{"id":414416,"adult":false},{"id":225170,"adult":false}],"page":40,"total_pages":141,"total_results":14019}