{"results":[{"id":75007,"adult":false},{"id":25678,"adult":false},{"id":207703,"adult":false},{"id":391860,"adult":false},{"id":49526,"adult":false},{"id":72790,"adult":false},{"id":54803,"adult":false},{"id":530,"adult":false},{"id":277547,"adult":false},{"id":314371,"adult":false},{"id":229932,"adult":false},{"id":384074,"adult":null},{"id":391861,"adult":null},{"id":19213,"adult":false},{"id":14447,"adult":false},{"id":391862,"adult":false},{"id":391863,"adult":false},{"id":391864,"adult":false},{"id":531,"adult":false},{"id":119581,"adult":false},{"id":1890,"adult":false},{"id":384742,"adult":false},{"id":303146,"adult":false},{"id":184903,"adult":false},{"id":7278,"adult":false},{"id":205623,"adult":false},{"id":36109,"adult":false},{"id":47273,"adult":false},{"id":391865,"adult":false},{"id":306063,"adult":false},{"id":152797,"adult":false},{"id":91729,"adult":false},{"id":161919,"adult":false},{"id":270707,"adult":null},{"id":25006,"adult":false},{"id":391866,"adult":false},{"id":124879,"adult":false},{"id":13409,"adult":false},{"id":159603,"adult":false},{"id":529,"adult":false},{"id":391870,"adult":false},{"id":391871,"adult":null},{"id":294172,"adult":false},{"id":391872,"adult":false},{"id":272452,"adult":false},{"id":66104,"adult":false},{"id":212871,"adult":false},{"id":299748,"adult":false},{"id":279167,"adult":false},{"id":275596,"adult":false},{"id":193492,"adult":false},{"id":287493,"adult":false},{"id":15414,"adult":false},{"id":78818,"adult":false},{"id":57913,"adult":false},{"id":105627,"adult":false},{"id":54154,"adult":false},{"id":209045,"adult":false},{"id":197913,"adult":false},{"id":201261,"adult":false},{"id":171652,"adult":false},{"id":36918,"adult":false},{"id":83490,"adult":false},{"id":280496,"adult":false},{"id":280498,"adult":false},{"id":376916,"adult":false},{"id":280499,"adult":false},{"id":266639,"adult":false},{"id":282007,"adult":false},{"id":38050,"adult":false},{"id":13908,"adult":false},{"id":187314,"adult":false},{"id":281846,"adult":false},{"id":279296,"adult":false},{"id":346551,"adult":false},{"id":270350,"adult":false},{"id":252510,"adult":false},{"id":336026,"adult":false},{"id":252734,"adult":false},{"id":301819,"adult":false},{"id":280013,"adult":false},{"id":346584,"adult":false},{"id":391873,"adult":false},{"id":294682,"adult":false},{"id":384766,"adult":false},{"id":240608,"adult":false},{"id":391874,"adult":false},{"id":339872,"adult":false},{"id":391875,"adult":false},{"id":334360,"adult":false},{"id":362019,"adult":false},{"id":291290,"adult":false},{"id":391876,"adult":false},{"id":355189,"adult":false},{"id":44205,"adult":false},{"id":362020,"adult":false},{"id":277597,"adult":false},{"id":391877,"adult":false},{"id":377342,"adult":false},{"id":775,"adult":false}],"page":65,"total_pages":118,"total_results":11761}