{"results":[{"id":352388,"adult":false},{"id":214600,"adult":false},{"id":108412,"adult":false},{"id":345186,"adult":false},{"id":412021,"adult":false},{"id":217313,"adult":false},{"id":46604,"adult":null},{"id":46596,"adult":null},{"id":46600,"adult":null},{"id":46601,"adult":null},{"id":73131,"adult":false},{"id":46603,"adult":null},{"id":46602,"adult":null},{"id":46598,"adult":null},{"id":46597,"adult":null},{"id":46599,"adult":null},{"id":237594,"adult":false},{"id":178777,"adult":false},{"id":18069,"adult":false},{"id":223319,"adult":false},{"id":429690,"adult":false},{"id":289718,"adult":false},{"id":424114,"adult":null},{"id":422477,"adult":false},{"id":429691,"adult":false},{"id":63320,"adult":false},{"id":377181,"adult":false},{"id":241663,"adult":false},{"id":2525,"adult":false},{"id":42461,"adult":false},{"id":337151,"adult":false},{"id":47914,"adult":false},{"id":208855,"adult":false},{"id":40394,"adult":false},{"id":103475,"adult":false},{"id":215405,"adult":false},{"id":110901,"adult":false},{"id":150154,"adult":false},{"id":429693,"adult":false},{"id":429694,"adult":false},{"id":201325,"adult":false},{"id":50106,"adult":false},{"id":259302,"adult":false},{"id":429695,"adult":false},{"id":238998,"adult":false},{"id":559,"adult":false},{"id":77352,"adult":false},{"id":411275,"adult":false},{"id":557,"adult":false},{"id":411549,"adult":false},{"id":8886,"adult":false},{"id":429696,"adult":false},{"id":74707,"adult":false},{"id":14968,"adult":false},{"id":13333,"adult":false},{"id":23676,"adult":false},{"id":254470,"adult":false},{"id":66746,"adult":false},{"id":42156,"adult":false},{"id":31004,"adult":false},{"id":429697,"adult":false},{"id":390,"adult":false},{"id":36087,"adult":false},{"id":118257,"adult":false},{"id":111074,"adult":false},{"id":110661,"adult":false},{"id":28307,"adult":false},{"id":11482,"adult":false},{"id":429698,"adult":false},{"id":32857,"adult":false},{"id":429699,"adult":false},{"id":30363,"adult":false},{"id":356814,"adult":false},{"id":301355,"adult":false},{"id":163660,"adult":false},{"id":266248,"adult":false},{"id":48266,"adult":false},{"id":422481,"adult":false},{"id":278867,"adult":false},{"id":429700,"adult":false},{"id":9506,"adult":false},{"id":332677,"adult":false},{"id":44635,"adult":false},{"id":429701,"adult":false},{"id":51909,"adult":false},{"id":421562,"adult":false},{"id":104223,"adult":false},{"id":15827,"adult":false},{"id":429702,"adult":false},{"id":429703,"adult":false},{"id":39037,"adult":false},{"id":5234,"adult":false},{"id":126442,"adult":false},{"id":13645,"adult":false},{"id":369061,"adult":false},{"id":26715,"adult":false},{"id":107732,"adult":null},{"id":304378,"adult":false},{"id":312440,"adult":false},{"id":65880,"adult":false}],"page":95,"total_pages":123,"total_results":12242}