{"results":[{"id":75656,"adult":false},{"id":376754,"adult":false},{"id":473,"adult":false},{"id":342464,"adult":false},{"id":294254,"adult":false},{"id":54503,"adult":false},{"id":11653,"adult":false},{"id":6171,"adult":false},{"id":83975,"adult":false},{"id":18303,"adult":false},{"id":356846,"adult":false},{"id":607,"adult":false},{"id":161818,"adult":false},{"id":356353,"adult":false},{"id":395356,"adult":false},{"id":56931,"adult":false},{"id":395986,"adult":false},{"id":375225,"adult":false},{"id":395987,"adult":false},{"id":53080,"adult":false},{"id":395988,"adult":false},{"id":39465,"adult":false},{"id":147722,"adult":false},{"id":1842,"adult":false},{"id":333352,"adult":false},{"id":395989,"adult":false},{"id":44591,"adult":false},{"id":83816,"adult":false},{"id":150476,"adult":false},{"id":43715,"adult":false},{"id":83807,"adult":false},{"id":100373,"adult":false},{"id":152060,"adult":false},{"id":280401,"adult":false},{"id":280400,"adult":false},{"id":151856,"adult":false},{"id":292632,"adult":false},{"id":30938,"adult":false},{"id":359538,"adult":false},{"id":150496,"adult":false},{"id":324450,"adult":false},{"id":314927,"adult":false},{"id":372981,"adult":false},{"id":100084,"adult":false},{"id":52720,"adult":false},{"id":376659,"adult":false},{"id":42245,"adult":false},{"id":48985,"adult":false},{"id":30641,"adult":false},{"id":23098,"adult":false},{"id":38761,"adult":false},{"id":289716,"adult":false},{"id":94577,"adult":false},{"id":363871,"adult":false},{"id":26702,"adult":false},{"id":347096,"adult":false},{"id":395990,"adult":false},{"id":263115,"adult":false},{"id":42901,"adult":false},{"id":609,"adult":false},{"id":238636,"adult":false},{"id":208284,"adult":false},{"id":31646,"adult":false},{"id":10706,"adult":false},{"id":66918,"adult":false},{"id":23202,"adult":false},{"id":395991,"adult":false},{"id":334780,"adult":false},{"id":395992,"adult":false},{"id":113399,"adult":false},{"id":94720,"adult":false},{"id":24003,"adult":false},{"id":151583,"adult":false},{"id":40039,"adult":false},{"id":395993,"adult":false},{"id":34098,"adult":false},{"id":257190,"adult":false},{"id":331383,"adult":false},{"id":74646,"adult":false},{"id":339129,"adult":false},{"id":40078,"adult":false},{"id":383559,"adult":false},{"id":135888,"adult":false},{"id":104528,"adult":false},{"id":66762,"adult":false},{"id":28452,"adult":false},{"id":395994,"adult":false},{"id":361069,"adult":false},{"id":395995,"adult":false},{"id":395996,"adult":false},{"id":15196,"adult":false},{"id":395997,"adult":false},{"id":14098,"adult":false},{"id":22049,"adult":false},{"id":270838,"adult":false},{"id":70436,"adult":false},{"id":35640,"adult":false},{"id":40016,"adult":false},{"id":299543,"adult":false},{"id":373449,"adult":false}],"page":38,"total_pages":130,"total_results":12927}