{"results":[{"id":77221,"adult":false},{"id":13920,"adult":false},{"id":12251,"adult":false},{"id":47412,"adult":false},{"id":62185,"adult":false},{"id":394264,"adult":false},{"id":28120,"adult":false},{"id":376899,"adult":false},{"id":75877,"adult":false},{"id":389829,"adult":true},{"id":353212,"adult":false},{"id":60505,"adult":false},{"id":147741,"adult":false},{"id":84628,"adult":false},{"id":3101,"adult":false},{"id":380637,"adult":false},{"id":9665,"adult":false},{"id":371387,"adult":false},{"id":9354,"adult":false},{"id":21185,"adult":false},{"id":162680,"adult":false},{"id":183046,"adult":false},{"id":362764,"adult":false},{"id":40929,"adult":false},{"id":371688,"adult":false},{"id":371745,"adult":false},{"id":373110,"adult":false},{"id":278861,"adult":false},{"id":380640,"adult":false},{"id":256454,"adult":false},{"id":358924,"adult":false},{"id":335584,"adult":false},{"id":68438,"adult":false},{"id":279605,"adult":false},{"id":338871,"adult":true},{"id":53759,"adult":false},{"id":371185,"adult":false},{"id":333528,"adult":false},{"id":367114,"adult":false},{"id":289673,"adult":false},{"id":363541,"adult":false},{"id":58100,"adult":false},{"id":394265,"adult":false},{"id":132060,"adult":false},{"id":18942,"adult":false},{"id":110097,"adult":false},{"id":331372,"adult":false},{"id":31865,"adult":false},{"id":371627,"adult":false},{"id":21173,"adult":false},{"id":11676,"adult":false},{"id":380428,"adult":false},{"id":380432,"adult":false},{"id":380430,"adult":false},{"id":380429,"adult":false},{"id":380426,"adult":false},{"id":156597,"adult":false},{"id":344789,"adult":false},{"id":390294,"adult":false},{"id":376228,"adult":false},{"id":384073,"adult":false},{"id":349453,"adult":false},{"id":394266,"adult":null},{"id":299245,"adult":false},{"id":62177,"adult":false},{"id":9433,"adult":false},{"id":380112,"adult":false},{"id":394267,"adult":false},{"id":377096,"adult":false},{"id":325766,"adult":false},{"id":384496,"adult":false},{"id":363272,"adult":false},{"id":199887,"adult":false},{"id":9427,"adult":false},{"id":11056,"adult":false},{"id":275469,"adult":false},{"id":379810,"adult":false},{"id":35849,"adult":false},{"id":26263,"adult":false},{"id":394268,"adult":false},{"id":43783,"adult":false},{"id":374426,"adult":false},{"id":101269,"adult":false},{"id":178927,"adult":false},{"id":157343,"adult":false},{"id":116439,"adult":false},{"id":81396,"adult":false},{"id":15766,"adult":false},{"id":29886,"adult":false},{"id":333772,"adult":false},{"id":117269,"adult":false},{"id":154,"adult":false},{"id":38996,"adult":false},{"id":20842,"adult":false},{"id":168,"adult":false},{"id":184710,"adult":false},{"id":172,"adult":false},{"id":394269,"adult":false},{"id":268250,"adult":false},{"id":174,"adult":false}],"page":88,"total_pages":127,"total_results":12659}