{"results":[{"id":78320,"adult":false},{"id":348678,"adult":false},{"id":362841,"adult":false},{"id":77635,"adult":false},{"id":296140,"adult":false},{"id":4858,"adult":false},{"id":317034,"adult":false},{"id":262527,"adult":false},{"id":345806,"adult":false},{"id":331416,"adult":false},{"id":395921,"adult":false},{"id":333385,"adult":false},{"id":16325,"adult":false},{"id":321258,"adult":false},{"id":71285,"adult":false},{"id":394822,"adult":false},{"id":68776,"adult":false},{"id":294269,"adult":false},{"id":348153,"adult":false},{"id":395923,"adult":false},{"id":674,"adult":false},{"id":395100,"adult":false},{"id":394805,"adult":false},{"id":395101,"adult":false},{"id":395924,"adult":false},{"id":209262,"adult":false},{"id":1857,"adult":false},{"id":200497,"adult":false},{"id":11814,"adult":false},{"id":222348,"adult":false},{"id":259838,"adult":false},{"id":393063,"adult":false},{"id":176124,"adult":false},{"id":395925,"adult":false},{"id":40466,"adult":false},{"id":283345,"adult":false},{"id":166076,"adult":false},{"id":381123,"adult":false},{"id":57326,"adult":false},{"id":188070,"adult":false},{"id":251421,"adult":false},{"id":41759,"adult":false},{"id":365966,"adult":false},{"id":33518,"adult":false},{"id":291151,"adult":false},{"id":123324,"adult":false},{"id":10063,"adult":false},{"id":11068,"adult":false},{"id":109551,"adult":false},{"id":37144,"adult":false},{"id":26180,"adult":false},{"id":86709,"adult":false},{"id":24075,"adult":false},{"id":52311,"adult":false},{"id":237816,"adult":false},{"id":255454,"adult":false},{"id":27568,"adult":false},{"id":812,"adult":false},{"id":61988,"adult":false},{"id":106288,"adult":false},{"id":51333,"adult":false},{"id":395926,"adult":false},{"id":532,"adult":false},{"id":177219,"adult":false},{"id":394139,"adult":false},{"id":395927,"adult":false},{"id":195487,"adult":false},{"id":157336,"adult":false},{"id":13503,"adult":false},{"id":345874,"adult":false},{"id":395928,"adult":false},{"id":286218,"adult":false},{"id":4337,"adult":false},{"id":1904,"adult":false},{"id":394882,"adult":false},{"id":12583,"adult":false},{"id":901,"adult":false},{"id":184935,"adult":false},{"id":395929,"adult":false},{"id":28609,"adult":false},{"id":46556,"adult":false},{"id":246655,"adult":false},{"id":30789,"adult":false},{"id":352789,"adult":false},{"id":332342,"adult":false},{"id":251749,"adult":false},{"id":341869,"adult":false},{"id":86665,"adult":false},{"id":19543,"adult":false},{"id":12262,"adult":false},{"id":205596,"adult":false},{"id":47477,"adult":false},{"id":358403,"adult":false},{"id":118340,"adult":false},{"id":108563,"adult":false},{"id":12914,"adult":false},{"id":680,"adult":false},{"id":395930,"adult":false},{"id":11086,"adult":false},{"id":36992,"adult":false}],"page":33,"total_pages":130,"total_results":12927}