{"results":[{"id":25103,"adult":false},{"id":29212,"adult":false},{"id":173185,"adult":false},{"id":351043,"adult":false},{"id":4513,"adult":false},{"id":42941,"adult":false},{"id":87870,"adult":false},{"id":2752,"adult":false},{"id":385933,"adult":false},{"id":385934,"adult":false},{"id":106646,"adult":false},{"id":5125,"adult":false},{"id":87892,"adult":false},{"id":19913,"adult":false},{"id":1271,"adult":false},{"id":286251,"adult":false},{"id":63297,"adult":false},{"id":115842,"adult":false},{"id":6072,"adult":false},{"id":3489,"adult":false},{"id":43539,"adult":false},{"id":9679,"adult":false},{"id":385935,"adult":false},{"id":40807,"adult":false},{"id":64686,"adult":false},{"id":385936,"adult":false},{"id":49494,"adult":false},{"id":10017,"adult":false},{"id":79694,"adult":false},{"id":11481,"adult":false},{"id":113091,"adult":false},{"id":201924,"adult":false},{"id":12245,"adult":false},{"id":385937,"adult":null},{"id":3291,"adult":false},{"id":385938,"adult":false},{"id":12281,"adult":false},{"id":302960,"adult":false},{"id":385939,"adult":null},{"id":385940,"adult":false},{"id":319309,"adult":false},{"id":13641,"adult":false},{"id":385941,"adult":false},{"id":385942,"adult":false},{"id":2602,"adult":false},{"id":10694,"adult":false},{"id":96089,"adult":false},{"id":384487,"adult":false},{"id":385943,"adult":false},{"id":381691,"adult":false},{"id":100271,"adult":false},{"id":385944,"adult":false},{"id":385945,"adult":false},{"id":1259,"adult":false},{"id":136350,"adult":false},{"id":11293,"adult":false},{"id":364375,"adult":false},{"id":385946,"adult":false},{"id":10934,"adult":false},{"id":287948,"adult":false},{"id":385947,"adult":true},{"id":295699,"adult":false},{"id":385948,"adult":false},{"id":338514,"adult":false},{"id":980,"adult":false},{"id":13321,"adult":false},{"id":385949,"adult":false},{"id":10875,"adult":false},{"id":11881,"adult":false},{"id":705,"adult":false},{"id":10742,"adult":false},{"id":10734,"adult":false},{"id":303991,"adult":false},{"id":10730,"adult":false},{"id":128324,"adult":false},{"id":106717,"adult":false},{"id":10652,"adult":false},{"id":223485,"adult":false},{"id":363150,"adult":false},{"id":385950,"adult":false},{"id":151708,"adult":false},{"id":385951,"adult":true},{"id":1573,"adult":false},{"id":341194,"adult":null},{"id":22023,"adult":false},{"id":384886,"adult":false},{"id":59352,"adult":false},{"id":385952,"adult":false},{"id":384889,"adult":false},{"id":115012,"adult":false},{"id":763,"adult":false},{"id":6948,"adult":false},{"id":384878,"adult":false},{"id":8068,"adult":false},{"id":384883,"adult":false},{"id":109417,"adult":false},{"id":385953,"adult":false},{"id":385954,"adult":false},{"id":281663,"adult":false},{"id":143216,"adult":false}],"page":45,"total_pages":123,"total_results":12230}