{"results":[{"id":29394,"adult":false},{"id":416822,"adult":false},{"id":416823,"adult":false},{"id":397383,"adult":false},{"id":416824,"adult":false},{"id":18881,"adult":false},{"id":387536,"adult":false},{"id":416825,"adult":false},{"id":177677,"adult":false},{"id":416826,"adult":false},{"id":341182,"adult":false},{"id":416827,"adult":false},{"id":119209,"adult":false},{"id":334918,"adult":false},{"id":122047,"adult":false},{"id":84944,"adult":false},{"id":283691,"adult":false},{"id":416828,"adult":false},{"id":153377,"adult":false},{"id":122157,"adult":false},{"id":259943,"adult":false},{"id":416829,"adult":false},{"id":9276,"adult":false},{"id":157380,"adult":false},{"id":28650,"adult":false},{"id":416830,"adult":false},{"id":416831,"adult":false},{"id":416832,"adult":false},{"id":416833,"adult":false},{"id":416834,"adult":false},{"id":366749,"adult":false},{"id":271555,"adult":false},{"id":416835,"adult":false},{"id":416836,"adult":false},{"id":416837,"adult":false},{"id":416838,"adult":false},{"id":416839,"adult":false},{"id":92133,"adult":false},{"id":416840,"adult":false},{"id":322240,"adult":false},{"id":9336,"adult":false},{"id":341653,"adult":false},{"id":341652,"adult":false},{"id":412140,"adult":false},{"id":298533,"adult":false},{"id":41191,"adult":false},{"id":416841,"adult":false},{"id":46458,"adult":false},{"id":209249,"adult":false},{"id":241013,"adult":false},{"id":162282,"adult":false},{"id":416842,"adult":false},{"id":416843,"adult":false},{"id":331308,"adult":false},{"id":416844,"adult":false},{"id":416845,"adult":false},{"id":298382,"adult":false},{"id":416846,"adult":false},{"id":260346,"adult":false},{"id":416847,"adult":false},{"id":416848,"adult":false},{"id":416849,"adult":false},{"id":416850,"adult":false},{"id":416851,"adult":false},{"id":411782,"adult":null},{"id":369862,"adult":null},{"id":334037,"adult":false},{"id":318941,"adult":false},{"id":30915,"adult":false},{"id":35180,"adult":false},{"id":30899,"adult":false},{"id":28866,"adult":false},{"id":106924,"adult":false},{"id":416852,"adult":false},{"id":30912,"adult":false},{"id":31234,"adult":false},{"id":63520,"adult":false},{"id":30911,"adult":false},{"id":63522,"adult":false},{"id":30916,"adult":false},{"id":30896,"adult":false},{"id":30884,"adult":false},{"id":35181,"adult":false},{"id":69403,"adult":false},{"id":354478,"adult":false},{"id":416853,"adult":false},{"id":41975,"adult":false},{"id":128947,"adult":false},{"id":42145,"adult":false},{"id":58008,"adult":false},{"id":416854,"adult":false},{"id":317060,"adult":false},{"id":416855,"adult":false},{"id":232455,"adult":true},{"id":416856,"adult":false},{"id":25610,"adult":false},{"id":399009,"adult":false},{"id":37455,"adult":false},{"id":383406,"adult":false},{"id":81996,"adult":false}],"page":57,"total_pages":141,"total_results":14019}