{"results":[{"id":361203,"adult":false},{"id":380683,"adult":false},{"id":19323,"adult":false},{"id":392730,"adult":false},{"id":166076,"adult":false},{"id":284294,"adult":false},{"id":27509,"adult":false},{"id":31417,"adult":false},{"id":48245,"adult":false},{"id":359634,"adult":true},{"id":55711,"adult":false},{"id":397828,"adult":false},{"id":53205,"adult":false},{"id":366762,"adult":false},{"id":397829,"adult":false},{"id":295699,"adult":false},{"id":366765,"adult":false},{"id":353266,"adult":false},{"id":229821,"adult":false},{"id":284910,"adult":false},{"id":155485,"adult":false},{"id":397830,"adult":false},{"id":338814,"adult":false},{"id":366764,"adult":false},{"id":20024,"adult":false},{"id":346170,"adult":false},{"id":388248,"adult":false},{"id":76781,"adult":false},{"id":339408,"adult":false},{"id":178092,"adult":false},{"id":117419,"adult":false},{"id":6068,"adult":false},{"id":397831,"adult":false},{"id":7974,"adult":false},{"id":230619,"adult":false},{"id":26204,"adult":false},{"id":27590,"adult":false},{"id":385017,"adult":false},{"id":82624,"adult":false},{"id":257211,"adult":false},{"id":11456,"adult":false},{"id":152787,"adult":false},{"id":397832,"adult":false},{"id":31012,"adult":false},{"id":335,"adult":false},{"id":24006,"adult":false},{"id":11814,"adult":false},{"id":54318,"adult":false},{"id":126889,"adult":false},{"id":397833,"adult":false},{"id":19556,"adult":false},{"id":228194,"adult":false},{"id":21753,"adult":false},{"id":214075,"adult":false},{"id":397834,"adult":false},{"id":62177,"adult":false},{"id":11045,"adult":false},{"id":5528,"adult":false},{"id":297270,"adult":false},{"id":76170,"adult":false},{"id":9408,"adult":false},{"id":181850,"adult":false},{"id":34113,"adult":false},{"id":290098,"adult":false},{"id":104387,"adult":false},{"id":256436,"adult":false},{"id":1580,"adult":false},{"id":277371,"adult":false},{"id":53829,"adult":false},{"id":31198,"adult":false},{"id":397835,"adult":false},{"id":39107,"adult":false},{"id":299117,"adult":false},{"id":397836,"adult":false},{"id":103602,"adult":false},{"id":131947,"adult":false},{"id":359051,"adult":false},{"id":284303,"adult":false},{"id":25062,"adult":false},{"id":397837,"adult":false},{"id":84636,"adult":false},{"id":29452,"adult":false},{"id":397838,"adult":false},{"id":48445,"adult":false},{"id":342022,"adult":false},{"id":141941,"adult":false},{"id":13653,"adult":false},{"id":263017,"adult":false},{"id":197729,"adult":false},{"id":288472,"adult":false},{"id":397839,"adult":false},{"id":338277,"adult":false},{"id":311072,"adult":false},{"id":397840,"adult":false},{"id":356618,"adult":false},{"id":397841,"adult":false},{"id":287948,"adult":false},{"id":254291,"adult":false},{"id":344071,"adult":false},{"id":68590,"adult":false}],"page":24,"total_pages":128,"total_results":12797}