{"results":[{"id":287499,"adult":false},{"id":156188,"adult":false},{"id":343701,"adult":false},{"id":145091,"adult":false},{"id":9884,"adult":false},{"id":333385,"adult":false},{"id":10204,"adult":false},{"id":388889,"adult":false},{"id":17165,"adult":false},{"id":46124,"adult":false},{"id":389141,"adult":false},{"id":15575,"adult":false},{"id":247543,"adult":false},{"id":247541,"adult":false},{"id":120985,"adult":false},{"id":388887,"adult":false},{"id":4234,"adult":false},{"id":389148,"adult":false},{"id":118091,"adult":false},{"id":391657,"adult":false},{"id":398690,"adult":false},{"id":175356,"adult":null},{"id":398691,"adult":false},{"id":18502,"adult":false},{"id":382698,"adult":false},{"id":22843,"adult":false},{"id":15137,"adult":false},{"id":384100,"adult":false},{"id":61468,"adult":false},{"id":378406,"adult":false},{"id":11219,"adult":false},{"id":188598,"adult":false},{"id":164061,"adult":false},{"id":49950,"adult":false},{"id":162215,"adult":false},{"id":251688,"adult":false},{"id":22575,"adult":false},{"id":300697,"adult":false},{"id":16395,"adult":false},{"id":270183,"adult":false},{"id":304372,"adult":false},{"id":286407,"adult":false},{"id":16135,"adult":false},{"id":162458,"adult":false},{"id":185068,"adult":false},{"id":390244,"adult":false},{"id":398692,"adult":false},{"id":75629,"adult":false},{"id":77585,"adult":false},{"id":346331,"adult":false},{"id":85474,"adult":false},{"id":253267,"adult":false},{"id":127800,"adult":false},{"id":3345,"adult":false},{"id":248179,"adult":false},{"id":9795,"adult":false},{"id":387641,"adult":false},{"id":32488,"adult":false},{"id":398693,"adult":false},{"id":186975,"adult":false},{"id":210866,"adult":false},{"id":146721,"adult":false},{"id":422,"adult":false},{"id":405,"adult":false},{"id":93833,"adult":false},{"id":398694,"adult":false},{"id":37309,"adult":false},{"id":136982,"adult":false},{"id":18871,"adult":false},{"id":379882,"adult":false},{"id":230839,"adult":false},{"id":296096,"adult":false},{"id":176406,"adult":false},{"id":398695,"adult":false},{"id":43380,"adult":false},{"id":294993,"adult":false},{"id":50966,"adult":false},{"id":43821,"adult":false},{"id":81621,"adult":false},{"id":392800,"adult":false},{"id":180897,"adult":false},{"id":398696,"adult":false},{"id":49259,"adult":false},{"id":20000,"adult":false},{"id":398697,"adult":false},{"id":216876,"adult":false},{"id":149429,"adult":false},{"id":398698,"adult":false},{"id":36696,"adult":false},{"id":79125,"adult":false},{"id":285580,"adult":false},{"id":398699,"adult":false},{"id":18928,"adult":false},{"id":254012,"adult":false},{"id":75004,"adult":false},{"id":398700,"adult":false},{"id":340629,"adult":false},{"id":81167,"adult":false},{"id":374002,"adult":false},{"id":16198,"adult":false}],"page":77,"total_pages":128,"total_results":12797}