{"results":[{"id":5393,"adult":false},{"id":387037,"adult":false},{"id":16119,"adult":false},{"id":10030,"adult":false},{"id":14128,"adult":false},{"id":374694,"adult":false},{"id":11497,"adult":false},{"id":387038,"adult":false},{"id":240681,"adult":false},{"id":299322,"adult":false},{"id":24918,"adult":false},{"id":26689,"adult":false},{"id":117878,"adult":false},{"id":347126,"adult":false},{"id":387039,"adult":false},{"id":15653,"adult":false},{"id":336833,"adult":false},{"id":106143,"adult":false},{"id":367197,"adult":false},{"id":14848,"adult":false},{"id":189597,"adult":false},{"id":27063,"adult":true},{"id":366267,"adult":false},{"id":340881,"adult":false},{"id":302026,"adult":false},{"id":52395,"adult":false},{"id":11972,"adult":false},{"id":360605,"adult":false},{"id":387040,"adult":false},{"id":266102,"adult":false},{"id":135890,"adult":false},{"id":61337,"adult":false},{"id":226360,"adult":false},{"id":62107,"adult":false},{"id":387041,"adult":false},{"id":36430,"adult":false},{"id":387042,"adult":false},{"id":41714,"adult":false},{"id":2928,"adult":false},{"id":176693,"adult":false},{"id":9559,"adult":false},{"id":215131,"adult":false},{"id":387043,"adult":false},{"id":387044,"adult":false},{"id":387045,"adult":false},{"id":124042,"adult":false},{"id":387046,"adult":false},{"id":387047,"adult":false},{"id":387048,"adult":false},{"id":14157,"adult":false},{"id":387049,"adult":false},{"id":348390,"adult":false},{"id":42734,"adult":false},{"id":387050,"adult":false},{"id":374720,"adult":false},{"id":387051,"adult":false},{"id":384779,"adult":false},{"id":387052,"adult":false},{"id":315575,"adult":false},{"id":387053,"adult":false},{"id":73829,"adult":false},{"id":387054,"adult":false},{"id":283568,"adult":false},{"id":48832,"adult":false},{"id":68339,"adult":false},{"id":94996,"adult":false},{"id":287628,"adult":false},{"id":276905,"adult":false},{"id":81699,"adult":false},{"id":80199,"adult":false},{"id":44706,"adult":false},{"id":52635,"adult":false},{"id":286192,"adult":false},{"id":387055,"adult":false},{"id":143228,"adult":false},{"id":150989,"adult":false},{"id":251739,"adult":false},{"id":130932,"adult":false},{"id":150993,"adult":false},{"id":150992,"adult":false},{"id":150991,"adult":false},{"id":384450,"adult":false},{"id":387056,"adult":false},{"id":387057,"adult":false},{"id":223707,"adult":true},{"id":314676,"adult":false},{"id":22480,"adult":false},{"id":298721,"adult":false},{"id":387058,"adult":null},{"id":201642,"adult":false},{"id":291567,"adult":false},{"id":273786,"adult":false},{"id":197011,"adult":false},{"id":309062,"adult":false},{"id":118305,"adult":false},{"id":297727,"adult":false},{"id":215323,"adult":false},{"id":135416,"adult":false},{"id":387059,"adult":false},{"id":49650,"adult":false}],"page":101,"total_pages":123,"total_results":12230}