{"results":[{"id":239471,"adult":false},{"id":171586,"adult":false},{"id":63335,"adult":false},{"id":401151,"adult":false},{"id":36971,"adult":false},{"id":177377,"adult":false},{"id":315475,"adult":false},{"id":46103,"adult":false},{"id":74451,"adult":false},{"id":170522,"adult":false},{"id":323027,"adult":false},{"id":404793,"adult":false},{"id":121606,"adult":false},{"id":374440,"adult":false},{"id":401246,"adult":false},{"id":42592,"adult":false},{"id":342927,"adult":false},{"id":30642,"adult":false},{"id":52625,"adult":false},{"id":23126,"adult":false},{"id":38870,"adult":false},{"id":404794,"adult":false},{"id":404795,"adult":false},{"id":52621,"adult":false},{"id":403862,"adult":false},{"id":366133,"adult":false},{"id":8419,"adult":false},{"id":141605,"adult":false},{"id":9445,"adult":false},{"id":335037,"adult":false},{"id":52618,"adult":false},{"id":763,"adult":false},{"id":7340,"adult":false},{"id":1830,"adult":false},{"id":389857,"adult":false},{"id":15196,"adult":false},{"id":52520,"adult":false},{"id":64038,"adult":false},{"id":24341,"adult":false},{"id":31592,"adult":false},{"id":29954,"adult":false},{"id":2518,"adult":false},{"id":11351,"adult":false},{"id":391274,"adult":false},{"id":9638,"adult":false},{"id":324552,"adult":false},{"id":311054,"adult":false},{"id":13939,"adult":false},{"id":199278,"adult":false},{"id":80970,"adult":false},{"id":10925,"adult":false},{"id":290102,"adult":false},{"id":64349,"adult":false},{"id":13122,"adult":false},{"id":404796,"adult":false},{"id":57544,"adult":false},{"id":363540,"adult":false},{"id":196480,"adult":false},{"id":371880,"adult":false},{"id":404797,"adult":false},{"id":9282,"adult":false},{"id":404798,"adult":false},{"id":15158,"adult":false},{"id":25050,"adult":false},{"id":36949,"adult":false},{"id":227968,"adult":false},{"id":404799,"adult":false},{"id":243752,"adult":false},{"id":363409,"adult":false},{"id":308369,"adult":false},{"id":315062,"adult":false},{"id":404804,"adult":false},{"id":404805,"adult":false},{"id":250989,"adult":false},{"id":299498,"adult":false},{"id":267660,"adult":false},{"id":404806,"adult":false},{"id":404807,"adult":false},{"id":65227,"adult":false},{"id":404808,"adult":false},{"id":143495,"adult":false},{"id":292422,"adult":false},{"id":289012,"adult":false},{"id":404810,"adult":false},{"id":404811,"adult":false},{"id":108839,"adult":false},{"id":51651,"adult":false},{"id":92779,"adult":false},{"id":250984,"adult":false},{"id":48616,"adult":false},{"id":390377,"adult":false},{"id":23989,"adult":false},{"id":384150,"adult":false},{"id":78362,"adult":false},{"id":51644,"adult":false},{"id":386501,"adult":false},{"id":404812,"adult":false},{"id":51672,"adult":false},{"id":339060,"adult":false},{"id":307006,"adult":false}],"page":32,"total_pages":112,"total_results":11190}