{"results":[{"id":377591,"adult":false},{"id":214339,"adult":true},{"id":79838,"adult":false},{"id":188202,"adult":false},{"id":67143,"adult":false},{"id":377592,"adult":false},{"id":243811,"adult":false},{"id":377593,"adult":false},{"id":343919,"adult":true},{"id":2080,"adult":false},{"id":323242,"adult":true},{"id":41437,"adult":false},{"id":377594,"adult":false},{"id":146301,"adult":false},{"id":198315,"adult":false},{"id":124916,"adult":false},{"id":247905,"adult":false},{"id":300113,"adult":false},{"id":84232,"adult":true},{"id":289304,"adult":false},{"id":65113,"adult":true},{"id":15019,"adult":false},{"id":377595,"adult":false},{"id":377596,"adult":null},{"id":29884,"adult":false},{"id":291819,"adult":true},{"id":140601,"adult":false},{"id":9532,"adult":false},{"id":74892,"adult":true},{"id":374962,"adult":false},{"id":285191,"adult":false},{"id":370076,"adult":false},{"id":241843,"adult":false},{"id":376916,"adult":false},{"id":291870,"adult":false},{"id":10229,"adult":false},{"id":376560,"adult":false},{"id":334265,"adult":false},{"id":1911,"adult":false},{"id":377597,"adult":false},{"id":377598,"adult":false},{"id":330636,"adult":false},{"id":205584,"adult":false},{"id":377599,"adult":false},{"id":350845,"adult":false},{"id":42489,"adult":false},{"id":377600,"adult":false},{"id":166623,"adult":false},{"id":377601,"adult":false},{"id":310131,"adult":false},{"id":313922,"adult":false},{"id":8587,"adult":false},{"id":376282,"adult":false},{"id":76341,"adult":false},{"id":293858,"adult":false},{"id":377602,"adult":null},{"id":276802,"adult":null},{"id":9358,"adult":false},{"id":376650,"adult":false},{"id":323675,"adult":false},{"id":47933,"adult":false},{"id":304378,"adult":false},{"id":293660,"adult":false},{"id":68735,"adult":false},{"id":64682,"adult":false},{"id":377603,"adult":false},{"id":121869,"adult":false},{"id":470,"adult":false},{"id":25472,"adult":false},{"id":1900,"adult":false},{"id":203822,"adult":false},{"id":45958,"adult":false},{"id":237242,"adult":false},{"id":234888,"adult":false},{"id":26317,"adult":false},{"id":235130,"adult":false},{"id":235834,"adult":false},{"id":377604,"adult":false},{"id":235905,"adult":false},{"id":377605,"adult":false},{"id":20848,"adult":false},{"id":235964,"adult":false},{"id":376922,"adult":false},{"id":237160,"adult":false},{"id":237046,"adult":false},{"id":235563,"adult":false},{"id":131279,"adult":false},{"id":92227,"adult":false},{"id":18976,"adult":false},{"id":217150,"adult":false},{"id":261953,"adult":false},{"id":135420,"adult":false},{"id":237123,"adult":false},{"id":1262,"adult":false},{"id":40616,"adult":false},{"id":235132,"adult":false},{"id":287161,"adult":null},{"id":73686,"adult":false},{"id":376902,"adult":false},{"id":265036,"adult":false}],"page":8,"total_pages":226,"total_results":22514}