{"results":[{"id":27744,"adult":false},{"id":41208,"adult":false},{"id":394250,"adult":false},{"id":96466,"adult":false},{"id":24097,"adult":false},{"id":1852,"adult":false},{"id":13809,"adult":false},{"id":3009,"adult":false},{"id":394251,"adult":false},{"id":303680,"adult":false},{"id":63178,"adult":false},{"id":394252,"adult":false},{"id":84949,"adult":false},{"id":16938,"adult":false},{"id":394253,"adult":false},{"id":150314,"adult":false},{"id":394254,"adult":false},{"id":10673,"adult":false},{"id":10205,"adult":false},{"id":61964,"adult":false},{"id":394255,"adult":false},{"id":63360,"adult":false},{"id":394256,"adult":null},{"id":394257,"adult":false},{"id":394258,"adult":false},{"id":117904,"adult":false},{"id":38269,"adult":false},{"id":12144,"adult":false},{"id":388757,"adult":false},{"id":60781,"adult":false},{"id":388764,"adult":false},{"id":382572,"adult":false},{"id":633,"adult":false},{"id":203222,"adult":false},{"id":70351,"adult":false},{"id":32097,"adult":false},{"id":92706,"adult":false},{"id":394259,"adult":false},{"id":54898,"adult":false},{"id":394260,"adult":false},{"id":384411,"adult":false},{"id":353768,"adult":false},{"id":18840,"adult":false},{"id":254470,"adult":false},{"id":394261,"adult":false},{"id":232572,"adult":false},{"id":11691,"adult":false},{"id":242299,"adult":false},{"id":11168,"adult":false},{"id":183894,"adult":false},{"id":746,"adult":false},{"id":272693,"adult":false},{"id":245168,"adult":false},{"id":10533,"adult":false},{"id":394262,"adult":false},{"id":104906,"adult":false},{"id":81005,"adult":false},{"id":160642,"adult":false},{"id":394263,"adult":false},{"id":31943,"adult":false},{"id":124480,"adult":false},{"id":12266,"adult":false},{"id":328430,"adult":false},{"id":23615,"adult":false},{"id":22614,"adult":false},{"id":161822,"adult":false},{"id":86608,"adult":false},{"id":29094,"adult":false},{"id":2636,"adult":false},{"id":18420,"adult":false},{"id":153743,"adult":false},{"id":28558,"adult":false},{"id":27130,"adult":false},{"id":358807,"adult":false},{"id":381113,"adult":false},{"id":392222,"adult":false},{"id":10651,"adult":false},{"id":381064,"adult":false},{"id":392271,"adult":false},{"id":984,"adult":false},{"id":345367,"adult":false},{"id":20187,"adult":false},{"id":378695,"adult":false},{"id":385707,"adult":false},{"id":15417,"adult":false},{"id":383915,"adult":false},{"id":10648,"adult":false},{"id":10649,"adult":false},{"id":348967,"adult":false},{"id":373053,"adult":false},{"id":10209,"adult":false},{"id":380116,"adult":false},{"id":179711,"adult":false},{"id":370150,"adult":false},{"id":380026,"adult":false},{"id":10876,"adult":false},{"id":383193,"adult":null},{"id":11889,"adult":false},{"id":298408,"adult":false},{"id":336882,"adult":false}],"page":87,"total_pages":127,"total_results":12659}