{"results":[{"id":299687,"adult":false},{"id":9966,"adult":false},{"id":337012,"adult":false},{"id":118667,"adult":false},{"id":118668,"adult":false},{"id":11356,"adult":false},{"id":379731,"adult":false},{"id":310928,"adult":false},{"id":268920,"adult":false},{"id":12245,"adult":false},{"id":70386,"adult":false},{"id":51111,"adult":false},{"id":169881,"adult":false},{"id":56652,"adult":false},{"id":118670,"adult":false},{"id":11770,"adult":false},{"id":118669,"adult":false},{"id":49808,"adult":false},{"id":15915,"adult":false},{"id":395531,"adult":false},{"id":187383,"adult":false},{"id":360606,"adult":false},{"id":121677,"adult":false},{"id":23592,"adult":false},{"id":159109,"adult":false},{"id":32152,"adult":false},{"id":135269,"adult":false},{"id":51409,"adult":false},{"id":133601,"adult":false},{"id":376459,"adult":false},{"id":40580,"adult":false},{"id":1644,"adult":false},{"id":27460,"adult":false},{"id":70590,"adult":false},{"id":350725,"adult":false},{"id":390161,"adult":false},{"id":395532,"adult":false},{"id":27066,"adult":false},{"id":333030,"adult":false},{"id":47761,"adult":false},{"id":92395,"adult":false},{"id":50531,"adult":false},{"id":22556,"adult":false},{"id":256626,"adult":false},{"id":364137,"adult":false},{"id":329809,"adult":false},{"id":370978,"adult":false},{"id":109,"adult":false},{"id":271206,"adult":false},{"id":329805,"adult":false},{"id":12101,"adult":false},{"id":110,"adult":false},{"id":9017,"adult":false},{"id":395533,"adult":false},{"id":395534,"adult":false},{"id":63188,"adult":false},{"id":108,"adult":false},{"id":52936,"adult":false},{"id":11559,"adult":false},{"id":388532,"adult":null},{"id":275187,"adult":false},{"id":52141,"adult":false},{"id":358198,"adult":false},{"id":5780,"adult":false},{"id":13902,"adult":false},{"id":136797,"adult":false},{"id":27845,"adult":false},{"id":39266,"adult":false},{"id":149110,"adult":false},{"id":269492,"adult":false},{"id":26675,"adult":false},{"id":207936,"adult":false},{"id":74026,"adult":false},{"id":26850,"adult":false},{"id":395535,"adult":false},{"id":395536,"adult":false},{"id":16131,"adult":false},{"id":50268,"adult":false},{"id":189703,"adult":false},{"id":9077,"adult":false},{"id":42603,"adult":false},{"id":27776,"adult":true},{"id":50269,"adult":false},{"id":100512,"adult":false},{"id":9493,"adult":false},{"id":359787,"adult":false},{"id":73216,"adult":false},{"id":37265,"adult":false},{"id":353463,"adult":false},{"id":16350,"adult":false},{"id":68174,"adult":false},{"id":30301,"adult":false},{"id":30287,"adult":true},{"id":181009,"adult":false},{"id":14034,"adult":false},{"id":27063,"adult":true},{"id":195674,"adult":false},{"id":242033,"adult":false},{"id":17137,"adult":false},{"id":13127,"adult":false}],"page":6,"total_pages":130,"total_results":12927}