{"results":[{"id":18355,"adult":false},{"id":431532,"adult":false},{"id":431533,"adult":false},{"id":5852,"adult":false},{"id":414767,"adult":false},{"id":27895,"adult":false},{"id":429598,"adult":false},{"id":323029,"adult":false},{"id":417758,"adult":false},{"id":389054,"adult":false},{"id":431534,"adult":false},{"id":431535,"adult":false},{"id":431536,"adult":false},{"id":394433,"adult":false},{"id":431538,"adult":false},{"id":431539,"adult":false},{"id":273058,"adult":false},{"id":429662,"adult":false},{"id":356320,"adult":false},{"id":306745,"adult":false},{"id":404578,"adult":false},{"id":431540,"adult":false},{"id":324174,"adult":false},{"id":353163,"adult":false},{"id":20894,"adult":false},{"id":259915,"adult":false},{"id":324263,"adult":false},{"id":392269,"adult":false},{"id":244117,"adult":false},{"id":39100,"adult":false},{"id":288710,"adult":false},{"id":404378,"adult":false},{"id":342208,"adult":false},{"id":270644,"adult":false},{"id":431541,"adult":false},{"id":362610,"adult":false},{"id":237303,"adult":false},{"id":294459,"adult":false},{"id":296879,"adult":false},{"id":358505,"adult":false},{"id":278656,"adult":false},{"id":431542,"adult":false},{"id":71864,"adult":false},{"id":431543,"adult":false},{"id":356733,"adult":false},{"id":272511,"adult":false},{"id":268603,"adult":false},{"id":9045,"adult":false},{"id":281532,"adult":false},{"id":14753,"adult":false},{"id":251375,"adult":false},{"id":115821,"adult":false},{"id":431544,"adult":false},{"id":8849,"adult":false},{"id":268733,"adult":false},{"id":37849,"adult":false},{"id":298924,"adult":false},{"id":311157,"adult":false},{"id":41010,"adult":false},{"id":55248,"adult":false},{"id":352205,"adult":false},{"id":413620,"adult":false},{"id":57612,"adult":false},{"id":216295,"adult":false},{"id":391431,"adult":false},{"id":179494,"adult":false},{"id":103132,"adult":false},{"id":209103,"adult":false},{"id":41667,"adult":false},{"id":366568,"adult":false},{"id":302528,"adult":false},{"id":300466,"adult":false},{"id":169869,"adult":false},{"id":56896,"adult":false},{"id":24075,"adult":false},{"id":411197,"adult":false},{"id":43423,"adult":false},{"id":206400,"adult":false},{"id":294992,"adult":false},{"id":77948,"adult":false},{"id":46226,"adult":false},{"id":158916,"adult":false},{"id":267409,"adult":false},{"id":351398,"adult":false},{"id":277650,"adult":false},{"id":226875,"adult":false},{"id":17899,"adult":false},{"id":180762,"adult":false},{"id":13075,"adult":false},{"id":470,"adult":false},{"id":10452,"adult":false},{"id":382754,"adult":false},{"id":10644,"adult":false},{"id":314449,"adult":false},{"id":43619,"adult":false},{"id":125862,"adult":false},{"id":13853,"adult":false},{"id":138717,"adult":false},{"id":45791,"adult":false},{"id":9709,"adult":false}],"page":87,"total_pages":114,"total_results":11339}