{"results":[{"id":11707,"adult":false},{"id":4247,"adult":false},{"id":259416,"adult":false},{"id":314390,"adult":null},{"id":261273,"adult":false},{"id":322061,"adult":false},{"id":239573,"adult":false},{"id":4248,"adult":false},{"id":298032,"adult":false},{"id":377166,"adult":false},{"id":276740,"adult":false},{"id":321235,"adult":false},{"id":30871,"adult":false},{"id":200713,"adult":false},{"id":349119,"adult":false},{"id":4256,"adult":false},{"id":36696,"adult":false},{"id":284289,"adult":false},{"id":283972,"adult":false},{"id":166636,"adult":false},{"id":24782,"adult":false},{"id":113924,"adult":false},{"id":4257,"adult":false},{"id":12244,"adult":false},{"id":9837,"adult":false},{"id":121992,"adult":false},{"id":10501,"adult":false},{"id":4258,"adult":false},{"id":373918,"adult":false},{"id":10555,"adult":false},{"id":81188,"adult":false},{"id":14411,"adult":false},{"id":86115,"adult":false},{"id":377167,"adult":null},{"id":151211,"adult":false},{"id":11169,"adult":false},{"id":50341,"adult":false},{"id":121824,"adult":false},{"id":288395,"adult":false},{"id":377168,"adult":false},{"id":377169,"adult":false},{"id":319389,"adult":false},{"id":65203,"adult":false},{"id":168055,"adult":false},{"id":377170,"adult":false},{"id":42647,"adult":false},{"id":340387,"adult":true},{"id":373737,"adult":true},{"id":23201,"adult":false},{"id":219700,"adult":true},{"id":4513,"adult":false},{"id":377171,"adult":false},{"id":352258,"adult":false},{"id":310523,"adult":false},{"id":187017,"adult":false},{"id":278597,"adult":false},{"id":361340,"adult":false},{"id":13550,"adult":false},{"id":47647,"adult":false},{"id":53165,"adult":false},{"id":48139,"adult":false},{"id":66657,"adult":false},{"id":9502,"adult":false},{"id":6961,"adult":false},{"id":221244,"adult":false},{"id":1712,"adult":false},{"id":177622,"adult":false},{"id":330220,"adult":false},{"id":23023,"adult":false},{"id":9016,"adult":false},{"id":27205,"adult":false},{"id":10748,"adult":false},{"id":377172,"adult":false},{"id":377173,"adult":false},{"id":1429,"adult":false},{"id":76757,"adult":false},{"id":377174,"adult":false},{"id":377177,"adult":null},{"id":10468,"adult":false},{"id":377178,"adult":false},{"id":39197,"adult":false},{"id":40977,"adult":false},{"id":377179,"adult":false},{"id":26850,"adult":false},{"id":45912,"adult":false},{"id":149,"adult":false},{"id":377180,"adult":false},{"id":299554,"adult":null},{"id":13809,"adult":false},{"id":4196,"adult":false},{"id":125660,"adult":false},{"id":289481,"adult":false},{"id":377181,"adult":false},{"id":377182,"adult":false},{"id":109410,"adult":false},{"id":354188,"adult":false},{"id":12261,"adult":false},{"id":300166,"adult":false},{"id":114989,"adult":null},{"id":368830,"adult":false}],"page":109,"total_pages":121,"total_results":12060}