{"results":[{"id":14979,"adult":false},{"id":41966,"adult":false},{"id":360880,"adult":false},{"id":117880,"adult":false},{"id":335902,"adult":false},{"id":13190,"adult":false},{"id":177648,"adult":false},{"id":83957,"adult":false},{"id":401395,"adult":false},{"id":43931,"adult":false},{"id":33336,"adult":false},{"id":335582,"adult":false},{"id":9621,"adult":false},{"id":175295,"adult":false},{"id":401396,"adult":false},{"id":52833,"adult":false},{"id":401398,"adult":false},{"id":401399,"adult":false},{"id":401400,"adult":false},{"id":401401,"adult":false},{"id":401402,"adult":false},{"id":401403,"adult":false},{"id":271283,"adult":false},{"id":62215,"adult":false},{"id":401404,"adult":false},{"id":401405,"adult":false},{"id":163879,"adult":false},{"id":178295,"adult":false},{"id":391710,"adult":false},{"id":21168,"adult":false},{"id":401406,"adult":false},{"id":261580,"adult":false},{"id":269469,"adult":false},{"id":261937,"adult":false},{"id":40180,"adult":false},{"id":227992,"adult":false},{"id":93669,"adult":false},{"id":31551,"adult":false},{"id":71055,"adult":false},{"id":76322,"adult":false},{"id":95192,"adult":false},{"id":401407,"adult":false},{"id":112016,"adult":false},{"id":401408,"adult":false},{"id":297133,"adult":false},{"id":95015,"adult":false},{"id":401409,"adult":false},{"id":297134,"adult":false},{"id":101437,"adult":false},{"id":385031,"adult":false},{"id":401410,"adult":false},{"id":20863,"adult":false},{"id":9573,"adult":false},{"id":6623,"adult":false},{"id":390497,"adult":false},{"id":401411,"adult":false},{"id":13648,"adult":false},{"id":864,"adult":false},{"id":7978,"adult":false},{"id":76640,"adult":false},{"id":79526,"adult":false},{"id":372411,"adult":false},{"id":283235,"adult":false},{"id":316099,"adult":false},{"id":401412,"adult":false},{"id":401413,"adult":false},{"id":401414,"adult":false},{"id":401415,"adult":null},{"id":35453,"adult":false},{"id":5174,"adult":false},{"id":167,"adult":false},{"id":170809,"adult":false},{"id":401416,"adult":false},{"id":31472,"adult":false},{"id":310798,"adult":null},{"id":13127,"adult":false},{"id":401418,"adult":false},{"id":44880,"adult":false},{"id":9980,"adult":false},{"id":401419,"adult":false},{"id":1656,"adult":false},{"id":30829,"adult":false},{"id":92809,"adult":false},{"id":31243,"adult":false},{"id":147084,"adult":false},{"id":401420,"adult":false},{"id":362559,"adult":false},{"id":10066,"adult":false},{"id":390679,"adult":false},{"id":116884,"adult":false},{"id":339362,"adult":false},{"id":28794,"adult":false},{"id":110708,"adult":null},{"id":16404,"adult":false},{"id":27088,"adult":false},{"id":30287,"adult":true},{"id":193524,"adult":false},{"id":62463,"adult":false},{"id":369312,"adult":false},{"id":113608,"adult":false}],"page":81,"total_pages":116,"total_results":11568}