{"results":[{"id":268920,"adult":false},{"id":426604,"adult":false},{"id":92645,"adult":false},{"id":254172,"adult":false},{"id":200505,"adult":false},{"id":426605,"adult":false},{"id":107660,"adult":false},{"id":124905,"adult":false},{"id":5735,"adult":false},{"id":45272,"adult":false},{"id":70981,"adult":false},{"id":77265,"adult":false},{"id":99949,"adult":false},{"id":146083,"adult":false},{"id":90820,"adult":false},{"id":387893,"adult":false},{"id":8329,"adult":false},{"id":426606,"adult":false},{"id":346804,"adult":false},{"id":27860,"adult":false},{"id":10664,"adult":false},{"id":1256,"adult":false},{"id":58278,"adult":false},{"id":426607,"adult":false},{"id":71377,"adult":false},{"id":117897,"adult":false},{"id":15028,"adult":false},{"id":120106,"adult":false},{"id":20453,"adult":false},{"id":65096,"adult":false},{"id":2832,"adult":false},{"id":422281,"adult":false},{"id":57745,"adult":false},{"id":11327,"adult":false},{"id":257648,"adult":false},{"id":426608,"adult":null},{"id":2123,"adult":false},{"id":103130,"adult":false},{"id":314062,"adult":false},{"id":426609,"adult":false},{"id":4587,"adult":false},{"id":426610,"adult":false},{"id":47336,"adult":false},{"id":423033,"adult":false},{"id":318582,"adult":false},{"id":50698,"adult":false},{"id":1271,"adult":false},{"id":369168,"adult":false},{"id":91473,"adult":false},{"id":123678,"adult":false},{"id":53182,"adult":false},{"id":103869,"adult":false},{"id":87817,"adult":false},{"id":194,"adult":false},{"id":426611,"adult":false},{"id":18691,"adult":false},{"id":24505,"adult":false},{"id":3290,"adult":false},{"id":43776,"adult":false},{"id":6172,"adult":false},{"id":35862,"adult":false},{"id":390512,"adult":false},{"id":125736,"adult":false},{"id":70846,"adult":false},{"id":196139,"adult":false},{"id":12444,"adult":false},{"id":12445,"adult":false},{"id":257445,"adult":false},{"id":426612,"adult":false},{"id":55781,"adult":false},{"id":6391,"adult":false},{"id":68626,"adult":false},{"id":426613,"adult":false},{"id":2002,"adult":false},{"id":250629,"adult":false},{"id":426614,"adult":false},{"id":355086,"adult":false},{"id":41158,"adult":false},{"id":180299,"adult":false},{"id":25786,"adult":false},{"id":426615,"adult":false},{"id":396354,"adult":false},{"id":340663,"adult":false},{"id":343611,"adult":false},{"id":5062,"adult":false},{"id":1872,"adult":false},{"id":127711,"adult":false},{"id":267708,"adult":false},{"id":301444,"adult":false},{"id":81994,"adult":false},{"id":48138,"adult":false},{"id":31589,"adult":false},{"id":81996,"adult":false},{"id":426616,"adult":false},{"id":272119,"adult":false},{"id":267710,"adult":false},{"id":81995,"adult":false},{"id":25944,"adult":false},{"id":27063,"adult":true},{"id":388596,"adult":false}],"page":37,"total_pages":119,"total_results":11862}