{"results":[{"id":412163,"adult":false},{"id":421564,"adult":false},{"id":86458,"adult":false},{"id":152846,"adult":false},{"id":380358,"adult":false},{"id":227432,"adult":false},{"id":695,"adult":false},{"id":52917,"adult":false},{"id":364821,"adult":false},{"id":66842,"adult":false},{"id":354791,"adult":false},{"id":424399,"adult":false},{"id":370528,"adult":false},{"id":181160,"adult":false},{"id":394287,"adult":false},{"id":258489,"adult":false},{"id":12547,"adult":false},{"id":75780,"adult":false},{"id":62909,"adult":false},{"id":324849,"adult":false},{"id":407451,"adult":false},{"id":412632,"adult":false},{"id":652,"adult":false},{"id":223286,"adult":false},{"id":119201,"adult":false},{"id":421854,"adult":false},{"id":57703,"adult":false},{"id":422263,"adult":false},{"id":424400,"adult":false},{"id":75612,"adult":false},{"id":847,"adult":false},{"id":50221,"adult":false},{"id":424401,"adult":false},{"id":318850,"adult":false},{"id":289171,"adult":false},{"id":155,"adult":false},{"id":372564,"adult":null},{"id":77561,"adult":false},{"id":368413,"adult":false},{"id":51486,"adult":false},{"id":283872,"adult":false},{"id":424402,"adult":false},{"id":299536,"adult":false},{"id":424403,"adult":false},{"id":413279,"adult":false},{"id":398718,"adult":false},{"id":411909,"adult":false},{"id":14362,"adult":false},{"id":892,"adult":false},{"id":2122,"adult":false},{"id":196901,"adult":false},{"id":381975,"adult":false},{"id":32083,"adult":false},{"id":10528,"adult":false},{"id":373470,"adult":false},{"id":9947,"adult":false},{"id":78486,"adult":false},{"id":9759,"adult":false},{"id":424404,"adult":false},{"id":3346,"adult":false},{"id":190392,"adult":false},{"id":373478,"adult":false},{"id":47821,"adult":false},{"id":173299,"adult":false},{"id":14667,"adult":false},{"id":413532,"adult":false},{"id":35961,"adult":false},{"id":58574,"adult":false},{"id":424405,"adult":false},{"id":226251,"adult":false},{"id":320413,"adult":false},{"id":4457,"adult":false},{"id":10537,"adult":false},{"id":424406,"adult":false},{"id":213503,"adult":false},{"id":424407,"adult":false},{"id":53970,"adult":false},{"id":37866,"adult":false},{"id":365618,"adult":false},{"id":41588,"adult":false},{"id":358893,"adult":false},{"id":367898,"adult":null},{"id":9065,"adult":false},{"id":112708,"adult":false},{"id":376402,"adult":false},{"id":15413,"adult":false},{"id":38357,"adult":false},{"id":10380,"adult":false},{"id":383522,"adult":false},{"id":25221,"adult":false},{"id":219182,"adult":false},{"id":3784,"adult":false},{"id":25723,"adult":false},{"id":344742,"adult":false},{"id":11284,"adult":false},{"id":424408,"adult":false},{"id":266199,"adult":false},{"id":121814,"adult":false},{"id":264866,"adult":false},{"id":366795,"adult":false}],"page":38,"total_pages":120,"total_results":11922}