{"results":[{"id":34530,"adult":false},{"id":24940,"adult":false},{"id":38874,"adult":false},{"id":32812,"adult":false},{"id":13276,"adult":false},{"id":16440,"adult":false},{"id":7500,"adult":false},{"id":30623,"adult":false},{"id":3101,"adult":false},{"id":4538,"adult":false},{"id":14048,"adult":false},{"id":30943,"adult":false},{"id":57425,"adult":false},{"id":58929,"adult":false},{"id":80829,"adult":false},{"id":70072,"adult":false},{"id":105292,"adult":false},{"id":18828,"adult":false},{"id":9596,"adult":false},{"id":17108,"adult":false},{"id":170689,"adult":false},{"id":37451,"adult":false},{"id":37905,"adult":false},{"id":26740,"adult":false},{"id":149087,"adult":false},{"id":47406,"adult":false},{"id":8193,"adult":false},{"id":98368,"adult":false},{"id":78690,"adult":false},{"id":44745,"adult":false},{"id":85546,"adult":false},{"id":14536,"adult":false},{"id":27085,"adult":false},{"id":13554,"adult":false},{"id":294496,"adult":false},{"id":10597,"adult":false},{"id":33450,"adult":false},{"id":33800,"adult":false},{"id":15856,"adult":false},{"id":4974,"adult":false},{"id":229594,"adult":false},{"id":9559,"adult":false},{"id":49429,"adult":false},{"id":12197,"adult":false},{"id":39242,"adult":false},{"id":37771,"adult":false},{"id":37712,"adult":false},{"id":169091,"adult":false},{"id":45650,"adult":false},{"id":42307,"adult":false},{"id":256439,"adult":false},{"id":13578,"adult":false},{"id":271565,"adult":false},{"id":28013,"adult":false},{"id":47599,"adult":false},{"id":53237,"adult":false},{"id":78047,"adult":false},{"id":34583,"adult":false},{"id":348768,"adult":false},{"id":83186,"adult":false},{"id":26741,"adult":false},{"id":19877,"adult":false},{"id":74406,"adult":false},{"id":16427,"adult":false},{"id":130975,"adult":false},{"id":1720,"adult":false},{"id":81250,"adult":false},{"id":37010,"adult":false},{"id":272435,"adult":false},{"id":10870,"adult":false},{"id":45953,"adult":false},{"id":19384,"adult":false},{"id":1918,"adult":false},{"id":40928,"adult":false},{"id":14196,"adult":false},{"id":34730,"adult":false},{"id":403,"adult":false},{"id":11020,"adult":false},{"id":99831,"adult":false},{"id":2007,"adult":false},{"id":9825,"adult":false},{"id":10103,"adult":false},{"id":51384,"adult":false},{"id":26723,"adult":false},{"id":55872,"adult":false},{"id":359983,"adult":false},{"id":55179,"adult":false},{"id":42289,"adult":false},{"id":10447,"adult":false},{"id":128106,"adult":false},{"id":2990,"adult":false},{"id":64880,"adult":false},{"id":271185,"adult":false},{"id":30942,"adult":false},{"id":6522,"adult":false},{"id":406,"adult":false},{"id":12443,"adult":false},{"id":29993,"adult":false},{"id":24001,"adult":false},{"id":36293,"adult":false}],"page":131,"total_pages":226,"total_results":22514}