{"results":[{"id":28058,"adult":false},{"id":293205,"adult":false},{"id":203333,"adult":false},{"id":79848,"adult":false},{"id":333270,"adult":false},{"id":399135,"adult":false},{"id":308741,"adult":false},{"id":41891,"adult":false},{"id":399136,"adult":false},{"id":125105,"adult":false},{"id":369094,"adult":false},{"id":318579,"adult":false},{"id":367179,"adult":false},{"id":29427,"adult":false},{"id":64943,"adult":false},{"id":399137,"adult":false},{"id":82362,"adult":false},{"id":163814,"adult":false},{"id":257344,"adult":false},{"id":369925,"adult":false},{"id":44741,"adult":false},{"id":113776,"adult":false},{"id":6614,"adult":false},{"id":399138,"adult":false},{"id":334479,"adult":false},{"id":180876,"adult":false},{"id":31200,"adult":false},{"id":399139,"adult":false},{"id":381603,"adult":false},{"id":244539,"adult":false},{"id":290795,"adult":false},{"id":18254,"adult":false},{"id":296525,"adult":false},{"id":399140,"adult":false},{"id":95140,"adult":false},{"id":191393,"adult":false},{"id":399141,"adult":false},{"id":399142,"adult":false},{"id":154505,"adult":false},{"id":95094,"adult":false},{"id":314385,"adult":false},{"id":3050,"adult":false},{"id":399143,"adult":false},{"id":393521,"adult":false},{"id":399144,"adult":false},{"id":105299,"adult":false},{"id":68028,"adult":false},{"id":36658,"adult":false},{"id":36668,"adult":false},{"id":49538,"adult":false},{"id":11683,"adult":false},{"id":340577,"adult":false},{"id":255459,"adult":false},{"id":106211,"adult":false},{"id":94532,"adult":false},{"id":124167,"adult":false},{"id":399145,"adult":false},{"id":399146,"adult":false},{"id":399147,"adult":false},{"id":42661,"adult":false},{"id":399148,"adult":false},{"id":667,"adult":false},{"id":399149,"adult":false},{"id":399150,"adult":false},{"id":399151,"adult":false},{"id":251563,"adult":false},{"id":135906,"adult":false},{"id":296620,"adult":false},{"id":394412,"adult":false},{"id":399152,"adult":false},{"id":57258,"adult":false},{"id":399153,"adult":false},{"id":112931,"adult":false},{"id":358150,"adult":false},{"id":399154,"adult":false},{"id":233897,"adult":false},{"id":258898,"adult":false},{"id":399155,"adult":false},{"id":160946,"adult":false},{"id":399156,"adult":false},{"id":103897,"adult":false},{"id":399157,"adult":false},{"id":159753,"adult":false},{"id":276465,"adult":false},{"id":311399,"adult":false},{"id":388439,"adult":null},{"id":93383,"adult":false},{"id":97466,"adult":false},{"id":124915,"adult":false},{"id":135300,"adult":false},{"id":226789,"adult":false},{"id":399158,"adult":null},{"id":54478,"adult":false},{"id":296313,"adult":false},{"id":277609,"adult":false},{"id":358505,"adult":false},{"id":266856,"adult":false},{"id":151250,"adult":false},{"id":399159,"adult":false},{"id":392510,"adult":false}],"page":101,"total_pages":128,"total_results":12797}