{"results":[{"id":94874,"adult":false},{"id":205588,"adult":false},{"id":297023,"adult":false},{"id":83617,"adult":false},{"id":709,"adult":false},{"id":231051,"adult":false},{"id":301875,"adult":false},{"id":219507,"adult":false},{"id":76681,"adult":false},{"id":219526,"adult":false},{"id":71395,"adult":false},{"id":382162,"adult":false},{"id":382163,"adult":false},{"id":11417,"adult":false},{"id":92398,"adult":false},{"id":123,"adult":false},{"id":376482,"adult":false},{"id":710,"adult":false},{"id":14510,"adult":false},{"id":57744,"adult":false},{"id":365234,"adult":false},{"id":714,"adult":false},{"id":288899,"adult":false},{"id":367226,"adult":false},{"id":382164,"adult":false},{"id":130068,"adult":false},{"id":43074,"adult":false},{"id":18660,"adult":false},{"id":6073,"adult":false},{"id":382165,"adult":false},{"id":36669,"adult":false},{"id":9785,"adult":false},{"id":317033,"adult":false},{"id":236598,"adult":false},{"id":181871,"adult":false},{"id":382166,"adult":null},{"id":231052,"adult":false},{"id":13910,"adult":false},{"id":235567,"adult":false},{"id":131402,"adult":false},{"id":235165,"adult":false},{"id":382167,"adult":null},{"id":236561,"adult":false},{"id":33114,"adult":false},{"id":266433,"adult":false},{"id":237111,"adult":false},{"id":199357,"adult":false},{"id":236607,"adult":false},{"id":152235,"adult":false},{"id":251924,"adult":false},{"id":382168,"adult":false},{"id":382169,"adult":false},{"id":136797,"adult":false},{"id":13804,"adult":false},{"id":382170,"adult":false},{"id":231055,"adult":false},{"id":382171,"adult":false},{"id":84488,"adult":false},{"id":9799,"adult":false},{"id":70954,"adult":false},{"id":2264,"adult":false},{"id":318341,"adult":false},{"id":290729,"adult":false},{"id":359940,"adult":false},{"id":382172,"adult":false},{"id":210041,"adult":false},{"id":30793,"adult":false},{"id":319126,"adult":false},{"id":379992,"adult":false},{"id":32023,"adult":false},{"id":144396,"adult":false},{"id":15855,"adult":false},{"id":778,"adult":false},{"id":164283,"adult":false},{"id":382173,"adult":false},{"id":198051,"adult":null},{"id":229,"adult":false},{"id":2142,"adult":false},{"id":15849,"adult":false},{"id":10973,"adult":false},{"id":358110,"adult":false},{"id":382174,"adult":false},{"id":10787,"adult":false},{"id":382175,"adult":null},{"id":653,"adult":false},{"id":2998,"adult":false},{"id":146946,"adult":false},{"id":936,"adult":false},{"id":57448,"adult":false},{"id":379779,"adult":false},{"id":55044,"adult":false},{"id":133222,"adult":false},{"id":245775,"adult":false},{"id":18070,"adult":false},{"id":17314,"adult":false},{"id":382176,"adult":false},{"id":10605,"adult":false},{"id":28495,"adult":false},{"id":34778,"adult":false},{"id":37658,"adult":false}],"page":95,"total_pages":119,"total_results":11854}