{"results":[{"id":403159,"adult":false},{"id":411707,"adult":false},{"id":40377,"adult":false},{"id":411708,"adult":false},{"id":28532,"adult":false},{"id":399068,"adult":false},{"id":11323,"adult":false},{"id":104422,"adult":false},{"id":104377,"adult":false},{"id":155341,"adult":false},{"id":18884,"adult":false},{"id":353907,"adult":false},{"id":34791,"adult":false},{"id":124111,"adult":false},{"id":63188,"adult":false},{"id":28989,"adult":false},{"id":411709,"adult":false},{"id":58421,"adult":false},{"id":166641,"adult":false},{"id":28637,"adult":false},{"id":6400,"adult":false},{"id":219250,"adult":false},{"id":754,"adult":false},{"id":61640,"adult":false},{"id":99861,"adult":false},{"id":1260,"adult":false},{"id":103672,"adult":false},{"id":258392,"adult":false},{"id":16633,"adult":false},{"id":66597,"adult":false},{"id":411711,"adult":false},{"id":411712,"adult":false},{"id":168273,"adult":false},{"id":411713,"adult":false},{"id":150540,"adult":false},{"id":341012,"adult":false},{"id":230834,"adult":false},{"id":5156,"adult":false},{"id":191714,"adult":false},{"id":147,"adult":false},{"id":263494,"adult":false},{"id":307000,"adult":false},{"id":362891,"adult":false},{"id":411714,"adult":false},{"id":2980,"adult":false},{"id":404099,"adult":false},{"id":181656,"adult":false},{"id":74037,"adult":false},{"id":360387,"adult":false},{"id":55708,"adult":false},{"id":411715,"adult":false},{"id":316002,"adult":false},{"id":9062,"adult":false},{"id":4437,"adult":false},{"id":79353,"adult":false},{"id":411716,"adult":false},{"id":11617,"adult":false},{"id":17205,"adult":false},{"id":53218,"adult":false},{"id":342521,"adult":false},{"id":226473,"adult":false},{"id":25475,"adult":false},{"id":383267,"adult":false},{"id":13179,"adult":false},{"id":324670,"adult":false},{"id":368959,"adult":false},{"id":336882,"adult":false},{"id":359412,"adult":false},{"id":11,"adult":false},{"id":162007,"adult":false},{"id":263476,"adult":false},{"id":27536,"adult":false},{"id":96537,"adult":false},{"id":270010,"adult":false},{"id":125104,"adult":false},{"id":42801,"adult":false},{"id":411717,"adult":false},{"id":406845,"adult":false},{"id":411718,"adult":false},{"id":317278,"adult":false},{"id":411719,"adult":false},{"id":411720,"adult":false},{"id":300206,"adult":false},{"id":181471,"adult":false},{"id":74876,"adult":false},{"id":238613,"adult":false},{"id":61231,"adult":false},{"id":11430,"adult":false},{"id":222263,"adult":false},{"id":70293,"adult":false},{"id":9679,"adult":false},{"id":15584,"adult":false},{"id":28933,"adult":false},{"id":129078,"adult":false},{"id":71675,"adult":false},{"id":345265,"adult":false},{"id":331583,"adult":false},{"id":279690,"adult":false},{"id":300124,"adult":false},{"id":118178,"adult":false}],"page":21,"total_pages":103,"total_results":10211}