{"results":[{"id":12623,"adult":false},{"id":418944,"adult":false},{"id":80591,"adult":false},{"id":37865,"adult":false},{"id":418945,"adult":false},{"id":85362,"adult":false},{"id":39899,"adult":false},{"id":382843,"adult":false},{"id":418946,"adult":false},{"id":21766,"adult":false},{"id":58553,"adult":false},{"id":393939,"adult":false},{"id":418947,"adult":false},{"id":1052,"adult":false},{"id":4193,"adult":false},{"id":121879,"adult":false},{"id":405314,"adult":false},{"id":245698,"adult":false},{"id":418948,"adult":false},{"id":92348,"adult":false},{"id":2263,"adult":false},{"id":403614,"adult":false},{"id":157447,"adult":false},{"id":313922,"adult":false},{"id":124471,"adult":false},{"id":418949,"adult":false},{"id":417683,"adult":false},{"id":21041,"adult":false},{"id":14914,"adult":false},{"id":4679,"adult":false},{"id":51991,"adult":false},{"id":10779,"adult":false},{"id":5062,"adult":false},{"id":418659,"adult":false},{"id":106534,"adult":false},{"id":10806,"adult":false},{"id":181963,"adult":false},{"id":318621,"adult":false},{"id":300583,"adult":false},{"id":109188,"adult":false},{"id":53364,"adult":false},{"id":402861,"adult":false},{"id":417433,"adult":false},{"id":78292,"adult":false},{"id":51933,"adult":false},{"id":346176,"adult":false},{"id":379698,"adult":false},{"id":206015,"adult":false},{"id":9776,"adult":false},{"id":418950,"adult":false},{"id":388227,"adult":null},{"id":168079,"adult":false},{"id":238394,"adult":false},{"id":55543,"adult":false},{"id":49058,"adult":false},{"id":82097,"adult":false},{"id":12490,"adult":false},{"id":91586,"adult":false},{"id":45248,"adult":false},{"id":11710,"adult":false},{"id":10742,"adult":false},{"id":391210,"adult":false},{"id":413543,"adult":false},{"id":360395,"adult":false},{"id":16352,"adult":false},{"id":400,"adult":false},{"id":385752,"adult":false},{"id":418951,"adult":false},{"id":111228,"adult":false},{"id":112969,"adult":false},{"id":322194,"adult":false},{"id":294907,"adult":false},{"id":418952,"adult":false},{"id":21946,"adult":false},{"id":148584,"adult":false},{"id":26773,"adult":false},{"id":391715,"adult":false},{"id":80283,"adult":false},{"id":299093,"adult":false},{"id":248781,"adult":false},{"id":15064,"adult":false},{"id":24794,"adult":false},{"id":4169,"adult":false},{"id":107741,"adult":false},{"id":193763,"adult":false},{"id":78226,"adult":false},{"id":418953,"adult":false},{"id":186105,"adult":false},{"id":357251,"adult":false},{"id":60164,"adult":false},{"id":368890,"adult":false},{"id":417029,"adult":false},{"id":255237,"adult":false},{"id":242595,"adult":false},{"id":18096,"adult":false},{"id":267523,"adult":false},{"id":387861,"adult":false},{"id":383080,"adult":false},{"id":255774,"adult":false},{"id":405156,"adult":false}],"page":13,"total_pages":144,"total_results":14341}