{"results":[{"id":16514,"adult":false},{"id":167591,"adult":false},{"id":79382,"adult":false},{"id":373549,"adult":null},{"id":30319,"adult":false},{"id":21166,"adult":false},{"id":134366,"adult":false},{"id":48891,"adult":false},{"id":192345,"adult":false},{"id":78205,"adult":false},{"id":29538,"adult":false},{"id":10795,"adult":false},{"id":94671,"adult":false},{"id":97632,"adult":false},{"id":16889,"adult":false},{"id":11128,"adult":false},{"id":195754,"adult":false},{"id":11296,"adult":false},{"id":34207,"adult":false},{"id":168399,"adult":false},{"id":30800,"adult":false},{"id":10220,"adult":false},{"id":17360,"adult":false},{"id":13408,"adult":false},{"id":169209,"adult":false},{"id":43670,"adult":false},{"id":140161,"adult":false},{"id":13767,"adult":false},{"id":51423,"adult":false},{"id":121674,"adult":false},{"id":24086,"adult":false},{"id":38810,"adult":false},{"id":72432,"adult":false},{"id":88258,"adult":false},{"id":79867,"adult":false},{"id":59419,"adult":false},{"id":143646,"adult":false},{"id":50797,"adult":false},{"id":294093,"adult":false},{"id":36811,"adult":false},{"id":16448,"adult":false},{"id":2091,"adult":false},{"id":147463,"adult":false},{"id":42021,"adult":false},{"id":10149,"adult":false},{"id":14344,"adult":false},{"id":18427,"adult":false},{"id":45053,"adult":false},{"id":58260,"adult":false},{"id":10835,"adult":false},{"id":9728,"adult":false},{"id":10909,"adult":false},{"id":9103,"adult":false},{"id":5203,"adult":false},{"id":45780,"adult":false},{"id":874,"adult":false},{"id":215346,"adult":false},{"id":14650,"adult":false},{"id":4412,"adult":false},{"id":43580,"adult":false},{"id":158999,"adult":false},{"id":12178,"adult":false},{"id":30356,"adult":false},{"id":10207,"adult":false},{"id":48926,"adult":false},{"id":16331,"adult":false},{"id":45864,"adult":false},{"id":59035,"adult":false},{"id":8063,"adult":false},{"id":68873,"adult":false},{"id":29515,"adult":false},{"id":36041,"adult":false},{"id":44517,"adult":false},{"id":263564,"adult":false},{"id":592,"adult":false},{"id":37659,"adult":false},{"id":174645,"adult":false},{"id":11310,"adult":false},{"id":10450,"adult":false},{"id":9999,"adult":false},{"id":26387,"adult":false},{"id":41708,"adult":false},{"id":45791,"adult":false},{"id":48463,"adult":false},{"id":352207,"adult":null},{"id":43829,"adult":false},{"id":66793,"adult":false},{"id":10955,"adult":false},{"id":65821,"adult":false},{"id":16080,"adult":false},{"id":59387,"adult":false},{"id":42360,"adult":false},{"id":327,"adult":false},{"id":32574,"adult":false},{"id":27042,"adult":false},{"id":168251,"adult":false},{"id":6639,"adult":false},{"id":32924,"adult":false},{"id":14687,"adult":false},{"id":25037,"adult":false}],"page":124,"total_pages":226,"total_results":22514}