{"results":[{"id":420415,"adult":true},{"id":420416,"adult":true},{"id":420417,"adult":false},{"id":420418,"adult":false},{"id":420419,"adult":false},{"id":15590,"adult":false},{"id":360336,"adult":false},{"id":365195,"adult":false},{"id":338953,"adult":false},{"id":20036,"adult":false},{"id":253210,"adult":false},{"id":354974,"adult":false},{"id":232285,"adult":false},{"id":394275,"adult":false},{"id":420420,"adult":false},{"id":195165,"adult":false},{"id":57243,"adult":false},{"id":147619,"adult":false},{"id":420421,"adult":false},{"id":195159,"adult":false},{"id":196013,"adult":false},{"id":48231,"adult":false},{"id":203035,"adult":false},{"id":141932,"adult":false},{"id":420422,"adult":false},{"id":12606,"adult":false},{"id":420423,"adult":false},{"id":420424,"adult":false},{"id":83411,"adult":false},{"id":86645,"adult":false},{"id":1930,"adult":false},{"id":233433,"adult":false},{"id":126889,"adult":false},{"id":1278,"adult":false},{"id":290556,"adult":false},{"id":420425,"adult":false},{"id":323599,"adult":false},{"id":420426,"adult":false},{"id":409581,"adult":null},{"id":175921,"adult":false},{"id":420427,"adult":false},{"id":333554,"adult":false},{"id":16577,"adult":false},{"id":123833,"adult":false},{"id":4105,"adult":false},{"id":420428,"adult":false},{"id":420429,"adult":false},{"id":29522,"adult":true},{"id":56385,"adult":false},{"id":15927,"adult":false},{"id":90149,"adult":false},{"id":420430,"adult":false},{"id":420431,"adult":false},{"id":559,"adult":false},{"id":15040,"adult":false},{"id":14474,"adult":false},{"id":32685,"adult":false},{"id":420432,"adult":false},{"id":414775,"adult":false},{"id":294830,"adult":false},{"id":385480,"adult":false},{"id":21539,"adult":false},{"id":322125,"adult":false},{"id":420433,"adult":false},{"id":420434,"adult":false},{"id":176762,"adult":false},{"id":13573,"adult":false},{"id":306978,"adult":false},{"id":262901,"adult":false},{"id":420435,"adult":false},{"id":420436,"adult":false},{"id":193340,"adult":false},{"id":324974,"adult":false},{"id":420437,"adult":false},{"id":183854,"adult":false},{"id":14556,"adult":false},{"id":420438,"adult":false},{"id":223946,"adult":false},{"id":276646,"adult":false},{"id":10024,"adult":false},{"id":420439,"adult":false},{"id":390669,"adult":false},{"id":41972,"adult":false},{"id":381351,"adult":false},{"id":420440,"adult":false},{"id":116345,"adult":false},{"id":43964,"adult":false},{"id":34785,"adult":false},{"id":255518,"adult":false},{"id":48249,"adult":false},{"id":15775,"adult":false},{"id":420441,"adult":false},{"id":160261,"adult":false},{"id":39163,"adult":false},{"id":394394,"adult":false},{"id":102295,"adult":false},{"id":420442,"adult":false},{"id":304816,"adult":false},{"id":212126,"adult":false},{"id":46330,"adult":false}],"page":108,"total_pages":144,"total_results":14341}