{"results":[{"id":352695,"adult":false},{"id":418279,"adult":false},{"id":414922,"adult":false},{"id":52333,"adult":false},{"id":418280,"adult":false},{"id":12193,"adult":false},{"id":16769,"adult":false},{"id":418281,"adult":false},{"id":324247,"adult":false},{"id":10021,"adult":false},{"id":349110,"adult":false},{"id":376501,"adult":false},{"id":347757,"adult":false},{"id":418282,"adult":false},{"id":418283,"adult":false},{"id":213208,"adult":false},{"id":418284,"adult":false},{"id":215122,"adult":false},{"id":386538,"adult":null},{"id":181417,"adult":false},{"id":297605,"adult":false},{"id":251449,"adult":false},{"id":418285,"adult":false},{"id":413384,"adult":false},{"id":418286,"adult":false},{"id":332562,"adult":false},{"id":333386,"adult":false},{"id":418287,"adult":false},{"id":297708,"adult":false},{"id":16562,"adult":false},{"id":1391,"adult":false},{"id":268545,"adult":false},{"id":2669,"adult":false},{"id":402526,"adult":false},{"id":18785,"adult":false},{"id":82173,"adult":false},{"id":295516,"adult":true},{"id":418289,"adult":false},{"id":410117,"adult":false},{"id":394974,"adult":false},{"id":376485,"adult":false},{"id":235073,"adult":false},{"id":268881,"adult":false},{"id":393624,"adult":false},{"id":402671,"adult":true},{"id":331877,"adult":false},{"id":294643,"adult":false},{"id":334250,"adult":false},{"id":407371,"adult":false},{"id":411437,"adult":true},{"id":37753,"adult":false},{"id":151062,"adult":false},{"id":356326,"adult":false},{"id":144182,"adult":false},{"id":95863,"adult":false},{"id":66475,"adult":false},{"id":68697,"adult":false},{"id":62276,"adult":false},{"id":209369,"adult":false},{"id":13368,"adult":false},{"id":130258,"adult":false},{"id":402962,"adult":true},{"id":74327,"adult":false},{"id":225555,"adult":false},{"id":198514,"adult":false},{"id":91612,"adult":false},{"id":12498,"adult":false},{"id":54868,"adult":false},{"id":418290,"adult":false},{"id":15860,"adult":false},{"id":102370,"adult":false},{"id":402703,"adult":true},{"id":399628,"adult":false},{"id":20993,"adult":false},{"id":68124,"adult":false},{"id":83136,"adult":false},{"id":37588,"adult":false},{"id":322478,"adult":false},{"id":336006,"adult":true},{"id":110465,"adult":false},{"id":253399,"adult":true},{"id":358980,"adult":false},{"id":33831,"adult":false},{"id":235163,"adult":false},{"id":418291,"adult":false},{"id":399455,"adult":false},{"id":54546,"adult":false},{"id":391387,"adult":false},{"id":412378,"adult":false},{"id":375989,"adult":false},{"id":285860,"adult":false},{"id":398418,"adult":false},{"id":369662,"adult":false},{"id":10937,"adult":false},{"id":41845,"adult":false},{"id":409426,"adult":false},{"id":418292,"adult":false},{"id":70821,"adult":false},{"id":418293,"adult":false},{"id":116206,"adult":true}],"page":134,"total_pages":141,"total_results":14019}