{"results":[{"id":63528,"adult":false},{"id":603,"adult":false},{"id":393714,"adult":false},{"id":189364,"adult":false},{"id":274783,"adult":false},{"id":234360,"adult":false},{"id":393715,"adult":false},{"id":123392,"adult":false},{"id":340837,"adult":false},{"id":80188,"adult":false},{"id":212136,"adult":false},{"id":393716,"adult":false},{"id":187911,"adult":false},{"id":216986,"adult":false},{"id":384586,"adult":false},{"id":278453,"adult":false},{"id":332872,"adult":false},{"id":299780,"adult":false},{"id":335778,"adult":false},{"id":314127,"adult":false},{"id":233025,"adult":false},{"id":1848,"adult":false},{"id":86318,"adult":false},{"id":287499,"adult":false},{"id":393717,"adult":false},{"id":14142,"adult":false},{"id":340616,"adult":false},{"id":66043,"adult":false},{"id":352162,"adult":false},{"id":177203,"adult":false},{"id":393718,"adult":false},{"id":393719,"adult":true},{"id":162983,"adult":false},{"id":283711,"adult":false},{"id":351097,"adult":false},{"id":28437,"adult":false},{"id":255816,"adult":false},{"id":209244,"adult":false},{"id":374411,"adult":null},{"id":393720,"adult":false},{"id":283047,"adult":true},{"id":115894,"adult":false},{"id":393721,"adult":false},{"id":4149,"adult":false},{"id":393722,"adult":false},{"id":176032,"adult":false},{"id":393723,"adult":false},{"id":137420,"adult":false},{"id":18817,"adult":false},{"id":343977,"adult":false},{"id":325697,"adult":false},{"id":393724,"adult":false},{"id":393725,"adult":false},{"id":82451,"adult":false},{"id":75293,"adult":false},{"id":393726,"adult":false},{"id":393727,"adult":false},{"id":393728,"adult":true},{"id":22279,"adult":false},{"id":393729,"adult":false},{"id":17133,"adult":false},{"id":393730,"adult":false},{"id":174271,"adult":false},{"id":120,"adult":false},{"id":121,"adult":false},{"id":122,"adult":false},{"id":360138,"adult":false},{"id":365429,"adult":false},{"id":254436,"adult":false},{"id":228208,"adult":false},{"id":223300,"adult":false},{"id":333182,"adult":false},{"id":177271,"adult":false},{"id":377278,"adult":false},{"id":322456,"adult":false},{"id":112524,"adult":false},{"id":393731,"adult":false},{"id":60672,"adult":false},{"id":60670,"adult":false},{"id":10693,"adult":false},{"id":10193,"adult":false},{"id":393732,"adult":false},{"id":333358,"adult":false},{"id":112323,"adult":false},{"id":10020,"adult":false},{"id":124037,"adult":false},{"id":102680,"adult":false},{"id":61647,"adult":false},{"id":61869,"adult":false},{"id":54287,"adult":false},{"id":297957,"adult":false},{"id":98132,"adult":false},{"id":393733,"adult":false},{"id":106515,"adult":false},{"id":117037,"adult":false},{"id":75771,"adult":false},{"id":2062,"adult":false},{"id":62732,"adult":false},{"id":393734,"adult":false},{"id":112885,"adult":false}],"page":55,"total_pages":127,"total_results":12659}