{"results":[{"id":324463,"adult":false},{"id":2290,"adult":false},{"id":98349,"adult":false},{"id":262823,"adult":null},{"id":336951,"adult":null},{"id":357803,"adult":false},{"id":237669,"adult":false},{"id":157834,"adult":false},{"id":142410,"adult":false},{"id":38963,"adult":false},{"id":22588,"adult":false},{"id":152505,"adult":false},{"id":245630,"adult":false},{"id":182590,"adult":null},{"id":255169,"adult":false},{"id":234308,"adult":false},{"id":239320,"adult":false},{"id":255170,"adult":false},{"id":37219,"adult":false},{"id":205411,"adult":null},{"id":298415,"adult":false},{"id":9793,"adult":false},{"id":284368,"adult":false},{"id":34901,"adult":false},{"id":8836,"adult":false},{"id":281325,"adult":false},{"id":291270,"adult":false},{"id":194722,"adult":false},{"id":333677,"adult":null},{"id":49915,"adult":false},{"id":361983,"adult":false},{"id":116361,"adult":null},{"id":7447,"adult":null},{"id":194762,"adult":null},{"id":352078,"adult":false},{"id":383118,"adult":false},{"id":53166,"adult":false},{"id":226979,"adult":false},{"id":67016,"adult":null},{"id":341109,"adult":false},{"id":181052,"adult":null},{"id":234698,"adult":false},{"id":381616,"adult":false},{"id":252528,"adult":null},{"id":383119,"adult":false},{"id":61050,"adult":false},{"id":32022,"adult":false},{"id":68424,"adult":null},{"id":69403,"adult":false},{"id":14784,"adult":false},{"id":383120,"adult":false},{"id":364748,"adult":false},{"id":292109,"adult":false},{"id":383121,"adult":false},{"id":383122,"adult":false},{"id":313922,"adult":false},{"id":383123,"adult":false},{"id":67729,"adult":false},{"id":383124,"adult":null},{"id":57948,"adult":false},{"id":256546,"adult":false},{"id":44105,"adult":false},{"id":161128,"adult":false},{"id":381803,"adult":false},{"id":277839,"adult":false},{"id":256191,"adult":false},{"id":383125,"adult":false},{"id":50668,"adult":false},{"id":54267,"adult":false},{"id":116652,"adult":false},{"id":383126,"adult":false},{"id":128015,"adult":false},{"id":381815,"adult":null},{"id":347842,"adult":false},{"id":228552,"adult":false},{"id":383127,"adult":false},{"id":289321,"adult":false},{"id":230766,"adult":false},{"id":90578,"adult":false},{"id":318917,"adult":false},{"id":383128,"adult":false},{"id":336812,"adult":null},{"id":321303,"adult":false},{"id":383129,"adult":null},{"id":36610,"adult":false},{"id":293115,"adult":false},{"id":312791,"adult":false},{"id":167313,"adult":false},{"id":257803,"adult":false},{"id":9,"adult":false},{"id":122126,"adult":false},{"id":383132,"adult":null},{"id":271687,"adult":false},{"id":383133,"adult":null},{"id":383134,"adult":false},{"id":383135,"adult":null},{"id":383136,"adult":null},{"id":383137,"adult":null},{"id":320288,"adult":false},{"id":11935,"adult":false}],"page":21,"total_pages":123,"total_results":12205}