{"results":[{"id":245965,"adult":false},{"id":240160,"adult":false},{"id":319261,"adult":false},{"id":319281,"adult":false},{"id":248729,"adult":false},{"id":410327,"adult":false},{"id":391975,"adult":false},{"id":267922,"adult":false},{"id":82220,"adult":false},{"id":359187,"adult":false},{"id":329155,"adult":false},{"id":273614,"adult":true},{"id":43844,"adult":false},{"id":410328,"adult":false},{"id":410329,"adult":false},{"id":329714,"adult":false},{"id":408177,"adult":false},{"id":408191,"adult":false},{"id":410330,"adult":false},{"id":27223,"adult":false},{"id":256030,"adult":false},{"id":297725,"adult":false},{"id":162215,"adult":false},{"id":74264,"adult":false},{"id":394324,"adult":false},{"id":13319,"adult":false},{"id":609,"adult":false},{"id":11658,"adult":false},{"id":386030,"adult":false},{"id":276905,"adult":false},{"id":5236,"adult":false},{"id":10317,"adult":false},{"id":200271,"adult":false},{"id":348668,"adult":false},{"id":90216,"adult":false},{"id":163549,"adult":false},{"id":309050,"adult":false},{"id":55307,"adult":false},{"id":43414,"adult":false},{"id":40231,"adult":false},{"id":9442,"adult":false},{"id":248005,"adult":false},{"id":136389,"adult":false},{"id":58431,"adult":false},{"id":19252,"adult":false},{"id":26329,"adult":false},{"id":24570,"adult":false},{"id":241257,"adult":false},{"id":58769,"adult":false},{"id":410331,"adult":false},{"id":300886,"adult":false},{"id":263945,"adult":false},{"id":375168,"adult":false},{"id":52137,"adult":false},{"id":25122,"adult":false},{"id":55793,"adult":false},{"id":81165,"adult":false},{"id":79333,"adult":false},{"id":391274,"adult":false},{"id":406383,"adult":false},{"id":315061,"adult":false},{"id":371810,"adult":false},{"id":138705,"adult":false},{"id":102234,"adult":false},{"id":205724,"adult":false},{"id":69638,"adult":false},{"id":150208,"adult":false},{"id":61125,"adult":false},{"id":61123,"adult":false},{"id":80256,"adult":false},{"id":68728,"adult":false},{"id":37988,"adult":false},{"id":29670,"adult":false},{"id":407203,"adult":false},{"id":137285,"adult":false},{"id":119321,"adult":false},{"id":267573,"adult":false},{"id":54563,"adult":false},{"id":128930,"adult":false},{"id":129146,"adult":false},{"id":180682,"adult":false},{"id":132074,"adult":false},{"id":259282,"adult":false},{"id":198063,"adult":false},{"id":262691,"adult":false},{"id":310952,"adult":false},{"id":303620,"adult":false},{"id":312751,"adult":false},{"id":260778,"adult":false},{"id":364023,"adult":false},{"id":170027,"adult":false},{"id":14937,"adult":false},{"id":42148,"adult":false},{"id":66340,"adult":false},{"id":379389,"adult":false},{"id":57800,"adult":false},{"id":410332,"adult":false},{"id":410333,"adult":false},{"id":99118,"adult":false},{"id":63664,"adult":false}],"page":63,"total_pages":117,"total_results":11641}