{"results":[{"id":8834,"adult":false},{"id":124881,"adult":false},{"id":415625,"adult":false},{"id":88064,"adult":false},{"id":415626,"adult":false},{"id":415627,"adult":false},{"id":9681,"adult":false},{"id":415628,"adult":false},{"id":10435,"adult":false},{"id":415629,"adult":false},{"id":415630,"adult":false},{"id":176539,"adult":false},{"id":415631,"adult":false},{"id":83618,"adult":false},{"id":316423,"adult":false},{"id":285,"adult":false},{"id":167210,"adult":false},{"id":409875,"adult":null},{"id":13448,"adult":false},{"id":383835,"adult":false},{"id":214756,"adult":false},{"id":30452,"adult":false},{"id":415632,"adult":false},{"id":214754,"adult":false},{"id":54415,"adult":false},{"id":415633,"adult":false},{"id":415634,"adult":false},{"id":319096,"adult":false},{"id":415635,"adult":false},{"id":6538,"adult":false},{"id":9896,"adult":false},{"id":9816,"adult":false},{"id":4939,"adult":false},{"id":9678,"adult":false},{"id":415636,"adult":false},{"id":116613,"adult":false},{"id":4373,"adult":false},{"id":149319,"adult":false},{"id":95559,"adult":true},{"id":87,"adult":false},{"id":262187,"adult":false},{"id":95134,"adult":false},{"id":98477,"adult":false},{"id":222953,"adult":false},{"id":42358,"adult":false},{"id":96265,"adult":false},{"id":314951,"adult":false},{"id":18287,"adult":false},{"id":42594,"adult":false},{"id":9384,"adult":false},{"id":20556,"adult":false},{"id":105097,"adult":false},{"id":42593,"adult":false},{"id":302607,"adult":false},{"id":11040,"adult":false},{"id":277459,"adult":false},{"id":70422,"adult":false},{"id":106678,"adult":false},{"id":290771,"adult":false},{"id":363354,"adult":false},{"id":304367,"adult":false},{"id":216603,"adult":false},{"id":198932,"adult":false},{"id":14676,"adult":false},{"id":47205,"adult":false},{"id":4910,"adult":false},{"id":228902,"adult":false},{"id":82173,"adult":false},{"id":147593,"adult":false},{"id":251519,"adult":false},{"id":101176,"adult":false},{"id":9827,"adult":false},{"id":2826,"adult":false},{"id":66466,"adult":false},{"id":259951,"adult":false},{"id":91302,"adult":false},{"id":232687,"adult":false},{"id":71244,"adult":false},{"id":11116,"adult":false},{"id":116871,"adult":false},{"id":5620,"adult":false},{"id":19138,"adult":false},{"id":20444,"adult":false},{"id":345408,"adult":false},{"id":293787,"adult":false},{"id":303608,"adult":false},{"id":415637,"adult":false},{"id":297588,"adult":false},{"id":267215,"adult":false},{"id":415638,"adult":false},{"id":30038,"adult":false},{"id":409058,"adult":false},{"id":397450,"adult":false},{"id":276012,"adult":false},{"id":415640,"adult":false},{"id":286702,"adult":false},{"id":415641,"adult":false},{"id":415642,"adult":false},{"id":26673,"adult":false},{"id":87905,"adult":false}],"page":117,"total_pages":126,"total_results":12554}