{"results":[{"id":17274,"adult":false},{"id":94478,"adult":false},{"id":15909,"adult":false},{"id":14134,"adult":false},{"id":30923,"adult":false},{"id":30771,"adult":false},{"id":64523,"adult":false},{"id":6072,"adult":false},{"id":44162,"adult":false},{"id":10496,"adult":false},{"id":18615,"adult":false},{"id":80837,"adult":false},{"id":24643,"adult":false},{"id":260211,"adult":false},{"id":2359,"adult":false},{"id":199591,"adult":false},{"id":8286,"adult":false},{"id":374919,"adult":false},{"id":25641,"adult":false},{"id":10462,"adult":false},{"id":16085,"adult":false},{"id":30767,"adult":false},{"id":41547,"adult":false},{"id":9698,"adult":false},{"id":44350,"adult":false},{"id":10150,"adult":false},{"id":5873,"adult":false},{"id":45324,"adult":false},{"id":14367,"adult":false},{"id":12172,"adult":false},{"id":5204,"adult":false},{"id":2099,"adult":false},{"id":116946,"adult":false},{"id":92119,"adult":false},{"id":8088,"adult":false},{"id":11399,"adult":false},{"id":86812,"adult":false},{"id":797,"adult":false},{"id":50601,"adult":false},{"id":82742,"adult":false},{"id":31002,"adult":false},{"id":521,"adult":false},{"id":20187,"adult":false},{"id":50217,"adult":false},{"id":45568,"adult":false},{"id":31219,"adult":false},{"id":83928,"adult":false},{"id":14012,"adult":false},{"id":6145,"adult":false},{"id":155803,"adult":false},{"id":16608,"adult":false},{"id":59963,"adult":false},{"id":23174,"adult":false},{"id":268060,"adult":false},{"id":168027,"adult":false},{"id":34626,"adult":false},{"id":1408,"adult":false},{"id":19724,"adult":false},{"id":11170,"adult":false},{"id":13077,"adult":false},{"id":75491,"adult":false},{"id":15391,"adult":false},{"id":11237,"adult":false},{"id":174344,"adult":false},{"id":252416,"adult":false},{"id":254065,"adult":false},{"id":17457,"adult":false},{"id":192936,"adult":false},{"id":48137,"adult":false},{"id":11587,"adult":false},{"id":45035,"adult":false},{"id":1716,"adult":false},{"id":8898,"adult":false},{"id":22152,"adult":false},{"id":3179,"adult":false},{"id":14412,"adult":false},{"id":20778,"adult":false},{"id":10575,"adult":false},{"id":48255,"adult":false},{"id":209269,"adult":false},{"id":13991,"adult":false},{"id":36086,"adult":false},{"id":265629,"adult":false},{"id":38931,"adult":false},{"id":131689,"adult":false},{"id":125294,"adult":false},{"id":28705,"adult":false},{"id":94393,"adult":false},{"id":51586,"adult":false},{"id":232795,"adult":false},{"id":308181,"adult":false},{"id":207918,"adult":false},{"id":17638,"adult":false},{"id":253450,"adult":false},{"id":36610,"adult":false},{"id":227,"adult":false},{"id":36956,"adult":false},{"id":57313,"adult":false},{"id":153102,"adult":false},{"id":17532,"adult":false}],"page":145,"total_pages":226,"total_results":22514}