{"results":[{"id":66557,"adult":false},{"id":9906,"adult":false},{"id":367546,"adult":false},{"id":271505,"adult":false},{"id":303632,"adult":false},{"id":266082,"adult":false},{"id":246400,"adult":false},{"id":11850,"adult":false},{"id":313080,"adult":false},{"id":127864,"adult":false},{"id":359641,"adult":false},{"id":45649,"adult":false},{"id":211954,"adult":false},{"id":266379,"adult":false},{"id":846,"adult":false},{"id":334299,"adult":false},{"id":225606,"adult":false},{"id":398569,"adult":false},{"id":40994,"adult":false},{"id":65296,"adult":false},{"id":69644,"adult":false},{"id":82784,"adult":false},{"id":69057,"adult":false},{"id":41296,"adult":false},{"id":348748,"adult":false},{"id":41305,"adult":false},{"id":82767,"adult":false},{"id":378968,"adult":false},{"id":41309,"adult":false},{"id":41002,"adult":false},{"id":379783,"adult":false},{"id":138028,"adult":false},{"id":264074,"adult":false},{"id":383308,"adult":false},{"id":82778,"adult":false},{"id":334600,"adult":false},{"id":334210,"adult":false},{"id":16,"adult":false},{"id":405162,"adult":false},{"id":119674,"adult":false},{"id":30131,"adult":false},{"id":41300,"adult":false},{"id":387,"adult":false},{"id":12279,"adult":false},{"id":56288,"adult":false},{"id":41293,"adult":false},{"id":82768,"adult":false},{"id":40933,"adult":false},{"id":82772,"adult":false},{"id":130739,"adult":false},{"id":248601,"adult":false},{"id":52633,"adult":false},{"id":25983,"adult":false},{"id":279665,"adult":false},{"id":2690,"adult":false},{"id":323383,"adult":false},{"id":45189,"adult":false},{"id":41311,"adult":false},{"id":28455,"adult":false},{"id":41001,"adult":false},{"id":50717,"adult":false},{"id":82783,"adult":false},{"id":41308,"adult":false},{"id":41004,"adult":false},{"id":21512,"adult":false},{"id":45190,"adult":false},{"id":41294,"adult":false},{"id":377523,"adult":false},{"id":2625,"adult":false},{"id":69645,"adult":false},{"id":201650,"adult":false},{"id":45192,"adult":false},{"id":66158,"adult":false},{"id":149507,"adult":false},{"id":145481,"adult":false},{"id":383525,"adult":false},{"id":292140,"adult":false},{"id":18377,"adult":false},{"id":11506,"adult":false},{"id":15247,"adult":false},{"id":262487,"adult":false},{"id":398410,"adult":false},{"id":3055,"adult":false},{"id":77527,"adult":false},{"id":22914,"adult":false},{"id":11082,"adult":false},{"id":69045,"adult":false},{"id":109001,"adult":false},{"id":82776,"adult":false},{"id":405163,"adult":false},{"id":41298,"adult":false},{"id":51415,"adult":false},{"id":45191,"adult":false},{"id":397298,"adult":true},{"id":5722,"adult":false},{"id":23153,"adult":false},{"id":31563,"adult":false},{"id":405164,"adult":false},{"id":287877,"adult":false},{"id":273085,"adult":false}],"page":52,"total_pages":112,"total_results":11190}