{"results":[{"id":402442,"adult":false},{"id":402443,"adult":false},{"id":356270,"adult":false},{"id":402444,"adult":false},{"id":402445,"adult":false},{"id":67884,"adult":false},{"id":37291,"adult":false},{"id":402446,"adult":false},{"id":46378,"adult":false},{"id":402447,"adult":null},{"id":42023,"adult":false},{"id":402448,"adult":false},{"id":6949,"adult":false},{"id":800,"adult":false},{"id":324183,"adult":false},{"id":38055,"adult":false},{"id":391485,"adult":false},{"id":402449,"adult":null},{"id":169798,"adult":false},{"id":192738,"adult":false},{"id":209403,"adult":false},{"id":322850,"adult":false},{"id":301748,"adult":false},{"id":294308,"adult":false},{"id":175528,"adult":false},{"id":23367,"adult":false},{"id":158916,"adult":false},{"id":391663,"adult":false},{"id":13184,"adult":false},{"id":10782,"adult":false},{"id":120794,"adult":false},{"id":263,"adult":false},{"id":122346,"adult":false},{"id":9283,"adult":false},{"id":43566,"adult":false},{"id":24476,"adult":false},{"id":402450,"adult":false},{"id":80,"adult":false},{"id":373386,"adult":false},{"id":123800,"adult":false},{"id":132344,"adult":false},{"id":2149,"adult":false},{"id":55347,"adult":false},{"id":259018,"adult":false},{"id":11817,"adult":false},{"id":42297,"adult":false},{"id":30618,"adult":false},{"id":43750,"adult":false},{"id":135483,"adult":false},{"id":102780,"adult":false},{"id":8007,"adult":false},{"id":260063,"adult":false},{"id":98513,"adult":false},{"id":26390,"adult":false},{"id":2088,"adult":false},{"id":402451,"adult":false},{"id":55721,"adult":false},{"id":158907,"adult":false},{"id":306937,"adult":false},{"id":13667,"adult":false},{"id":2280,"adult":false},{"id":401056,"adult":false},{"id":241771,"adult":false},{"id":402452,"adult":false},{"id":90,"adult":false},{"id":391756,"adult":false},{"id":85861,"adult":false},{"id":19423,"adult":false},{"id":402453,"adult":false},{"id":9879,"adult":false},{"id":96,"adult":false},{"id":306,"adult":false},{"id":237756,"adult":false},{"id":30584,"adult":false},{"id":18214,"adult":false},{"id":271518,"adult":false},{"id":11507,"adult":false},{"id":918,"adult":false},{"id":402455,"adult":false},{"id":402456,"adult":false},{"id":7874,"adult":false},{"id":11001,"adult":false},{"id":402457,"adult":false},{"id":11690,"adult":false},{"id":36694,"adult":false},{"id":402458,"adult":false},{"id":402459,"adult":false},{"id":270069,"adult":false},{"id":14347,"adult":false},{"id":703,"adult":false},{"id":4105,"adult":false},{"id":41963,"adult":false},{"id":402460,"adult":false},{"id":22164,"adult":false},{"id":8649,"adult":false},{"id":68995,"adult":false},{"id":150229,"adult":false},{"id":402461,"adult":false},{"id":402462,"adult":false},{"id":45317,"adult":false}],"page":18,"total_pages":116,"total_results":11526}