{"results":[{"id":273248,"adult":false},{"id":61591,"adult":false},{"id":406751,"adult":null},{"id":117577,"adult":false},{"id":406752,"adult":false},{"id":110729,"adult":false},{"id":956,"adult":false},{"id":402518,"adult":false},{"id":406753,"adult":false},{"id":120846,"adult":false},{"id":392249,"adult":false},{"id":83090,"adult":false},{"id":106551,"adult":false},{"id":108812,"adult":false},{"id":88504,"adult":false},{"id":83091,"adult":false},{"id":98117,"adult":false},{"id":66105,"adult":false},{"id":230440,"adult":false},{"id":279250,"adult":false},{"id":19792,"adult":false},{"id":268119,"adult":false},{"id":83088,"adult":false},{"id":406754,"adult":false},{"id":393550,"adult":false},{"id":161157,"adult":false},{"id":402754,"adult":false},{"id":50253,"adult":false},{"id":366300,"adult":false},{"id":308529,"adult":false},{"id":57867,"adult":false},{"id":322978,"adult":false},{"id":104088,"adult":false},{"id":172075,"adult":false},{"id":61737,"adult":false},{"id":323068,"adult":false},{"id":192434,"adult":false},{"id":324841,"adult":false},{"id":125548,"adult":false},{"id":325641,"adult":false},{"id":331550,"adult":false},{"id":393132,"adult":false},{"id":97324,"adult":false},{"id":168859,"adult":false},{"id":86788,"adult":false},{"id":52842,"adult":false},{"id":328825,"adult":false},{"id":406755,"adult":false},{"id":406756,"adult":false},{"id":5552,"adult":false},{"id":171719,"adult":false},{"id":311617,"adult":false},{"id":251102,"adult":false},{"id":127705,"adult":false},{"id":157336,"adult":false},{"id":1541,"adult":false},{"id":372297,"adult":false},{"id":253460,"adult":false},{"id":230919,"adult":false},{"id":315659,"adult":false},{"id":354859,"adult":false},{"id":54690,"adult":false},{"id":136611,"adult":false},{"id":65303,"adult":false},{"id":346646,"adult":false},{"id":42086,"adult":false},{"id":26195,"adult":false},{"id":392189,"adult":false},{"id":31694,"adult":false},{"id":84207,"adult":false},{"id":264979,"adult":false},{"id":273848,"adult":false},{"id":401132,"adult":false},{"id":26584,"adult":false},{"id":9508,"adult":false},{"id":24561,"adult":false},{"id":19197,"adult":false},{"id":70981,"adult":false},{"id":86956,"adult":false},{"id":34015,"adult":false},{"id":57014,"adult":false},{"id":402921,"adult":false},{"id":30825,"adult":true},{"id":55204,"adult":false},{"id":218035,"adult":false},{"id":10560,"adult":false},{"id":16407,"adult":false},{"id":20689,"adult":false},{"id":1588,"adult":false},{"id":39488,"adult":false},{"id":56205,"adult":false},{"id":31353,"adult":false},{"id":44924,"adult":false},{"id":51010,"adult":false},{"id":18787,"adult":false},{"id":8284,"adult":false},{"id":18875,"adult":false},{"id":341274,"adult":false},{"id":110660,"adult":false},{"id":359746,"adult":false}],"page":15,"total_pages":120,"total_results":11946}