{"results":[{"id":225271,"adult":false},{"id":11797,"adult":false},{"id":390518,"adult":false},{"id":18086,"adult":false},{"id":11873,"adult":false},{"id":709,"adult":false},{"id":15128,"adult":false},{"id":44716,"adult":false},{"id":392936,"adult":false},{"id":10004,"adult":false},{"id":18352,"adult":false},{"id":236693,"adult":false},{"id":134394,"adult":false},{"id":174295,"adult":false},{"id":184597,"adult":false},{"id":236991,"adult":false},{"id":236975,"adult":false},{"id":55539,"adult":false},{"id":271488,"adult":false},{"id":5733,"adult":false},{"id":140607,"adult":false},{"id":311124,"adult":false},{"id":121676,"adult":false},{"id":390749,"adult":false},{"id":92398,"adult":false},{"id":299138,"adult":false},{"id":392858,"adult":false},{"id":31909,"adult":false},{"id":62796,"adult":false},{"id":382322,"adult":false},{"id":291351,"adult":false},{"id":4970,"adult":false},{"id":29876,"adult":false},{"id":392937,"adult":false},{"id":266102,"adult":false},{"id":13742,"adult":false},{"id":37973,"adult":false},{"id":329004,"adult":false},{"id":210718,"adult":false},{"id":21057,"adult":false},{"id":182040,"adult":false},{"id":110667,"adult":false},{"id":315912,"adult":false},{"id":392057,"adult":false},{"id":392059,"adult":false},{"id":392938,"adult":false},{"id":353018,"adult":false},{"id":262645,"adult":false},{"id":370127,"adult":false},{"id":12078,"adult":false},{"id":241468,"adult":false},{"id":334742,"adult":false},{"id":193742,"adult":false},{"id":132229,"adult":false},{"id":167825,"adult":false},{"id":392939,"adult":false},{"id":370124,"adult":false},{"id":291758,"adult":false},{"id":205588,"adult":false},{"id":322634,"adult":false},{"id":29906,"adult":false},{"id":45039,"adult":false},{"id":364790,"adult":false},{"id":24814,"adult":false},{"id":360970,"adult":false},{"id":318917,"adult":false},{"id":10263,"adult":false},{"id":294963,"adult":false},{"id":273645,"adult":false},{"id":125263,"adult":false},{"id":291805,"adult":false},{"id":103569,"adult":false},{"id":27141,"adult":false},{"id":61127,"adult":false},{"id":392547,"adult":false},{"id":392940,"adult":false},{"id":295663,"adult":false},{"id":74381,"adult":false},{"id":365319,"adult":false},{"id":99698,"adult":false},{"id":106358,"adult":false},{"id":9793,"adult":false},{"id":392941,"adult":false},{"id":182560,"adult":false},{"id":324440,"adult":false},{"id":177552,"adult":false},{"id":59812,"adult":false},{"id":68735,"adult":false},{"id":297761,"adult":false},{"id":176666,"adult":false},{"id":284052,"adult":false},{"id":392942,"adult":false},{"id":335807,"adult":false},{"id":85015,"adult":false},{"id":139082,"adult":false},{"id":260825,"adult":false},{"id":392943,"adult":false},{"id":392944,"adult":false},{"id":12192,"adult":false},{"id":28644,"adult":false}],"page":5,"total_pages":127,"total_results":12659}