{"results":[{"id":379300,"adult":false},{"id":9312,"adult":false},{"id":54013,"adult":false},{"id":288186,"adult":false},{"id":36916,"adult":false},{"id":43442,"adult":false},{"id":11308,"adult":false},{"id":43386,"adult":false},{"id":18897,"adult":false},{"id":5469,"adult":false},{"id":305492,"adult":false},{"id":377662,"adult":false},{"id":382381,"adult":false},{"id":126164,"adult":false},{"id":251387,"adult":false},{"id":365828,"adult":false},{"id":4785,"adult":false},{"id":168027,"adult":false},{"id":369513,"adult":false},{"id":274943,"adult":false},{"id":266569,"adult":false},{"id":105383,"adult":false},{"id":382382,"adult":false},{"id":266575,"adult":false},{"id":79094,"adult":false},{"id":217241,"adult":false},{"id":143926,"adult":false},{"id":367508,"adult":false},{"id":364521,"adult":false},{"id":148980,"adult":false},{"id":207766,"adult":false},{"id":116156,"adult":false},{"id":117804,"adult":false},{"id":373944,"adult":false},{"id":144979,"adult":false},{"id":382383,"adult":false},{"id":382384,"adult":false},{"id":12758,"adult":false},{"id":382385,"adult":false},{"id":382386,"adult":false},{"id":128353,"adult":false},{"id":202485,"adult":false},{"id":382387,"adult":false},{"id":144968,"adult":false},{"id":238800,"adult":false},{"id":382388,"adult":null},{"id":145379,"adult":false},{"id":141974,"adult":false},{"id":382389,"adult":false},{"id":1871,"adult":false},{"id":114538,"adult":false},{"id":226672,"adult":false},{"id":238330,"adult":false},{"id":382390,"adult":false},{"id":238805,"adult":false},{"id":382391,"adult":false},{"id":193784,"adult":false},{"id":1870,"adult":false},{"id":382392,"adult":false},{"id":1875,"adult":false},{"id":350499,"adult":false},{"id":97782,"adult":false},{"id":144046,"adult":false},{"id":562,"adult":false},{"id":312937,"adult":false},{"id":382393,"adult":false},{"id":665,"adult":false},{"id":312938,"adult":false},{"id":71206,"adult":false},{"id":235837,"adult":false},{"id":382394,"adult":null},{"id":12501,"adult":false},{"id":769,"adult":false},{"id":312939,"adult":false},{"id":312940,"adult":false},{"id":185497,"adult":false},{"id":11221,"adult":false},{"id":306127,"adult":null},{"id":949,"adult":false},{"id":309070,"adult":false},{"id":19345,"adult":false},{"id":340382,"adult":false},{"id":382395,"adult":false},{"id":190859,"adult":false},{"id":10772,"adult":false},{"id":41870,"adult":false},{"id":377909,"adult":false},{"id":12775,"adult":false},{"id":382396,"adult":false},{"id":11034,"adult":false},{"id":364651,"adult":false},{"id":22874,"adult":false},{"id":13819,"adult":false},{"id":382397,"adult":false},{"id":366644,"adult":false},{"id":60859,"adult":false},{"id":272087,"adult":false},{"id":26305,"adult":false},{"id":15762,"adult":false},{"id":218778,"adult":false}],"page":105,"total_pages":119,"total_results":11854}