{"results":[{"id":335372,"adult":false},{"id":49058,"adult":false},{"id":14258,"adult":false},{"id":38970,"adult":false},{"id":47890,"adult":false},{"id":11158,"adult":false},{"id":421821,"adult":true},{"id":9354,"adult":false},{"id":36728,"adult":false},{"id":370753,"adult":false},{"id":388758,"adult":false},{"id":105012,"adult":false},{"id":6478,"adult":false},{"id":353996,"adult":false},{"id":207291,"adult":false},{"id":107632,"adult":false},{"id":106048,"adult":false},{"id":256750,"adult":false},{"id":272284,"adult":false},{"id":104980,"adult":false},{"id":74264,"adult":false},{"id":366841,"adult":false},{"id":181828,"adult":false},{"id":240490,"adult":false},{"id":3784,"adult":false},{"id":83282,"adult":false},{"id":400395,"adult":false},{"id":85958,"adult":false},{"id":159031,"adult":false},{"id":85182,"adult":false},{"id":27244,"adult":false},{"id":421822,"adult":false},{"id":387233,"adult":false},{"id":224073,"adult":false},{"id":80653,"adult":false},{"id":73103,"adult":false},{"id":85135,"adult":false},{"id":47941,"adult":false},{"id":28892,"adult":false},{"id":421825,"adult":null},{"id":65036,"adult":false},{"id":5677,"adult":false},{"id":179496,"adult":false},{"id":106015,"adult":false},{"id":112529,"adult":false},{"id":10162,"adult":false},{"id":160386,"adult":false},{"id":9816,"adult":false},{"id":59011,"adult":false},{"id":196897,"adult":false},{"id":3151,"adult":false},{"id":103217,"adult":false},{"id":204115,"adult":false},{"id":65300,"adult":false},{"id":421826,"adult":null},{"id":309655,"adult":false},{"id":294912,"adult":false},{"id":223625,"adult":false},{"id":257501,"adult":false},{"id":390734,"adult":false},{"id":81463,"adult":false},{"id":169918,"adult":false},{"id":31967,"adult":false},{"id":409255,"adult":false},{"id":289550,"adult":false},{"id":325358,"adult":false},{"id":71582,"adult":false},{"id":130102,"adult":false},{"id":340541,"adult":false},{"id":17985,"adult":false},{"id":28734,"adult":false},{"id":24477,"adult":false},{"id":421827,"adult":false},{"id":419566,"adult":false},{"id":18087,"adult":false},{"id":374473,"adult":false},{"id":392142,"adult":false},{"id":69900,"adult":false},{"id":84210,"adult":false},{"id":11059,"adult":false},{"id":253281,"adult":false},{"id":208505,"adult":false},{"id":9666,"adult":false},{"id":421828,"adult":false},{"id":1792,"adult":false},{"id":32237,"adult":false},{"id":383807,"adult":false},{"id":14694,"adult":false},{"id":251321,"adult":false},{"id":408033,"adult":false},{"id":1549,"adult":false},{"id":14942,"adult":false},{"id":411557,"adult":false},{"id":379421,"adult":false},{"id":22633,"adult":false},{"id":258157,"adult":false},{"id":414096,"adult":false},{"id":81452,"adult":false},{"id":15914,"adult":false},{"id":4553,"adult":false}],"page":39,"total_pages":123,"total_results":12202}