{"results":[{"id":374464,"adult":false},{"id":395763,"adult":false},{"id":4380,"adult":false},{"id":425213,"adult":false},{"id":320653,"adult":false},{"id":366568,"adult":false},{"id":59238,"adult":false},{"id":410655,"adult":false},{"id":382751,"adult":false},{"id":359151,"adult":false},{"id":332794,"adult":false},{"id":108476,"adult":false},{"id":118390,"adult":false},{"id":397406,"adult":false},{"id":110148,"adult":false},{"id":286675,"adult":false},{"id":406882,"adult":false},{"id":367188,"adult":false},{"id":368308,"adult":false},{"id":361263,"adult":false},{"id":398757,"adult":false},{"id":423347,"adult":false},{"id":246127,"adult":false},{"id":168676,"adult":false},{"id":152620,"adult":false},{"id":425214,"adult":false},{"id":309013,"adult":false},{"id":9787,"adult":false},{"id":425215,"adult":false},{"id":399030,"adult":false},{"id":425216,"adult":false},{"id":129088,"adult":false},{"id":12924,"adult":false},{"id":425217,"adult":false},{"id":194361,"adult":false},{"id":425218,"adult":false},{"id":292738,"adult":false},{"id":224626,"adult":false},{"id":425219,"adult":false},{"id":425220,"adult":null},{"id":180048,"adult":false},{"id":256585,"adult":false},{"id":82,"adult":false},{"id":134296,"adult":false},{"id":400136,"adult":false},{"id":333468,"adult":false},{"id":175574,"adult":false},{"id":425221,"adult":false},{"id":388440,"adult":false},{"id":358923,"adult":false},{"id":333339,"adult":false},{"id":68472,"adult":false},{"id":37910,"adult":false},{"id":378697,"adult":false},{"id":97367,"adult":false},{"id":24029,"adult":false},{"id":63809,"adult":false},{"id":47318,"adult":false},{"id":425222,"adult":false},{"id":13549,"adult":false},{"id":88751,"adult":false},{"id":347219,"adult":false},{"id":44944,"adult":false},{"id":390959,"adult":false},{"id":16929,"adult":false},{"id":256589,"adult":false},{"id":425223,"adult":false},{"id":410203,"adult":false},{"id":18143,"adult":false},{"id":38941,"adult":false},{"id":103665,"adult":false},{"id":77875,"adult":false},{"id":155420,"adult":false},{"id":353378,"adult":false},{"id":14757,"adult":false},{"id":392476,"adult":false},{"id":22309,"adult":false},{"id":29189,"adult":false},{"id":14945,"adult":false},{"id":13805,"adult":false},{"id":25523,"adult":false},{"id":373353,"adult":false},{"id":410627,"adult":false},{"id":425224,"adult":true},{"id":11466,"adult":false},{"id":12208,"adult":false},{"id":367842,"adult":false},{"id":18070,"adult":false},{"id":31769,"adult":false},{"id":425225,"adult":false},{"id":20694,"adult":false},{"id":260365,"adult":false},{"id":425226,"adult":true},{"id":135041,"adult":false},{"id":418726,"adult":false},{"id":425227,"adult":true},{"id":56832,"adult":false},{"id":59678,"adult":false},{"id":74135,"adult":false},{"id":242514,"adult":false}],"page":83,"total_pages":120,"total_results":11922}