{"results":[{"id":313096,"adult":false},{"id":500,"adult":false},{"id":197397,"adult":false},{"id":392967,"adult":false},{"id":392968,"adult":false},{"id":370809,"adult":false},{"id":71504,"adult":false},{"id":392969,"adult":false},{"id":392970,"adult":false},{"id":345972,"adult":false},{"id":392971,"adult":false},{"id":67505,"adult":false},{"id":58704,"adult":false},{"id":392854,"adult":false},{"id":317299,"adult":false},{"id":324463,"adult":false},{"id":392972,"adult":false},{"id":49077,"adult":false},{"id":212869,"adult":false},{"id":392973,"adult":false},{"id":392974,"adult":false},{"id":392975,"adult":false},{"id":392734,"adult":false},{"id":130957,"adult":false},{"id":392976,"adult":false},{"id":392977,"adult":false},{"id":86918,"adult":false},{"id":392978,"adult":false},{"id":392452,"adult":false},{"id":105510,"adult":false},{"id":213250,"adult":false},{"id":81342,"adult":false},{"id":8268,"adult":false},{"id":1417,"adult":false},{"id":392979,"adult":false},{"id":1422,"adult":false},{"id":20697,"adult":false},{"id":392980,"adult":null},{"id":379532,"adult":false},{"id":309843,"adult":false},{"id":44392,"adult":false},{"id":49772,"adult":false},{"id":337631,"adult":false},{"id":100697,"adult":false},{"id":392981,"adult":false},{"id":86511,"adult":null},{"id":391710,"adult":false},{"id":118556,"adult":false},{"id":258559,"adult":false},{"id":125226,"adult":true},{"id":179835,"adult":false},{"id":377103,"adult":false},{"id":8965,"adult":false},{"id":105191,"adult":false},{"id":309889,"adult":false},{"id":113630,"adult":false},{"id":28758,"adult":false},{"id":118296,"adult":true},{"id":82743,"adult":false},{"id":73835,"adult":false},{"id":43074,"adult":false},{"id":90600,"adult":true},{"id":558,"adult":false},{"id":178579,"adult":false},{"id":392548,"adult":false},{"id":223805,"adult":false},{"id":237690,"adult":false},{"id":2863,"adult":false},{"id":392982,"adult":false},{"id":374067,"adult":true},{"id":2893,"adult":false},{"id":392983,"adult":false},{"id":392984,"adult":false},{"id":183950,"adult":false},{"id":82910,"adult":true},{"id":2909,"adult":false},{"id":86512,"adult":true},{"id":223242,"adult":false},{"id":392985,"adult":false},{"id":392986,"adult":null},{"id":50257,"adult":true},{"id":336029,"adult":false},{"id":45408,"adult":false},{"id":82338,"adult":true},{"id":391357,"adult":null},{"id":152580,"adult":false},{"id":334646,"adult":false},{"id":92552,"adult":true},{"id":79906,"adult":false},{"id":210209,"adult":false},{"id":244534,"adult":false},{"id":229284,"adult":false},{"id":18764,"adult":false},{"id":81734,"adult":true},{"id":390407,"adult":false},{"id":10779,"adult":false},{"id":9945,"adult":false},{"id":370076,"adult":false},{"id":392987,"adult":false},{"id":157825,"adult":false}],"page":7,"total_pages":127,"total_results":12659}