{"results":[{"id":418001,"adult":false},{"id":418002,"adult":true},{"id":253306,"adult":false},{"id":349415,"adult":null},{"id":349405,"adult":null},{"id":233691,"adult":false},{"id":418003,"adult":true},{"id":55197,"adult":false},{"id":72593,"adult":false},{"id":154738,"adult":false},{"id":47084,"adult":false},{"id":384318,"adult":false},{"id":418004,"adult":false},{"id":197259,"adult":false},{"id":501,"adult":false},{"id":418005,"adult":false},{"id":349412,"adult":null},{"id":50578,"adult":false},{"id":116745,"adult":false},{"id":39519,"adult":false},{"id":418006,"adult":false},{"id":224034,"adult":false},{"id":74197,"adult":false},{"id":393435,"adult":false},{"id":68684,"adult":false},{"id":350597,"adult":null},{"id":262908,"adult":false},{"id":217993,"adult":false},{"id":31664,"adult":false},{"id":20324,"adult":false},{"id":263026,"adult":false},{"id":258525,"adult":false},{"id":418007,"adult":false},{"id":235245,"adult":false},{"id":86027,"adult":false},{"id":38878,"adult":false},{"id":385760,"adult":false},{"id":317116,"adult":false},{"id":28324,"adult":false},{"id":379323,"adult":false},{"id":418008,"adult":false},{"id":418009,"adult":false},{"id":418010,"adult":false},{"id":82175,"adult":false},{"id":418011,"adult":false},{"id":418012,"adult":false},{"id":17985,"adult":false},{"id":128129,"adult":false},{"id":263858,"adult":false},{"id":418013,"adult":false},{"id":359542,"adult":false},{"id":330282,"adult":false},{"id":135610,"adult":false},{"id":381722,"adult":false},{"id":260273,"adult":false},{"id":149630,"adult":false},{"id":662,"adult":false},{"id":418014,"adult":false},{"id":418015,"adult":false},{"id":418016,"adult":false},{"id":418017,"adult":false},{"id":40492,"adult":false},{"id":408290,"adult":false},{"id":418018,"adult":true},{"id":418019,"adult":false},{"id":78206,"adult":false},{"id":408539,"adult":false},{"id":407646,"adult":false},{"id":18971,"adult":false},{"id":293860,"adult":false},{"id":418020,"adult":false},{"id":50333,"adult":false},{"id":382906,"adult":false},{"id":374440,"adult":false},{"id":3780,"adult":false},{"id":82,"adult":false},{"id":418021,"adult":false},{"id":153021,"adult":false},{"id":38325,"adult":false},{"id":391234,"adult":false},{"id":381649,"adult":false},{"id":411025,"adult":false},{"id":3635,"adult":false},{"id":400385,"adult":false},{"id":45318,"adult":false},{"id":110614,"adult":false},{"id":43122,"adult":false},{"id":76835,"adult":false},{"id":5858,"adult":false},{"id":58399,"adult":false},{"id":358927,"adult":false},{"id":408198,"adult":false},{"id":342690,"adult":false},{"id":269955,"adult":false},{"id":13689,"adult":false},{"id":43155,"adult":false},{"id":9384,"adult":false},{"id":11837,"adult":false},{"id":58913,"adult":false},{"id":418022,"adult":false}],"page":115,"total_pages":141,"total_results":14019}