{"results":[{"id":18031,"adult":false},{"id":84896,"adult":false},{"id":400464,"adult":false},{"id":284200,"adult":false},{"id":110143,"adult":false},{"id":384943,"adult":true},{"id":400465,"adult":false},{"id":129611,"adult":false},{"id":302699,"adult":false},{"id":921,"adult":false},{"id":9409,"adult":false},{"id":400466,"adult":false},{"id":28455,"adult":false},{"id":80793,"adult":false},{"id":19483,"adult":false},{"id":224972,"adult":false},{"id":400467,"adult":false},{"id":26689,"adult":false},{"id":32037,"adult":false},{"id":14377,"adult":false},{"id":70009,"adult":false},{"id":2071,"adult":false},{"id":14373,"adult":false},{"id":109394,"adult":false},{"id":11153,"adult":false},{"id":338373,"adult":false},{"id":34101,"adult":false},{"id":9085,"adult":false},{"id":81859,"adult":false},{"id":388131,"adult":false},{"id":148599,"adult":false},{"id":329697,"adult":false},{"id":147939,"adult":false},{"id":338632,"adult":false},{"id":136967,"adult":false},{"id":267193,"adult":false},{"id":356701,"adult":false},{"id":400468,"adult":null},{"id":400469,"adult":false},{"id":400470,"adult":false},{"id":400471,"adult":false},{"id":391095,"adult":false},{"id":400472,"adult":false},{"id":400473,"adult":false},{"id":327593,"adult":false},{"id":400474,"adult":false},{"id":15804,"adult":false},{"id":22794,"adult":false},{"id":368596,"adult":false},{"id":60280,"adult":false},{"id":338421,"adult":false},{"id":400475,"adult":false},{"id":340605,"adult":false},{"id":2125,"adult":false},{"id":389396,"adult":false},{"id":268642,"adult":false},{"id":381167,"adult":false},{"id":336808,"adult":false},{"id":333089,"adult":false},{"id":319995,"adult":false},{"id":350849,"adult":false},{"id":339274,"adult":false},{"id":272031,"adult":false},{"id":310568,"adult":false},{"id":44748,"adult":false},{"id":363821,"adult":false},{"id":400478,"adult":null},{"id":78161,"adult":false},{"id":397253,"adult":false},{"id":388892,"adult":false},{"id":370666,"adult":false},{"id":400479,"adult":false},{"id":42863,"adult":false},{"id":287596,"adult":false},{"id":391330,"adult":false},{"id":391306,"adult":false},{"id":391323,"adult":false},{"id":348813,"adult":false},{"id":342375,"adult":false},{"id":400481,"adult":false},{"id":191754,"adult":false},{"id":95610,"adult":false},{"id":400482,"adult":false},{"id":105087,"adult":false},{"id":223702,"adult":false},{"id":336000,"adult":false},{"id":400483,"adult":false},{"id":382194,"adult":false},{"id":73944,"adult":false},{"id":832,"adult":false},{"id":29562,"adult":false},{"id":17360,"adult":false},{"id":400484,"adult":false},{"id":400485,"adult":false},{"id":15667,"adult":false},{"id":23916,"adult":false},{"id":11688,"adult":false},{"id":387115,"adult":false},{"id":260914,"adult":false},{"id":400486,"adult":true}],"page":14,"total_pages":116,"total_results":11568}