{"results":[{"id":41941,"adult":false},{"id":15606,"adult":false},{"id":18679,"adult":false},{"id":22255,"adult":false},{"id":31739,"adult":false},{"id":35584,"adult":false},{"id":45364,"adult":false},{"id":55392,"adult":false},{"id":60198,"adult":false},{"id":214459,"adult":false},{"id":77987,"adult":false},{"id":233971,"adult":false},{"id":275016,"adult":false},{"id":302122,"adult":false},{"id":53897,"adult":false},{"id":345520,"adult":false},{"id":369744,"adult":false},{"id":380473,"adult":false},{"id":86505,"adult":false},{"id":55800,"adult":false},{"id":74855,"adult":false},{"id":62435,"adult":false},{"id":62197,"adult":false},{"id":10387,"adult":false},{"id":394437,"adult":false},{"id":394438,"adult":null},{"id":9813,"adult":false},{"id":333099,"adult":false},{"id":394439,"adult":false},{"id":394440,"adult":false},{"id":288987,"adult":false},{"id":394441,"adult":false},{"id":69359,"adult":true},{"id":394442,"adult":false},{"id":394443,"adult":false},{"id":394444,"adult":false},{"id":394445,"adult":false},{"id":394446,"adult":false},{"id":394447,"adult":false},{"id":24711,"adult":false},{"id":347968,"adult":false},{"id":225409,"adult":false},{"id":286519,"adult":false},{"id":252512,"adult":false},{"id":16121,"adult":false},{"id":33719,"adult":false},{"id":370925,"adult":false},{"id":357438,"adult":false},{"id":198513,"adult":false},{"id":200505,"adult":false},{"id":195664,"adult":false},{"id":40793,"adult":false},{"id":266647,"adult":false},{"id":124183,"adult":false},{"id":13510,"adult":false},{"id":355946,"adult":false},{"id":46521,"adult":false},{"id":64732,"adult":false},{"id":155084,"adult":false},{"id":1938,"adult":false},{"id":10501,"adult":false},{"id":282984,"adult":false},{"id":319709,"adult":false},{"id":347538,"adult":false},{"id":10785,"adult":false},{"id":262663,"adult":false},{"id":378076,"adult":false},{"id":1726,"adult":false},{"id":135179,"adult":false},{"id":82134,"adult":false},{"id":203763,"adult":false},{"id":73646,"adult":false},{"id":53861,"adult":false},{"id":337960,"adult":false},{"id":34595,"adult":false},{"id":2126,"adult":false},{"id":394448,"adult":false},{"id":314474,"adult":false},{"id":295486,"adult":false},{"id":834,"adult":false},{"id":326,"adult":false},{"id":146034,"adult":false},{"id":97435,"adult":false},{"id":300601,"adult":false},{"id":286521,"adult":false},{"id":30125,"adult":false},{"id":87359,"adult":false},{"id":19173,"adult":false},{"id":209251,"adult":false},{"id":260108,"adult":false},{"id":9350,"adult":false},{"id":105056,"adult":false},{"id":284514,"adult":false},{"id":64931,"adult":false},{"id":394449,"adult":false},{"id":10774,"adult":false},{"id":1374,"adult":false},{"id":394451,"adult":false},{"id":127372,"adult":false},{"id":114,"adult":false}],"page":100,"total_pages":127,"total_results":12659}