{"results":[{"id":532,"adult":false},{"id":10803,"adult":false},{"id":2687,"adult":false},{"id":43933,"adult":false},{"id":323517,"adult":false},{"id":404462,"adult":false},{"id":24253,"adult":false},{"id":227719,"adult":false},{"id":328387,"adult":false},{"id":39254,"adult":false},{"id":334527,"adult":false},{"id":324668,"adult":false},{"id":84329,"adult":false},{"id":37686,"adult":false},{"id":19959,"adult":false},{"id":373471,"adult":false},{"id":404463,"adult":false},{"id":158852,"adult":false},{"id":157353,"adult":false},{"id":347033,"adult":false},{"id":45662,"adult":false},{"id":310135,"adult":false},{"id":301875,"adult":false},{"id":15907,"adult":false},{"id":30178,"adult":false},{"id":9271,"adult":false},{"id":10640,"adult":false},{"id":118081,"adult":false},{"id":404464,"adult":false},{"id":323272,"adult":false},{"id":348674,"adult":false},{"id":114163,"adult":false},{"id":90159,"adult":false},{"id":340187,"adult":false},{"id":279641,"adult":false},{"id":379646,"adult":null},{"id":311291,"adult":false},{"id":8981,"adult":false},{"id":256962,"adult":false},{"id":821,"adult":false},{"id":10795,"adult":false},{"id":228869,"adult":false},{"id":531,"adult":false},{"id":404465,"adult":false},{"id":28452,"adult":false},{"id":339397,"adult":false},{"id":196738,"adult":false},{"id":27213,"adult":false},{"id":15121,"adult":false},{"id":70051,"adult":false},{"id":263997,"adult":false},{"id":253254,"adult":false},{"id":388359,"adult":false},{"id":242065,"adult":false},{"id":253406,"adult":false},{"id":321342,"adult":false},{"id":376659,"adult":false},{"id":9826,"adult":false},{"id":404466,"adult":false},{"id":34192,"adult":false},{"id":147132,"adult":false},{"id":155858,"adult":false},{"id":163684,"adult":false},{"id":132099,"adult":false},{"id":384420,"adult":false},{"id":8697,"adult":false},{"id":44924,"adult":false},{"id":357652,"adult":false},{"id":137372,"adult":false},{"id":54185,"adult":false},{"id":9740,"adult":false},{"id":376869,"adult":false},{"id":95,"adult":false},{"id":48125,"adult":false},{"id":7342,"adult":false},{"id":128489,"adult":false},{"id":399300,"adult":false},{"id":56539,"adult":false},{"id":9929,"adult":false},{"id":214100,"adult":false},{"id":44425,"adult":false},{"id":269149,"adult":false},{"id":404467,"adult":false},{"id":325138,"adult":false},{"id":11109,"adult":false},{"id":377985,"adult":false},{"id":24860,"adult":false},{"id":267193,"adult":false},{"id":16407,"adult":false},{"id":160769,"adult":false},{"id":52350,"adult":false},{"id":307,"adult":false},{"id":64079,"adult":false},{"id":104885,"adult":false},{"id":74877,"adult":false},{"id":16511,"adult":false},{"id":2062,"adult":false},{"id":368263,"adult":false},{"id":33034,"adult":false},{"id":159017,"adult":false}],"page":6,"total_pages":112,"total_results":11190}