{"results":[{"id":218301,"adult":false},{"id":327796,"adult":false},{"id":204472,"adult":false},{"id":418253,"adult":false},{"id":120985,"adult":false},{"id":27538,"adult":false},{"id":27766,"adult":false},{"id":30401,"adult":false},{"id":410815,"adult":false},{"id":284470,"adult":false},{"id":27690,"adult":false},{"id":108537,"adult":false},{"id":40952,"adult":false},{"id":27172,"adult":false},{"id":418254,"adult":false},{"id":328572,"adult":false},{"id":15716,"adult":false},{"id":415890,"adult":false},{"id":13318,"adult":false},{"id":418255,"adult":false},{"id":28185,"adult":false},{"id":28186,"adult":false},{"id":130957,"adult":false},{"id":250142,"adult":false},{"id":418256,"adult":false},{"id":418257,"adult":false},{"id":413139,"adult":false},{"id":70005,"adult":false},{"id":418258,"adult":false},{"id":413145,"adult":false},{"id":182732,"adult":false},{"id":353334,"adult":false},{"id":405960,"adult":false},{"id":241081,"adult":false},{"id":408123,"adult":false},{"id":418259,"adult":false},{"id":408122,"adult":false},{"id":43781,"adult":false},{"id":406270,"adult":false},{"id":81995,"adult":false},{"id":418260,"adult":false},{"id":407736,"adult":false},{"id":149968,"adult":false},{"id":418261,"adult":false},{"id":28932,"adult":false},{"id":418262,"adult":false},{"id":211680,"adult":false},{"id":418263,"adult":false},{"id":418264,"adult":false},{"id":418265,"adult":false},{"id":197397,"adult":false},{"id":418266,"adult":false},{"id":418267,"adult":false},{"id":332704,"adult":false},{"id":12162,"adult":false},{"id":325173,"adult":false},{"id":10161,"adult":false},{"id":27803,"adult":false},{"id":415798,"adult":false},{"id":114187,"adult":false},{"id":375534,"adult":false},{"id":418268,"adult":false},{"id":2323,"adult":false},{"id":418269,"adult":false},{"id":331583,"adult":false},{"id":389919,"adult":false},{"id":42557,"adult":false},{"id":387805,"adult":false},{"id":335717,"adult":false},{"id":122440,"adult":false},{"id":418270,"adult":false},{"id":59961,"adult":false},{"id":415762,"adult":null},{"id":33,"adult":false},{"id":271715,"adult":false},{"id":418271,"adult":false},{"id":13885,"adult":false},{"id":406994,"adult":false},{"id":205,"adult":false},{"id":104488,"adult":false},{"id":197401,"adult":false},{"id":396597,"adult":false},{"id":378932,"adult":false},{"id":340018,"adult":false},{"id":135886,"adult":false},{"id":234165,"adult":false},{"id":418272,"adult":false},{"id":418273,"adult":false},{"id":258370,"adult":false},{"id":260513,"adult":false},{"id":390872,"adult":null},{"id":372836,"adult":false},{"id":32628,"adult":false},{"id":350931,"adult":false},{"id":418274,"adult":false},{"id":418275,"adult":false},{"id":418276,"adult":false},{"id":197408,"adult":false},{"id":418277,"adult":false},{"id":418278,"adult":false}],"page":133,"total_pages":141,"total_results":14019}