{"results":[{"id":49773,"adult":false},{"id":3109,"adult":false},{"id":348966,"adult":false},{"id":280690,"adult":false},{"id":212231,"adult":false},{"id":273477,"adult":false},{"id":258962,"adult":false},{"id":9675,"adult":false},{"id":323428,"adult":false},{"id":380858,"adult":false},{"id":130150,"adult":false},{"id":336666,"adult":false},{"id":323396,"adult":false},{"id":11976,"adult":false},{"id":168228,"adult":false},{"id":9038,"adult":false},{"id":29075,"adult":false},{"id":209189,"adult":false},{"id":380859,"adult":false},{"id":9986,"adult":false},{"id":380860,"adult":false},{"id":29147,"adult":false},{"id":27769,"adult":false},{"id":380861,"adult":false},{"id":96378,"adult":false},{"id":379927,"adult":false},{"id":380862,"adult":false},{"id":37288,"adult":false},{"id":84355,"adult":false},{"id":47263,"adult":false},{"id":332976,"adult":false},{"id":86193,"adult":false},{"id":180305,"adult":false},{"id":51776,"adult":false},{"id":9101,"adult":false},{"id":158908,"adult":false},{"id":380863,"adult":false},{"id":380864,"adult":false},{"id":334164,"adult":null},{"id":380865,"adult":false},{"id":17168,"adult":false},{"id":378513,"adult":null},{"id":74513,"adult":false},{"id":127585,"adult":false},{"id":18722,"adult":false},{"id":8346,"adult":false},{"id":175994,"adult":false},{"id":40601,"adult":false},{"id":146958,"adult":false},{"id":81342,"adult":false},{"id":380866,"adult":false},{"id":10280,"adult":false},{"id":1930,"adult":false},{"id":380867,"adult":false},{"id":10413,"adult":false},{"id":380868,"adult":false},{"id":1989,"adult":false},{"id":168534,"adult":false},{"id":371459,"adult":false},{"id":10687,"adult":false},{"id":2758,"adult":false},{"id":39414,"adult":false},{"id":9100,"adult":false},{"id":380869,"adult":false},{"id":189,"adult":false},{"id":131631,"adult":false},{"id":112554,"adult":false},{"id":310,"adult":false},{"id":926,"adult":false},{"id":118320,"adult":false},{"id":13885,"adult":false},{"id":123229,"adult":false},{"id":380870,"adult":false},{"id":116675,"adult":false},{"id":650,"adult":false},{"id":13315,"adult":false},{"id":380871,"adult":false},{"id":2789,"adult":false},{"id":119444,"adult":false},{"id":353406,"adult":false},{"id":321214,"adult":false},{"id":274854,"adult":false},{"id":272435,"adult":false},{"id":380872,"adult":false},{"id":99367,"adult":false},{"id":380873,"adult":false},{"id":11381,"adult":false},{"id":380874,"adult":false},{"id":55150,"adult":false},{"id":283589,"adult":false},{"id":10671,"adult":false},{"id":356452,"adult":false},{"id":1376,"adult":false},{"id":246507,"adult":false},{"id":10750,"adult":false},{"id":82886,"adult":false},{"id":319995,"adult":false},{"id":22004,"adult":false},{"id":380875,"adult":null},{"id":318781,"adult":false}],"page":20,"total_pages":119,"total_results":11854}