{"results":[{"id":323949,"adult":false},{"id":39076,"adult":false},{"id":322949,"adult":false},{"id":83480,"adult":false},{"id":39328,"adult":false},{"id":302571,"adult":false},{"id":16802,"adult":false},{"id":28380,"adult":false},{"id":63882,"adult":false},{"id":399498,"adult":null},{"id":49517,"adult":false},{"id":399499,"adult":false},{"id":48196,"adult":false},{"id":34269,"adult":false},{"id":263259,"adult":false},{"id":33517,"adult":false},{"id":337107,"adult":false},{"id":382333,"adult":false},{"id":237807,"adult":false},{"id":44877,"adult":false},{"id":319029,"adult":false},{"id":9341,"adult":false},{"id":1364,"adult":false},{"id":50348,"adult":false},{"id":399500,"adult":false},{"id":306931,"adult":false},{"id":61909,"adult":false},{"id":399501,"adult":false},{"id":399502,"adult":false},{"id":28679,"adult":false},{"id":386457,"adult":null},{"id":399503,"adult":false},{"id":385648,"adult":null},{"id":168690,"adult":null},{"id":330577,"adult":false},{"id":399504,"adult":false},{"id":175353,"adult":null},{"id":34800,"adult":false},{"id":262781,"adult":false},{"id":399505,"adult":false},{"id":329509,"adult":false},{"id":364257,"adult":false},{"id":329507,"adult":false},{"id":329506,"adult":false},{"id":41216,"adult":false},{"id":399506,"adult":false},{"id":399507,"adult":false},{"id":399508,"adult":false},{"id":379649,"adult":false},{"id":250184,"adult":false},{"id":399509,"adult":false},{"id":399510,"adult":false},{"id":237771,"adult":false},{"id":399511,"adult":false},{"id":399512,"adult":false},{"id":12473,"adult":false},{"id":329465,"adult":false},{"id":399513,"adult":false},{"id":10836,"adult":false},{"id":298941,"adult":false},{"id":399514,"adult":false},{"id":315681,"adult":false},{"id":399515,"adult":false},{"id":49690,"adult":false},{"id":393923,"adult":false},{"id":399516,"adult":false},{"id":67014,"adult":null},{"id":399517,"adult":false},{"id":399518,"adult":false},{"id":399519,"adult":false},{"id":399520,"adult":false},{"id":344280,"adult":null},{"id":368011,"adult":false},{"id":399521,"adult":false},{"id":399522,"adult":false},{"id":348161,"adult":false},{"id":282491,"adult":false},{"id":241777,"adult":null},{"id":165228,"adult":false},{"id":165227,"adult":null},{"id":27709,"adult":false},{"id":399523,"adult":false},{"id":344171,"adult":false},{"id":36905,"adult":true},{"id":382994,"adult":false},{"id":264986,"adult":false},{"id":265172,"adult":false},{"id":265139,"adult":false},{"id":315453,"adult":false},{"id":386684,"adult":true},{"id":371171,"adult":true},{"id":399524,"adult":false},{"id":292257,"adult":false},{"id":137872,"adult":false},{"id":40205,"adult":false},{"id":47397,"adult":false},{"id":70519,"adult":false},{"id":399525,"adult":false},{"id":391012,"adult":true},{"id":399526,"adult":false}],"page":122,"total_pages":128,"total_results":12797}