{"results":[{"id":296264,"adult":false},{"id":251727,"adult":false},{"id":379041,"adult":false},{"id":1721,"adult":false},{"id":379042,"adult":false},{"id":205133,"adult":false},{"id":379043,"adult":false},{"id":379044,"adult":false},{"id":379045,"adult":false},{"id":38750,"adult":false},{"id":330483,"adult":false},{"id":379046,"adult":false},{"id":186969,"adult":false},{"id":379047,"adult":false},{"id":379048,"adult":false},{"id":379049,"adult":false},{"id":379050,"adult":false},{"id":288158,"adult":false},{"id":379051,"adult":false},{"id":51209,"adult":false},{"id":379052,"adult":false},{"id":379053,"adult":false},{"id":379054,"adult":false},{"id":296270,"adult":false},{"id":379055,"adult":false},{"id":3432,"adult":false},{"id":379056,"adult":false},{"id":379057,"adult":false},{"id":379058,"adult":false},{"id":281953,"adult":false},{"id":340187,"adult":false},{"id":55347,"adult":false},{"id":367428,"adult":false},{"id":5176,"adult":false},{"id":48319,"adult":false},{"id":207724,"adult":false},{"id":166424,"adult":false},{"id":1433,"adult":false},{"id":240832,"adult":false},{"id":43226,"adult":false},{"id":50646,"adult":false},{"id":9620,"adult":false},{"id":369036,"adult":false},{"id":379059,"adult":false},{"id":13282,"adult":false},{"id":379060,"adult":false},{"id":379061,"adult":false},{"id":264525,"adult":false},{"id":379062,"adult":false},{"id":131868,"adult":true},{"id":379063,"adult":false},{"id":35102,"adult":false},{"id":337958,"adult":false},{"id":379064,"adult":false},{"id":379065,"adult":false},{"id":14180,"adult":false},{"id":379066,"adult":false},{"id":86603,"adult":false},{"id":172008,"adult":false},{"id":379067,"adult":false},{"id":379068,"adult":false},{"id":97714,"adult":false},{"id":125232,"adult":false},{"id":379069,"adult":false},{"id":93424,"adult":false},{"id":379070,"adult":false},{"id":121462,"adult":false},{"id":323435,"adult":false},{"id":352526,"adult":null},{"id":224961,"adult":false},{"id":379071,"adult":false},{"id":323372,"adult":false},{"id":320413,"adult":false},{"id":379072,"adult":false},{"id":8292,"adult":false},{"id":379073,"adult":false},{"id":263619,"adult":false},{"id":379074,"adult":false},{"id":336882,"adult":false},{"id":7191,"adult":false},{"id":379075,"adult":false},{"id":379076,"adult":false},{"id":953,"adult":false},{"id":10527,"adult":false},{"id":80321,"adult":false},{"id":46195,"adult":false},{"id":379077,"adult":false},{"id":317221,"adult":false},{"id":84372,"adult":false},{"id":271780,"adult":false},{"id":37735,"adult":false},{"id":379078,"adult":false},{"id":379079,"adult":false},{"id":46821,"adult":false},{"id":243294,"adult":false},{"id":379080,"adult":false},{"id":379081,"adult":false},{"id":53574,"adult":false},{"id":379082,"adult":false},{"id":8494,"adult":false}],"page":87,"total_pages":226,"total_results":22514}