{"results":[{"id":352111,"adult":false},{"id":270530,"adult":false},{"id":339083,"adult":false},{"id":315837,"adult":false},{"id":58974,"adult":false},{"id":385404,"adult":null},{"id":9084,"adult":false},{"id":40029,"adult":false},{"id":424141,"adult":false},{"id":357054,"adult":false},{"id":72208,"adult":false},{"id":59917,"adult":false},{"id":95192,"adult":false},{"id":392184,"adult":false},{"id":353267,"adult":false},{"id":339959,"adult":false},{"id":26587,"adult":false},{"id":51194,"adult":false},{"id":363889,"adult":false},{"id":30685,"adult":false},{"id":424142,"adult":false},{"id":424143,"adult":false},{"id":424144,"adult":false},{"id":313297,"adult":false},{"id":338766,"adult":false},{"id":416116,"adult":false},{"id":424145,"adult":false},{"id":336222,"adult":false},{"id":335313,"adult":false},{"id":424146,"adult":false},{"id":211553,"adult":false},{"id":268871,"adult":false},{"id":323677,"adult":false},{"id":424147,"adult":false},{"id":424148,"adult":false},{"id":424149,"adult":false},{"id":307274,"adult":false},{"id":268957,"adult":false},{"id":424150,"adult":false},{"id":400507,"adult":false},{"id":424151,"adult":false},{"id":18882,"adult":false},{"id":408620,"adult":false},{"id":344593,"adult":false},{"id":424152,"adult":false},{"id":254023,"adult":false},{"id":424153,"adult":false},{"id":424154,"adult":false},{"id":424155,"adult":false},{"id":424156,"adult":false},{"id":44265,"adult":false},{"id":388692,"adult":false},{"id":299848,"adult":false},{"id":392353,"adult":false},{"id":3782,"adult":false},{"id":79382,"adult":false},{"id":241259,"adult":false},{"id":378138,"adult":false},{"id":141741,"adult":false},{"id":12155,"adult":false},{"id":403977,"adult":false},{"id":25974,"adult":false},{"id":28597,"adult":false},{"id":29054,"adult":false},{"id":418399,"adult":false},{"id":397356,"adult":false},{"id":187,"adult":false},{"id":189,"adult":false},{"id":135179,"adult":false},{"id":406776,"adult":false},{"id":424157,"adult":false},{"id":46197,"adult":false},{"id":20932,"adult":false},{"id":97,"adult":false},{"id":359790,"adult":false},{"id":116712,"adult":false},{"id":296865,"adult":false},{"id":26486,"adult":false},{"id":253332,"adult":false},{"id":8899,"adult":false},{"id":9460,"adult":false},{"id":37766,"adult":false},{"id":424158,"adult":false},{"id":9486,"adult":false},{"id":58233,"adult":false},{"id":86117,"adult":false},{"id":65379,"adult":false},{"id":378421,"adult":false},{"id":421654,"adult":false},{"id":421655,"adult":false},{"id":1865,"adult":false},{"id":49529,"adult":false},{"id":424159,"adult":false},{"id":69813,"adult":false},{"id":418900,"adult":false},{"id":59447,"adult":false},{"id":402648,"adult":false},{"id":416852,"adult":false},{"id":1103,"adult":false},{"id":98025,"adult":false}],"page":23,"total_pages":120,"total_results":11922}