{"results":[{"id":393445,"adult":false},{"id":282777,"adult":false},{"id":12,"adult":false},{"id":4480,"adult":false},{"id":318039,"adult":false},{"id":12235,"adult":false},{"id":298040,"adult":false},{"id":230173,"adult":false},{"id":106,"adult":false},{"id":10945,"adult":false},{"id":315147,"adult":false},{"id":162532,"adult":false},{"id":213598,"adult":false},{"id":11469,"adult":false},{"id":373348,"adult":false},{"id":10152,"adult":false},{"id":422622,"adult":false},{"id":162,"adult":false},{"id":422623,"adult":false},{"id":17175,"adult":false},{"id":300643,"adult":false},{"id":386896,"adult":false},{"id":46338,"adult":false},{"id":31947,"adult":false},{"id":296202,"adult":false},{"id":10776,"adult":false},{"id":81561,"adult":false},{"id":422624,"adult":false},{"id":122928,"adult":false},{"id":79615,"adult":false},{"id":56037,"adult":false},{"id":78049,"adult":false},{"id":347478,"adult":false},{"id":410570,"adult":false},{"id":305775,"adult":false},{"id":137697,"adult":false},{"id":293881,"adult":false},{"id":422625,"adult":false},{"id":319888,"adult":false},{"id":45772,"adult":false},{"id":36657,"adult":false},{"id":417251,"adult":false},{"id":337699,"adult":false},{"id":422629,"adult":false},{"id":42762,"adult":false},{"id":336804,"adult":false},{"id":381719,"adult":false},{"id":422630,"adult":false},{"id":316842,"adult":false},{"id":287611,"adult":false},{"id":411141,"adult":false},{"id":411139,"adult":false},{"id":422631,"adult":false},{"id":363456,"adult":false},{"id":356016,"adult":false},{"id":47191,"adult":false},{"id":370178,"adult":false},{"id":422632,"adult":false},{"id":422633,"adult":false},{"id":288128,"adult":false},{"id":333270,"adult":false},{"id":400703,"adult":false},{"id":420525,"adult":false},{"id":422634,"adult":null},{"id":311291,"adult":false},{"id":419109,"adult":false},{"id":389630,"adult":false},{"id":422635,"adult":false},{"id":120723,"adult":false},{"id":37451,"adult":false},{"id":265226,"adult":false},{"id":169759,"adult":false},{"id":388548,"adult":false},{"id":57111,"adult":false},{"id":382254,"adult":false},{"id":11428,"adult":false},{"id":409447,"adult":false},{"id":192811,"adult":false},{"id":18569,"adult":false},{"id":355234,"adult":false},{"id":31094,"adult":false},{"id":8973,"adult":false},{"id":387961,"adult":false},{"id":157823,"adult":false},{"id":32076,"adult":false},{"id":168552,"adult":false},{"id":25950,"adult":false},{"id":10390,"adult":false},{"id":160068,"adult":false},{"id":39859,"adult":false},{"id":9701,"adult":false},{"id":36758,"adult":false},{"id":11449,"adult":false},{"id":9044,"adult":false},{"id":396036,"adult":false},{"id":19816,"adult":false},{"id":422636,"adult":false},{"id":422637,"adult":false},{"id":346360,"adult":false},{"id":422638,"adult":false}],"page":95,"total_pages":123,"total_results":12202}