{"results":[{"id":286527,"adult":false},{"id":69152,"adult":false},{"id":75759,"adult":false},{"id":7453,"adult":false},{"id":146631,"adult":false},{"id":420110,"adult":false},{"id":38939,"adult":false},{"id":420111,"adult":false},{"id":420112,"adult":false},{"id":420113,"adult":false},{"id":53868,"adult":false},{"id":9059,"adult":false},{"id":9431,"adult":false},{"id":32947,"adult":false},{"id":41235,"adult":false},{"id":3578,"adult":false},{"id":420114,"adult":false},{"id":417028,"adult":false},{"id":12779,"adult":false},{"id":262043,"adult":false},{"id":420115,"adult":false},{"id":56332,"adult":false},{"id":420116,"adult":false},{"id":413580,"adult":false},{"id":55141,"adult":false},{"id":301812,"adult":false},{"id":316152,"adult":false},{"id":267418,"adult":false},{"id":80426,"adult":false},{"id":420117,"adult":false},{"id":420118,"adult":false},{"id":120873,"adult":false},{"id":420119,"adult":false},{"id":22004,"adult":false},{"id":57744,"adult":false},{"id":283819,"adult":false},{"id":420120,"adult":false},{"id":358608,"adult":false},{"id":409538,"adult":false},{"id":382438,"adult":false},{"id":273676,"adult":false},{"id":258932,"adult":false},{"id":254375,"adult":false},{"id":420121,"adult":false},{"id":163774,"adult":false},{"id":26149,"adult":false},{"id":10612,"adult":false},{"id":111190,"adult":false},{"id":385590,"adult":null},{"id":382445,"adult":true},{"id":5443,"adult":false},{"id":488,"adult":false},{"id":418517,"adult":false},{"id":6968,"adult":false},{"id":206018,"adult":false},{"id":115675,"adult":false},{"id":76696,"adult":false},{"id":417989,"adult":false},{"id":404609,"adult":false},{"id":52369,"adult":false},{"id":420122,"adult":false},{"id":391738,"adult":false},{"id":63612,"adult":false},{"id":420123,"adult":false},{"id":99889,"adult":false},{"id":373569,"adult":false},{"id":38701,"adult":false},{"id":420124,"adult":false},{"id":420125,"adult":true},{"id":420126,"adult":null},{"id":420127,"adult":false},{"id":420128,"adult":false},{"id":399031,"adult":false},{"id":277432,"adult":false},{"id":20333,"adult":false},{"id":402778,"adult":false},{"id":254628,"adult":true},{"id":345658,"adult":true},{"id":219318,"adult":false},{"id":407540,"adult":false},{"id":420129,"adult":true},{"id":420130,"adult":false},{"id":420131,"adult":false},{"id":408475,"adult":false},{"id":25838,"adult":false},{"id":271595,"adult":false},{"id":62083,"adult":false},{"id":420132,"adult":false},{"id":57119,"adult":false},{"id":420133,"adult":false},{"id":78563,"adult":false},{"id":74945,"adult":false},{"id":265629,"adult":false},{"id":420134,"adult":true},{"id":75174,"adult":false},{"id":78432,"adult":false},{"id":902,"adult":false},{"id":417600,"adult":false},{"id":194101,"adult":false},{"id":420135,"adult":false}],"page":93,"total_pages":144,"total_results":14341}