{"results":[{"id":142195,"adult":false},{"id":36357,"adult":false},{"id":79357,"adult":false},{"id":353415,"adult":false},{"id":293766,"adult":false},{"id":409271,"adult":false},{"id":258230,"adult":false},{"id":704,"adult":false},{"id":311324,"adult":false},{"id":276145,"adult":false},{"id":259316,"adult":false},{"id":409272,"adult":false},{"id":10681,"adult":false},{"id":409273,"adult":false},{"id":293167,"adult":false},{"id":24428,"adult":false},{"id":82690,"adult":false},{"id":141052,"adult":false},{"id":37019,"adult":false},{"id":22,"adult":false},{"id":284052,"adult":false},{"id":180863,"adult":false},{"id":192102,"adult":false},{"id":409274,"adult":false},{"id":58,"adult":false},{"id":381288,"adult":false},{"id":285,"adult":false},{"id":1865,"adult":false},{"id":256023,"adult":false},{"id":345874,"adult":false},{"id":376092,"adult":false},{"id":376528,"adult":false},{"id":1268,"adult":false},{"id":402780,"adult":false},{"id":1103,"adult":false},{"id":58233,"adult":false},{"id":21043,"adult":false},{"id":15909,"adult":false},{"id":400557,"adult":true},{"id":316373,"adult":false},{"id":28904,"adult":false},{"id":409276,"adult":false},{"id":409277,"adult":true},{"id":409278,"adult":false},{"id":17578,"adult":false},{"id":672,"adult":false},{"id":673,"adult":false},{"id":409279,"adult":false},{"id":674,"adult":false},{"id":290098,"adult":false},{"id":675,"adult":false},{"id":33642,"adult":false},{"id":9777,"adult":false},{"id":157703,"adult":false},{"id":399231,"adult":false},{"id":11549,"adult":false},{"id":9404,"adult":false},{"id":242673,"adult":false},{"id":2300,"adult":false},{"id":16460,"adult":false},{"id":1359,"adult":false},{"id":60293,"adult":false},{"id":21078,"adult":false},{"id":286554,"adult":false},{"id":42246,"adult":false},{"id":409280,"adult":false},{"id":356749,"adult":false},{"id":356748,"adult":false},{"id":402403,"adult":false},{"id":393483,"adult":false},{"id":392283,"adult":false},{"id":337246,"adult":false},{"id":337247,"adult":false},{"id":392114,"adult":false},{"id":379614,"adult":false},{"id":2330,"adult":false},{"id":42156,"adult":false},{"id":384085,"adult":false},{"id":409281,"adult":false},{"id":379615,"adult":false},{"id":337221,"adult":false},{"id":10733,"adult":false},{"id":343428,"adult":false},{"id":337222,"adult":false},{"id":408465,"adult":false},{"id":278318,"adult":false},{"id":253531,"adult":false},{"id":376150,"adult":false},{"id":253529,"adult":false},{"id":253530,"adult":false},{"id":351653,"adult":false},{"id":78694,"adult":false},{"id":312886,"adult":null},{"id":22358,"adult":false},{"id":392106,"adult":false},{"id":400850,"adult":false},{"id":2332,"adult":false},{"id":399038,"adult":false},{"id":337257,"adult":false},{"id":409282,"adult":false}],"page":15,"total_pages":117,"total_results":11641}