{"results":[{"id":384841,"adult":false},{"id":396920,"adult":false},{"id":395477,"adult":null},{"id":171658,"adult":false},{"id":400611,"adult":false},{"id":395475,"adult":false},{"id":253006,"adult":false},{"id":400612,"adult":false},{"id":256439,"adult":false},{"id":255369,"adult":false},{"id":400613,"adult":false},{"id":400616,"adult":false},{"id":231,"adult":false},{"id":33909,"adult":false},{"id":381374,"adult":false},{"id":369119,"adult":false},{"id":394376,"adult":false},{"id":58096,"adult":false},{"id":9325,"adult":false},{"id":400617,"adult":false},{"id":212128,"adult":false},{"id":29474,"adult":false},{"id":173151,"adult":false},{"id":400618,"adult":false},{"id":337098,"adult":false},{"id":364776,"adult":false},{"id":292875,"adult":false},{"id":14320,"adult":false},{"id":3767,"adult":false},{"id":28907,"adult":false},{"id":400164,"adult":false},{"id":24987,"adult":false},{"id":150433,"adult":false},{"id":400326,"adult":false},{"id":103635,"adult":false},{"id":26701,"adult":false},{"id":357706,"adult":false},{"id":354444,"adult":false},{"id":44043,"adult":false},{"id":31278,"adult":false},{"id":57241,"adult":false},{"id":353901,"adult":false},{"id":400619,"adult":false},{"id":299586,"adult":false},{"id":139688,"adult":false},{"id":130249,"adult":false},{"id":20000,"adult":false},{"id":28162,"adult":false},{"id":371656,"adult":false},{"id":1585,"adult":false},{"id":50382,"adult":false},{"id":341759,"adult":false},{"id":181808,"adult":false},{"id":76448,"adult":false},{"id":20417,"adult":false},{"id":31206,"adult":false},{"id":400620,"adult":false},{"id":20408,"adult":false},{"id":38807,"adult":false},{"id":61856,"adult":false},{"id":38042,"adult":false},{"id":356783,"adult":false},{"id":932,"adult":false},{"id":308084,"adult":false},{"id":44100,"adult":false},{"id":400621,"adult":false},{"id":347387,"adult":false},{"id":366111,"adult":false},{"id":384023,"adult":false},{"id":394654,"adult":false},{"id":54568,"adult":false},{"id":26940,"adult":false},{"id":13850,"adult":false},{"id":393731,"adult":false},{"id":400622,"adult":false},{"id":28294,"adult":false},{"id":59148,"adult":false},{"id":400623,"adult":false},{"id":400624,"adult":false},{"id":400625,"adult":false},{"id":400626,"adult":false},{"id":378891,"adult":false},{"id":364137,"adult":false},{"id":390852,"adult":false},{"id":274824,"adult":false},{"id":320910,"adult":false},{"id":400627,"adult":false},{"id":400628,"adult":false},{"id":400629,"adult":false},{"id":400630,"adult":true},{"id":400631,"adult":null},{"id":397485,"adult":false},{"id":209419,"adult":false},{"id":260979,"adult":false},{"id":90936,"adult":false},{"id":356858,"adult":false},{"id":82190,"adult":false},{"id":278398,"adult":false},{"id":157843,"adult":false},{"id":30749,"adult":false}],"page":26,"total_pages":116,"total_results":11568}