{"results":[{"id":398188,"adult":false},{"id":72721,"adult":false},{"id":138305,"adult":false},{"id":57008,"adult":false},{"id":46398,"adult":false},{"id":393481,"adult":false},{"id":303706,"adult":false},{"id":343838,"adult":false},{"id":398189,"adult":false},{"id":395560,"adult":false},{"id":277388,"adult":false},{"id":124157,"adult":false},{"id":398190,"adult":null},{"id":388805,"adult":false},{"id":44899,"adult":false},{"id":213574,"adult":false},{"id":26877,"adult":false},{"id":54164,"adult":false},{"id":266042,"adult":false},{"id":77663,"adult":false},{"id":398192,"adult":false},{"id":195005,"adult":false},{"id":364776,"adult":false},{"id":60695,"adult":false},{"id":248384,"adult":false},{"id":398193,"adult":false},{"id":57236,"adult":false},{"id":398194,"adult":false},{"id":256085,"adult":false},{"id":67819,"adult":false},{"id":366091,"adult":false},{"id":170304,"adult":false},{"id":181110,"adult":false},{"id":230832,"adult":false},{"id":245772,"adult":false},{"id":132701,"adult":false},{"id":6584,"adult":false},{"id":369557,"adult":false},{"id":45418,"adult":false},{"id":368387,"adult":false},{"id":9709,"adult":false},{"id":3110,"adult":false},{"id":294632,"adult":false},{"id":333352,"adult":false},{"id":179985,"adult":false},{"id":92927,"adult":false},{"id":55309,"adult":false},{"id":278319,"adult":false},{"id":398196,"adult":false},{"id":239103,"adult":false},{"id":398197,"adult":false},{"id":361931,"adult":false},{"id":16441,"adult":false},{"id":11319,"adult":false},{"id":112339,"adult":false},{"id":45518,"adult":false},{"id":398198,"adult":false},{"id":373394,"adult":false},{"id":102961,"adult":false},{"id":13483,"adult":false},{"id":36576,"adult":false},{"id":324668,"adult":false},{"id":115276,"adult":false},{"id":31068,"adult":false},{"id":36094,"adult":false},{"id":6081,"adult":false},{"id":271602,"adult":false},{"id":52516,"adult":false},{"id":49391,"adult":false},{"id":267852,"adult":false},{"id":178146,"adult":false},{"id":230573,"adult":false},{"id":398199,"adult":false},{"id":187022,"adult":false},{"id":251458,"adult":false},{"id":123610,"adult":false},{"id":398200,"adult":false},{"id":3054,"adult":false},{"id":168281,"adult":false},{"id":2644,"adult":false},{"id":113025,"adult":false},{"id":41201,"adult":false},{"id":321207,"adult":false},{"id":62103,"adult":false},{"id":220198,"adult":false},{"id":112147,"adult":false},{"id":234004,"adult":false},{"id":24264,"adult":false},{"id":37455,"adult":false},{"id":347945,"adult":false},{"id":398201,"adult":false},{"id":337469,"adult":false},{"id":79073,"adult":false},{"id":34308,"adult":false},{"id":253952,"adult":false},{"id":398202,"adult":false},{"id":316027,"adult":false},{"id":41927,"adult":false},{"id":14052,"adult":false},{"id":36692,"adult":false}],"page":46,"total_pages":128,"total_results":12797}