{"results":[{"id":116198,"adult":false},{"id":425649,"adult":true},{"id":382706,"adult":false},{"id":303967,"adult":false},{"id":425650,"adult":false},{"id":422696,"adult":null},{"id":88972,"adult":false},{"id":274336,"adult":false},{"id":348613,"adult":false},{"id":103625,"adult":false},{"id":425651,"adult":false},{"id":4349,"adult":false},{"id":248628,"adult":false},{"id":425652,"adult":false},{"id":335163,"adult":false},{"id":425653,"adult":false},{"id":377362,"adult":false},{"id":19101,"adult":false},{"id":43003,"adult":false},{"id":425654,"adult":false},{"id":425655,"adult":false},{"id":154529,"adult":false},{"id":425656,"adult":false},{"id":425657,"adult":null},{"id":425658,"adult":null},{"id":11892,"adult":false},{"id":98514,"adult":false},{"id":425659,"adult":true},{"id":425660,"adult":true},{"id":113388,"adult":false},{"id":89704,"adult":false},{"id":259963,"adult":false},{"id":8999,"adult":false},{"id":425661,"adult":true},{"id":425662,"adult":true},{"id":425663,"adult":true},{"id":425664,"adult":false},{"id":19794,"adult":false},{"id":220281,"adult":false},{"id":2022,"adult":false},{"id":346648,"adult":false},{"id":42500,"adult":false},{"id":272751,"adult":false},{"id":1659,"adult":false},{"id":8092,"adult":false},{"id":103569,"adult":false},{"id":15765,"adult":false},{"id":134404,"adult":false},{"id":397407,"adult":false},{"id":72232,"adult":false},{"id":346355,"adult":false},{"id":346356,"adult":false},{"id":135664,"adult":false},{"id":238018,"adult":false},{"id":371459,"adult":false},{"id":250798,"adult":false},{"id":13461,"adult":false},{"id":11074,"adult":false},{"id":11969,"adult":false},{"id":9874,"adult":false},{"id":319,"adult":false},{"id":214435,"adult":false},{"id":7305,"adult":false},{"id":137,"adult":false},{"id":50668,"adult":false},{"id":345888,"adult":false},{"id":4478,"adult":false},{"id":422458,"adult":false},{"id":151923,"adult":false},{"id":364111,"adult":false},{"id":40108,"adult":false},{"id":18890,"adult":false},{"id":112620,"adult":false},{"id":324126,"adult":false},{"id":422786,"adult":false},{"id":531,"adult":false},{"id":348574,"adult":false},{"id":40509,"adult":false},{"id":422778,"adult":false},{"id":422784,"adult":false},{"id":24126,"adult":false},{"id":422793,"adult":false},{"id":1245,"adult":false},{"id":8873,"adult":false},{"id":112225,"adult":false},{"id":422555,"adult":false},{"id":7007,"adult":false},{"id":47350,"adult":false},{"id":276905,"adult":false},{"id":58937,"adult":false},{"id":5051,"adult":false},{"id":124312,"adult":false},{"id":18665,"adult":false},{"id":24909,"adult":false},{"id":14832,"adult":false},{"id":425665,"adult":false},{"id":425666,"adult":false},{"id":5599,"adult":false},{"id":9390,"adult":false},{"id":365435,"adult":false}],"page":107,"total_pages":120,"total_results":11922}