{"results":[{"id":376236,"adult":false},{"id":85226,"adult":false},{"id":40007,"adult":false},{"id":330206,"adult":false},{"id":33484,"adult":false},{"id":299826,"adult":false},{"id":50717,"adult":false},{"id":82149,"adult":false},{"id":73071,"adult":false},{"id":152852,"adult":false},{"id":35115,"adult":false},{"id":4442,"adult":false},{"id":380931,"adult":false},{"id":152866,"adult":false},{"id":126768,"adult":false},{"id":33793,"adult":false},{"id":156018,"adult":false},{"id":333674,"adult":false},{"id":323317,"adult":false},{"id":309242,"adult":false},{"id":360205,"adult":false},{"id":380932,"adult":false},{"id":380933,"adult":false},{"id":277188,"adult":false},{"id":380934,"adult":false},{"id":348296,"adult":false},{"id":380935,"adult":false},{"id":370525,"adult":false},{"id":369469,"adult":false},{"id":371073,"adult":false},{"id":306745,"adult":false},{"id":291356,"adult":false},{"id":380936,"adult":false},{"id":370642,"adult":false},{"id":11441,"adult":false},{"id":55892,"adult":false},{"id":357599,"adult":false},{"id":379873,"adult":false},{"id":377153,"adult":false},{"id":370641,"adult":false},{"id":380937,"adult":false},{"id":7839,"adult":false},{"id":380938,"adult":false},{"id":11679,"adult":false},{"id":62321,"adult":false},{"id":25471,"adult":false},{"id":32213,"adult":false},{"id":253414,"adult":false},{"id":283596,"adult":false},{"id":331576,"adult":false},{"id":225728,"adult":false},{"id":72765,"adult":false},{"id":380939,"adult":false},{"id":380940,"adult":false},{"id":380941,"adult":false},{"id":380942,"adult":false},{"id":376924,"adult":false},{"id":255528,"adult":false},{"id":9333,"adult":false},{"id":380943,"adult":false},{"id":698,"adult":false},{"id":77,"adult":false},{"id":9448,"adult":false},{"id":380944,"adult":false},{"id":176990,"adult":false},{"id":287483,"adult":false},{"id":377449,"adult":false},{"id":380945,"adult":false},{"id":376054,"adult":false},{"id":47954,"adult":false},{"id":263364,"adult":false},{"id":36955,"adult":false},{"id":2123,"adult":false},{"id":699,"adult":false},{"id":76545,"adult":false},{"id":183407,"adult":false},{"id":31372,"adult":false},{"id":285953,"adult":false},{"id":95,"adult":false},{"id":6977,"adult":false},{"id":380946,"adult":false},{"id":380947,"adult":false},{"id":23423,"adult":false},{"id":380948,"adult":false},{"id":10428,"adult":false},{"id":67625,"adult":false},{"id":380952,"adult":false},{"id":10386,"adult":false},{"id":380953,"adult":false},{"id":37094,"adult":false},{"id":348748,"adult":false},{"id":367877,"adult":false},{"id":9619,"adult":false},{"id":370575,"adult":false},{"id":357991,"adult":false},{"id":86645,"adult":false},{"id":368940,"adult":false},{"id":73588,"adult":false},{"id":380959,"adult":false},{"id":324274,"adult":false}],"page":25,"total_pages":119,"total_results":11854}