{"results":[{"id":28249,"adult":false},{"id":419647,"adult":false},{"id":419648,"adult":false},{"id":104534,"adult":false},{"id":69064,"adult":false},{"id":772,"adult":false},{"id":419649,"adult":true},{"id":364615,"adult":false},{"id":419650,"adult":true},{"id":113213,"adult":false},{"id":119278,"adult":false},{"id":227772,"adult":false},{"id":411930,"adult":false},{"id":359458,"adult":false},{"id":263618,"adult":false},{"id":252533,"adult":false},{"id":335791,"adult":false},{"id":419651,"adult":false},{"id":74888,"adult":false},{"id":389995,"adult":false},{"id":323914,"adult":false},{"id":38045,"adult":false},{"id":418392,"adult":false},{"id":276809,"adult":false},{"id":419652,"adult":false},{"id":419653,"adult":false},{"id":275567,"adult":false},{"id":250880,"adult":false},{"id":190487,"adult":false},{"id":419654,"adult":false},{"id":176549,"adult":false},{"id":402438,"adult":false},{"id":419655,"adult":false},{"id":294999,"adult":false},{"id":419656,"adult":false},{"id":127421,"adult":false},{"id":2897,"adult":false},{"id":419657,"adult":false},{"id":26267,"adult":false},{"id":26559,"adult":false},{"id":3559,"adult":false},{"id":367589,"adult":false},{"id":419658,"adult":false},{"id":77068,"adult":false},{"id":419659,"adult":false},{"id":28524,"adult":false},{"id":419660,"adult":false},{"id":284070,"adult":false},{"id":398084,"adult":false},{"id":419661,"adult":false},{"id":298075,"adult":false},{"id":419662,"adult":false},{"id":419663,"adult":false},{"id":97544,"adult":false},{"id":43420,"adult":false},{"id":213840,"adult":false},{"id":49947,"adult":false},{"id":419664,"adult":false},{"id":214135,"adult":false},{"id":419665,"adult":false},{"id":342899,"adult":false},{"id":374771,"adult":false},{"id":2794,"adult":false},{"id":419666,"adult":false},{"id":419667,"adult":false},{"id":293767,"adult":false},{"id":419668,"adult":false},{"id":419669,"adult":false},{"id":18784,"adult":false},{"id":419670,"adult":false},{"id":419671,"adult":false},{"id":419672,"adult":false},{"id":337339,"adult":false},{"id":5817,"adult":false},{"id":419673,"adult":false},{"id":403245,"adult":false},{"id":419674,"adult":false},{"id":262739,"adult":false},{"id":419675,"adult":false},{"id":121883,"adult":false},{"id":419676,"adult":false},{"id":397671,"adult":false},{"id":418747,"adult":false},{"id":913,"adult":false},{"id":419677,"adult":false},{"id":359028,"adult":false},{"id":189476,"adult":false},{"id":10192,"adult":false},{"id":748,"adult":false},{"id":76291,"adult":false},{"id":419678,"adult":false},{"id":186,"adult":false},{"id":43317,"adult":false},{"id":413748,"adult":false},{"id":380026,"adult":false},{"id":402298,"adult":false},{"id":419679,"adult":false},{"id":419680,"adult":false},{"id":12207,"adult":false},{"id":419681,"adult":false}],"page":68,"total_pages":144,"total_results":14341}