{"results":[{"id":279229,"adult":false},{"id":252,"adult":false},{"id":364116,"adult":false},{"id":219639,"adult":false},{"id":17667,"adult":false},{"id":90232,"adult":false},{"id":29159,"adult":false},{"id":106738,"adult":false},{"id":413628,"adult":false},{"id":21861,"adult":false},{"id":413629,"adult":false},{"id":361159,"adult":false},{"id":396014,"adult":false},{"id":413630,"adult":false},{"id":413631,"adult":false},{"id":36949,"adult":false},{"id":413400,"adult":false},{"id":302156,"adult":false},{"id":223485,"adult":false},{"id":21366,"adult":false},{"id":19898,"adult":false},{"id":409481,"adult":false},{"id":214137,"adult":false},{"id":369778,"adult":false},{"id":6471,"adult":false},{"id":927,"adult":false},{"id":27698,"adult":false},{"id":9665,"adult":false},{"id":38006,"adult":false},{"id":293768,"adult":false},{"id":56832,"adult":false},{"id":137696,"adult":false},{"id":76341,"adult":false},{"id":79694,"adult":false},{"id":60309,"adult":false},{"id":20283,"adult":false},{"id":21915,"adult":false},{"id":323677,"adult":false},{"id":413474,"adult":null},{"id":41206,"adult":false},{"id":14853,"adult":false},{"id":226437,"adult":false},{"id":356626,"adult":false},{"id":44692,"adult":false},{"id":300669,"adult":false},{"id":60666,"adult":false},{"id":413632,"adult":false},{"id":413159,"adult":null},{"id":591,"adult":false},{"id":46356,"adult":false},{"id":313369,"adult":false},{"id":394937,"adult":false},{"id":328062,"adult":false},{"id":168055,"adult":false},{"id":227364,"adult":false},{"id":314400,"adult":false},{"id":297806,"adult":false},{"id":285981,"adult":false},{"id":14782,"adult":false},{"id":168257,"adult":false},{"id":32929,"adult":false},{"id":11859,"adult":false},{"id":277546,"adult":false},{"id":2969,"adult":false},{"id":411675,"adult":false},{"id":377541,"adult":false},{"id":38363,"adult":false},{"id":185090,"adult":false},{"id":395650,"adult":false},{"id":2114,"adult":false},{"id":3036,"adult":false},{"id":1894,"adult":false},{"id":169250,"adult":false},{"id":335805,"adult":false},{"id":10016,"adult":false},{"id":383098,"adult":false},{"id":254918,"adult":false},{"id":274902,"adult":false},{"id":116005,"adult":false},{"id":287628,"adult":false},{"id":413633,"adult":true},{"id":359345,"adult":false},{"id":323262,"adult":false},{"id":400610,"adult":false},{"id":201085,"adult":false},{"id":252511,"adult":false},{"id":412687,"adult":false},{"id":413634,"adult":false},{"id":360994,"adult":false},{"id":375167,"adult":false},{"id":306947,"adult":false},{"id":7872,"adult":false},{"id":400509,"adult":false},{"id":373453,"adult":false},{"id":295830,"adult":false},{"id":336082,"adult":false},{"id":389113,"adult":false},{"id":43195,"adult":false},{"id":340382,"adult":false},{"id":318954,"adult":false}],"page":3,"total_pages":126,"total_results":12554}