{"results":[{"id":390853,"adult":false},{"id":110741,"adult":false},{"id":180371,"adult":false},{"id":371095,"adult":false},{"id":12404,"adult":false},{"id":402688,"adult":false},{"id":388449,"adult":false},{"id":402689,"adult":false},{"id":1701,"adult":false},{"id":121856,"adult":false},{"id":6479,"adult":false},{"id":402690,"adult":false},{"id":9873,"adult":false},{"id":11544,"adult":false},{"id":272693,"adult":false},{"id":333382,"adult":false},{"id":148873,"adult":false},{"id":391062,"adult":false},{"id":99361,"adult":false},{"id":76203,"adult":false},{"id":44804,"adult":false},{"id":218939,"adult":false},{"id":20663,"adult":false},{"id":369364,"adult":false},{"id":9845,"adult":false},{"id":391617,"adult":false},{"id":27201,"adult":false},{"id":1688,"adult":false},{"id":311770,"adult":false},{"id":53318,"adult":false},{"id":336811,"adult":false},{"id":326172,"adult":false},{"id":402691,"adult":false},{"id":58368,"adult":false},{"id":402692,"adult":false},{"id":372635,"adult":false},{"id":372755,"adult":false},{"id":361580,"adult":false},{"id":332463,"adult":false},{"id":313016,"adult":false},{"id":343662,"adult":false},{"id":372748,"adult":false},{"id":287085,"adult":false},{"id":13993,"adult":false},{"id":345010,"adult":false},{"id":402693,"adult":false},{"id":16149,"adult":false},{"id":402694,"adult":false},{"id":342183,"adult":false},{"id":31527,"adult":false},{"id":231565,"adult":false},{"id":402695,"adult":false},{"id":402696,"adult":false},{"id":136575,"adult":false},{"id":43563,"adult":false},{"id":180546,"adult":false},{"id":86083,"adult":false},{"id":110177,"adult":false},{"id":9763,"adult":false},{"id":310526,"adult":false},{"id":9815,"adult":false},{"id":51876,"adult":false},{"id":89571,"adult":false},{"id":338938,"adult":false},{"id":377813,"adult":false},{"id":19139,"adult":false},{"id":371303,"adult":false},{"id":15660,"adult":false},{"id":402697,"adult":false},{"id":53021,"adult":false},{"id":10924,"adult":false},{"id":391881,"adult":false},{"id":12095,"adult":false},{"id":294576,"adult":false},{"id":10213,"adult":false},{"id":11337,"adult":false},{"id":267987,"adult":false},{"id":98168,"adult":false},{"id":402698,"adult":false},{"id":372862,"adult":false},{"id":18086,"adult":false},{"id":230161,"adult":false},{"id":258743,"adult":false},{"id":171904,"adult":false},{"id":11031,"adult":false},{"id":25253,"adult":false},{"id":336862,"adult":false},{"id":284433,"adult":false},{"id":8703,"adult":false},{"id":91361,"adult":false},{"id":323237,"adult":false},{"id":402699,"adult":false},{"id":357709,"adult":false},{"id":402700,"adult":false},{"id":388590,"adult":false},{"id":948,"adult":false},{"id":298502,"adult":false},{"id":161460,"adult":false},{"id":298192,"adult":false},{"id":367339,"adult":false}],"page":36,"total_pages":116,"total_results":11526}