{"results":[{"id":413782,"adult":false},{"id":421389,"adult":false},{"id":38658,"adult":false},{"id":330459,"adult":false},{"id":421390,"adult":false},{"id":253980,"adult":false},{"id":104651,"adult":false},{"id":134990,"adult":false},{"id":211387,"adult":false},{"id":126406,"adult":false},{"id":421290,"adult":false},{"id":52573,"adult":false},{"id":421391,"adult":false},{"id":421392,"adult":false},{"id":159562,"adult":false},{"id":421000,"adult":null},{"id":76535,"adult":false},{"id":420795,"adult":null},{"id":9685,"adult":false},{"id":420999,"adult":null},{"id":420997,"adult":null},{"id":421286,"adult":null},{"id":421393,"adult":false},{"id":421394,"adult":false},{"id":327016,"adult":false},{"id":416842,"adult":false},{"id":189150,"adult":false},{"id":132711,"adult":false},{"id":64689,"adult":false},{"id":96289,"adult":false},{"id":142284,"adult":false},{"id":122734,"adult":false},{"id":92507,"adult":false},{"id":421395,"adult":false},{"id":9325,"adult":false},{"id":238811,"adult":false},{"id":14873,"adult":false},{"id":129377,"adult":false},{"id":3090,"adult":false},{"id":38787,"adult":false},{"id":126300,"adult":false},{"id":421396,"adult":false},{"id":75780,"adult":false},{"id":421397,"adult":false},{"id":192109,"adult":false},{"id":421398,"adult":null},{"id":706,"adult":false},{"id":421399,"adult":false},{"id":421400,"adult":false},{"id":421401,"adult":false},{"id":260336,"adult":false},{"id":412467,"adult":false},{"id":39340,"adult":false},{"id":17529,"adult":false},{"id":20301,"adult":false},{"id":10496,"adult":false},{"id":300669,"adult":false},{"id":421402,"adult":false},{"id":389201,"adult":false},{"id":86331,"adult":false},{"id":119482,"adult":false},{"id":356895,"adult":false},{"id":15660,"adult":false},{"id":421403,"adult":false},{"id":43691,"adult":false},{"id":421404,"adult":false},{"id":311770,"adult":false},{"id":153035,"adult":false},{"id":100011,"adult":false},{"id":79463,"adult":false},{"id":124157,"adult":false},{"id":42702,"adult":false},{"id":36786,"adult":false},{"id":408148,"adult":false},{"id":56942,"adult":false},{"id":332210,"adult":false},{"id":421405,"adult":false},{"id":177221,"adult":false},{"id":236867,"adult":false},{"id":348588,"adult":false},{"id":200018,"adult":false},{"id":231159,"adult":false},{"id":345293,"adult":false},{"id":190245,"adult":false},{"id":384713,"adult":false},{"id":148811,"adult":false},{"id":352946,"adult":false},{"id":10385,"adult":false},{"id":371062,"adult":false},{"id":204663,"adult":false},{"id":232118,"adult":false},{"id":317096,"adult":false},{"id":191593,"adult":false},{"id":288133,"adult":false},{"id":306729,"adult":false},{"id":188107,"adult":false},{"id":188085,"adult":false},{"id":133918,"adult":false},{"id":196036,"adult":false},{"id":312191,"adult":false}],"page":7,"total_pages":123,"total_results":12202}