{"results":[{"id":9532,"adult":false},{"id":9358,"adult":false},{"id":9286,"adult":false},{"id":55779,"adult":false},{"id":353381,"adult":false},{"id":1571,"adult":false},{"id":380699,"adult":false},{"id":372261,"adult":false},{"id":116064,"adult":false},{"id":88,"adult":false},{"id":199762,"adult":false},{"id":10547,"adult":false},{"id":9416,"adult":false},{"id":44109,"adult":false},{"id":10398,"adult":false},{"id":16558,"adult":false},{"id":13053,"adult":false},{"id":4964,"adult":false},{"id":15675,"adult":false},{"id":41357,"adult":false},{"id":61038,"adult":false},{"id":37659,"adult":false},{"id":80346,"adult":false},{"id":284268,"adult":false},{"id":239668,"adult":false},{"id":2044,"adult":false},{"id":291838,"adult":false},{"id":106266,"adult":false},{"id":362039,"adult":false},{"id":9043,"adult":false},{"id":49748,"adult":false},{"id":9890,"adult":false},{"id":13963,"adult":false},{"id":24166,"adult":false},{"id":2698,"adult":false},{"id":126218,"adult":false},{"id":27578,"adult":false},{"id":76163,"adult":false},{"id":352421,"adult":false},{"id":297396,"adult":false},{"id":138103,"adult":false},{"id":345,"adult":false},{"id":187795,"adult":false},{"id":9276,"adult":false},{"id":10407,"adult":false},{"id":226632,"adult":false},{"id":396630,"adult":false},{"id":31908,"adult":false},{"id":9540,"adult":false},{"id":136795,"adult":false},{"id":8461,"adult":false},{"id":8012,"adult":false},{"id":251,"adult":false},{"id":394843,"adult":false},{"id":10016,"adult":false},{"id":621,"adult":false},{"id":11465,"adult":false},{"id":86645,"adult":false},{"id":40805,"adult":false},{"id":65759,"adult":false},{"id":62838,"adult":false},{"id":1844,"adult":false},{"id":1556,"adult":false},{"id":47327,"adult":false},{"id":178446,"adult":false},{"id":9035,"adult":false},{"id":10877,"adult":false},{"id":590,"adult":false},{"id":94329,"adult":false},{"id":11931,"adult":false},{"id":390056,"adult":false},{"id":1635,"adult":false},{"id":8922,"adult":false},{"id":396631,"adult":false},{"id":15283,"adult":false},{"id":11351,"adult":false},{"id":396632,"adult":false},{"id":266256,"adult":false},{"id":329,"adult":false},{"id":330,"adult":false},{"id":341540,"adult":false},{"id":331,"adult":false},{"id":257871,"adult":false},{"id":257893,"adult":false},{"id":15999,"adult":false},{"id":371638,"adult":false},{"id":181721,"adult":false},{"id":2118,"adult":false},{"id":9593,"adult":false},{"id":23830,"adult":false},{"id":341012,"adult":false},{"id":9526,"adult":false},{"id":38017,"adult":false},{"id":13389,"adult":false},{"id":53657,"adult":false},{"id":361750,"adult":false},{"id":12085,"adult":false},{"id":396633,"adult":false},{"id":396634,"adult":false},{"id":9535,"adult":false}],"page":85,"total_pages":130,"total_results":12927}