{"results":[{"id":42694,"adult":false},{"id":237168,"adult":false},{"id":283042,"adult":false},{"id":360458,"adult":false},{"id":41154,"adult":false},{"id":38365,"adult":false},{"id":109418,"adult":false},{"id":10774,"adult":false},{"id":37707,"adult":false},{"id":243305,"adult":false},{"id":116690,"adult":false},{"id":9268,"adult":false},{"id":68730,"adult":false},{"id":41213,"adult":false},{"id":430969,"adult":false},{"id":253749,"adult":false},{"id":430970,"adult":false},{"id":300599,"adult":false},{"id":395,"adult":false},{"id":383318,"adult":false},{"id":45335,"adult":false},{"id":282976,"adult":false},{"id":137524,"adult":true},{"id":39882,"adult":false},{"id":1543,"adult":false},{"id":49776,"adult":false},{"id":87502,"adult":false},{"id":51836,"adult":false},{"id":45598,"adult":false},{"id":1892,"adult":false},{"id":426481,"adult":false},{"id":280019,"adult":false},{"id":162528,"adult":false},{"id":21886,"adult":false},{"id":429153,"adult":null},{"id":136008,"adult":false},{"id":430971,"adult":false},{"id":363733,"adult":false},{"id":52578,"adult":false},{"id":61939,"adult":false},{"id":37300,"adult":false},{"id":259376,"adult":false},{"id":18229,"adult":false},{"id":81678,"adult":false},{"id":19529,"adult":false},{"id":15736,"adult":false},{"id":174298,"adult":false},{"id":430972,"adult":false},{"id":34944,"adult":false},{"id":117416,"adult":false},{"id":88179,"adult":false},{"id":13339,"adult":false},{"id":29425,"adult":false},{"id":595,"adult":false},{"id":57404,"adult":false},{"id":105773,"adult":false},{"id":116488,"adult":false},{"id":26542,"adult":false},{"id":53514,"adult":false},{"id":143815,"adult":false},{"id":58476,"adult":false},{"id":85922,"adult":false},{"id":22510,"adult":false},{"id":36106,"adult":false},{"id":26936,"adult":false},{"id":9655,"adult":false},{"id":386619,"adult":false},{"id":332077,"adult":false},{"id":332052,"adult":false},{"id":258773,"adult":false},{"id":88013,"adult":false},{"id":328012,"adult":false},{"id":330883,"adult":false},{"id":330885,"adult":false},{"id":383911,"adult":false},{"id":421346,"adult":false},{"id":331758,"adult":false},{"id":333210,"adult":false},{"id":330637,"adult":false},{"id":391909,"adult":false},{"id":196650,"adult":false},{"id":87266,"adult":false},{"id":333225,"adult":false},{"id":372051,"adult":false},{"id":86839,"adult":false},{"id":63729,"adult":false},{"id":86558,"adult":false},{"id":372048,"adult":false},{"id":331645,"adult":false},{"id":18755,"adult":false},{"id":332142,"adult":false},{"id":193578,"adult":false},{"id":370970,"adult":false},{"id":372050,"adult":false},{"id":86601,"adult":false},{"id":86584,"adult":false},{"id":64163,"adult":false},{"id":137429,"adult":false},{"id":64162,"adult":false},{"id":182881,"adult":false}],"page":50,"total_pages":114,"total_results":11339}