{"results":[{"id":372300,"adult":false},{"id":139228,"adult":false},{"id":403936,"adult":false},{"id":197,"adult":false},{"id":282475,"adult":false},{"id":34370,"adult":false},{"id":67219,"adult":false},{"id":401593,"adult":false},{"id":90370,"adult":false},{"id":419156,"adult":false},{"id":367961,"adult":false},{"id":398633,"adult":false},{"id":50195,"adult":false},{"id":169804,"adult":false},{"id":257192,"adult":false},{"id":352327,"adult":false},{"id":173455,"adult":false},{"id":136799,"adult":false},{"id":334522,"adult":false},{"id":379171,"adult":false},{"id":352342,"adult":false},{"id":419157,"adult":false},{"id":305091,"adult":false},{"id":182859,"adult":false},{"id":419158,"adult":false},{"id":345911,"adult":false},{"id":178117,"adult":false},{"id":13973,"adult":false},{"id":46697,"adult":false},{"id":405962,"adult":false},{"id":139463,"adult":false},{"id":80511,"adult":false},{"id":185412,"adult":false},{"id":419159,"adult":false},{"id":107384,"adult":false},{"id":419160,"adult":false},{"id":348513,"adult":false},{"id":160825,"adult":false},{"id":419161,"adult":false},{"id":86828,"adult":false},{"id":295280,"adult":false},{"id":22466,"adult":false},{"id":419162,"adult":false},{"id":20410,"adult":false},{"id":45752,"adult":false},{"id":166426,"adult":false},{"id":418813,"adult":false},{"id":203696,"adult":false},{"id":160835,"adult":false},{"id":419163,"adult":false},{"id":106924,"adult":false},{"id":73620,"adult":false},{"id":31245,"adult":false},{"id":419164,"adult":false},{"id":48961,"adult":false},{"id":13560,"adult":false},{"id":377985,"adult":false},{"id":419165,"adult":false},{"id":296977,"adult":false},{"id":243676,"adult":false},{"id":51863,"adult":false},{"id":412225,"adult":false},{"id":185497,"adult":false},{"id":277253,"adult":false},{"id":419166,"adult":false},{"id":9348,"adult":false},{"id":18971,"adult":false},{"id":20032,"adult":false},{"id":419167,"adult":false},{"id":48248,"adult":false},{"id":17247,"adult":false},{"id":61863,"adult":false},{"id":27934,"adult":false},{"id":419168,"adult":false},{"id":58403,"adult":false},{"id":114772,"adult":false},{"id":417631,"adult":false},{"id":17236,"adult":false},{"id":419169,"adult":false},{"id":42540,"adult":false},{"id":419170,"adult":false},{"id":43548,"adult":false},{"id":261036,"adult":false},{"id":453,"adult":false},{"id":107334,"adult":false},{"id":273623,"adult":false},{"id":373190,"adult":false},{"id":31283,"adult":false},{"id":224026,"adult":false},{"id":457,"adult":false},{"id":375798,"adult":false},{"id":409,"adult":false},{"id":326423,"adult":false},{"id":189159,"adult":false},{"id":22660,"adult":false},{"id":458,"adult":false},{"id":400891,"adult":false},{"id":272251,"adult":false},{"id":259693,"adult":false},{"id":119452,"adult":false}],"page":29,"total_pages":144,"total_results":14341}