{"results":[{"id":267178,"adult":false},{"id":273248,"adult":false},{"id":285968,"adult":false},{"id":385760,"adult":false},{"id":205462,"adult":false},{"id":385761,"adult":false},{"id":385762,"adult":false},{"id":358386,"adult":false},{"id":385763,"adult":false},{"id":308027,"adult":false},{"id":385764,"adult":false},{"id":385765,"adult":false},{"id":347972,"adult":false},{"id":236735,"adult":false},{"id":356480,"adult":false},{"id":365105,"adult":false},{"id":385766,"adult":false},{"id":244118,"adult":false},{"id":188758,"adult":false},{"id":62999,"adult":false},{"id":57321,"adult":false},{"id":36120,"adult":false},{"id":385767,"adult":false},{"id":86760,"adult":false},{"id":264729,"adult":false},{"id":305176,"adult":false},{"id":342062,"adult":false},{"id":157040,"adult":false},{"id":145854,"adult":false},{"id":152970,"adult":false},{"id":154211,"adult":false},{"id":152739,"adult":false},{"id":385768,"adult":false},{"id":12099,"adult":false},{"id":385770,"adult":false},{"id":321073,"adult":false},{"id":328880,"adult":false},{"id":385771,"adult":false},{"id":298579,"adult":false},{"id":236210,"adult":false},{"id":385772,"adult":false},{"id":385773,"adult":false},{"id":12289,"adult":false},{"id":132173,"adult":false},{"id":10739,"adult":false},{"id":205674,"adult":false},{"id":186955,"adult":false},{"id":236227,"adult":false},{"id":43307,"adult":false},{"id":18229,"adult":false},{"id":385774,"adult":false},{"id":18770,"adult":false},{"id":385775,"adult":false},{"id":19463,"adult":false},{"id":171671,"adult":false},{"id":50066,"adult":false},{"id":385776,"adult":false},{"id":385777,"adult":false},{"id":385778,"adult":false},{"id":317952,"adult":false},{"id":21842,"adult":false},{"id":232564,"adult":false},{"id":385779,"adult":false},{"id":385780,"adult":false},{"id":79118,"adult":false},{"id":321018,"adult":false},{"id":329921,"adult":false},{"id":28697,"adult":false},{"id":291049,"adult":false},{"id":385781,"adult":false},{"id":341077,"adult":false},{"id":282391,"adult":false},{"id":59490,"adult":false},{"id":385782,"adult":false},{"id":385783,"adult":false},{"id":385784,"adult":false},{"id":385785,"adult":false},{"id":76375,"adult":false},{"id":265228,"adult":false},{"id":385786,"adult":false},{"id":182342,"adult":false},{"id":298504,"adult":false},{"id":385787,"adult":false},{"id":37994,"adult":false},{"id":385788,"adult":false},{"id":385789,"adult":false},{"id":35463,"adult":false},{"id":385790,"adult":false},{"id":385791,"adult":false},{"id":385792,"adult":false},{"id":385793,"adult":false},{"id":384381,"adult":false},{"id":385794,"adult":false},{"id":270343,"adult":false},{"id":385795,"adult":false},{"id":385796,"adult":false},{"id":385797,"adult":false},{"id":385798,"adult":false},{"id":385799,"adult":false},{"id":193849,"adult":false}],"page":33,"total_pages":123,"total_results":12230}