{"results":[{"id":13353,"adult":false},{"id":386624,"adult":false},{"id":48748,"adult":false},{"id":381011,"adult":false},{"id":45387,"adult":false},{"id":297798,"adult":false},{"id":14863,"adult":false},{"id":11237,"adult":false},{"id":386625,"adult":false},{"id":61296,"adult":false},{"id":167116,"adult":false},{"id":11510,"adult":false},{"id":372286,"adult":false},{"id":64805,"adult":false},{"id":141476,"adult":false},{"id":46503,"adult":false},{"id":8618,"adult":false},{"id":199296,"adult":false},{"id":9694,"adult":false},{"id":380368,"adult":false},{"id":380366,"adult":false},{"id":4952,"adult":false},{"id":64347,"adult":false},{"id":371345,"adult":false},{"id":4638,"adult":false},{"id":28325,"adult":false},{"id":74272,"adult":false},{"id":9638,"adult":false},{"id":300498,"adult":false},{"id":187676,"adult":false},{"id":62728,"adult":false},{"id":316044,"adult":false},{"id":37534,"adult":false},{"id":197007,"adult":false},{"id":78376,"adult":false},{"id":13150,"adult":false},{"id":386626,"adult":false},{"id":187652,"adult":false},{"id":8937,"adult":false},{"id":72477,"adult":false},{"id":270923,"adult":false},{"id":358924,"adult":false},{"id":89552,"adult":false},{"id":221463,"adult":false},{"id":386627,"adult":false},{"id":40751,"adult":false},{"id":202179,"adult":false},{"id":23925,"adult":false},{"id":386628,"adult":false},{"id":386629,"adult":false},{"id":386630,"adult":false},{"id":2295,"adult":false},{"id":227522,"adult":false},{"id":9456,"adult":false},{"id":140272,"adult":false},{"id":339577,"adult":false},{"id":386631,"adult":false},{"id":374609,"adult":false},{"id":320465,"adult":false},{"id":187262,"adult":false},{"id":1430,"adult":false},{"id":4289,"adult":false},{"id":386632,"adult":false},{"id":232569,"adult":false},{"id":187697,"adult":false},{"id":277216,"adult":false},{"id":285696,"adult":false},{"id":40435,"adult":false},{"id":365119,"adult":false},{"id":187692,"adult":false},{"id":352537,"adult":false},{"id":99036,"adult":false},{"id":386633,"adult":false},{"id":135935,"adult":false},{"id":182127,"adult":false},{"id":135502,"adult":false},{"id":9838,"adult":false},{"id":311030,"adult":false},{"id":9710,"adult":false},{"id":691,"adult":false},{"id":149704,"adult":false},{"id":12683,"adult":false},{"id":698,"adult":false},{"id":25657,"adult":false},{"id":699,"adult":false},{"id":113207,"adult":false},{"id":700,"adult":false},{"id":99920,"adult":false},{"id":707,"adult":false},{"id":386634,"adult":null},{"id":709,"adult":false},{"id":141578,"adult":false},{"id":285556,"adult":false},{"id":354151,"adult":false},{"id":386635,"adult":false},{"id":338127,"adult":false},{"id":155796,"adult":false},{"id":386636,"adult":false},{"id":254736,"adult":false},{"id":199420,"adult":false}],"page":84,"total_pages":123,"total_results":12230}