{"results":[{"id":291870,"adult":false},{"id":386322,"adult":false},{"id":245051,"adult":false},{"id":377857,"adult":false},{"id":386323,"adult":false},{"id":386324,"adult":false},{"id":279841,"adult":false},{"id":222998,"adult":false},{"id":386325,"adult":false},{"id":55009,"adult":false},{"id":268050,"adult":false},{"id":36753,"adult":false},{"id":98515,"adult":false},{"id":386326,"adult":false},{"id":386327,"adult":false},{"id":386328,"adult":false},{"id":386329,"adult":false},{"id":285580,"adult":false},{"id":1665,"adult":false},{"id":37902,"adult":false},{"id":279641,"adult":false},{"id":19899,"adult":false},{"id":94108,"adult":false},{"id":149190,"adult":false},{"id":132122,"adult":false},{"id":291351,"adult":false},{"id":25473,"adult":false},{"id":13018,"adult":false},{"id":236132,"adult":false},{"id":386330,"adult":null},{"id":82633,"adult":false},{"id":386331,"adult":false},{"id":90767,"adult":false},{"id":270681,"adult":false},{"id":379878,"adult":false},{"id":236137,"adult":false},{"id":224908,"adult":false},{"id":386332,"adult":false},{"id":9303,"adult":false},{"id":251387,"adult":false},{"id":386333,"adult":false},{"id":68852,"adult":false},{"id":386334,"adult":false},{"id":386335,"adult":false},{"id":297862,"adult":false},{"id":386336,"adult":false},{"id":145221,"adult":false},{"id":115624,"adult":false},{"id":3036,"adult":false},{"id":97623,"adult":false},{"id":386337,"adult":false},{"id":335788,"adult":false},{"id":345887,"adult":false},{"id":310307,"adult":false},{"id":301804,"adult":false},{"id":283366,"adult":false},{"id":44826,"adult":false},{"id":10498,"adult":false},{"id":39408,"adult":false},{"id":52494,"adult":false},{"id":210367,"adult":false},{"id":35919,"adult":false},{"id":4141,"adult":false},{"id":351655,"adult":false},{"id":14536,"adult":false},{"id":109445,"adult":false},{"id":46114,"adult":false},{"id":10617,"adult":false},{"id":10618,"adult":false},{"id":386338,"adult":false},{"id":19274,"adult":false},{"id":300686,"adult":false},{"id":386339,"adult":false},{"id":147247,"adult":false},{"id":386340,"adult":false},{"id":75841,"adult":false},{"id":94753,"adult":false},{"id":386341,"adult":false},{"id":180896,"adult":false},{"id":386342,"adult":false},{"id":357096,"adult":false},{"id":115213,"adult":false},{"id":381890,"adult":false},{"id":386343,"adult":false},{"id":126498,"adult":false},{"id":308498,"adult":false},{"id":34800,"adult":false},{"id":386344,"adult":false},{"id":40067,"adult":false},{"id":39865,"adult":false},{"id":231047,"adult":false},{"id":91267,"adult":false},{"id":130279,"adult":false},{"id":386345,"adult":false},{"id":83914,"adult":false},{"id":228968,"adult":false},{"id":386346,"adult":false},{"id":386347,"adult":false},{"id":141052,"adult":false},{"id":47240,"adult":false}],"page":69,"total_pages":123,"total_results":12230}