{"results":[{"id":27465,"adult":false},{"id":416585,"adult":false},{"id":24952,"adult":false},{"id":408475,"adult":false},{"id":416586,"adult":false},{"id":188839,"adult":false},{"id":416587,"adult":false},{"id":204316,"adult":false},{"id":293379,"adult":false},{"id":49444,"adult":false},{"id":416588,"adult":false},{"id":332872,"adult":false},{"id":283700,"adult":false},{"id":217407,"adult":false},{"id":55035,"adult":false},{"id":372519,"adult":false},{"id":224089,"adult":false},{"id":918,"adult":false},{"id":315196,"adult":false},{"id":375197,"adult":null},{"id":416589,"adult":false},{"id":78686,"adult":false},{"id":95671,"adult":false},{"id":19550,"adult":false},{"id":416590,"adult":false},{"id":32678,"adult":false},{"id":92691,"adult":false},{"id":316193,"adult":false},{"id":393443,"adult":false},{"id":7459,"adult":false},{"id":18937,"adult":false},{"id":325113,"adult":false},{"id":313524,"adult":false},{"id":404757,"adult":false},{"id":416591,"adult":false},{"id":319513,"adult":false},{"id":31448,"adult":false},{"id":9348,"adult":false},{"id":376203,"adult":false},{"id":416592,"adult":false},{"id":19494,"adult":false},{"id":249060,"adult":false},{"id":380837,"adult":false},{"id":36568,"adult":false},{"id":42225,"adult":false},{"id":9389,"adult":false},{"id":12417,"adult":false},{"id":1992,"adult":false},{"id":416593,"adult":false},{"id":157685,"adult":false},{"id":152042,"adult":false},{"id":75953,"adult":false},{"id":87689,"adult":false},{"id":43933,"adult":false},{"id":12207,"adult":false},{"id":114286,"adult":false},{"id":416594,"adult":false},{"id":72245,"adult":false},{"id":64792,"adult":false},{"id":416595,"adult":false},{"id":328017,"adult":false},{"id":22551,"adult":false},{"id":9568,"adult":false},{"id":77099,"adult":false},{"id":11372,"adult":false},{"id":39540,"adult":false},{"id":121094,"adult":false},{"id":559,"adult":false},{"id":374811,"adult":null},{"id":120467,"adult":false},{"id":356304,"adult":false},{"id":279229,"adult":false},{"id":416596,"adult":false},{"id":373877,"adult":false},{"id":416597,"adult":false},{"id":175774,"adult":false},{"id":340357,"adult":false},{"id":373879,"adult":false},{"id":233762,"adult":false},{"id":382581,"adult":false},{"id":381341,"adult":false},{"id":14246,"adult":false},{"id":128540,"adult":false},{"id":10047,"adult":false},{"id":345142,"adult":false},{"id":51576,"adult":false},{"id":2207,"adult":false},{"id":14878,"adult":false},{"id":415744,"adult":false},{"id":11944,"adult":false},{"id":224626,"adult":false},{"id":62798,"adult":false},{"id":285027,"adult":false},{"id":45096,"adult":false},{"id":416598,"adult":false},{"id":416599,"adult":false},{"id":35698,"adult":false},{"id":22832,"adult":false},{"id":416600,"adult":false},{"id":412593,"adult":false}],"page":45,"total_pages":141,"total_results":14019}