{"results":[{"id":412194,"adult":false},{"id":68241,"adult":false},{"id":51245,"adult":false},{"id":272548,"adult":false},{"id":421808,"adult":false},{"id":339116,"adult":false},{"id":360160,"adult":false},{"id":4108,"adult":false},{"id":104435,"adult":false},{"id":293670,"adult":false},{"id":417059,"adult":false},{"id":411840,"adult":false},{"id":286567,"adult":false},{"id":421809,"adult":false},{"id":63612,"adult":false},{"id":421810,"adult":false},{"id":2447,"adult":false},{"id":420687,"adult":false},{"id":324184,"adult":false},{"id":18763,"adult":false},{"id":85338,"adult":false},{"id":259773,"adult":false},{"id":112097,"adult":true},{"id":251,"adult":false},{"id":255430,"adult":false},{"id":396263,"adult":false},{"id":244786,"adult":false},{"id":421811,"adult":false},{"id":368536,"adult":null},{"id":23599,"adult":false},{"id":421812,"adult":false},{"id":280391,"adult":false},{"id":104322,"adult":false},{"id":35067,"adult":false},{"id":11003,"adult":false},{"id":5289,"adult":false},{"id":80321,"adult":false},{"id":26039,"adult":false},{"id":409120,"adult":false},{"id":348434,"adult":false},{"id":9471,"adult":false},{"id":76666,"adult":false},{"id":41003,"adult":false},{"id":415542,"adult":false},{"id":27573,"adult":false},{"id":91258,"adult":false},{"id":162698,"adult":false},{"id":25795,"adult":false},{"id":32590,"adult":false},{"id":301840,"adult":false},{"id":10285,"adult":false},{"id":419022,"adult":false},{"id":171840,"adult":false},{"id":29530,"adult":false},{"id":157410,"adult":false},{"id":370086,"adult":false},{"id":59066,"adult":false},{"id":334384,"adult":false},{"id":197467,"adult":false},{"id":31396,"adult":false},{"id":39691,"adult":false},{"id":343674,"adult":false},{"id":11284,"adult":false},{"id":421813,"adult":true},{"id":39105,"adult":false},{"id":421814,"adult":false},{"id":251898,"adult":false},{"id":74410,"adult":false},{"id":56680,"adult":false},{"id":10992,"adult":false},{"id":39103,"adult":false},{"id":2055,"adult":false},{"id":421815,"adult":true},{"id":393488,"adult":false},{"id":14774,"adult":false},{"id":93934,"adult":false},{"id":13612,"adult":false},{"id":421816,"adult":false},{"id":421817,"adult":false},{"id":19325,"adult":false},{"id":173032,"adult":false},{"id":159824,"adult":false},{"id":62,"adult":false},{"id":13691,"adult":false},{"id":421818,"adult":false},{"id":11427,"adult":false},{"id":39298,"adult":false},{"id":421819,"adult":false},{"id":11647,"adult":false},{"id":355413,"adult":false},{"id":22971,"adult":false},{"id":371182,"adult":false},{"id":28867,"adult":false},{"id":86458,"adult":false},{"id":416569,"adult":false},{"id":6277,"adult":false},{"id":27620,"adult":false},{"id":11425,"adult":false},{"id":167449,"adult":false},{"id":421820,"adult":false}],"page":38,"total_pages":123,"total_results":12202}