{"results":[{"id":16814,"adult":false},{"id":27974,"adult":false},{"id":134222,"adult":false},{"id":38684,"adult":false},{"id":174603,"adult":false},{"id":431390,"adult":false},{"id":401697,"adult":false},{"id":12536,"adult":false},{"id":386534,"adult":false},{"id":13437,"adult":false},{"id":493,"adult":false},{"id":214756,"adult":false},{"id":18146,"adult":false},{"id":309192,"adult":false},{"id":267743,"adult":false},{"id":314095,"adult":false},{"id":57174,"adult":false},{"id":431391,"adult":false},{"id":51996,"adult":false},{"id":57120,"adult":false},{"id":368239,"adult":false},{"id":374331,"adult":false},{"id":431392,"adult":false},{"id":431393,"adult":false},{"id":406378,"adult":false},{"id":78096,"adult":false},{"id":87343,"adult":false},{"id":9880,"adult":false},{"id":214844,"adult":false},{"id":419772,"adult":false},{"id":291157,"adult":false},{"id":161159,"adult":false},{"id":19296,"adult":false},{"id":293138,"adult":false},{"id":12620,"adult":false},{"id":66736,"adult":false},{"id":385722,"adult":false},{"id":102737,"adult":false},{"id":11774,"adult":false},{"id":160746,"adult":false},{"id":245198,"adult":false},{"id":366668,"adult":false},{"id":398929,"adult":false},{"id":54184,"adult":false},{"id":97907,"adult":false},{"id":61080,"adult":false},{"id":73602,"adult":false},{"id":74956,"adult":false},{"id":67159,"adult":false},{"id":67160,"adult":false},{"id":168329,"adult":false},{"id":400061,"adult":false},{"id":431394,"adult":false},{"id":382589,"adult":false},{"id":267935,"adult":false},{"id":27337,"adult":false},{"id":399566,"adult":false},{"id":431395,"adult":false},{"id":431396,"adult":false},{"id":47933,"adult":false},{"id":297797,"adult":false},{"id":333371,"adult":false},{"id":153518,"adult":false},{"id":325133,"adult":false},{"id":395482,"adult":false},{"id":299579,"adult":false},{"id":338953,"adult":false},{"id":336029,"adult":false},{"id":83533,"adult":false},{"id":431397,"adult":null},{"id":167951,"adult":false},{"id":243956,"adult":false},{"id":8967,"adult":false},{"id":280217,"adult":false},{"id":11026,"adult":false},{"id":9552,"adult":false},{"id":11586,"adult":false},{"id":33923,"adult":false},{"id":60545,"adult":false},{"id":209950,"adult":true},{"id":431398,"adult":false},{"id":74,"adult":false},{"id":431399,"adult":false},{"id":431400,"adult":false},{"id":11867,"adult":false},{"id":26666,"adult":false},{"id":126360,"adult":false},{"id":19888,"adult":false},{"id":431401,"adult":false},{"id":264720,"adult":false},{"id":431402,"adult":false},{"id":252178,"adult":false},{"id":13622,"adult":false},{"id":14021,"adult":false},{"id":125310,"adult":false},{"id":431403,"adult":false},{"id":431404,"adult":false},{"id":14128,"adult":false},{"id":119094,"adult":false},{"id":431405,"adult":false}],"page":77,"total_pages":114,"total_results":11339}