{"results":[{"id":399170,"adult":false},{"id":399171,"adult":false},{"id":115366,"adult":false},{"id":399172,"adult":false},{"id":399173,"adult":false},{"id":96635,"adult":false},{"id":399174,"adult":false},{"id":399175,"adult":false},{"id":397295,"adult":false},{"id":399176,"adult":false},{"id":299511,"adult":false},{"id":94716,"adult":false},{"id":26558,"adult":false},{"id":46341,"adult":false},{"id":179897,"adult":false},{"id":80497,"adult":false},{"id":576,"adult":false},{"id":283993,"adult":false},{"id":275288,"adult":false},{"id":318850,"adult":false},{"id":94097,"adult":false},{"id":399177,"adult":false},{"id":373289,"adult":null},{"id":396798,"adult":false},{"id":399178,"adult":false},{"id":399179,"adult":false},{"id":399180,"adult":false},{"id":361771,"adult":false},{"id":399181,"adult":false},{"id":396309,"adult":false},{"id":316882,"adult":false},{"id":4553,"adult":false},{"id":52362,"adult":false},{"id":97088,"adult":false},{"id":399182,"adult":false},{"id":226201,"adult":false},{"id":131764,"adult":false},{"id":114459,"adult":false},{"id":13321,"adult":false},{"id":38683,"adult":false},{"id":157111,"adult":false},{"id":399183,"adult":false},{"id":18050,"adult":false},{"id":293224,"adult":false},{"id":27769,"adult":false},{"id":42879,"adult":false},{"id":190474,"adult":false},{"id":92818,"adult":false},{"id":85574,"adult":false},{"id":202881,"adult":false},{"id":199606,"adult":false},{"id":181876,"adult":false},{"id":43788,"adult":false},{"id":81751,"adult":false},{"id":399184,"adult":false},{"id":190405,"adult":false},{"id":100523,"adult":false},{"id":218098,"adult":false},{"id":50066,"adult":false},{"id":217173,"adult":false},{"id":396232,"adult":false},{"id":296304,"adult":false},{"id":399185,"adult":false},{"id":189473,"adult":false},{"id":399186,"adult":false},{"id":399187,"adult":false},{"id":393792,"adult":false},{"id":399188,"adult":false},{"id":318563,"adult":false},{"id":103794,"adult":false},{"id":238761,"adult":false},{"id":399189,"adult":false},{"id":193318,"adult":false},{"id":10166,"adult":false},{"id":399190,"adult":false},{"id":399191,"adult":false},{"id":125154,"adult":false},{"id":399192,"adult":false},{"id":399193,"adult":false},{"id":20423,"adult":false},{"id":29813,"adult":false},{"id":127126,"adult":false},{"id":123353,"adult":false},{"id":225466,"adult":false},{"id":399194,"adult":false},{"id":205471,"adult":false},{"id":29146,"adult":false},{"id":75011,"adult":false},{"id":260339,"adult":false},{"id":27142,"adult":false},{"id":284650,"adult":false},{"id":399195,"adult":false},{"id":396956,"adult":false},{"id":152074,"adult":false},{"id":399196,"adult":false},{"id":360080,"adult":false},{"id":399197,"adult":false},{"id":317342,"adult":false},{"id":208678,"adult":true},{"id":399198,"adult":null}],"page":103,"total_pages":128,"total_results":12797}