{"results":[{"id":24246,"adult":false},{"id":72939,"adult":false},{"id":43303,"adult":false},{"id":13963,"adult":false},{"id":401736,"adult":false},{"id":21882,"adult":false},{"id":45262,"adult":true},{"id":245285,"adult":false},{"id":381143,"adult":false},{"id":16214,"adult":false},{"id":60086,"adult":false},{"id":31676,"adult":false},{"id":180659,"adult":false},{"id":339479,"adult":false},{"id":128626,"adult":false},{"id":4105,"adult":false},{"id":211932,"adult":false},{"id":300909,"adult":false},{"id":269438,"adult":false},{"id":47156,"adult":false},{"id":401737,"adult":false},{"id":215736,"adult":false},{"id":182239,"adult":false},{"id":43829,"adult":false},{"id":216482,"adult":false},{"id":10083,"adult":false},{"id":174437,"adult":false},{"id":184546,"adult":false},{"id":2665,"adult":false},{"id":235682,"adult":false},{"id":401738,"adult":true},{"id":305583,"adult":false},{"id":37607,"adult":false},{"id":78317,"adult":false},{"id":241657,"adult":false},{"id":54660,"adult":false},{"id":37843,"adult":false},{"id":392489,"adult":false},{"id":24274,"adult":false},{"id":227738,"adult":false},{"id":354559,"adult":false},{"id":22825,"adult":false},{"id":62046,"adult":false},{"id":398051,"adult":null},{"id":9604,"adult":false},{"id":104364,"adult":false},{"id":399200,"adult":false},{"id":48961,"adult":false},{"id":170522,"adult":false},{"id":382137,"adult":null},{"id":4704,"adult":false},{"id":95898,"adult":true},{"id":401739,"adult":false},{"id":52661,"adult":false},{"id":154,"adult":false},{"id":27431,"adult":false},{"id":401740,"adult":true},{"id":307322,"adult":false},{"id":81446,"adult":false},{"id":272171,"adult":false},{"id":320554,"adult":false},{"id":401741,"adult":false},{"id":14043,"adult":false},{"id":242959,"adult":false},{"id":225190,"adult":false},{"id":262649,"adult":false},{"id":80950,"adult":false},{"id":401742,"adult":false},{"id":401743,"adult":false},{"id":27244,"adult":false},{"id":2019,"adult":false},{"id":354857,"adult":false},{"id":174708,"adult":false},{"id":401744,"adult":null},{"id":248912,"adult":false},{"id":162519,"adult":false},{"id":401747,"adult":false},{"id":401748,"adult":true},{"id":11313,"adult":false},{"id":27771,"adult":false},{"id":299215,"adult":false},{"id":48743,"adult":false},{"id":27770,"adult":false},{"id":16175,"adult":false},{"id":97901,"adult":false},{"id":311655,"adult":true},{"id":401749,"adult":false},{"id":401750,"adult":false},{"id":57751,"adult":true},{"id":399890,"adult":false},{"id":401751,"adult":false},{"id":375464,"adult":false},{"id":20507,"adult":false},{"id":401752,"adult":false},{"id":70368,"adult":false},{"id":401753,"adult":true},{"id":401754,"adult":false},{"id":401755,"adult":null},{"id":401756,"adult":false},{"id":401757,"adult":false}],"page":100,"total_pages":116,"total_results":11568}