{"results":[{"id":49609,"adult":false},{"id":196897,"adult":false},{"id":138632,"adult":false},{"id":218302,"adult":false},{"id":31523,"adult":false},{"id":265344,"adult":false},{"id":397070,"adult":false},{"id":89737,"adult":false},{"id":397071,"adult":false},{"id":264896,"adult":false},{"id":397072,"adult":false},{"id":22596,"adult":false},{"id":78804,"adult":false},{"id":26638,"adult":false},{"id":397073,"adult":false},{"id":397074,"adult":false},{"id":220447,"adult":false},{"id":34796,"adult":false},{"id":170296,"adult":false},{"id":397075,"adult":false},{"id":79679,"adult":false},{"id":356531,"adult":false},{"id":4704,"adult":false},{"id":397076,"adult":false},{"id":397077,"adult":false},{"id":248061,"adult":false},{"id":340230,"adult":false},{"id":137936,"adult":false},{"id":295824,"adult":false},{"id":59944,"adult":false},{"id":397078,"adult":false},{"id":45053,"adult":false},{"id":397079,"adult":false},{"id":63319,"adult":false},{"id":431,"adult":false},{"id":397080,"adult":false},{"id":9994,"adult":false},{"id":7211,"adult":false},{"id":368765,"adult":false},{"id":129652,"adult":false},{"id":296313,"adult":false},{"id":267956,"adult":false},{"id":397081,"adult":false},{"id":185526,"adult":false},{"id":370707,"adult":false},{"id":212160,"adult":false},{"id":337987,"adult":false},{"id":212161,"adult":false},{"id":347200,"adult":false},{"id":397082,"adult":false},{"id":196917,"adult":false},{"id":347187,"adult":false},{"id":26501,"adult":false},{"id":9261,"adult":false},{"id":778,"adult":false},{"id":386175,"adult":false},{"id":180566,"adult":false},{"id":397083,"adult":false},{"id":15788,"adult":false},{"id":319,"adult":false},{"id":397084,"adult":false},{"id":324150,"adult":false},{"id":375289,"adult":false},{"id":78346,"adult":false},{"id":261192,"adult":false},{"id":173945,"adult":false},{"id":397085,"adult":false},{"id":14283,"adult":false},{"id":397086,"adult":false},{"id":9539,"adult":false},{"id":180816,"adult":false},{"id":397087,"adult":false},{"id":62396,"adult":false},{"id":10040,"adult":false},{"id":397088,"adult":false},{"id":34508,"adult":false},{"id":293278,"adult":false},{"id":253450,"adult":false},{"id":302422,"adult":false},{"id":332425,"adult":false},{"id":336029,"adult":false},{"id":43259,"adult":false},{"id":397089,"adult":false},{"id":394932,"adult":null},{"id":83832,"adult":false},{"id":43359,"adult":false},{"id":45032,"adult":false},{"id":184116,"adult":null},{"id":184117,"adult":null},{"id":85952,"adult":false},{"id":39016,"adult":false},{"id":18365,"adult":false},{"id":180099,"adult":false},{"id":15676,"adult":false},{"id":388185,"adult":false},{"id":25935,"adult":false},{"id":19978,"adult":false},{"id":184114,"adult":null},{"id":184124,"adult":null},{"id":184125,"adult":false}],"page":108,"total_pages":130,"total_results":12927}