{"results":[{"id":325110,"adult":false},{"id":242543,"adult":false},{"id":329440,"adult":false},{"id":412881,"adult":false},{"id":285751,"adult":null},{"id":130272,"adult":false},{"id":32646,"adult":false},{"id":78,"adult":false},{"id":396423,"adult":false},{"id":13754,"adult":false},{"id":790,"adult":false},{"id":376089,"adult":false},{"id":374374,"adult":false},{"id":285783,"adult":false},{"id":14412,"adult":false},{"id":366741,"adult":false},{"id":115575,"adult":false},{"id":347666,"adult":false},{"id":353743,"adult":false},{"id":51917,"adult":false},{"id":412882,"adult":false},{"id":228446,"adult":false},{"id":370097,"adult":false},{"id":1575,"adult":false},{"id":123968,"adult":false},{"id":347815,"adult":false},{"id":374375,"adult":false},{"id":377452,"adult":false},{"id":379351,"adult":false},{"id":412883,"adult":false},{"id":323334,"adult":false},{"id":333662,"adult":false},{"id":412884,"adult":false},{"id":219450,"adult":false},{"id":395337,"adult":false},{"id":412885,"adult":false},{"id":378087,"adult":false},{"id":204073,"adult":false},{"id":412886,"adult":false},{"id":319389,"adult":false},{"id":401986,"adult":false},{"id":10452,"adult":false},{"id":345235,"adult":false},{"id":79190,"adult":false},{"id":323901,"adult":false},{"id":371404,"adult":false},{"id":412887,"adult":false},{"id":369698,"adult":false},{"id":214594,"adult":false},{"id":60008,"adult":false},{"id":385407,"adult":false},{"id":288889,"adult":false},{"id":412888,"adult":false},{"id":2148,"adult":false},{"id":148357,"adult":false},{"id":381917,"adult":false},{"id":412889,"adult":false},{"id":410798,"adult":false},{"id":410910,"adult":false},{"id":293037,"adult":false},{"id":228165,"adult":false},{"id":11395,"adult":false},{"id":57800,"adult":false},{"id":408378,"adult":false},{"id":377279,"adult":false},{"id":316042,"adult":false},{"id":38,"adult":false},{"id":120753,"adult":false},{"id":562,"adult":false},{"id":770,"adult":false},{"id":1572,"adult":false},{"id":412890,"adult":false},{"id":412891,"adult":false},{"id":412892,"adult":false},{"id":767,"adult":false},{"id":76203,"adult":false},{"id":412893,"adult":false},{"id":12444,"adult":false},{"id":336746,"adult":false},{"id":1498,"adult":false},{"id":388246,"adult":false},{"id":4998,"adult":false},{"id":380620,"adult":false},{"id":412894,"adult":false},{"id":412895,"adult":false},{"id":386543,"adult":false},{"id":13531,"adult":false},{"id":9975,"adult":false},{"id":412896,"adult":false},{"id":334616,"adult":false},{"id":142631,"adult":false},{"id":412897,"adult":false},{"id":412898,"adult":false},{"id":412899,"adult":false},{"id":412900,"adult":false},{"id":390497,"adult":false},{"id":412901,"adult":false},{"id":366313,"adult":false},{"id":77513,"adult":false},{"id":412902,"adult":false}],"page":90,"total_pages":103,"total_results":10211}