{"results":[{"id":395901,"adult":false},{"id":2046,"adult":false},{"id":39148,"adult":false},{"id":10020,"adult":false},{"id":44585,"adult":false},{"id":294583,"adult":false},{"id":89956,"adult":false},{"id":76081,"adult":false},{"id":395902,"adult":false},{"id":32242,"adult":false},{"id":395903,"adult":false},{"id":41215,"adult":false},{"id":221918,"adult":false},{"id":5037,"adult":false},{"id":120794,"adult":false},{"id":218913,"adult":false},{"id":33766,"adult":false},{"id":90799,"adult":false},{"id":395904,"adult":false},{"id":267046,"adult":false},{"id":285,"adult":false},{"id":221043,"adult":false},{"id":395905,"adult":false},{"id":172785,"adult":false},{"id":52749,"adult":false},{"id":58473,"adult":false},{"id":395906,"adult":false},{"id":36609,"adult":false},{"id":86311,"adult":false},{"id":66566,"adult":false},{"id":76216,"adult":false},{"id":944,"adult":false},{"id":42795,"adult":false},{"id":395907,"adult":false},{"id":82132,"adult":false},{"id":319384,"adult":false},{"id":10336,"adult":false},{"id":195697,"adult":false},{"id":381175,"adult":null},{"id":44949,"adult":false},{"id":10867,"adult":false},{"id":389476,"adult":false},{"id":395908,"adult":false},{"id":144757,"adult":false},{"id":149684,"adult":false},{"id":87625,"adult":false},{"id":395910,"adult":false},{"id":4553,"adult":false},{"id":64679,"adult":false},{"id":55347,"adult":false},{"id":283689,"adult":false},{"id":70662,"adult":false},{"id":105067,"adult":false},{"id":390544,"adult":false},{"id":80907,"adult":false},{"id":99042,"adult":false},{"id":31409,"adult":false},{"id":112499,"adult":false},{"id":395911,"adult":false},{"id":281302,"adult":false},{"id":395912,"adult":false},{"id":57262,"adult":false},{"id":362332,"adult":false},{"id":395913,"adult":false},{"id":360551,"adult":false},{"id":67883,"adult":false},{"id":220164,"adult":false},{"id":395914,"adult":false},{"id":370458,"adult":false},{"id":143411,"adult":false},{"id":126277,"adult":false},{"id":283060,"adult":false},{"id":395915,"adult":false},{"id":381656,"adult":false},{"id":109443,"adult":false},{"id":64567,"adult":false},{"id":64573,"adult":false},{"id":197550,"adult":false},{"id":64822,"adult":false},{"id":48038,"adult":false},{"id":395916,"adult":false},{"id":55687,"adult":false},{"id":395917,"adult":false},{"id":264562,"adult":false},{"id":29516,"adult":false},{"id":390734,"adult":false},{"id":381628,"adult":null},{"id":147603,"adult":false},{"id":10994,"adult":false},{"id":317043,"adult":false},{"id":393588,"adult":false},{"id":362705,"adult":false},{"id":394993,"adult":false},{"id":9471,"adult":false},{"id":395918,"adult":false},{"id":101254,"adult":false},{"id":330982,"adult":false},{"id":395919,"adult":false},{"id":395920,"adult":false},{"id":362707,"adult":false}],"page":32,"total_pages":130,"total_results":12927}