{"results":[{"id":236540,"adult":false},{"id":234755,"adult":false},{"id":396562,"adult":false},{"id":8974,"adult":false},{"id":236984,"adult":false},{"id":236717,"adult":false},{"id":235836,"adult":false},{"id":351557,"adult":false},{"id":193752,"adult":false},{"id":336808,"adult":false},{"id":236251,"adult":false},{"id":71725,"adult":false},{"id":338273,"adult":false},{"id":237127,"adult":false},{"id":67152,"adult":false},{"id":236137,"adult":false},{"id":236132,"adult":false},{"id":337110,"adult":false},{"id":144455,"adult":false},{"id":1267,"adult":false},{"id":236227,"adult":false},{"id":236210,"adult":false},{"id":381890,"adult":false},{"id":226406,"adult":false},{"id":201996,"adult":false},{"id":396563,"adult":false},{"id":202278,"adult":false},{"id":86739,"adult":false},{"id":396564,"adult":false},{"id":84678,"adult":false},{"id":219506,"adult":false},{"id":174482,"adult":false},{"id":174498,"adult":false},{"id":219516,"adult":false},{"id":10396,"adult":false},{"id":174442,"adult":false},{"id":197178,"adult":false},{"id":396565,"adult":false},{"id":201983,"adult":false},{"id":152236,"adult":false},{"id":236659,"adult":false},{"id":392812,"adult":false},{"id":236686,"adult":false},{"id":236656,"adult":false},{"id":236688,"adult":false},{"id":76863,"adult":false},{"id":336663,"adult":false},{"id":334312,"adult":false},{"id":96700,"adult":false},{"id":308640,"adult":false},{"id":84087,"adult":false},{"id":43800,"adult":false},{"id":29886,"adult":false},{"id":80585,"adult":false},{"id":29601,"adult":false},{"id":22350,"adult":false},{"id":288734,"adult":false},{"id":351186,"adult":false},{"id":396566,"adult":false},{"id":56354,"adult":false},{"id":94209,"adult":false},{"id":9956,"adult":false},{"id":4413,"adult":false},{"id":15,"adult":false},{"id":105038,"adult":false},{"id":30307,"adult":false},{"id":269427,"adult":false},{"id":165745,"adult":false},{"id":65587,"adult":false},{"id":387767,"adult":null},{"id":396567,"adult":false},{"id":22752,"adult":false},{"id":396568,"adult":false},{"id":329996,"adult":false},{"id":27759,"adult":false},{"id":11360,"adult":false},{"id":392804,"adult":false},{"id":10911,"adult":false},{"id":43799,"adult":false},{"id":27725,"adult":false},{"id":258509,"adult":false},{"id":33112,"adult":false},{"id":396569,"adult":false},{"id":129084,"adult":false},{"id":3086,"adult":false},{"id":241599,"adult":false},{"id":360741,"adult":false},{"id":307201,"adult":false},{"id":100068,"adult":false},{"id":82702,"adult":false},{"id":241596,"adult":false},{"id":286977,"adult":false},{"id":95874,"adult":false},{"id":319469,"adult":false},{"id":27622,"adult":false},{"id":814,"adult":false},{"id":56151,"adult":false},{"id":25748,"adult":false},{"id":264844,"adult":false},{"id":123473,"adult":false}],"page":77,"total_pages":130,"total_results":12927}