{"results":[{"id":412557,"adult":false},{"id":53737,"adult":false},{"id":339792,"adult":false},{"id":412558,"adult":false},{"id":22649,"adult":false},{"id":332340,"adult":false},{"id":107899,"adult":false},{"id":363209,"adult":false},{"id":402389,"adult":false},{"id":329174,"adult":false},{"id":412559,"adult":false},{"id":369209,"adult":false},{"id":44154,"adult":false},{"id":98287,"adult":false},{"id":158752,"adult":false},{"id":297660,"adult":null},{"id":380944,"adult":false},{"id":44559,"adult":false},{"id":231617,"adult":false},{"id":130473,"adult":false},{"id":407171,"adult":false},{"id":36682,"adult":false},{"id":285022,"adult":false},{"id":1895,"adult":false},{"id":412560,"adult":false},{"id":107891,"adult":false},{"id":14489,"adult":false},{"id":21537,"adult":false},{"id":291549,"adult":false},{"id":111620,"adult":false},{"id":127461,"adult":false},{"id":54861,"adult":false},{"id":357441,"adult":false},{"id":187432,"adult":false},{"id":168321,"adult":false},{"id":38034,"adult":false},{"id":376171,"adult":false},{"id":227716,"adult":false},{"id":374458,"adult":false},{"id":389044,"adult":false},{"id":23848,"adult":false},{"id":287997,"adult":false},{"id":344268,"adult":false},{"id":324496,"adult":false},{"id":207649,"adult":false},{"id":200201,"adult":false},{"id":44833,"adult":false},{"id":412561,"adult":false},{"id":412562,"adult":false},{"id":646,"adult":false},{"id":412563,"adult":false},{"id":10217,"adult":false},{"id":403642,"adult":false},{"id":266882,"adult":false},{"id":163716,"adult":false},{"id":81651,"adult":false},{"id":245592,"adult":false},{"id":348405,"adult":false},{"id":149640,"adult":false},{"id":354556,"adult":false},{"id":412564,"adult":false},{"id":302401,"adult":false},{"id":60243,"adult":false},{"id":380808,"adult":false},{"id":324849,"adult":false},{"id":26451,"adult":false},{"id":2493,"adult":false},{"id":412565,"adult":false},{"id":377726,"adult":false},{"id":36950,"adult":false},{"id":217929,"adult":false},{"id":325789,"adult":false},{"id":267606,"adult":false},{"id":412566,"adult":false},{"id":412570,"adult":false},{"id":383814,"adult":false},{"id":406088,"adult":false},{"id":15922,"adult":false},{"id":329809,"adult":false},{"id":284986,"adult":false},{"id":83735,"adult":false},{"id":297762,"adult":false},{"id":138271,"adult":false},{"id":386556,"adult":false},{"id":405872,"adult":false},{"id":59230,"adult":false},{"id":207181,"adult":false},{"id":205724,"adult":false},{"id":374720,"adult":false},{"id":68968,"adult":false},{"id":394486,"adult":false},{"id":412571,"adult":false},{"id":412572,"adult":false},{"id":342551,"adult":false},{"id":408698,"adult":false},{"id":34800,"adult":false},{"id":21683,"adult":false},{"id":412573,"adult":false},{"id":412574,"adult":false},{"id":23483,"adult":false}],"page":74,"total_pages":103,"total_results":10211}