{"results":[{"id":10658,"adult":false},{"id":205865,"adult":false},{"id":60486,"adult":false},{"id":55257,"adult":false},{"id":778,"adult":false},{"id":59993,"adult":false},{"id":397886,"adult":false},{"id":70123,"adult":false},{"id":15582,"adult":false},{"id":25974,"adult":false},{"id":379053,"adult":false},{"id":263822,"adult":false},{"id":397887,"adult":false},{"id":12275,"adult":false},{"id":81895,"adult":false},{"id":382892,"adult":false},{"id":33569,"adult":false},{"id":347196,"adult":false},{"id":188521,"adult":false},{"id":397888,"adult":false},{"id":397889,"adult":false},{"id":1272,"adult":false},{"id":397890,"adult":false},{"id":308808,"adult":false},{"id":397891,"adult":false},{"id":397892,"adult":true},{"id":397894,"adult":false},{"id":397895,"adult":false},{"id":240626,"adult":false},{"id":97367,"adult":false},{"id":11420,"adult":false},{"id":21484,"adult":false},{"id":397896,"adult":false},{"id":397897,"adult":false},{"id":353788,"adult":false},{"id":51263,"adult":false},{"id":397898,"adult":false},{"id":397899,"adult":false},{"id":359364,"adult":false},{"id":393299,"adult":null},{"id":191855,"adult":false},{"id":368025,"adult":null},{"id":397900,"adult":false},{"id":397901,"adult":false},{"id":99686,"adult":false},{"id":397902,"adult":false},{"id":42025,"adult":false},{"id":73455,"adult":false},{"id":391520,"adult":false},{"id":346384,"adult":false},{"id":228384,"adult":false},{"id":293784,"adult":false},{"id":397903,"adult":false},{"id":397904,"adult":false},{"id":367013,"adult":false},{"id":397905,"adult":false},{"id":222655,"adult":false},{"id":427,"adult":false},{"id":534,"adult":false},{"id":376867,"adult":false},{"id":397906,"adult":false},{"id":382611,"adult":false},{"id":397907,"adult":false},{"id":129726,"adult":false},{"id":9599,"adult":false},{"id":68635,"adult":false},{"id":30729,"adult":false},{"id":397908,"adult":false},{"id":10510,"adult":false},{"id":397909,"adult":false},{"id":336652,"adult":false},{"id":29409,"adult":false},{"id":9849,"adult":false},{"id":397910,"adult":false},{"id":292631,"adult":false},{"id":669,"adult":false},{"id":11027,"adult":false},{"id":397911,"adult":true},{"id":81401,"adult":false},{"id":257049,"adult":false},{"id":11397,"adult":false},{"id":395220,"adult":false},{"id":59457,"adult":false},{"id":43236,"adult":false},{"id":19034,"adult":false},{"id":104275,"adult":false},{"id":26278,"adult":false},{"id":267,"adult":false},{"id":5816,"adult":false},{"id":10360,"adult":false},{"id":37438,"adult":false},{"id":29845,"adult":false},{"id":6396,"adult":false},{"id":371738,"adult":false},{"id":397912,"adult":false},{"id":123390,"adult":false},{"id":4710,"adult":false},{"id":207932,"adult":false},{"id":102933,"adult":false},{"id":46847,"adult":false}],"page":28,"total_pages":128,"total_results":12797}