{"results":[{"id":120624,"adult":false},{"id":120711,"adult":false},{"id":398383,"adult":false},{"id":1391,"adult":false},{"id":9071,"adult":false},{"id":55,"adult":false},{"id":388202,"adult":false},{"id":62095,"adult":false},{"id":317091,"adult":false},{"id":58019,"adult":false},{"id":215164,"adult":false},{"id":430172,"adult":false},{"id":430423,"adult":false},{"id":274674,"adult":false},{"id":81330,"adult":false},{"id":261818,"adult":false},{"id":9636,"adult":false},{"id":430424,"adult":false},{"id":315011,"adult":false},{"id":257648,"adult":false},{"id":9969,"adult":false},{"id":10478,"adult":false},{"id":8325,"adult":false},{"id":430425,"adult":false},{"id":289720,"adult":false},{"id":297761,"adult":false},{"id":137409,"adult":false},{"id":192141,"adult":false},{"id":70131,"adult":false},{"id":13154,"adult":false},{"id":345163,"adult":false},{"id":287649,"adult":false},{"id":285,"adult":false},{"id":4982,"adult":false},{"id":329687,"adult":false},{"id":14943,"adult":false},{"id":9408,"adult":false},{"id":277709,"adult":false},{"id":280260,"adult":false},{"id":25050,"adult":false},{"id":233112,"adult":false},{"id":1581,"adult":false},{"id":174321,"adult":false},{"id":16664,"adult":false},{"id":41373,"adult":false},{"id":394728,"adult":false},{"id":95,"adult":false},{"id":244114,"adult":false},{"id":411808,"adult":false},{"id":10882,"adult":false},{"id":197796,"adult":false},{"id":430427,"adult":null},{"id":8051,"adult":false},{"id":88860,"adult":false},{"id":299536,"adult":false},{"id":345868,"adult":false},{"id":277261,"adult":false},{"id":869,"adult":false},{"id":429733,"adult":false},{"id":9394,"adult":false},{"id":363916,"adult":false},{"id":44833,"adult":false},{"id":367544,"adult":false},{"id":329697,"adult":false},{"id":412265,"adult":false},{"id":37135,"adult":false},{"id":11829,"adult":false},{"id":425247,"adult":false},{"id":32712,"adult":false},{"id":430428,"adult":false},{"id":421664,"adult":false},{"id":353070,"adult":false},{"id":40996,"adult":false},{"id":125470,"adult":false},{"id":373688,"adult":null},{"id":418043,"adult":false},{"id":319259,"adult":false},{"id":16139,"adult":false},{"id":359074,"adult":false},{"id":73302,"adult":false},{"id":82779,"adult":false},{"id":381034,"adult":false},{"id":157175,"adult":false},{"id":114661,"adult":false},{"id":16553,"adult":false},{"id":430429,"adult":null},{"id":430430,"adult":false},{"id":80215,"adult":false},{"id":430431,"adult":false},{"id":95610,"adult":false},{"id":323677,"adult":false},{"id":377156,"adult":false},{"id":315507,"adult":false},{"id":370238,"adult":false},{"id":385052,"adult":false},{"id":17941,"adult":false},{"id":430432,"adult":false},{"id":356298,"adult":false},{"id":428735,"adult":null},{"id":389015,"adult":false}],"page":16,"total_pages":114,"total_results":11339}