{"results":[{"id":259719,"adult":false},{"id":40096,"adult":false},{"id":333354,"adult":false},{"id":319070,"adult":false},{"id":285750,"adult":false},{"id":272203,"adult":null},{"id":28110,"adult":false},{"id":405263,"adult":false},{"id":407301,"adult":false},{"id":318781,"adult":false},{"id":22559,"adult":false},{"id":395932,"adult":false},{"id":595,"adult":false},{"id":31655,"adult":false},{"id":268100,"adult":false},{"id":44147,"adult":false},{"id":22013,"adult":false},{"id":343824,"adult":false},{"id":324464,"adult":false},{"id":259091,"adult":false},{"id":324583,"adult":false},{"id":352997,"adult":false},{"id":361358,"adult":false},{"id":324581,"adult":false},{"id":324585,"adult":false},{"id":382602,"adult":false},{"id":407302,"adult":false},{"id":407303,"adult":false},{"id":315992,"adult":false},{"id":326479,"adult":false},{"id":322982,"adult":false},{"id":296697,"adult":false},{"id":407304,"adult":false},{"id":58235,"adult":false},{"id":4933,"adult":false},{"id":262169,"adult":false},{"id":407305,"adult":false},{"id":400424,"adult":false},{"id":376808,"adult":false},{"id":211166,"adult":false},{"id":193954,"adult":false},{"id":52333,"adult":false},{"id":173443,"adult":false},{"id":317991,"adult":false},{"id":49980,"adult":false},{"id":3016,"adult":false},{"id":237793,"adult":false},{"id":358893,"adult":false},{"id":63026,"adult":false},{"id":241968,"adult":false},{"id":359772,"adult":null},{"id":338816,"adult":false},{"id":375812,"adult":false},{"id":82485,"adult":false},{"id":229882,"adult":false},{"id":224931,"adult":false},{"id":407306,"adult":false},{"id":407307,"adult":false},{"id":24408,"adult":false},{"id":144050,"adult":false},{"id":64104,"adult":false},{"id":232474,"adult":false},{"id":407308,"adult":false},{"id":407309,"adult":false},{"id":232524,"adult":false},{"id":356752,"adult":false},{"id":53754,"adult":false},{"id":147607,"adult":false},{"id":291866,"adult":false},{"id":232518,"adult":false},{"id":224967,"adult":false},{"id":407310,"adult":false},{"id":12775,"adult":false},{"id":232485,"adult":false},{"id":312879,"adult":false},{"id":162618,"adult":false},{"id":349128,"adult":false},{"id":232530,"adult":false},{"id":57290,"adult":null},{"id":132075,"adult":false},{"id":122524,"adult":false},{"id":42142,"adult":false},{"id":345661,"adult":false},{"id":168115,"adult":false},{"id":161812,"adult":false},{"id":247613,"adult":true},{"id":371610,"adult":false},{"id":192714,"adult":false},{"id":231233,"adult":false},{"id":147613,"adult":false},{"id":75212,"adult":false},{"id":232534,"adult":false},{"id":407311,"adult":false},{"id":171540,"adult":false},{"id":251024,"adult":false},{"id":407312,"adult":false},{"id":243352,"adult":false},{"id":232454,"adult":false},{"id":120753,"adult":false},{"id":144053,"adult":false}],"page":56,"total_pages":120,"total_results":11946}