{"results":[{"id":85878,"adult":false},{"id":291842,"adult":false},{"id":287396,"adult":false},{"id":334293,"adult":false},{"id":356196,"adult":false},{"id":276170,"adult":false},{"id":30095,"adult":false},{"id":172780,"adult":false},{"id":28444,"adult":false},{"id":225449,"adult":false},{"id":15208,"adult":false},{"id":205889,"adult":false},{"id":435,"adult":false},{"id":86388,"adult":false},{"id":14164,"adult":false},{"id":41972,"adult":false},{"id":23631,"adult":false},{"id":416601,"adult":false},{"id":253254,"adult":false},{"id":118390,"adult":false},{"id":11348,"adult":false},{"id":388403,"adult":false},{"id":372830,"adult":false},{"id":185697,"adult":false},{"id":371859,"adult":false},{"id":388711,"adult":null},{"id":141883,"adult":false},{"id":31562,"adult":false},{"id":374452,"adult":false},{"id":354861,"adult":false},{"id":409751,"adult":false},{"id":397514,"adult":false},{"id":416602,"adult":false},{"id":416603,"adult":false},{"id":339405,"adult":false},{"id":13968,"adult":false},{"id":4543,"adult":false},{"id":254013,"adult":false},{"id":63096,"adult":false},{"id":181870,"adult":false},{"id":13785,"adult":false},{"id":416604,"adult":false},{"id":91333,"adult":false},{"id":416605,"adult":false},{"id":106708,"adult":false},{"id":167788,"adult":false},{"id":140,"adult":false},{"id":37661,"adult":false},{"id":61645,"adult":false},{"id":138085,"adult":false},{"id":21033,"adult":false},{"id":416606,"adult":null},{"id":416608,"adult":false},{"id":313515,"adult":false},{"id":209406,"adult":false},{"id":127645,"adult":false},{"id":390578,"adult":false},{"id":11418,"adult":false},{"id":34389,"adult":false},{"id":416609,"adult":false},{"id":112134,"adult":false},{"id":52053,"adult":false},{"id":416613,"adult":false},{"id":14774,"adult":false},{"id":34480,"adult":false},{"id":86672,"adult":false},{"id":12569,"adult":false},{"id":228326,"adult":false},{"id":270487,"adult":false},{"id":111750,"adult":false},{"id":354110,"adult":false},{"id":7512,"adult":false},{"id":290695,"adult":false},{"id":3021,"adult":false},{"id":263341,"adult":false},{"id":75656,"adult":false},{"id":10795,"adult":false},{"id":328252,"adult":false},{"id":416614,"adult":false},{"id":11169,"adult":false},{"id":16618,"adult":false},{"id":416615,"adult":false},{"id":28701,"adult":false},{"id":171274,"adult":false},{"id":416616,"adult":false},{"id":10189,"adult":false},{"id":102013,"adult":false},{"id":415454,"adult":null},{"id":13685,"adult":false},{"id":11619,"adult":false},{"id":66651,"adult":false},{"id":8055,"adult":false},{"id":333620,"adult":false},{"id":129690,"adult":false},{"id":416617,"adult":false},{"id":416618,"adult":false},{"id":311998,"adult":false},{"id":37025,"adult":false},{"id":14851,"adult":false},{"id":42587,"adult":false}],"page":46,"total_pages":141,"total_results":14019}