{"results":[{"id":290646,"adult":false},{"id":63414,"adult":false},{"id":365834,"adult":false},{"id":412529,"adult":false},{"id":291085,"adult":false},{"id":376004,"adult":false},{"id":416798,"adult":false},{"id":416799,"adult":false},{"id":338600,"adult":false},{"id":321377,"adult":false},{"id":416800,"adult":false},{"id":343097,"adult":false},{"id":242682,"adult":false},{"id":323792,"adult":false},{"id":335133,"adult":false},{"id":171873,"adult":false},{"id":345468,"adult":false},{"id":327651,"adult":false},{"id":416801,"adult":false},{"id":340835,"adult":false},{"id":19899,"adult":false},{"id":364153,"adult":false},{"id":321178,"adult":false},{"id":157422,"adult":false},{"id":310933,"adult":false},{"id":141052,"adult":false},{"id":356486,"adult":false},{"id":299553,"adult":false},{"id":347849,"adult":false},{"id":91324,"adult":false},{"id":416802,"adult":false},{"id":344147,"adult":false},{"id":9509,"adult":false},{"id":391785,"adult":false},{"id":349135,"adult":false},{"id":353267,"adult":false},{"id":416803,"adult":null},{"id":391786,"adult":false},{"id":16764,"adult":false},{"id":10784,"adult":false},{"id":264549,"adult":false},{"id":109637,"adult":false},{"id":9839,"adult":false},{"id":82070,"adult":false},{"id":391787,"adult":false},{"id":305002,"adult":false},{"id":238628,"adult":false},{"id":416804,"adult":false},{"id":391788,"adult":false},{"id":96642,"adult":false},{"id":391789,"adult":false},{"id":121504,"adult":false},{"id":5763,"adult":false},{"id":414448,"adult":false},{"id":23189,"adult":false},{"id":416805,"adult":false},{"id":416806,"adult":false},{"id":127748,"adult":false},{"id":416807,"adult":false},{"id":416808,"adult":false},{"id":10394,"adult":false},{"id":263186,"adult":false},{"id":24919,"adult":false},{"id":391640,"adult":false},{"id":416809,"adult":false},{"id":14537,"adult":false},{"id":286742,"adult":false},{"id":123983,"adult":false},{"id":416810,"adult":false},{"id":416811,"adult":false},{"id":57874,"adult":false},{"id":416812,"adult":false},{"id":416813,"adult":false},{"id":52943,"adult":false},{"id":51472,"adult":false},{"id":416814,"adult":false},{"id":274409,"adult":false},{"id":251359,"adult":false},{"id":107957,"adult":true},{"id":323912,"adult":false},{"id":416815,"adult":false},{"id":3426,"adult":false},{"id":26119,"adult":false},{"id":152379,"adult":false},{"id":416816,"adult":false},{"id":3476,"adult":false},{"id":32577,"adult":false},{"id":329103,"adult":false},{"id":416817,"adult":false},{"id":416818,"adult":false},{"id":415219,"adult":false},{"id":416819,"adult":false},{"id":69576,"adult":false},{"id":42479,"adult":false},{"id":29960,"adult":false},{"id":416820,"adult":false},{"id":55044,"adult":false},{"id":156993,"adult":false},{"id":382338,"adult":false},{"id":416821,"adult":null}],"page":56,"total_pages":141,"total_results":14019}