{"results":[{"id":331436,"adult":false},{"id":164687,"adult":false},{"id":334543,"adult":false},{"id":209401,"adult":false},{"id":41118,"adult":false},{"id":78712,"adult":false},{"id":11429,"adult":false},{"id":60566,"adult":false},{"id":215211,"adult":false},{"id":216015,"adult":false},{"id":285782,"adult":false},{"id":225285,"adult":false},{"id":13073,"adult":false},{"id":11469,"adult":false},{"id":52561,"adult":false},{"id":9650,"adult":false},{"id":227306,"adult":false},{"id":227707,"adult":false},{"id":170514,"adult":false},{"id":241909,"adult":false},{"id":34509,"adult":false},{"id":155230,"adult":false},{"id":58219,"adult":false},{"id":256917,"adult":false},{"id":259363,"adult":false},{"id":262543,"adult":false},{"id":296820,"adult":false},{"id":273258,"adult":false},{"id":266396,"adult":false},{"id":271674,"adult":false},{"id":99930,"adult":false},{"id":20068,"adult":false},{"id":20069,"adult":false},{"id":291805,"adult":false},{"id":292040,"adult":false},{"id":84908,"adult":false},{"id":42943,"adult":false},{"id":44894,"adult":false},{"id":295964,"adult":false},{"id":43894,"adult":false},{"id":304357,"adult":false},{"id":320034,"adult":false},{"id":332243,"adult":false},{"id":34508,"adult":false},{"id":31981,"adult":false},{"id":13480,"adult":false},{"id":64372,"adult":false},{"id":96713,"adult":false},{"id":278919,"adult":false},{"id":254323,"adult":false},{"id":114218,"adult":false},{"id":14256,"adult":false},{"id":39266,"adult":false},{"id":202511,"adult":false},{"id":48251,"adult":false},{"id":16905,"adult":false},{"id":384582,"adult":false},{"id":192980,"adult":false},{"id":43896,"adult":false},{"id":57686,"adult":false},{"id":392396,"adult":false},{"id":120977,"adult":false},{"id":286828,"adult":false},{"id":286051,"adult":false},{"id":27990,"adult":false},{"id":27970,"adult":false},{"id":179066,"adult":false},{"id":28910,"adult":false},{"id":1832,"adult":false},{"id":64115,"adult":false},{"id":39462,"adult":false},{"id":287581,"adult":false},{"id":166045,"adult":false},{"id":81297,"adult":false},{"id":182651,"adult":false},{"id":65696,"adult":false},{"id":39317,"adult":false},{"id":64344,"adult":false},{"id":392400,"adult":false},{"id":390812,"adult":false},{"id":161812,"adult":false},{"id":601,"adult":false},{"id":29342,"adult":false},{"id":101233,"adult":false},{"id":229304,"adult":false},{"id":140818,"adult":false},{"id":11174,"adult":false},{"id":201650,"adult":false},{"id":164727,"adult":false},{"id":9335,"adult":false},{"id":392401,"adult":false},{"id":392402,"adult":false},{"id":7979,"adult":false},{"id":27678,"adult":false},{"id":330327,"adult":false},{"id":79207,"adult":false},{"id":48302,"adult":false},{"id":392403,"adult":false},{"id":37686,"adult":false},{"id":52849,"adult":false}],"page":98,"total_pages":118,"total_results":11761}