{"results":[{"id":12163,"adult":false},{"id":397722,"adult":false},{"id":50549,"adult":false},{"id":399366,"adult":false},{"id":33569,"adult":false},{"id":31678,"adult":false},{"id":176325,"adult":false},{"id":391713,"adult":false},{"id":28794,"adult":false},{"id":336252,"adult":false},{"id":10360,"adult":false},{"id":414452,"adult":false},{"id":176231,"adult":false},{"id":673,"adult":false},{"id":88057,"adult":false},{"id":224575,"adult":false},{"id":346170,"adult":false},{"id":414453,"adult":false},{"id":186022,"adult":false},{"id":49967,"adult":false},{"id":172239,"adult":false},{"id":51426,"adult":false},{"id":12568,"adult":false},{"id":381038,"adult":false},{"id":169487,"adult":false},{"id":300422,"adult":false},{"id":413337,"adult":false},{"id":309245,"adult":false},{"id":293240,"adult":false},{"id":176570,"adult":false},{"id":298028,"adult":false},{"id":414454,"adult":false},{"id":20016,"adult":false},{"id":324279,"adult":false},{"id":337879,"adult":false},{"id":390796,"adult":false},{"id":334742,"adult":false},{"id":414455,"adult":false},{"id":335582,"adult":false},{"id":359254,"adult":false},{"id":13796,"adult":false},{"id":24667,"adult":false},{"id":293234,"adult":false},{"id":340401,"adult":false},{"id":28218,"adult":false},{"id":414456,"adult":null},{"id":414457,"adult":false},{"id":347097,"adult":false},{"id":11951,"adult":false},{"id":343850,"adult":false},{"id":18167,"adult":false},{"id":348929,"adult":false},{"id":279977,"adult":false},{"id":343284,"adult":false},{"id":376387,"adult":false},{"id":346093,"adult":false},{"id":33765,"adult":false},{"id":360321,"adult":false},{"id":414458,"adult":false},{"id":11375,"adult":false},{"id":8895,"adult":false},{"id":363890,"adult":false},{"id":372049,"adult":false},{"id":406507,"adult":false},{"id":288583,"adult":true},{"id":111313,"adult":false},{"id":332746,"adult":false},{"id":202958,"adult":true},{"id":396557,"adult":false},{"id":129604,"adult":true},{"id":414459,"adult":true},{"id":360731,"adult":false},{"id":203835,"adult":false},{"id":96990,"adult":false},{"id":4148,"adult":false},{"id":414460,"adult":null},{"id":414461,"adult":true},{"id":317903,"adult":false},{"id":414462,"adult":false},{"id":414463,"adult":true},{"id":414464,"adult":false},{"id":370234,"adult":false},{"id":395800,"adult":false},{"id":414465,"adult":true},{"id":114003,"adult":false},{"id":239948,"adult":false},{"id":414466,"adult":true},{"id":342927,"adult":false},{"id":2055,"adult":false},{"id":325302,"adult":false},{"id":83,"adult":false},{"id":414467,"adult":true},{"id":362430,"adult":false},{"id":340268,"adult":false},{"id":29263,"adult":false},{"id":414468,"adult":true},{"id":414469,"adult":false},{"id":25095,"adult":false},{"id":356986,"adult":false},{"id":367836,"adult":false}],"page":53,"total_pages":126,"total_results":12554}