{"results":[{"id":43874,"adult":false},{"id":135397,"adult":false},{"id":101294,"adult":false},{"id":48409,"adult":false},{"id":76341,"adult":false},{"id":214688,"adult":false},{"id":31561,"adult":false},{"id":214909,"adult":false},{"id":24428,"adult":false},{"id":58431,"adult":false},{"id":206377,"adult":false},{"id":402504,"adult":false},{"id":192853,"adult":false},{"id":182934,"adult":false},{"id":402505,"adult":false},{"id":20642,"adult":false},{"id":402053,"adult":false},{"id":202526,"adult":false},{"id":259292,"adult":false},{"id":196802,"adult":false},{"id":169267,"adult":false},{"id":173456,"adult":false},{"id":83240,"adult":false},{"id":77870,"adult":false},{"id":395336,"adult":false},{"id":402506,"adult":false},{"id":259703,"adult":false},{"id":318635,"adult":false},{"id":309769,"adult":false},{"id":402507,"adult":false},{"id":402508,"adult":false},{"id":402509,"adult":false},{"id":163936,"adult":false},{"id":329641,"adult":false},{"id":358726,"adult":false},{"id":332502,"adult":false},{"id":214553,"adult":false},{"id":272878,"adult":false},{"id":87258,"adult":false},{"id":87118,"adult":false},{"id":107387,"adult":false},{"id":185103,"adult":false},{"id":13205,"adult":false},{"id":87250,"adult":false},{"id":97459,"adult":false},{"id":199697,"adult":false},{"id":33085,"adult":false},{"id":54714,"adult":false},{"id":107406,"adult":false},{"id":25649,"adult":false},{"id":329794,"adult":false},{"id":231230,"adult":false},{"id":402510,"adult":false},{"id":402511,"adult":false},{"id":333484,"adult":false},{"id":348296,"adult":false},{"id":347881,"adult":false},{"id":253414,"adult":false},{"id":177572,"adult":false},{"id":402512,"adult":false},{"id":400430,"adult":false},{"id":364160,"adult":false},{"id":166897,"adult":false},{"id":296100,"adult":false},{"id":294254,"adult":false},{"id":398581,"adult":false},{"id":278,"adult":false},{"id":402513,"adult":false},{"id":181533,"adult":false},{"id":120,"adult":false},{"id":251570,"adult":false},{"id":400370,"adult":false},{"id":121,"adult":false},{"id":351545,"adult":false},{"id":402514,"adult":false},{"id":81616,"adult":false},{"id":402515,"adult":false},{"id":402516,"adult":false},{"id":402517,"adult":false},{"id":402518,"adult":false},{"id":221667,"adult":false},{"id":34421,"adult":false},{"id":175301,"adult":false},{"id":402519,"adult":false},{"id":374839,"adult":false},{"id":38215,"adult":false},{"id":402045,"adult":false},{"id":258989,"adult":false},{"id":300693,"adult":false},{"id":36769,"adult":false},{"id":337717,"adult":false},{"id":402520,"adult":false},{"id":50030,"adult":false},{"id":152087,"adult":false},{"id":77291,"adult":false},{"id":279832,"adult":false},{"id":329632,"adult":false},{"id":35463,"adult":false},{"id":164120,"adult":false},{"id":504,"adult":false}],"page":21,"total_pages":116,"total_results":11526}