{"results":[{"id":77221,"adult":false},{"id":429477,"adult":null},{"id":288158,"adult":false},{"id":70580,"adult":false},{"id":355730,"adult":false},{"id":352845,"adult":false},{"id":352851,"adult":false},{"id":361749,"adult":false},{"id":256924,"adult":false},{"id":361745,"adult":false},{"id":361261,"adult":false},{"id":429478,"adult":null},{"id":361746,"adult":false},{"id":362886,"adult":false},{"id":363480,"adult":false},{"id":363482,"adult":false},{"id":363483,"adult":false},{"id":360603,"adult":false},{"id":240916,"adult":false},{"id":404779,"adult":false},{"id":369055,"adult":false},{"id":363486,"adult":false},{"id":209262,"adult":false},{"id":325133,"adult":false},{"id":429479,"adult":false},{"id":422951,"adult":false},{"id":61979,"adult":false},{"id":431,"adult":false},{"id":429480,"adult":false},{"id":31962,"adult":false},{"id":26914,"adult":false},{"id":429481,"adult":false},{"id":216683,"adult":false},{"id":10705,"adult":false},{"id":384024,"adult":false},{"id":372226,"adult":false},{"id":422909,"adult":null},{"id":353069,"adult":false},{"id":48915,"adult":false},{"id":429482,"adult":false},{"id":429483,"adult":false},{"id":354211,"adult":false},{"id":208740,"adult":false},{"id":205775,"adult":false},{"id":76777,"adult":false},{"id":429484,"adult":false},{"id":60190,"adult":false},{"id":147360,"adult":false},{"id":62213,"adult":false},{"id":40467,"adult":false},{"id":387749,"adult":false},{"id":381043,"adult":false},{"id":31174,"adult":false},{"id":50112,"adult":false},{"id":76839,"adult":false},{"id":391391,"adult":false},{"id":411038,"adult":false},{"id":90071,"adult":false},{"id":14064,"adult":false},{"id":230944,"adult":false},{"id":206600,"adult":false},{"id":356784,"adult":false},{"id":40070,"adult":false},{"id":141752,"adult":false},{"id":37234,"adult":false},{"id":429485,"adult":false},{"id":35056,"adult":false},{"id":1895,"adult":false},{"id":393712,"adult":false},{"id":47340,"adult":false},{"id":10585,"adult":false},{"id":11566,"adult":false},{"id":380121,"adult":false},{"id":425773,"adult":false},{"id":391707,"adult":false},{"id":355277,"adult":false},{"id":429486,"adult":false},{"id":429487,"adult":false},{"id":391583,"adult":false},{"id":186739,"adult":false},{"id":924,"adult":false},{"id":429488,"adult":false},{"id":81900,"adult":false},{"id":368756,"adult":false},{"id":191562,"adult":false},{"id":185668,"adult":false},{"id":42251,"adult":false},{"id":416309,"adult":false},{"id":426288,"adult":null},{"id":385816,"adult":false},{"id":27244,"adult":false},{"id":40362,"adult":false},{"id":391727,"adult":false},{"id":429489,"adult":false},{"id":384371,"adult":false},{"id":35262,"adult":false},{"id":351768,"adult":false},{"id":223984,"adult":false},{"id":397055,"adult":false},{"id":26714,"adult":false}],"page":81,"total_pages":123,"total_results":12242}