{"results":[{"id":12921,"adult":false},{"id":382487,"adult":false},{"id":357389,"adult":false},{"id":116220,"adult":false},{"id":294272,"adult":false},{"id":211245,"adult":false},{"id":385711,"adult":false},{"id":269125,"adult":false},{"id":289185,"adult":false},{"id":96277,"adult":true},{"id":385712,"adult":false},{"id":793,"adult":false},{"id":24935,"adult":false},{"id":142379,"adult":false},{"id":385713,"adult":false},{"id":385714,"adult":false},{"id":123348,"adult":false},{"id":473,"adult":false},{"id":39472,"adult":false},{"id":384193,"adult":null},{"id":385715,"adult":false},{"id":104938,"adult":false},{"id":180576,"adult":false},{"id":385716,"adult":false},{"id":105210,"adult":false},{"id":75350,"adult":false},{"id":385717,"adult":false},{"id":268002,"adult":false},{"id":2565,"adult":false},{"id":19382,"adult":false},{"id":385718,"adult":false},{"id":385719,"adult":false},{"id":9493,"adult":false},{"id":131780,"adult":false},{"id":17819,"adult":false},{"id":385720,"adult":false},{"id":385721,"adult":false},{"id":65442,"adult":false},{"id":385722,"adult":false},{"id":385723,"adult":null},{"id":385724,"adult":null},{"id":385725,"adult":null},{"id":58129,"adult":false},{"id":22596,"adult":false},{"id":47831,"adult":false},{"id":118543,"adult":false},{"id":385726,"adult":false},{"id":347,"adult":false},{"id":42463,"adult":false},{"id":49836,"adult":false},{"id":3031,"adult":false},{"id":77210,"adult":false},{"id":7484,"adult":false},{"id":11329,"adult":false},{"id":551,"adult":false},{"id":44494,"adult":false},{"id":1730,"adult":false},{"id":31638,"adult":false},{"id":43904,"adult":false},{"id":260,"adult":false},{"id":3596,"adult":false},{"id":776,"adult":false},{"id":10568,"adult":false},{"id":28093,"adult":false},{"id":45000,"adult":false},{"id":353725,"adult":false},{"id":51617,"adult":false},{"id":851,"adult":false},{"id":19072,"adult":false},{"id":648,"adult":false},{"id":16391,"adult":false},{"id":19542,"adult":false},{"id":4558,"adult":false},{"id":45013,"adult":false},{"id":43349,"adult":false},{"id":385727,"adult":false},{"id":47735,"adult":false},{"id":27030,"adult":false},{"id":11429,"adult":false},{"id":43195,"adult":false},{"id":10092,"adult":false},{"id":43323,"adult":false},{"id":338103,"adult":false},{"id":11700,"adult":false},{"id":35987,"adult":false},{"id":43260,"adult":false},{"id":26036,"adult":false},{"id":81390,"adult":false},{"id":14168,"adult":false},{"id":363018,"adult":false},{"id":82525,"adult":false},{"id":272877,"adult":false},{"id":385728,"adult":false},{"id":9885,"adult":false},{"id":146216,"adult":false},{"id":274559,"adult":false},{"id":385729,"adult":false},{"id":13937,"adult":false},{"id":19241,"adult":false},{"id":94204,"adult":false}],"page":31,"total_pages":123,"total_results":12230}