{"results":[{"id":10493,"adult":false},{"id":352978,"adult":false},{"id":39386,"adult":false},{"id":12179,"adult":false},{"id":75353,"adult":false},{"id":56180,"adult":false},{"id":24794,"adult":false},{"id":73299,"adult":false},{"id":74132,"adult":false},{"id":329474,"adult":false},{"id":12157,"adult":false},{"id":13484,"adult":false},{"id":96917,"adult":false},{"id":118289,"adult":false},{"id":2095,"adult":false},{"id":11419,"adult":false},{"id":16759,"adult":false},{"id":242725,"adult":false},{"id":9075,"adult":false},{"id":272923,"adult":false},{"id":54855,"adult":false},{"id":9278,"adult":false},{"id":133783,"adult":false},{"id":18611,"adult":false},{"id":47654,"adult":false},{"id":40810,"adult":false},{"id":241765,"adult":false},{"id":210655,"adult":false},{"id":44396,"adult":false},{"id":17169,"adult":false},{"id":92642,"adult":false},{"id":39964,"adult":false},{"id":19267,"adult":false},{"id":71859,"adult":false},{"id":182095,"adult":false},{"id":9008,"adult":false},{"id":43879,"adult":false},{"id":363,"adult":false},{"id":49671,"adult":false},{"id":13948,"adult":false},{"id":50126,"adult":false},{"id":26428,"adult":false},{"id":15417,"adult":false},{"id":226736,"adult":false},{"id":73562,"adult":false},{"id":1641,"adult":false},{"id":11680,"adult":false},{"id":73452,"adult":false},{"id":31776,"adult":false},{"id":76264,"adult":false},{"id":175291,"adult":false},{"id":74505,"adult":false},{"id":65218,"adult":false},{"id":20857,"adult":false},{"id":17,"adult":false},{"id":44986,"adult":false},{"id":65327,"adult":false},{"id":20880,"adult":false},{"id":10921,"adult":false},{"id":10633,"adult":false},{"id":114718,"adult":false},{"id":53101,"adult":false},{"id":162010,"adult":false},{"id":26491,"adult":false},{"id":42192,"adult":false},{"id":10108,"adult":false},{"id":27850,"adult":false},{"id":379677,"adult":false},{"id":27936,"adult":false},{"id":14239,"adult":false},{"id":31341,"adult":false},{"id":34208,"adult":false},{"id":141058,"adult":false},{"id":18245,"adult":false},{"id":53928,"adult":false},{"id":9353,"adult":false},{"id":17362,"adult":false},{"id":271164,"adult":false},{"id":258962,"adult":false},{"id":11423,"adult":false},{"id":39182,"adult":false},{"id":296043,"adult":false},{"id":9821,"adult":false},{"id":10474,"adult":false},{"id":9740,"adult":false},{"id":46993,"adult":false},{"id":9089,"adult":false},{"id":9761,"adult":false},{"id":4349,"adult":false},{"id":21583,"adult":false},{"id":157073,"adult":false},{"id":37719,"adult":false},{"id":8656,"adult":false},{"id":153419,"adult":false},{"id":14580,"adult":false},{"id":11259,"adult":false},{"id":16110,"adult":false},{"id":10341,"adult":false},{"id":157449,"adult":false},{"id":87108,"adult":false}],"page":141,"total_pages":226,"total_results":22514}