{"results":[{"id":370773,"adult":false},{"id":377042,"adult":false},{"id":377059,"adult":false},{"id":69576,"adult":false},{"id":9387,"adult":false},{"id":13339,"adult":false},{"id":205220,"adult":false},{"id":377618,"adult":false},{"id":300153,"adult":false},{"id":122081,"adult":false},{"id":271718,"adult":false},{"id":377324,"adult":false},{"id":377619,"adult":false},{"id":245906,"adult":false},{"id":170002,"adult":false},{"id":2787,"adult":false},{"id":76170,"adult":false},{"id":377620,"adult":false},{"id":34620,"adult":false},{"id":361050,"adult":false},{"id":187704,"adult":false},{"id":315537,"adult":false},{"id":10885,"adult":false},{"id":269149,"adult":false},{"id":38526,"adult":false},{"id":259076,"adult":false},{"id":10052,"adult":false},{"id":274479,"adult":false},{"id":108286,"adult":false},{"id":86889,"adult":false},{"id":377621,"adult":false},{"id":274167,"adult":false},{"id":783,"adult":false},{"id":56920,"adult":false},{"id":58492,"adult":false},{"id":26514,"adult":false},{"id":71132,"adult":false},{"id":356366,"adult":false},{"id":288661,"adult":false},{"id":369363,"adult":false},{"id":294834,"adult":false},{"id":377625,"adult":false},{"id":15673,"adult":false},{"id":318781,"adult":false},{"id":377626,"adult":false},{"id":14813,"adult":false},{"id":10144,"adult":false},{"id":13850,"adult":false},{"id":377627,"adult":false},{"id":358996,"adult":false},{"id":328214,"adult":false},{"id":377628,"adult":false},{"id":61675,"adult":false},{"id":377629,"adult":false},{"id":377630,"adult":false},{"id":10948,"adult":false},{"id":96466,"adult":false},{"id":377631,"adult":false},{"id":297762,"adult":false},{"id":137145,"adult":false},{"id":188222,"adult":false},{"id":69989,"adult":false},{"id":288708,"adult":false},{"id":29748,"adult":false},{"id":116385,"adult":false},{"id":75505,"adult":false},{"id":45435,"adult":false},{"id":39318,"adult":false},{"id":376171,"adult":false},{"id":177287,"adult":null},{"id":202070,"adult":true},{"id":365115,"adult":false},{"id":347740,"adult":true},{"id":377632,"adult":false},{"id":371463,"adult":false},{"id":276907,"adult":false},{"id":278862,"adult":false},{"id":267673,"adult":true},{"id":308589,"adult":false},{"id":16642,"adult":false},{"id":1788,"adult":false},{"id":161227,"adult":false},{"id":225387,"adult":true},{"id":29496,"adult":false},{"id":208670,"adult":false},{"id":377633,"adult":false},{"id":375728,"adult":false},{"id":225414,"adult":false},{"id":294422,"adult":false},{"id":377634,"adult":false},{"id":98083,"adult":false},{"id":327216,"adult":false},{"id":9618,"adult":false},{"id":37137,"adult":false},{"id":370646,"adult":null},{"id":26946,"adult":false},{"id":140967,"adult":false},{"id":377515,"adult":false},{"id":225416,"adult":null},{"id":377635,"adult":false}],"page":10,"total_pages":226,"total_results":22514}