{"results":[{"id":390862,"adult":false},{"id":421080,"adult":false},{"id":11646,"adult":false},{"id":69014,"adult":false},{"id":9738,"adult":false},{"id":260839,"adult":false},{"id":11441,"adult":false},{"id":42566,"adult":false},{"id":72560,"adult":false},{"id":9722,"adult":false},{"id":362154,"adult":false},{"id":20370,"adult":false},{"id":136459,"adult":false},{"id":40593,"adult":false},{"id":80274,"adult":false},{"id":47038,"adult":false},{"id":42149,"adult":false},{"id":28794,"adult":false},{"id":345931,"adult":false},{"id":45017,"adult":false},{"id":16990,"adult":false},{"id":14412,"adult":false},{"id":288686,"adult":false},{"id":416181,"adult":false},{"id":149900,"adult":false},{"id":73247,"adult":false},{"id":81024,"adult":false},{"id":387994,"adult":false},{"id":20681,"adult":false},{"id":421081,"adult":false},{"id":46491,"adult":false},{"id":80481,"adult":false},{"id":401609,"adult":false},{"id":193684,"adult":false},{"id":378064,"adult":false},{"id":421082,"adult":false},{"id":73732,"adult":false},{"id":21454,"adult":false},{"id":225555,"adult":false},{"id":406625,"adult":false},{"id":421083,"adult":false},{"id":361391,"adult":false},{"id":10216,"adult":false},{"id":8738,"adult":false},{"id":377278,"adult":false},{"id":216403,"adult":false},{"id":421084,"adult":false},{"id":299153,"adult":false},{"id":49524,"adult":false},{"id":421085,"adult":false},{"id":421086,"adult":false},{"id":1729,"adult":false},{"id":19855,"adult":false},{"id":267480,"adult":false},{"id":269095,"adult":false},{"id":71676,"adult":false},{"id":10704,"adult":false},{"id":137008,"adult":false},{"id":375678,"adult":false},{"id":50696,"adult":false},{"id":44183,"adult":false},{"id":386776,"adult":false},{"id":268533,"adult":null},{"id":421087,"adult":true},{"id":47904,"adult":false},{"id":69453,"adult":false},{"id":216803,"adult":false},{"id":82532,"adult":false},{"id":421088,"adult":true},{"id":9557,"adult":false},{"id":49685,"adult":false},{"id":404891,"adult":null},{"id":108107,"adult":false},{"id":9297,"adult":false},{"id":345975,"adult":true},{"id":421089,"adult":false},{"id":421090,"adult":false},{"id":69452,"adult":false},{"id":91064,"adult":true},{"id":191917,"adult":true},{"id":184863,"adult":true},{"id":184963,"adult":true},{"id":184964,"adult":true},{"id":198747,"adult":true},{"id":177995,"adult":true},{"id":337262,"adult":true},{"id":213484,"adult":false},{"id":338078,"adult":true},{"id":354125,"adult":false},{"id":338084,"adult":true},{"id":338682,"adult":true},{"id":361511,"adult":true},{"id":288944,"adult":false},{"id":68099,"adult":false},{"id":254355,"adult":true},{"id":254198,"adult":true},{"id":394920,"adult":true},{"id":421091,"adult":true},{"id":194282,"adult":true},{"id":14832,"adult":false}],"page":139,"total_pages":144,"total_results":14341}