{"results":[{"id":301470,"adult":false},{"id":184724,"adult":false},{"id":294595,"adult":false},{"id":421026,"adult":false},{"id":3066,"adult":false},{"id":290981,"adult":false},{"id":334207,"adult":false},{"id":215000,"adult":false},{"id":382993,"adult":false},{"id":334393,"adult":false},{"id":417161,"adult":false},{"id":219031,"adult":false},{"id":421027,"adult":false},{"id":125521,"adult":false},{"id":76729,"adult":false},{"id":75212,"adult":false},{"id":379551,"adult":false},{"id":421028,"adult":false},{"id":77624,"adult":false},{"id":421029,"adult":false},{"id":421030,"adult":false},{"id":350626,"adult":false},{"id":408502,"adult":false},{"id":421031,"adult":false},{"id":421032,"adult":false},{"id":414961,"adult":false},{"id":396758,"adult":false},{"id":18547,"adult":false},{"id":13059,"adult":false},{"id":132131,"adult":false},{"id":47272,"adult":false},{"id":147323,"adult":false},{"id":74296,"adult":false},{"id":389030,"adult":false},{"id":762,"adult":false},{"id":394287,"adult":false},{"id":48217,"adult":false},{"id":421033,"adult":false},{"id":78208,"adult":false},{"id":320330,"adult":false},{"id":15264,"adult":false},{"id":146791,"adult":false},{"id":397409,"adult":false},{"id":421034,"adult":false},{"id":392270,"adult":false},{"id":58159,"adult":false},{"id":13562,"adult":false},{"id":421035,"adult":false},{"id":28327,"adult":false},{"id":421036,"adult":false},{"id":421037,"adult":false},{"id":382100,"adult":false},{"id":421038,"adult":false},{"id":421039,"adult":false},{"id":421040,"adult":null},{"id":421041,"adult":false},{"id":421042,"adult":false},{"id":373050,"adult":false},{"id":39832,"adult":false},{"id":418661,"adult":false},{"id":129253,"adult":false},{"id":421043,"adult":false},{"id":297467,"adult":false},{"id":145247,"adult":false},{"id":39554,"adult":false},{"id":421044,"adult":false},{"id":414969,"adult":false},{"id":264485,"adult":false},{"id":414925,"adult":false},{"id":414919,"adult":false},{"id":393404,"adult":false},{"id":387037,"adult":false},{"id":290372,"adult":false},{"id":201600,"adult":false},{"id":18385,"adult":false},{"id":413647,"adult":false},{"id":369948,"adult":false},{"id":421045,"adult":false},{"id":414930,"adult":false},{"id":421046,"adult":false},{"id":421047,"adult":false},{"id":373048,"adult":false},{"id":421048,"adult":false},{"id":421049,"adult":false},{"id":421050,"adult":false},{"id":29533,"adult":false},{"id":323271,"adult":false},{"id":277636,"adult":false},{"id":26036,"adult":false},{"id":421051,"adult":false},{"id":418726,"adult":false},{"id":72309,"adult":false},{"id":359790,"adult":false},{"id":337100,"adult":false},{"id":421052,"adult":false},{"id":121611,"adult":false},{"id":421053,"adult":false},{"id":351183,"adult":false},{"id":315865,"adult":false},{"id":421054,"adult":false}],"page":137,"total_pages":144,"total_results":14341}