{"results":[{"id":257638,"adult":false},{"id":426914,"adult":false},{"id":378356,"adult":false},{"id":116121,"adult":false},{"id":83992,"adult":false},{"id":10808,"adult":false},{"id":259129,"adult":false},{"id":9589,"adult":false},{"id":353326,"adult":false},{"id":9769,"adult":false},{"id":1422,"adult":false},{"id":426915,"adult":false},{"id":770,"adult":false},{"id":29778,"adult":false},{"id":10457,"adult":false},{"id":124315,"adult":false},{"id":10617,"adult":false},{"id":10618,"adult":false},{"id":10619,"adult":false},{"id":388331,"adult":false},{"id":108175,"adult":false},{"id":53659,"adult":false},{"id":426916,"adult":false},{"id":426917,"adult":false},{"id":37267,"adult":false},{"id":18215,"adult":false},{"id":55325,"adult":false},{"id":131847,"adult":false},{"id":425160,"adult":false},{"id":9885,"adult":false},{"id":27732,"adult":false},{"id":426918,"adult":false},{"id":27297,"adult":false},{"id":12159,"adult":false},{"id":11303,"adult":false},{"id":426919,"adult":false},{"id":200,"adult":false},{"id":297,"adult":false},{"id":14916,"adult":false},{"id":14127,"adult":false},{"id":131485,"adult":false},{"id":382796,"adult":false},{"id":426920,"adult":false},{"id":424097,"adult":null},{"id":424083,"adult":null},{"id":423948,"adult":null},{"id":423929,"adult":null},{"id":423791,"adult":null},{"id":423919,"adult":null},{"id":423741,"adult":null},{"id":423709,"adult":null},{"id":423723,"adult":null},{"id":423711,"adult":null},{"id":423581,"adult":null},{"id":423558,"adult":null},{"id":423539,"adult":null},{"id":423534,"adult":null},{"id":423521,"adult":null},{"id":423478,"adult":null},{"id":423470,"adult":null},{"id":423411,"adult":null},{"id":43912,"adult":false},{"id":423398,"adult":null},{"id":426921,"adult":false},{"id":423371,"adult":null},{"id":423282,"adult":null},{"id":423238,"adult":null},{"id":423237,"adult":null},{"id":423222,"adult":null},{"id":426922,"adult":false},{"id":256977,"adult":false},{"id":426923,"adult":false},{"id":414059,"adult":null},{"id":126488,"adult":false},{"id":426926,"adult":false},{"id":11629,"adult":false},{"id":403232,"adult":false},{"id":407018,"adult":false},{"id":405787,"adult":false},{"id":426927,"adult":false},{"id":426928,"adult":false},{"id":74605,"adult":false},{"id":417427,"adult":false},{"id":317443,"adult":false},{"id":423203,"adult":null},{"id":426929,"adult":false},{"id":426930,"adult":null},{"id":11062,"adult":false},{"id":423200,"adult":null},{"id":423170,"adult":null},{"id":426931,"adult":false},{"id":320639,"adult":false},{"id":157834,"adult":false},{"id":426932,"adult":false},{"id":10676,"adult":false},{"id":353609,"adult":false},{"id":426933,"adult":false},{"id":393249,"adult":false},{"id":426934,"adult":false},{"id":197605,"adult":false}],"page":58,"total_pages":119,"total_results":11862}