{"results":[{"id":359150,"adult":false},{"id":396393,"adult":false},{"id":353907,"adult":false},{"id":346489,"adult":false},{"id":111796,"adult":false},{"id":227557,"adult":false},{"id":386002,"adult":false},{"id":340258,"adult":false},{"id":293983,"adult":false},{"id":70054,"adult":false},{"id":416508,"adult":null},{"id":371409,"adult":false},{"id":371410,"adult":false},{"id":338509,"adult":false},{"id":352249,"adult":false},{"id":69018,"adult":false},{"id":252490,"adult":false},{"id":59725,"adult":false},{"id":262104,"adult":false},{"id":253508,"adult":false},{"id":352888,"adult":false},{"id":215001,"adult":false},{"id":378426,"adult":false},{"id":193155,"adult":false},{"id":58765,"adult":false},{"id":213379,"adult":false},{"id":347693,"adult":false},{"id":323123,"adult":false},{"id":53817,"adult":false},{"id":64120,"adult":false},{"id":352120,"adult":false},{"id":137564,"adult":false},{"id":306998,"adult":true},{"id":180343,"adult":false},{"id":83727,"adult":false},{"id":334495,"adult":false},{"id":72559,"adult":false},{"id":408265,"adult":false},{"id":181429,"adult":false},{"id":384563,"adult":false},{"id":79075,"adult":false},{"id":336497,"adult":false},{"id":332672,"adult":false},{"id":260185,"adult":false},{"id":415217,"adult":false},{"id":382170,"adult":false},{"id":372689,"adult":false},{"id":85047,"adult":false},{"id":401570,"adult":false},{"id":398184,"adult":false},{"id":138089,"adult":false},{"id":396912,"adult":false},{"id":398882,"adult":false},{"id":398895,"adult":false},{"id":398893,"adult":false},{"id":398876,"adult":false},{"id":398898,"adult":false},{"id":369718,"adult":false},{"id":68116,"adult":false},{"id":324794,"adult":false},{"id":203345,"adult":false},{"id":304494,"adult":false},{"id":325593,"adult":false},{"id":230224,"adult":false},{"id":347852,"adult":false},{"id":135579,"adult":false},{"id":370663,"adult":false},{"id":341986,"adult":false},{"id":66157,"adult":false},{"id":257241,"adult":false},{"id":416509,"adult":false},{"id":392469,"adult":false},{"id":414617,"adult":false},{"id":361249,"adult":false},{"id":325592,"adult":false},{"id":45488,"adult":false},{"id":410588,"adult":false},{"id":298653,"adult":false},{"id":402910,"adult":false},{"id":186292,"adult":false},{"id":387105,"adult":false},{"id":342112,"adult":false},{"id":72769,"adult":false},{"id":78104,"adult":false},{"id":50069,"adult":false},{"id":407931,"adult":false},{"id":405831,"adult":false},{"id":408274,"adult":false},{"id":405833,"adult":false},{"id":416510,"adult":false},{"id":389446,"adult":false},{"id":40872,"adult":false},{"id":298740,"adult":false},{"id":304897,"adult":false},{"id":207732,"adult":false},{"id":394437,"adult":false},{"id":120037,"adult":false},{"id":346389,"adult":false},{"id":284336,"adult":false},{"id":416511,"adult":false}],"page":38,"total_pages":141,"total_results":14019}