{"results":[{"id":299534,"adult":false},{"id":44592,"adult":false},{"id":401086,"adult":false},{"id":369885,"adult":false},{"id":268533,"adult":null},{"id":366826,"adult":false},{"id":340112,"adult":false},{"id":267314,"adult":false},{"id":45432,"adult":false},{"id":56095,"adult":false},{"id":237,"adult":false},{"id":154877,"adult":false},{"id":108518,"adult":false},{"id":355996,"adult":false},{"id":36668,"adult":false},{"id":401087,"adult":true},{"id":355008,"adult":false},{"id":299145,"adult":false},{"id":228034,"adult":false},{"id":401088,"adult":null},{"id":401089,"adult":false},{"id":401090,"adult":false},{"id":401091,"adult":false},{"id":1730,"adult":false},{"id":169326,"adult":false},{"id":118139,"adult":false},{"id":374386,"adult":false},{"id":40343,"adult":false},{"id":380669,"adult":false},{"id":43599,"adult":false},{"id":107438,"adult":false},{"id":315835,"adult":false},{"id":143776,"adult":false},{"id":369702,"adult":false},{"id":359510,"adult":false},{"id":401092,"adult":false},{"id":72997,"adult":false},{"id":104211,"adult":false},{"id":149595,"adult":false},{"id":10017,"adult":false},{"id":183213,"adult":false},{"id":401093,"adult":false},{"id":135397,"adult":false},{"id":64628,"adult":false},{"id":258230,"adult":false},{"id":42146,"adult":false},{"id":401097,"adult":false},{"id":401098,"adult":false},{"id":137087,"adult":false},{"id":119727,"adult":false},{"id":282297,"adult":false},{"id":319073,"adult":false},{"id":371492,"adult":false},{"id":89865,"adult":false},{"id":401099,"adult":true},{"id":104925,"adult":false},{"id":11386,"adult":false},{"id":125132,"adult":false},{"id":381780,"adult":false},{"id":128826,"adult":false},{"id":401100,"adult":false},{"id":12555,"adult":false},{"id":401101,"adult":false},{"id":10956,"adult":false},{"id":927,"adult":false},{"id":401102,"adult":false},{"id":89151,"adult":false},{"id":928,"adult":false},{"id":151123,"adult":false},{"id":249266,"adult":false},{"id":401103,"adult":false},{"id":389425,"adult":false},{"id":348812,"adult":false},{"id":401104,"adult":false},{"id":401105,"adult":false},{"id":360638,"adult":false},{"id":372004,"adult":false},{"id":401106,"adult":false},{"id":322456,"adult":false},{"id":105,"adult":false},{"id":353595,"adult":false},{"id":396330,"adult":false},{"id":11901,"adult":false},{"id":69576,"adult":false},{"id":16690,"adult":false},{"id":153329,"adult":false},{"id":297708,"adult":false},{"id":534,"adult":false},{"id":9799,"adult":false},{"id":59041,"adult":false},{"id":401107,"adult":false},{"id":277834,"adult":false},{"id":401108,"adult":false},{"id":345259,"adult":false},{"id":378695,"adult":false},{"id":401109,"adult":false},{"id":303496,"adult":false},{"id":390734,"adult":false},{"id":401110,"adult":false},{"id":19496,"adult":false}],"page":62,"total_pages":116,"total_results":11568}