{"results":[{"id":131631,"adult":false},{"id":383688,"adult":false},{"id":154699,"adult":false},{"id":383981,"adult":false},{"id":377475,"adult":false},{"id":308652,"adult":true},{"id":394336,"adult":false},{"id":559,"adult":false},{"id":360648,"adult":false},{"id":283186,"adult":true},{"id":290386,"adult":false},{"id":137193,"adult":false},{"id":1586,"adult":false},{"id":394339,"adult":false},{"id":205596,"adult":false},{"id":44214,"adult":false},{"id":114286,"adult":false},{"id":394340,"adult":false},{"id":1905,"adult":false},{"id":344602,"adult":false},{"id":257344,"adult":false},{"id":43566,"adult":false},{"id":291189,"adult":false},{"id":266058,"adult":false},{"id":583,"adult":false},{"id":394341,"adult":false},{"id":76338,"adult":false},{"id":64575,"adult":false},{"id":76757,"adult":false},{"id":329716,"adult":false},{"id":330495,"adult":false},{"id":333318,"adult":false},{"id":328180,"adult":false},{"id":336472,"adult":false},{"id":79343,"adult":false},{"id":390432,"adult":false},{"id":382006,"adult":false},{"id":207933,"adult":false},{"id":240232,"adult":false},{"id":390868,"adult":false},{"id":390866,"adult":false},{"id":390865,"adult":false},{"id":390864,"adult":false},{"id":12090,"adult":false},{"id":195590,"adult":false},{"id":60537,"adult":false},{"id":62214,"adult":false},{"id":315757,"adult":false},{"id":394342,"adult":false},{"id":392744,"adult":false},{"id":383914,"adult":false},{"id":368929,"adult":false},{"id":385164,"adult":false},{"id":196398,"adult":false},{"id":49538,"adult":false},{"id":382612,"adult":false},{"id":382421,"adult":false},{"id":27576,"adult":false},{"id":382417,"adult":false},{"id":382418,"adult":false},{"id":382416,"adult":false},{"id":386256,"adult":false},{"id":382419,"adult":false},{"id":382420,"adult":false},{"id":382415,"adult":false},{"id":382414,"adult":false},{"id":382413,"adult":false},{"id":18434,"adult":false},{"id":374857,"adult":false},{"id":140595,"adult":false},{"id":392068,"adult":false},{"id":30431,"adult":false},{"id":373481,"adult":false},{"id":363247,"adult":false},{"id":353601,"adult":false},{"id":392304,"adult":false},{"id":37717,"adult":false},{"id":14533,"adult":false},{"id":370862,"adult":false},{"id":199400,"adult":false},{"id":272640,"adult":false},{"id":262250,"adult":false},{"id":367002,"adult":false},{"id":339709,"adult":false},{"id":376865,"adult":false},{"id":371522,"adult":false},{"id":295643,"adult":false},{"id":374412,"adult":false},{"id":80180,"adult":false},{"id":388088,"adult":false},{"id":190428,"adult":false},{"id":351242,"adult":false},{"id":394343,"adult":false},{"id":383524,"adult":false},{"id":394344,"adult":false},{"id":331583,"adult":false},{"id":244449,"adult":false},{"id":102322,"adult":false},{"id":365623,"adult":false},{"id":394345,"adult":false}],"page":93,"total_pages":127,"total_results":12659}