{"results":[{"id":53733,"adult":false},{"id":53728,"adult":false},{"id":280835,"adult":false},{"id":53727,"adult":false},{"id":375352,"adult":false},{"id":367735,"adult":false},{"id":374079,"adult":false},{"id":15370,"adult":false},{"id":345495,"adult":false},{"id":53722,"adult":false},{"id":53669,"adult":false},{"id":53666,"adult":false},{"id":375353,"adult":true},{"id":375055,"adult":null},{"id":53663,"adult":false},{"id":53646,"adult":false},{"id":53644,"adult":false},{"id":375050,"adult":null},{"id":324019,"adult":false},{"id":53643,"adult":false},{"id":11879,"adult":false},{"id":174881,"adult":false},{"id":53639,"adult":false},{"id":308571,"adult":false},{"id":233595,"adult":false},{"id":53636,"adult":false},{"id":375354,"adult":true},{"id":53635,"adult":false},{"id":207642,"adult":false},{"id":53634,"adult":false},{"id":53633,"adult":false},{"id":174915,"adult":false},{"id":175021,"adult":false},{"id":175007,"adult":false},{"id":174998,"adult":false},{"id":272309,"adult":null},{"id":373766,"adult":false},{"id":174996,"adult":false},{"id":174960,"adult":false},{"id":53629,"adult":false},{"id":243690,"adult":false},{"id":301963,"adult":false},{"id":53628,"adult":false},{"id":175013,"adult":false},{"id":174992,"adult":false},{"id":375355,"adult":false},{"id":353299,"adult":false},{"id":131631,"adult":false},{"id":319314,"adult":false},{"id":70160,"adult":false},{"id":375356,"adult":false},{"id":39013,"adult":false},{"id":284303,"adult":false},{"id":357434,"adult":false},{"id":187751,"adult":false},{"id":375357,"adult":true},{"id":48466,"adult":false},{"id":319349,"adult":false},{"id":45251,"adult":false},{"id":175356,"adult":null},{"id":320662,"adult":false},{"id":90958,"adult":false},{"id":283700,"adult":false},{"id":328483,"adult":false},{"id":237270,"adult":false},{"id":375358,"adult":false},{"id":203934,"adult":false},{"id":17654,"adult":false},{"id":59368,"adult":false},{"id":339484,"adult":false},{"id":228150,"adult":false},{"id":247894,"adult":false},{"id":375359,"adult":false},{"id":857,"adult":false},{"id":9063,"adult":false},{"id":375360,"adult":false},{"id":321640,"adult":false},{"id":152760,"adult":false},{"id":215617,"adult":false},{"id":2668,"adult":false},{"id":245891,"adult":false},{"id":9645,"adult":false},{"id":375361,"adult":false},{"id":375362,"adult":false},{"id":22894,"adult":false},{"id":375363,"adult":false},{"id":306023,"adult":false},{"id":275636,"adult":false},{"id":9535,"adult":false},{"id":12155,"adult":false},{"id":375364,"adult":false},{"id":375365,"adult":false},{"id":372232,"adult":false},{"id":146,"adult":false},{"id":345433,"adult":false},{"id":230896,"adult":false},{"id":308775,"adult":false},{"id":319206,"adult":false},{"id":269149,"adult":false},{"id":9835,"adult":false}],"page":10,"total_pages":121,"total_results":12060}