{"results":[{"id":20410,"adult":false},{"id":430875,"adult":false},{"id":409653,"adult":null},{"id":58699,"adult":false},{"id":259687,"adult":false},{"id":351825,"adult":null},{"id":410071,"adult":false},{"id":291145,"adult":false},{"id":267893,"adult":null},{"id":200678,"adult":false},{"id":219022,"adult":false},{"id":363676,"adult":false},{"id":125685,"adult":null},{"id":211669,"adult":false},{"id":17609,"adult":false},{"id":430876,"adult":false},{"id":420574,"adult":false},{"id":73464,"adult":null},{"id":390191,"adult":false},{"id":21508,"adult":false},{"id":26715,"adult":false},{"id":387277,"adult":false},{"id":246,"adult":false},{"id":398434,"adult":false},{"id":417747,"adult":null},{"id":12821,"adult":false},{"id":149235,"adult":false},{"id":83459,"adult":false},{"id":408099,"adult":null},{"id":34824,"adult":false},{"id":294757,"adult":null},{"id":117347,"adult":false},{"id":430877,"adult":false},{"id":430878,"adult":false},{"id":45534,"adult":false},{"id":75022,"adult":null},{"id":383748,"adult":false},{"id":311746,"adult":null},{"id":238937,"adult":false},{"id":416341,"adult":false},{"id":174,"adult":false},{"id":86699,"adult":false},{"id":309523,"adult":null},{"id":162072,"adult":false},{"id":384196,"adult":false},{"id":430879,"adult":null},{"id":12902,"adult":false},{"id":281330,"adult":null},{"id":338824,"adult":false},{"id":174794,"adult":null},{"id":132815,"adult":false},{"id":70391,"adult":false},{"id":429802,"adult":null},{"id":429736,"adult":null},{"id":314600,"adult":null},{"id":418148,"adult":null},{"id":403008,"adult":false},{"id":420309,"adult":true},{"id":280617,"adult":false},{"id":420071,"adult":false},{"id":103970,"adult":false},{"id":407646,"adult":false},{"id":423245,"adult":null},{"id":423330,"adult":null},{"id":381648,"adult":false},{"id":339846,"adult":false},{"id":420980,"adult":null},{"id":58129,"adult":false},{"id":115,"adult":false},{"id":430880,"adult":false},{"id":326472,"adult":true},{"id":430881,"adult":false},{"id":430882,"adult":false},{"id":430883,"adult":false},{"id":6524,"adult":false},{"id":82700,"adult":false},{"id":172520,"adult":false},{"id":393197,"adult":false},{"id":387223,"adult":false},{"id":384663,"adult":true},{"id":146712,"adult":false},{"id":423322,"adult":null},{"id":107976,"adult":false},{"id":338437,"adult":true},{"id":198933,"adult":false},{"id":278735,"adult":true},{"id":430884,"adult":false},{"id":423319,"adult":null},{"id":430885,"adult":false},{"id":8966,"adult":false},{"id":18239,"adult":false},{"id":24021,"adult":false},{"id":50619,"adult":false},{"id":430886,"adult":false},{"id":50620,"adult":false},{"id":421107,"adult":true},{"id":430887,"adult":false},{"id":318170,"adult":false},{"id":387850,"adult":false},{"id":388024,"adult":false}],"page":43,"total_pages":114,"total_results":11339}