{"results":[{"id":355088,"adult":false},{"id":355260,"adult":false},{"id":355263,"adult":false},{"id":355265,"adult":false},{"id":405484,"adult":false},{"id":355266,"adult":false},{"id":35139,"adult":false},{"id":355267,"adult":false},{"id":405485,"adult":false},{"id":355268,"adult":false},{"id":360000,"adult":false},{"id":360001,"adult":false},{"id":360003,"adult":false},{"id":360005,"adult":false},{"id":360009,"adult":false},{"id":360015,"adult":false},{"id":78642,"adult":false},{"id":360016,"adult":false},{"id":405486,"adult":false},{"id":360017,"adult":false},{"id":360019,"adult":false},{"id":360953,"adult":false},{"id":360956,"adult":false},{"id":140992,"adult":false},{"id":258291,"adult":false},{"id":4910,"adult":false},{"id":360957,"adult":false},{"id":360958,"adult":false},{"id":360959,"adult":false},{"id":405487,"adult":false},{"id":360962,"adult":false},{"id":360963,"adult":false},{"id":360969,"adult":false},{"id":360971,"adult":false},{"id":361953,"adult":false},{"id":361958,"adult":false},{"id":361961,"adult":false},{"id":361962,"adult":false},{"id":361970,"adult":false},{"id":361971,"adult":false},{"id":362769,"adult":false},{"id":40728,"adult":false},{"id":16516,"adult":false},{"id":362773,"adult":false},{"id":362778,"adult":false},{"id":198761,"adult":false},{"id":362780,"adult":false},{"id":405488,"adult":false},{"id":362783,"adult":false},{"id":362790,"adult":false},{"id":362795,"adult":false},{"id":362797,"adult":false},{"id":88609,"adult":false},{"id":362802,"adult":false},{"id":362803,"adult":false},{"id":362804,"adult":false},{"id":362806,"adult":false},{"id":166879,"adult":false},{"id":229007,"adult":false},{"id":363739,"adult":false},{"id":119840,"adult":false},{"id":363741,"adult":false},{"id":405489,"adult":false},{"id":363744,"adult":false},{"id":363747,"adult":false},{"id":363749,"adult":false},{"id":363753,"adult":false},{"id":231811,"adult":false},{"id":363754,"adult":false},{"id":231812,"adult":false},{"id":363756,"adult":false},{"id":363758,"adult":false},{"id":363759,"adult":false},{"id":389614,"adult":false},{"id":364595,"adult":false},{"id":364596,"adult":false},{"id":364600,"adult":false},{"id":364605,"adult":false},{"id":364610,"adult":false},{"id":244049,"adult":false},{"id":168056,"adult":false},{"id":405490,"adult":false},{"id":364612,"adult":false},{"id":364617,"adult":false},{"id":405491,"adult":false},{"id":364627,"adult":false},{"id":364629,"adult":false},{"id":364634,"adult":false},{"id":342561,"adult":false},{"id":342559,"adult":false},{"id":342557,"adult":false},{"id":251084,"adult":false},{"id":342555,"adult":false},{"id":342554,"adult":false},{"id":342549,"adult":false},{"id":342548,"adult":false},{"id":342443,"adult":false},{"id":24686,"adult":false},{"id":341895,"adult":false},{"id":405492,"adult":false}],"page":70,"total_pages":112,"total_results":11190}