{"results":[{"id":15964,"adult":false},{"id":304025,"adult":false},{"id":386543,"adult":false},{"id":149870,"adult":false},{"id":337556,"adult":false},{"id":348520,"adult":false},{"id":282378,"adult":false},{"id":65909,"adult":false},{"id":148941,"adult":false},{"id":172903,"adult":false},{"id":386544,"adult":false},{"id":212101,"adult":false},{"id":386545,"adult":false},{"id":377515,"adult":false},{"id":37495,"adult":false},{"id":38800,"adult":false},{"id":386546,"adult":false},{"id":372589,"adult":false},{"id":35558,"adult":false},{"id":386547,"adult":null},{"id":301,"adult":false},{"id":193414,"adult":false},{"id":333924,"adult":false},{"id":271709,"adult":false},{"id":266260,"adult":false},{"id":138908,"adult":false},{"id":386548,"adult":false},{"id":330457,"adult":false},{"id":108125,"adult":false},{"id":240222,"adult":false},{"id":131407,"adult":false},{"id":4438,"adult":false},{"id":54588,"adult":false},{"id":58839,"adult":false},{"id":292795,"adult":false},{"id":119674,"adult":false},{"id":54898,"adult":false},{"id":292224,"adult":false},{"id":4347,"adult":false},{"id":682,"adult":false},{"id":72914,"adult":false},{"id":33370,"adult":false},{"id":219302,"adult":false},{"id":386549,"adult":false},{"id":9809,"adult":false},{"id":14405,"adult":false},{"id":54540,"adult":false},{"id":105965,"adult":false},{"id":298820,"adult":false},{"id":386552,"adult":false},{"id":146136,"adult":false},{"id":86797,"adult":false},{"id":97870,"adult":false},{"id":242629,"adult":false},{"id":378547,"adult":false},{"id":315132,"adult":false},{"id":40792,"adult":false},{"id":49459,"adult":false},{"id":315669,"adult":false},{"id":82533,"adult":false},{"id":277968,"adult":false},{"id":157406,"adult":false},{"id":386553,"adult":false},{"id":353331,"adult":false},{"id":28918,"adult":false},{"id":46632,"adult":false},{"id":212388,"adult":false},{"id":347296,"adult":false},{"id":261904,"adult":false},{"id":158907,"adult":false},{"id":359005,"adult":false},{"id":49218,"adult":false},{"id":14446,"adult":false},{"id":386554,"adult":false},{"id":283331,"adult":false},{"id":41171,"adult":false},{"id":320001,"adult":false},{"id":386555,"adult":false},{"id":378645,"adult":null},{"id":117714,"adult":false},{"id":251,"adult":false},{"id":38722,"adult":false},{"id":81307,"adult":false},{"id":11211,"adult":false},{"id":386556,"adult":false},{"id":302658,"adult":false},{"id":177923,"adult":false},{"id":169541,"adult":false},{"id":169565,"adult":false},{"id":74694,"adult":false},{"id":9806,"adult":false},{"id":154297,"adult":false},{"id":2048,"adult":false},{"id":167691,"adult":false},{"id":293625,"adult":false},{"id":81651,"adult":false},{"id":134171,"adult":false},{"id":21338,"adult":false},{"id":286392,"adult":false},{"id":53698,"adult":false}],"page":80,"total_pages":123,"total_results":12230}