{"results":[{"id":359108,"adult":false},{"id":8217,"adult":false},{"id":16995,"adult":false},{"id":443469,"adult":false},{"id":443470,"adult":false},{"id":415007,"adult":false},{"id":224972,"adult":false},{"id":333696,"adult":false},{"id":443471,"adult":false},{"id":136678,"adult":false},{"id":676,"adult":false},{"id":432391,"adult":false},{"id":432397,"adult":false},{"id":432403,"adult":false},{"id":400384,"adult":false},{"id":443472,"adult":false},{"id":432404,"adult":false},{"id":301325,"adult":false},{"id":432405,"adult":false},{"id":432407,"adult":false},{"id":432409,"adult":false},{"id":432410,"adult":false},{"id":392207,"adult":false},{"id":401704,"adult":false},{"id":11322,"adult":false},{"id":443473,"adult":false},{"id":402331,"adult":false},{"id":308529,"adult":false},{"id":287509,"adult":false},{"id":412678,"adult":false},{"id":335149,"adult":false},{"id":205601,"adult":false},{"id":292010,"adult":false},{"id":438094,"adult":false},{"id":28867,"adult":false},{"id":443474,"adult":false},{"id":46381,"adult":false},{"id":383353,"adult":false},{"id":385879,"adult":false},{"id":443475,"adult":false},{"id":245168,"adult":false},{"id":410925,"adult":false},{"id":122906,"adult":false},{"id":443476,"adult":false},{"id":99797,"adult":false},{"id":412519,"adult":false},{"id":2800,"adult":false},{"id":443477,"adult":false},{"id":65632,"adult":false},{"id":19963,"adult":false},{"id":72984,"adult":false},{"id":112191,"adult":false},{"id":443478,"adult":false},{"id":443479,"adult":false},{"id":443480,"adult":false},{"id":266896,"adult":false},{"id":443481,"adult":false},{"id":443482,"adult":false},{"id":443483,"adult":false},{"id":6078,"adult":false},{"id":149091,"adult":false},{"id":322157,"adult":false},{"id":268253,"adult":false},{"id":172492,"adult":false},{"id":299350,"adult":false},{"id":296225,"adult":false},{"id":419234,"adult":false},{"id":299030,"adult":false},{"id":250675,"adult":false},{"id":298114,"adult":false},{"id":443484,"adult":false},{"id":269714,"adult":false},{"id":236751,"adult":false},{"id":443485,"adult":null},{"id":364257,"adult":false},{"id":429943,"adult":true},{"id":443486,"adult":false},{"id":429299,"adult":true},{"id":98387,"adult":false},{"id":10604,"adult":false},{"id":11978,"adult":false},{"id":197,"adult":false},{"id":20506,"adult":false},{"id":210797,"adult":false},{"id":325059,"adult":null},{"id":432412,"adult":false},{"id":443487,"adult":false},{"id":432372,"adult":false},{"id":415214,"adult":false},{"id":11353,"adult":false},{"id":4942,"adult":false},{"id":432380,"adult":false},{"id":44768,"adult":false},{"id":432381,"adult":false},{"id":432377,"adult":false},{"id":432378,"adult":false},{"id":441169,"adult":false},{"id":441350,"adult":false},{"id":341834,"adult":true},{"id":137528,"adult":false}],"page":108,"total_pages":149,"total_results":14854}