{"results":[{"id":311241,"adult":false},{"id":374509,"adult":false},{"id":1678,"adult":false},{"id":52480,"adult":false},{"id":15660,"adult":false},{"id":1682,"adult":false},{"id":438154,"adult":false},{"id":333112,"adult":false},{"id":19545,"adult":false},{"id":224141,"adult":false},{"id":5931,"adult":false},{"id":190060,"adult":false},{"id":290764,"adult":false},{"id":18627,"adult":false},{"id":3107,"adult":false},{"id":10579,"adult":false},{"id":25714,"adult":false},{"id":136799,"adult":false},{"id":38582,"adult":false},{"id":807,"adult":false},{"id":347126,"adult":false},{"id":58767,"adult":false},{"id":9890,"adult":false},{"id":345847,"adult":false},{"id":260071,"adult":false},{"id":311577,"adult":false},{"id":127322,"adult":false},{"id":445935,"adult":null},{"id":388910,"adult":false},{"id":29244,"adult":false},{"id":405604,"adult":false},{"id":446560,"adult":false},{"id":393765,"adult":false},{"id":447659,"adult":null},{"id":43716,"adult":false},{"id":393868,"adult":false},{"id":252630,"adult":false},{"id":14584,"adult":false},{"id":80326,"adult":false},{"id":436349,"adult":false},{"id":67388,"adult":false},{"id":196439,"adult":false},{"id":420245,"adult":false},{"id":42669,"adult":false},{"id":70678,"adult":true},{"id":19336,"adult":false},{"id":32148,"adult":false},{"id":86446,"adult":false},{"id":447660,"adult":false},{"id":161427,"adult":false},{"id":253836,"adult":false},{"id":68064,"adult":false},{"id":384276,"adult":false},{"id":250332,"adult":false},{"id":257403,"adult":false},{"id":47989,"adult":false},{"id":447661,"adult":false},{"id":320433,"adult":false},{"id":381075,"adult":false},{"id":13486,"adult":false},{"id":301034,"adult":false},{"id":431365,"adult":true},{"id":297291,"adult":false},{"id":12101,"adult":false},{"id":42173,"adult":false},{"id":188927,"adult":false},{"id":447662,"adult":false},{"id":309783,"adult":false},{"id":37536,"adult":false},{"id":43738,"adult":false},{"id":2297,"adult":false},{"id":354016,"adult":false},{"id":266314,"adult":false},{"id":46261,"adult":false},{"id":162,"adult":false},{"id":335578,"adult":false},{"id":46993,"adult":false},{"id":297552,"adult":false},{"id":120805,"adult":false},{"id":147164,"adult":false},{"id":410118,"adult":false},{"id":44631,"adult":false},{"id":152792,"adult":false},{"id":447663,"adult":false},{"id":871,"adult":false},{"id":563,"adult":false},{"id":10522,"adult":false},{"id":427625,"adult":false},{"id":447664,"adult":false},{"id":10304,"adult":false},{"id":11127,"adult":false},{"id":157353,"adult":false},{"id":18419,"adult":false},{"id":173710,"adult":false},{"id":447665,"adult":false},{"id":393119,"adult":false},{"id":79866,"adult":false},{"id":37528,"adult":false},{"id":3933,"adult":false},{"id":31189,"adult":false}],"page":57,"total_pages":168,"total_results":16730}