{"results":[{"id":435877,"adult":true},{"id":284427,"adult":false},{"id":104696,"adult":false},{"id":297897,"adult":false},{"id":335635,"adult":false},{"id":430266,"adult":false},{"id":340377,"adult":false},{"id":397431,"adult":false},{"id":348737,"adult":null},{"id":340384,"adult":false},{"id":35075,"adult":false},{"id":340381,"adult":false},{"id":18,"adult":false},{"id":128150,"adult":false},{"id":434041,"adult":false},{"id":110591,"adult":false},{"id":6877,"adult":false},{"id":19086,"adult":false},{"id":149895,"adult":false},{"id":435878,"adult":false},{"id":9342,"adult":false},{"id":52286,"adult":false},{"id":1656,"adult":false},{"id":84956,"adult":false},{"id":254695,"adult":false},{"id":104697,"adult":false},{"id":4518,"adult":false},{"id":425,"adult":false},{"id":125693,"adult":false},{"id":223611,"adult":false},{"id":8355,"adult":false},{"id":148843,"adult":false},{"id":55758,"adult":false},{"id":10314,"adult":false},{"id":22408,"adult":false},{"id":192345,"adult":false},{"id":7980,"adult":false},{"id":134004,"adult":false},{"id":31867,"adult":false},{"id":238407,"adult":false},{"id":994,"adult":false},{"id":1572,"adult":false},{"id":1024,"adult":false},{"id":1879,"adult":false},{"id":419430,"adult":false},{"id":44734,"adult":false},{"id":16211,"adult":false},{"id":9398,"adult":false},{"id":10474,"adult":false},{"id":841,"adult":false},{"id":435879,"adult":false},{"id":5548,"adult":false},{"id":426,"adult":false},{"id":8077,"adult":false},{"id":679,"adult":false},{"id":1571,"adult":false},{"id":104,"adult":false},{"id":8810,"adult":false},{"id":9355,"adult":false},{"id":411730,"adult":false},{"id":600,"adult":false},{"id":1923,"adult":false},{"id":1924,"adult":false},{"id":20006,"adult":false},{"id":435880,"adult":false},{"id":435881,"adult":true},{"id":64527,"adult":false},{"id":435882,"adult":true},{"id":435883,"adult":false},{"id":259234,"adult":false},{"id":435884,"adult":false},{"id":94039,"adult":false},{"id":6075,"adult":false},{"id":435885,"adult":true},{"id":435886,"adult":false},{"id":136226,"adult":false},{"id":435887,"adult":false},{"id":215,"adult":false},{"id":435888,"adult":false},{"id":214,"adult":false},{"id":78083,"adult":false},{"id":435889,"adult":false},{"id":271042,"adult":false},{"id":663,"adult":false},{"id":187201,"adult":false},{"id":435890,"adult":true},{"id":319304,"adult":false},{"id":11917,"adult":false},{"id":22804,"adult":false},{"id":421761,"adult":false},{"id":1712,"adult":false},{"id":33321,"adult":false},{"id":435891,"adult":false},{"id":362386,"adult":null},{"id":302686,"adult":false},{"id":435892,"adult":null},{"id":435893,"adult":true},{"id":272,"adult":false},{"id":432547,"adult":null},{"id":49026,"adult":false}],"page":54,"total_pages":144,"total_results":14325}