{"results":[{"id":60415,"adult":false},{"id":186703,"adult":false},{"id":167710,"adult":false},{"id":109435,"adult":false},{"id":20968,"adult":false},{"id":64304,"adult":false},{"id":253256,"adult":false},{"id":111109,"adult":false},{"id":258276,"adult":false},{"id":82753,"adult":false},{"id":448672,"adult":true},{"id":121342,"adult":false},{"id":14900,"adult":false},{"id":398928,"adult":false},{"id":47453,"adult":false},{"id":18857,"adult":false},{"id":127309,"adult":false},{"id":345089,"adult":false},{"id":444689,"adult":false},{"id":198190,"adult":false},{"id":395921,"adult":false},{"id":448673,"adult":false},{"id":364390,"adult":false},{"id":448674,"adult":false},{"id":330286,"adult":false},{"id":381922,"adult":false},{"id":303777,"adult":true},{"id":349118,"adult":false},{"id":414824,"adult":false},{"id":134394,"adult":false},{"id":177117,"adult":false},{"id":127848,"adult":false},{"id":238519,"adult":false},{"id":128311,"adult":false},{"id":39999,"adult":false},{"id":256668,"adult":false},{"id":149879,"adult":false},{"id":389353,"adult":false},{"id":73954,"adult":false},{"id":135595,"adult":false},{"id":128876,"adult":false},{"id":448675,"adult":false},{"id":107257,"adult":false},{"id":97899,"adult":false},{"id":240607,"adult":false},{"id":160115,"adult":false},{"id":84942,"adult":false},{"id":140965,"adult":false},{"id":448676,"adult":false},{"id":437216,"adult":false},{"id":40982,"adult":false},{"id":104634,"adult":false},{"id":104755,"adult":false},{"id":84287,"adult":false},{"id":275674,"adult":false},{"id":115199,"adult":false},{"id":167449,"adult":false},{"id":132711,"adult":false},{"id":140375,"adult":false},{"id":120143,"adult":false},{"id":119698,"adult":false},{"id":501,"adult":false},{"id":448677,"adult":false},{"id":106427,"adult":false},{"id":123105,"adult":false},{"id":136701,"adult":false},{"id":10157,"adult":false},{"id":270458,"adult":false},{"id":124972,"adult":false},{"id":244566,"adult":false},{"id":448678,"adult":false},{"id":27112,"adult":false},{"id":448679,"adult":false},{"id":65707,"adult":false},{"id":258136,"adult":false},{"id":1893,"adult":false},{"id":1894,"adult":false},{"id":144204,"adult":false},{"id":121823,"adult":false},{"id":213555,"adult":false},{"id":149085,"adult":false},{"id":268771,"adult":false},{"id":241999,"adult":false},{"id":144616,"adult":false},{"id":115364,"adult":false},{"id":158589,"adult":false},{"id":72212,"adult":false},{"id":84200,"adult":false},{"id":55068,"adult":false},{"id":118640,"adult":false},{"id":261023,"adult":false},{"id":113145,"adult":false},{"id":255189,"adult":false},{"id":448680,"adult":false},{"id":98472,"adult":false},{"id":138122,"adult":false},{"id":89638,"adult":false},{"id":165567,"adult":false},{"id":141679,"adult":false},{"id":86812,"adult":false}],"page":129,"total_pages":168,"total_results":16730}