{"results":[{"id":363343,"adult":false},{"id":97312,"adult":false},{"id":348409,"adult":false},{"id":432830,"adult":false},{"id":434941,"adult":false},{"id":360821,"adult":false},{"id":88273,"adult":false},{"id":435172,"adult":false},{"id":51365,"adult":false},{"id":37861,"adult":false},{"id":38984,"adult":false},{"id":343789,"adult":false},{"id":58771,"adult":false},{"id":3549,"adult":false},{"id":346564,"adult":false},{"id":109669,"adult":false},{"id":1023,"adult":false},{"id":435053,"adult":false},{"id":57500,"adult":false},{"id":425912,"adult":false},{"id":435173,"adult":null},{"id":332567,"adult":false},{"id":116377,"adult":false},{"id":200623,"adult":false},{"id":124536,"adult":false},{"id":285022,"adult":false},{"id":375366,"adult":false},{"id":99864,"adult":false},{"id":108101,"adult":false},{"id":254144,"adult":false},{"id":363841,"adult":false},{"id":288412,"adult":false},{"id":117688,"adult":false},{"id":99367,"adult":false},{"id":224041,"adult":false},{"id":44022,"adult":false},{"id":226633,"adult":false},{"id":435174,"adult":false},{"id":275094,"adult":false},{"id":417570,"adult":false},{"id":4517,"adult":false},{"id":80695,"adult":false},{"id":398869,"adult":false},{"id":180942,"adult":false},{"id":319888,"adult":false},{"id":435175,"adult":false},{"id":261867,"adult":false},{"id":313093,"adult":false},{"id":348412,"adult":false},{"id":36117,"adult":false},{"id":405244,"adult":false},{"id":205490,"adult":false},{"id":298584,"adult":false},{"id":435176,"adult":false},{"id":90980,"adult":false},{"id":9905,"adult":false},{"id":9437,"adult":false},{"id":242891,"adult":false},{"id":5279,"adult":false},{"id":435177,"adult":false},{"id":362688,"adult":false},{"id":210048,"adult":false},{"id":414471,"adult":false},{"id":343010,"adult":false},{"id":225570,"adult":false},{"id":434395,"adult":false},{"id":435178,"adult":false},{"id":289331,"adult":false},{"id":114,"adult":false},{"id":435179,"adult":false},{"id":31502,"adult":false},{"id":337339,"adult":false},{"id":369299,"adult":false},{"id":156711,"adult":false},{"id":308266,"adult":false},{"id":435181,"adult":false},{"id":435182,"adult":false},{"id":434452,"adult":false},{"id":348413,"adult":false},{"id":19322,"adult":false},{"id":17792,"adult":false},{"id":9348,"adult":false},{"id":91534,"adult":false},{"id":5123,"adult":false},{"id":1919,"adult":false},{"id":435183,"adult":false},{"id":403281,"adult":false},{"id":19833,"adult":false},{"id":11037,"adult":false},{"id":296393,"adult":false},{"id":431657,"adult":false},{"id":16204,"adult":false},{"id":68383,"adult":false},{"id":435184,"adult":false},{"id":8272,"adult":false},{"id":9639,"adult":false},{"id":327849,"adult":false},{"id":403297,"adult":false},{"id":110899,"adult":false},{"id":435185,"adult":false}],"page":10,"total_pages":144,"total_results":14325}