{"results":[{"id":85435,"adult":false},{"id":255667,"adult":false},{"id":434104,"adult":false},{"id":71666,"adult":false},{"id":40762,"adult":false},{"id":144253,"adult":false},{"id":254921,"adult":false},{"id":9950,"adult":false},{"id":249616,"adult":false},{"id":434105,"adult":false},{"id":220655,"adult":false},{"id":15360,"adult":false},{"id":434106,"adult":false},{"id":58776,"adult":false},{"id":14571,"adult":false},{"id":32021,"adult":false},{"id":94582,"adult":false},{"id":434107,"adult":false},{"id":97016,"adult":false},{"id":434108,"adult":false},{"id":213935,"adult":false},{"id":55470,"adult":false},{"id":394269,"adult":false},{"id":23150,"adult":false},{"id":23151,"adult":false},{"id":23153,"adult":false},{"id":23154,"adult":false},{"id":23155,"adult":false},{"id":23166,"adult":false},{"id":23167,"adult":false},{"id":434109,"adult":false},{"id":171372,"adult":false},{"id":47747,"adult":false},{"id":434110,"adult":false},{"id":255462,"adult":false},{"id":256731,"adult":false},{"id":152259,"adult":false},{"id":164427,"adult":false},{"id":33218,"adult":false},{"id":66978,"adult":false},{"id":174106,"adult":false},{"id":434111,"adult":false},{"id":43881,"adult":false},{"id":434112,"adult":false},{"id":434113,"adult":false},{"id":51296,"adult":false},{"id":334231,"adult":false},{"id":70352,"adult":false},{"id":28758,"adult":false},{"id":335403,"adult":false},{"id":46935,"adult":false},{"id":425086,"adult":false},{"id":374741,"adult":false},{"id":434114,"adult":false},{"id":434115,"adult":false},{"id":54648,"adult":false},{"id":43646,"adult":false},{"id":71029,"adult":false},{"id":434116,"adult":false},{"id":379086,"adult":false},{"id":27225,"adult":false},{"id":425134,"adult":false},{"id":239699,"adult":false},{"id":136930,"adult":false},{"id":316762,"adult":false},{"id":434117,"adult":false},{"id":431066,"adult":false},{"id":421691,"adult":false},{"id":2502,"adult":false},{"id":146233,"adult":false},{"id":43098,"adult":false},{"id":13223,"adult":false},{"id":428630,"adult":false},{"id":434118,"adult":false},{"id":146823,"adult":false},{"id":64780,"adult":false},{"id":15124,"adult":false},{"id":22969,"adult":false},{"id":122271,"adult":false},{"id":239766,"adult":false},{"id":47114,"adult":false},{"id":422395,"adult":false},{"id":370464,"adult":false},{"id":60483,"adult":false},{"id":404785,"adult":false},{"id":411591,"adult":false},{"id":85619,"adult":false},{"id":391642,"adult":false},{"id":19593,"adult":false},{"id":11652,"adult":false},{"id":354380,"adult":false},{"id":155277,"adult":false},{"id":329440,"adult":false},{"id":327407,"adult":false},{"id":10473,"adult":false},{"id":59425,"adult":null},{"id":383854,"adult":false},{"id":434119,"adult":false},{"id":15774,"adult":false},{"id":9312,"adult":false}],"page":95,"total_pages":133,"total_results":13251}