{"results":[{"id":74522,"adult":false},{"id":43437,"adult":false},{"id":403509,"adult":false},{"id":278927,"adult":false},{"id":431303,"adult":true},{"id":51349,"adult":false},{"id":142191,"adult":false},{"id":434949,"adult":false},{"id":268908,"adult":false},{"id":42341,"adult":false},{"id":12502,"adult":false},{"id":379998,"adult":false},{"id":106201,"adult":false},{"id":398554,"adult":false},{"id":9491,"adult":false},{"id":336445,"adult":false},{"id":107011,"adult":false},{"id":132851,"adult":false},{"id":33932,"adult":false},{"id":147395,"adult":false},{"id":380176,"adult":false},{"id":95600,"adult":false},{"id":1687,"adult":false},{"id":424301,"adult":false},{"id":425690,"adult":false},{"id":354392,"adult":null},{"id":147419,"adult":false},{"id":367206,"adult":false},{"id":75629,"adult":false},{"id":113082,"adult":false},{"id":147990,"adult":false},{"id":378841,"adult":false},{"id":424842,"adult":false},{"id":345587,"adult":false},{"id":401356,"adult":false},{"id":205775,"adult":false},{"id":126132,"adult":false},{"id":68246,"adult":false},{"id":2105,"adult":false},{"id":430240,"adult":false},{"id":2770,"adult":false},{"id":47263,"adult":false},{"id":93507,"adult":false},{"id":384392,"adult":false},{"id":8273,"adult":false},{"id":147821,"adult":false},{"id":8277,"adult":false},{"id":415214,"adult":false},{"id":71552,"adult":false},{"id":91210,"adult":false},{"id":8275,"adult":false},{"id":378840,"adult":false},{"id":152999,"adult":false},{"id":142192,"adult":false},{"id":977,"adult":false},{"id":125602,"adult":false},{"id":398289,"adult":false},{"id":431300,"adult":true},{"id":1688,"adult":false},{"id":40815,"adult":false},{"id":88421,"adult":false},{"id":216472,"adult":false},{"id":641,"adult":false},{"id":126692,"adult":false},{"id":271969,"adult":false},{"id":419242,"adult":false},{"id":8740,"adult":false},{"id":435130,"adult":false},{"id":97514,"adult":false},{"id":351868,"adult":false},{"id":363097,"adult":false},{"id":109890,"adult":false},{"id":434922,"adult":false},{"id":106908,"adult":false},{"id":12079,"adult":false},{"id":97516,"adult":false},{"id":431293,"adult":true},{"id":199296,"adult":false},{"id":33339,"adult":false},{"id":246749,"adult":false},{"id":71881,"adult":false},{"id":374989,"adult":null},{"id":260339,"adult":false},{"id":381341,"adult":false},{"id":59239,"adult":false},{"id":150912,"adult":false},{"id":147611,"adult":false},{"id":132159,"adult":false},{"id":160,"adult":false},{"id":329651,"adult":false},{"id":132364,"adult":false},{"id":394170,"adult":false},{"id":35976,"adult":false},{"id":49047,"adult":false},{"id":81799,"adult":false},{"id":62476,"adult":false},{"id":24393,"adult":false},{"id":396616,"adult":false},{"id":392509,"adult":false},{"id":435131,"adult":null}],"page":6,"total_pages":144,"total_results":14325}