{"results":[{"id":27090,"adult":false},{"id":361931,"adult":false},{"id":434025,"adult":false},{"id":339927,"adult":false},{"id":434026,"adult":false},{"id":434027,"adult":false},{"id":302349,"adult":false},{"id":259658,"adult":false},{"id":284460,"adult":false},{"id":6175,"adult":false},{"id":395992,"adult":false},{"id":11317,"adult":false},{"id":245846,"adult":false},{"id":8744,"adult":false},{"id":434028,"adult":false},{"id":4032,"adult":false},{"id":434029,"adult":false},{"id":434030,"adult":false},{"id":1936,"adult":false},{"id":398959,"adult":false},{"id":294963,"adult":false},{"id":332759,"adult":false},{"id":14453,"adult":false},{"id":322240,"adult":false},{"id":72465,"adult":false},{"id":272541,"adult":false},{"id":36179,"adult":false},{"id":360552,"adult":false},{"id":4638,"adult":false},{"id":63313,"adult":false},{"id":160324,"adult":false},{"id":747,"adult":false},{"id":434031,"adult":false},{"id":168027,"adult":false},{"id":14257,"adult":false},{"id":388777,"adult":false},{"id":50646,"adult":false},{"id":190725,"adult":false},{"id":403517,"adult":false},{"id":44333,"adult":false},{"id":377868,"adult":false},{"id":434032,"adult":false},{"id":54989,"adult":false},{"id":434033,"adult":false},{"id":434034,"adult":false},{"id":434035,"adult":false},{"id":312936,"adult":false},{"id":229507,"adult":false},{"id":434036,"adult":null},{"id":131575,"adult":false},{"id":28689,"adult":true},{"id":434037,"adult":true},{"id":434038,"adult":false},{"id":270221,"adult":false},{"id":434039,"adult":true},{"id":434040,"adult":true},{"id":434041,"adult":false},{"id":9367,"adult":false},{"id":434042,"adult":true},{"id":434043,"adult":false},{"id":700,"adult":false},{"id":104180,"adult":false},{"id":434044,"adult":true},{"id":75916,"adult":false},{"id":434045,"adult":false},{"id":671,"adult":false},{"id":93559,"adult":null},{"id":434046,"adult":true},{"id":369524,"adult":false},{"id":426032,"adult":false},{"id":5039,"adult":false},{"id":432,"adult":false},{"id":3482,"adult":false},{"id":456,"adult":false},{"id":414700,"adult":false},{"id":340611,"adult":false},{"id":656,"adult":false},{"id":12087,"adult":false},{"id":2577,"adult":false},{"id":86307,"adult":false},{"id":434047,"adult":false},{"id":345073,"adult":false},{"id":434048,"adult":false},{"id":434049,"adult":false},{"id":37308,"adult":false},{"id":434050,"adult":false},{"id":434051,"adult":false},{"id":434052,"adult":false},{"id":14444,"adult":false},{"id":168880,"adult":false},{"id":85887,"adult":false},{"id":427045,"adult":false},{"id":211721,"adult":false},{"id":382616,"adult":false},{"id":377432,"adult":false},{"id":374614,"adult":false},{"id":317120,"adult":false},{"id":422842,"adult":false},{"id":317121,"adult":false},{"id":379990,"adult":false}],"page":91,"total_pages":133,"total_results":13251}