{"results":[{"id":29641,"adult":false},{"id":298967,"adult":false},{"id":24045,"adult":false},{"id":9016,"adult":false},{"id":181586,"adult":false},{"id":13931,"adult":false},{"id":195002,"adult":false},{"id":29833,"adult":false},{"id":337364,"adult":false},{"id":83564,"adult":false},{"id":18890,"adult":false},{"id":450587,"adult":false},{"id":338884,"adult":false},{"id":11243,"adult":false},{"id":450588,"adult":false},{"id":136670,"adult":false},{"id":392830,"adult":false},{"id":66563,"adult":false},{"id":16119,"adult":false},{"id":333667,"adult":false},{"id":149427,"adult":false},{"id":151157,"adult":false},{"id":345915,"adult":false},{"id":256690,"adult":false},{"id":32445,"adult":false},{"id":20235,"adult":false},{"id":8338,"adult":false},{"id":118293,"adult":false},{"id":368942,"adult":false},{"id":34938,"adult":false},{"id":13929,"adult":false},{"id":15004,"adult":false},{"id":324542,"adult":false},{"id":303542,"adult":false},{"id":340584,"adult":false},{"id":13465,"adult":false},{"id":450590,"adult":false},{"id":274234,"adult":false},{"id":399624,"adult":false},{"id":54648,"adult":false},{"id":450591,"adult":false},{"id":450592,"adult":false},{"id":450593,"adult":false},{"id":108933,"adult":false},{"id":58899,"adult":false},{"id":426272,"adult":false},{"id":95084,"adult":false},{"id":423246,"adult":false},{"id":449624,"adult":false},{"id":281007,"adult":false},{"id":351183,"adult":false},{"id":450594,"adult":false},{"id":300125,"adult":true},{"id":195770,"adult":true},{"id":292010,"adult":false},{"id":401077,"adult":true},{"id":417830,"adult":false},{"id":327461,"adult":true},{"id":450595,"adult":false},{"id":303601,"adult":false},{"id":291351,"adult":false},{"id":47131,"adult":true},{"id":450596,"adult":false},{"id":178154,"adult":false},{"id":369697,"adult":false},{"id":413730,"adult":false},{"id":249742,"adult":false},{"id":450597,"adult":false},{"id":438161,"adult":false},{"id":365343,"adult":false},{"id":339988,"adult":false},{"id":96316,"adult":false},{"id":433385,"adult":false},{"id":381126,"adult":false},{"id":408509,"adult":false},{"id":450598,"adult":false},{"id":411678,"adult":false},{"id":450599,"adult":false},{"id":444335,"adult":false},{"id":310035,"adult":false},{"id":450600,"adult":false},{"id":450601,"adult":false},{"id":444090,"adult":false},{"id":424058,"adult":false},{"id":450602,"adult":false},{"id":381085,"adult":false},{"id":413872,"adult":false},{"id":336655,"adult":false},{"id":82153,"adult":false},{"id":140413,"adult":false},{"id":640,"adult":false},{"id":340101,"adult":false},{"id":8274,"adult":false},{"id":298820,"adult":false},{"id":108613,"adult":false},{"id":15771,"adult":false},{"id":141055,"adult":false},{"id":8275,"adult":false},{"id":448763,"adult":false},{"id":862,"adult":false}],"page":44,"total_pages":105,"total_results":10420}