{"results":[{"id":437004,"adult":false},{"id":7015,"adult":false},{"id":437005,"adult":false},{"id":354384,"adult":false},{"id":437006,"adult":false},{"id":286306,"adult":false},{"id":432794,"adult":false},{"id":209437,"adult":false},{"id":85089,"adult":false},{"id":437007,"adult":null},{"id":432990,"adult":false},{"id":102684,"adult":false},{"id":426254,"adult":false},{"id":437008,"adult":false},{"id":54494,"adult":false},{"id":23168,"adult":false},{"id":67051,"adult":false},{"id":426238,"adult":false},{"id":2980,"adult":false},{"id":437009,"adult":false},{"id":853,"adult":false},{"id":152603,"adult":false},{"id":44896,"adult":false},{"id":152569,"adult":false},{"id":406142,"adult":false},{"id":14574,"adult":false},{"id":37135,"adult":false},{"id":427837,"adult":null},{"id":427836,"adult":null},{"id":427826,"adult":null},{"id":247134,"adult":false},{"id":427834,"adult":null},{"id":427832,"adult":null},{"id":431369,"adult":null},{"id":427839,"adult":null},{"id":361737,"adult":null},{"id":335441,"adult":null},{"id":427830,"adult":null},{"id":372493,"adult":null},{"id":331753,"adult":null},{"id":25516,"adult":false},{"id":40790,"adult":false},{"id":431064,"adult":true},{"id":81088,"adult":false},{"id":430609,"adult":false},{"id":437010,"adult":false},{"id":304378,"adult":false},{"id":217389,"adult":false},{"id":431063,"adult":true},{"id":78849,"adult":false},{"id":273219,"adult":false},{"id":256426,"adult":false},{"id":11824,"adult":false},{"id":177945,"adult":false},{"id":431062,"adult":true},{"id":207933,"adult":false},{"id":7290,"adult":false},{"id":9471,"adult":false},{"id":253805,"adult":false},{"id":71768,"adult":false},{"id":437011,"adult":false},{"id":1878,"adult":false},{"id":184,"adult":false},{"id":109592,"adult":false},{"id":400096,"adult":false},{"id":135416,"adult":false},{"id":119674,"adult":false},{"id":372057,"adult":false},{"id":17926,"adult":false},{"id":203910,"adult":false},{"id":2593,"adult":false},{"id":409520,"adult":false},{"id":2493,"adult":false},{"id":258480,"adult":false},{"id":188598,"adult":false},{"id":135179,"adult":false},{"id":286951,"adult":false},{"id":14246,"adult":false},{"id":408299,"adult":false},{"id":43064,"adult":false},{"id":275402,"adult":false},{"id":437012,"adult":false},{"id":354273,"adult":false},{"id":342737,"adult":false},{"id":437013,"adult":false},{"id":419700,"adult":false},{"id":437014,"adult":false},{"id":301373,"adult":false},{"id":380623,"adult":false},{"id":354979,"adult":false},{"id":437015,"adult":null},{"id":437016,"adult":false},{"id":437017,"adult":false},{"id":437018,"adult":false},{"id":165165,"adult":false},{"id":437022,"adult":false},{"id":437023,"adult":false},{"id":593,"adult":false},{"id":403850,"adult":false},{"id":7979,"adult":false}],"page":115,"total_pages":144,"total_results":14325}