{"results":[{"id":238222,"adult":false},{"id":331393,"adult":false},{"id":10536,"adult":false},{"id":13585,"adult":false},{"id":46441,"adult":false},{"id":433307,"adult":false},{"id":40623,"adult":false},{"id":508,"adult":false},{"id":13584,"adult":false},{"id":356225,"adult":false},{"id":100,"adult":false},{"id":169484,"adult":false},{"id":433308,"adult":false},{"id":433309,"adult":false},{"id":50344,"adult":false},{"id":16030,"adult":false},{"id":59453,"adult":false},{"id":47362,"adult":false},{"id":433310,"adult":false},{"id":18278,"adult":false},{"id":239942,"adult":false},{"id":433311,"adult":false},{"id":377587,"adult":false},{"id":161321,"adult":false},{"id":68341,"adult":false},{"id":232573,"adult":false},{"id":433312,"adult":false},{"id":64246,"adult":false},{"id":369883,"adult":false},{"id":142786,"adult":false},{"id":384737,"adult":false},{"id":61722,"adult":false},{"id":431496,"adult":false},{"id":413096,"adult":false},{"id":41271,"adult":false},{"id":284564,"adult":false},{"id":422892,"adult":false},{"id":428642,"adult":false},{"id":79133,"adult":false},{"id":13976,"adult":false},{"id":50026,"adult":false},{"id":8848,"adult":false},{"id":25629,"adult":false},{"id":13592,"adult":false},{"id":209131,"adult":false},{"id":57216,"adult":false},{"id":99079,"adult":false},{"id":121568,"adult":false},{"id":141317,"adult":false},{"id":123983,"adult":false},{"id":132139,"adult":false},{"id":238367,"adult":false},{"id":433313,"adult":false},{"id":73889,"adult":false},{"id":121481,"adult":false},{"id":433314,"adult":false},{"id":379840,"adult":false},{"id":58403,"adult":false},{"id":433315,"adult":false},{"id":57918,"adult":false},{"id":71918,"adult":false},{"id":225251,"adult":false},{"id":416410,"adult":false},{"id":432348,"adult":null},{"id":433316,"adult":false},{"id":396616,"adult":false},{"id":348678,"adult":false},{"id":399312,"adult":false},{"id":3512,"adult":false},{"id":40528,"adult":false},{"id":433317,"adult":false},{"id":339280,"adult":false},{"id":169083,"adult":false},{"id":433318,"adult":false},{"id":61578,"adult":false},{"id":55335,"adult":false},{"id":42360,"adult":false},{"id":110377,"adult":false},{"id":9390,"adult":false},{"id":298721,"adult":false},{"id":103753,"adult":false},{"id":408539,"adult":false},{"id":289588,"adult":false},{"id":433319,"adult":null},{"id":351964,"adult":false},{"id":302798,"adult":false},{"id":412026,"adult":null},{"id":22537,"adult":false},{"id":9502,"adult":false},{"id":162450,"adult":false},{"id":433320,"adult":false},{"id":49444,"adult":false},{"id":50023,"adult":false},{"id":114880,"adult":false},{"id":433321,"adult":false},{"id":433322,"adult":false},{"id":9806,"adult":false},{"id":433323,"adult":false},{"id":433324,"adult":false},{"id":11935,"adult":false}],"page":51,"total_pages":133,"total_results":13251}