{"results":[{"id":7274,"adult":false},{"id":444947,"adult":false},{"id":416602,"adult":false},{"id":128241,"adult":false},{"id":411354,"adult":false},{"id":387733,"adult":false},{"id":307394,"adult":false},{"id":333119,"adult":false},{"id":321549,"adult":false},{"id":147807,"adult":false},{"id":6112,"adult":false},{"id":411335,"adult":false},{"id":122906,"adult":false},{"id":444948,"adult":false},{"id":55208,"adult":false},{"id":194814,"adult":false},{"id":444949,"adult":false},{"id":411369,"adult":false},{"id":332305,"adult":false},{"id":408422,"adult":false},{"id":66365,"adult":false},{"id":64743,"adult":false},{"id":444950,"adult":false},{"id":232602,"adult":false},{"id":328576,"adult":false},{"id":409652,"adult":false},{"id":417045,"adult":false},{"id":444951,"adult":false},{"id":317114,"adult":false},{"id":376451,"adult":false},{"id":415890,"adult":false},{"id":400221,"adult":false},{"id":222448,"adult":false},{"id":132537,"adult":false},{"id":283703,"adult":false},{"id":311933,"adult":false},{"id":354935,"adult":false},{"id":412851,"adult":false},{"id":257594,"adult":false},{"id":444952,"adult":false},{"id":347184,"adult":false},{"id":364781,"adult":false},{"id":376869,"adult":false},{"id":418204,"adult":false},{"id":198909,"adult":false},{"id":414903,"adult":false},{"id":113368,"adult":false},{"id":432055,"adult":false},{"id":47470,"adult":false},{"id":230435,"adult":false},{"id":444953,"adult":false},{"id":380139,"adult":false},{"id":154934,"adult":false},{"id":444954,"adult":false},{"id":150232,"adult":false},{"id":246076,"adult":false},{"id":248573,"adult":false},{"id":360439,"adult":false},{"id":153843,"adult":false},{"id":366769,"adult":false},{"id":16620,"adult":false},{"id":371584,"adult":false},{"id":444955,"adult":false},{"id":223566,"adult":false},{"id":275772,"adult":false},{"id":405353,"adult":false},{"id":444956,"adult":false},{"id":175671,"adult":false},{"id":359610,"adult":false},{"id":416105,"adult":false},{"id":356767,"adult":false},{"id":444957,"adult":false},{"id":57602,"adult":false},{"id":41894,"adult":false},{"id":444958,"adult":false},{"id":17495,"adult":false},{"id":213825,"adult":false},{"id":50989,"adult":false},{"id":38779,"adult":false},{"id":53228,"adult":false},{"id":146784,"adult":false},{"id":334627,"adult":false},{"id":217782,"adult":false},{"id":337436,"adult":false},{"id":235701,"adult":false},{"id":392790,"adult":false},{"id":291480,"adult":false},{"id":247771,"adult":false},{"id":122492,"adult":false},{"id":293114,"adult":false},{"id":410592,"adult":false},{"id":427972,"adult":false},{"id":398338,"adult":false},{"id":444959,"adult":false},{"id":284192,"adult":false},{"id":444960,"adult":false},{"id":10999,"adult":false},{"id":444961,"adult":false},{"id":444962,"adult":false},{"id":396254,"adult":false}],"page":41,"total_pages":162,"total_results":16167}