{"results":[{"id":433001,"adult":false},{"id":77565,"adult":false},{"id":61187,"adult":false},{"id":52852,"adult":false},{"id":39697,"adult":false},{"id":433002,"adult":false},{"id":79270,"adult":false},{"id":57147,"adult":false},{"id":256443,"adult":false},{"id":42205,"adult":false},{"id":52464,"adult":false},{"id":340275,"adult":false},{"id":11556,"adult":false},{"id":390505,"adult":false},{"id":159387,"adult":false},{"id":149759,"adult":false},{"id":71011,"adult":false},{"id":218440,"adult":false},{"id":57140,"adult":false},{"id":5124,"adult":false},{"id":433003,"adult":false},{"id":115543,"adult":false},{"id":47649,"adult":false},{"id":56581,"adult":false},{"id":56606,"adult":false},{"id":140375,"adult":false},{"id":26890,"adult":false},{"id":83420,"adult":false},{"id":50179,"adult":false},{"id":27539,"adult":false},{"id":430602,"adult":false},{"id":48355,"adult":false},{"id":76530,"adult":false},{"id":63245,"adult":false},{"id":289799,"adult":false},{"id":413770,"adult":false},{"id":61493,"adult":false},{"id":21376,"adult":false},{"id":266658,"adult":false},{"id":265525,"adult":false},{"id":68910,"adult":false},{"id":401424,"adult":null},{"id":383785,"adult":false},{"id":44262,"adult":false},{"id":288697,"adult":false},{"id":123455,"adult":false},{"id":204155,"adult":false},{"id":26998,"adult":false},{"id":82358,"adult":false},{"id":418939,"adult":false},{"id":116013,"adult":false},{"id":260001,"adult":false},{"id":433004,"adult":false},{"id":9583,"adult":false},{"id":412211,"adult":false},{"id":345922,"adult":false},{"id":1700,"adult":false},{"id":283350,"adult":false},{"id":3603,"adult":false},{"id":248939,"adult":false},{"id":42172,"adult":false},{"id":28039,"adult":false},{"id":401139,"adult":false},{"id":38116,"adult":true},{"id":49530,"adult":false},{"id":330893,"adult":false},{"id":52265,"adult":false},{"id":433005,"adult":false},{"id":339586,"adult":false},{"id":433006,"adult":false},{"id":149634,"adult":false},{"id":9978,"adult":false},{"id":360924,"adult":false},{"id":342123,"adult":false},{"id":420287,"adult":false},{"id":69781,"adult":false},{"id":377691,"adult":false},{"id":1493,"adult":false},{"id":411851,"adult":false},{"id":113667,"adult":false},{"id":255254,"adult":false},{"id":371785,"adult":false},{"id":670,"adult":false},{"id":276991,"adult":false},{"id":15392,"adult":false},{"id":8198,"adult":false},{"id":270007,"adult":false},{"id":49195,"adult":false},{"id":433007,"adult":false},{"id":433008,"adult":false},{"id":433009,"adult":false},{"id":243752,"adult":false},{"id":422034,"adult":false},{"id":433010,"adult":false},{"id":406625,"adult":false},{"id":433011,"adult":false},{"id":417758,"adult":false},{"id":404039,"adult":false},{"id":411188,"adult":false},{"id":433012,"adult":false}],"page":32,"total_pages":133,"total_results":13251}