{"results":[{"id":436911,"adult":false},{"id":440688,"adult":false},{"id":443799,"adult":true},{"id":365819,"adult":false},{"id":443800,"adult":false},{"id":297186,"adult":false},{"id":443801,"adult":false},{"id":423910,"adult":null},{"id":423908,"adult":null},{"id":443802,"adult":false},{"id":423906,"adult":null},{"id":380111,"adult":false},{"id":443803,"adult":false},{"id":78100,"adult":false},{"id":329619,"adult":false},{"id":286217,"adult":false},{"id":65805,"adult":true},{"id":443804,"adult":false},{"id":75279,"adult":false},{"id":204978,"adult":false},{"id":50353,"adult":false},{"id":10669,"adult":false},{"id":443805,"adult":false},{"id":195867,"adult":false},{"id":443806,"adult":false},{"id":439955,"adult":false},{"id":208740,"adult":false},{"id":279409,"adult":false},{"id":365815,"adult":false},{"id":71469,"adult":false},{"id":191806,"adult":false},{"id":126404,"adult":false},{"id":369552,"adult":false},{"id":443807,"adult":false},{"id":216311,"adult":false},{"id":128603,"adult":false},{"id":44091,"adult":false},{"id":132307,"adult":false},{"id":408620,"adult":false},{"id":409269,"adult":false},{"id":75309,"adult":false},{"id":75305,"adult":false},{"id":46140,"adult":false},{"id":443808,"adult":false},{"id":443809,"adult":false},{"id":75306,"adult":false},{"id":443810,"adult":false},{"id":75307,"adult":false},{"id":443811,"adult":false},{"id":288477,"adult":false},{"id":361291,"adult":false},{"id":75308,"adult":false},{"id":394448,"adult":false},{"id":443812,"adult":null},{"id":20352,"adult":false},{"id":406125,"adult":false},{"id":44040,"adult":false},{"id":411333,"adult":false},{"id":158246,"adult":false},{"id":411842,"adult":false},{"id":80009,"adult":false},{"id":417128,"adult":false},{"id":443813,"adult":false},{"id":313346,"adult":false},{"id":373922,"adult":false},{"id":443814,"adult":null},{"id":436325,"adult":false},{"id":396975,"adult":true},{"id":443815,"adult":null},{"id":328051,"adult":false},{"id":443816,"adult":false},{"id":126323,"adult":false},{"id":149608,"adult":false},{"id":430259,"adult":false},{"id":443817,"adult":null},{"id":95919,"adult":false},{"id":74747,"adult":false},{"id":206965,"adult":false},{"id":2567,"adult":false},{"id":443818,"adult":false},{"id":70614,"adult":false},{"id":173980,"adult":false},{"id":74757,"adult":false},{"id":272585,"adult":false},{"id":70386,"adult":false},{"id":443819,"adult":null},{"id":286391,"adult":false},{"id":2576,"adult":false},{"id":306171,"adult":false},{"id":443820,"adult":false},{"id":440822,"adult":false},{"id":562,"adult":false},{"id":443821,"adult":null},{"id":443822,"adult":false},{"id":984,"adult":false},{"id":443823,"adult":null},{"id":159004,"adult":false},{"id":130302,"adult":false},{"id":38359,"adult":false},{"id":443824,"adult":null}],"page":128,"total_pages":149,"total_results":14854}