{"results":[{"id":75227,"adult":false},{"id":11481,"adult":false},{"id":70808,"adult":false},{"id":58448,"adult":false},{"id":31183,"adult":false},{"id":18633,"adult":false},{"id":53174,"adult":false},{"id":988,"adult":false},{"id":47518,"adult":false},{"id":97690,"adult":false},{"id":44028,"adult":false},{"id":416142,"adult":false},{"id":1662,"adult":false},{"id":348682,"adult":false},{"id":37958,"adult":false},{"id":11573,"adult":false},{"id":349074,"adult":false},{"id":99443,"adult":false},{"id":74945,"adult":false},{"id":26175,"adult":false},{"id":82529,"adult":false},{"id":1903,"adult":false},{"id":60592,"adult":false},{"id":80207,"adult":false},{"id":384952,"adult":false},{"id":118119,"adult":false},{"id":92424,"adult":false},{"id":9526,"adult":false},{"id":10597,"adult":false},{"id":73500,"adult":false},{"id":358894,"adult":false},{"id":81025,"adult":false},{"id":53774,"adult":false},{"id":116005,"adult":false},{"id":370975,"adult":false},{"id":80612,"adult":false},{"id":100983,"adult":false},{"id":21811,"adult":false},{"id":446050,"adult":false},{"id":57331,"adult":false},{"id":59861,"adult":false},{"id":446511,"adult":null},{"id":378717,"adult":false},{"id":24102,"adult":false},{"id":354275,"adult":false},{"id":446972,"adult":false},{"id":95404,"adult":false},{"id":373446,"adult":false},{"id":73528,"adult":false},{"id":333393,"adult":null},{"id":170461,"adult":false},{"id":447189,"adult":false},{"id":447190,"adult":null},{"id":22582,"adult":false},{"id":23047,"adult":false},{"id":314029,"adult":false},{"id":426522,"adult":false},{"id":164652,"adult":false},{"id":433892,"adult":false},{"id":371181,"adult":false},{"id":410385,"adult":false},{"id":447191,"adult":false},{"id":429210,"adult":false},{"id":212849,"adult":false},{"id":42768,"adult":false},{"id":434053,"adult":false},{"id":362292,"adult":false},{"id":54318,"adult":false},{"id":131575,"adult":false},{"id":72710,"adult":false},{"id":65233,"adult":false},{"id":447192,"adult":null},{"id":103202,"adult":false},{"id":90226,"adult":false},{"id":413430,"adult":false},{"id":210219,"adult":false},{"id":8198,"adult":false},{"id":412214,"adult":false},{"id":447193,"adult":false},{"id":10923,"adult":false},{"id":364101,"adult":false},{"id":374131,"adult":false},{"id":261550,"adult":false},{"id":6277,"adult":false},{"id":13435,"adult":false},{"id":381347,"adult":false},{"id":1883,"adult":false},{"id":80146,"adult":false},{"id":121369,"adult":false},{"id":447194,"adult":false},{"id":447195,"adult":null},{"id":402370,"adult":false},{"id":216707,"adult":false},{"id":286030,"adult":false},{"id":425827,"adult":false},{"id":237821,"adult":false},{"id":445105,"adult":false},{"id":165549,"adult":false},{"id":447196,"adult":false},{"id":184879,"adult":false}],"page":19,"total_pages":168,"total_results":16730}