{"results":[{"id":87992,"adult":false},{"id":14574,"adult":false},{"id":434616,"adult":false},{"id":434617,"adult":false},{"id":1921,"adult":false},{"id":434618,"adult":false},{"id":434619,"adult":false},{"id":114150,"adult":false},{"id":434620,"adult":false},{"id":203819,"adult":false},{"id":434621,"adult":false},{"id":6440,"adult":false},{"id":87996,"adult":false},{"id":115109,"adult":false},{"id":12219,"adult":false},{"id":304357,"adult":false},{"id":1213,"adult":false},{"id":32872,"adult":false},{"id":98289,"adult":false},{"id":169813,"adult":false},{"id":9475,"adult":false},{"id":98238,"adult":false},{"id":117899,"adult":false},{"id":1542,"adult":false},{"id":228161,"adult":false},{"id":348486,"adult":false},{"id":921,"adult":false},{"id":903,"adult":false},{"id":391,"adult":false},{"id":109410,"adult":false},{"id":434622,"adult":false},{"id":134791,"adult":false},{"id":1125,"adult":false},{"id":269290,"adult":false},{"id":95993,"adult":false},{"id":52702,"adult":false},{"id":61064,"adult":false},{"id":46024,"adult":false},{"id":274479,"adult":false},{"id":244458,"adult":false},{"id":150787,"adult":false},{"id":4517,"adult":false},{"id":240697,"adult":false},{"id":366514,"adult":false},{"id":8696,"adult":false},{"id":61083,"adult":false},{"id":194722,"adult":false},{"id":37288,"adult":false},{"id":336804,"adult":false},{"id":27826,"adult":false},{"id":98010,"adult":false},{"id":44916,"adult":false},{"id":110584,"adult":false},{"id":289447,"adult":false},{"id":434623,"adult":false},{"id":282762,"adult":false},{"id":31605,"adult":false},{"id":434624,"adult":false},{"id":434625,"adult":false},{"id":31941,"adult":false},{"id":104041,"adult":false},{"id":105,"adult":false},{"id":52542,"adult":false},{"id":320663,"adult":null},{"id":264643,"adult":null},{"id":160952,"adult":false},{"id":430653,"adult":false},{"id":12577,"adult":false},{"id":434626,"adult":false},{"id":394204,"adult":false},{"id":409736,"adult":false},{"id":434627,"adult":false},{"id":251768,"adult":false},{"id":409386,"adult":false},{"id":397242,"adult":false},{"id":434628,"adult":false},{"id":434629,"adult":false},{"id":434630,"adult":false},{"id":148031,"adult":false},{"id":434631,"adult":false},{"id":118984,"adult":false},{"id":308167,"adult":false},{"id":434632,"adult":false},{"id":434633,"adult":false},{"id":434634,"adult":false},{"id":43089,"adult":false},{"id":187606,"adult":false},{"id":434635,"adult":false},{"id":160139,"adult":false},{"id":298373,"adult":false},{"id":220346,"adult":false},{"id":434636,"adult":false},{"id":200118,"adult":false},{"id":75430,"adult":false},{"id":434637,"adult":false},{"id":434638,"adult":false},{"id":252520,"adult":false},{"id":222475,"adult":false},{"id":195759,"adult":false},{"id":222661,"adult":false}],"page":119,"total_pages":133,"total_results":13251}