{"results":[{"id":309359,"adult":false},{"id":231474,"adult":false},{"id":345958,"adult":false},{"id":314558,"adult":false},{"id":124459,"adult":false},{"id":434391,"adult":false},{"id":434392,"adult":false},{"id":89617,"adult":false},{"id":13001,"adult":false},{"id":12914,"adult":false},{"id":273370,"adult":false},{"id":333242,"adult":false},{"id":411739,"adult":false},{"id":248626,"adult":false},{"id":280489,"adult":false},{"id":297548,"adult":false},{"id":18514,"adult":false},{"id":434393,"adult":false},{"id":169068,"adult":false},{"id":434394,"adult":false},{"id":15198,"adult":false},{"id":434395,"adult":false},{"id":43076,"adult":false},{"id":232708,"adult":false},{"id":19052,"adult":false},{"id":13785,"adult":false},{"id":29076,"adult":false},{"id":345363,"adult":false},{"id":14181,"adult":false},{"id":10569,"adult":false},{"id":257768,"adult":false},{"id":434396,"adult":false},{"id":2655,"adult":false},{"id":434397,"adult":false},{"id":251431,"adult":false},{"id":347035,"adult":false},{"id":382814,"adult":false},{"id":256959,"adult":false},{"id":8690,"adult":false},{"id":60142,"adult":false},{"id":54514,"adult":false},{"id":434398,"adult":false},{"id":76816,"adult":false},{"id":62206,"adult":false},{"id":379513,"adult":false},{"id":186738,"adult":false},{"id":219736,"adult":false},{"id":320007,"adult":false},{"id":105347,"adult":false},{"id":195450,"adult":false},{"id":434399,"adult":false},{"id":434400,"adult":false},{"id":146075,"adult":false},{"id":424322,"adult":false},{"id":86324,"adult":false},{"id":434401,"adult":false},{"id":36341,"adult":false},{"id":321730,"adult":false},{"id":16091,"adult":false},{"id":107016,"adult":false},{"id":181539,"adult":false},{"id":290470,"adult":false},{"id":173732,"adult":false},{"id":321478,"adult":false},{"id":371675,"adult":false},{"id":434402,"adult":false},{"id":434403,"adult":false},{"id":108560,"adult":false},{"id":286279,"adult":false},{"id":434404,"adult":false},{"id":85711,"adult":false},{"id":75227,"adult":false},{"id":367066,"adult":false},{"id":31035,"adult":false},{"id":26584,"adult":false},{"id":64621,"adult":false},{"id":28690,"adult":false},{"id":249146,"adult":false},{"id":17770,"adult":false},{"id":434405,"adult":false},{"id":317422,"adult":false},{"id":409299,"adult":false},{"id":434406,"adult":false},{"id":401,"adult":false},{"id":174309,"adult":false},{"id":71078,"adult":false},{"id":418927,"adult":false},{"id":364782,"adult":false},{"id":429201,"adult":false},{"id":102860,"adult":false},{"id":434407,"adult":false},{"id":30238,"adult":false},{"id":434408,"adult":false},{"id":191619,"adult":false},{"id":299154,"adult":false},{"id":61302,"adult":false},{"id":434409,"adult":false},{"id":257874,"adult":false},{"id":94830,"adult":false},{"id":50021,"adult":false}],"page":108,"total_pages":133,"total_results":13251}