{"results":[{"id":370823,"adult":false},{"id":95765,"adult":false},{"id":392188,"adult":false},{"id":370831,"adult":false},{"id":370830,"adult":false},{"id":434616,"adult":false},{"id":442549,"adult":false},{"id":208574,"adult":false},{"id":24135,"adult":false},{"id":136966,"adult":false},{"id":4564,"adult":false},{"id":428748,"adult":false},{"id":263100,"adult":false},{"id":100669,"adult":false},{"id":24411,"adult":false},{"id":442550,"adult":false},{"id":239944,"adult":false},{"id":1374,"adult":false},{"id":442551,"adult":false},{"id":83613,"adult":false},{"id":315010,"adult":false},{"id":39922,"adult":false},{"id":29989,"adult":false},{"id":115173,"adult":false},{"id":193612,"adult":false},{"id":20789,"adult":false},{"id":13516,"adult":false},{"id":280804,"adult":false},{"id":20764,"adult":false},{"id":14349,"adult":false},{"id":442552,"adult":false},{"id":442553,"adult":false},{"id":441399,"adult":false},{"id":442554,"adult":false},{"id":13258,"adult":false},{"id":442555,"adult":false},{"id":442556,"adult":false},{"id":14660,"adult":false},{"id":442557,"adult":false},{"id":1367,"adult":false},{"id":8352,"adult":false},{"id":229102,"adult":false},{"id":33542,"adult":false},{"id":435794,"adult":false},{"id":442558,"adult":false},{"id":14655,"adult":false},{"id":7459,"adult":false},{"id":1371,"adult":false},{"id":442559,"adult":true},{"id":8285,"adult":false},{"id":13220,"adult":false},{"id":1375,"adult":false},{"id":13523,"adult":false},{"id":84422,"adult":false},{"id":1246,"adult":false},{"id":12914,"adult":false},{"id":13001,"adult":false},{"id":442560,"adult":false},{"id":255712,"adult":false},{"id":264751,"adult":false},{"id":253143,"adult":false},{"id":312221,"adult":false},{"id":11388,"adult":false},{"id":12146,"adult":false},{"id":11970,"adult":false},{"id":17605,"adult":false},{"id":9487,"adult":false},{"id":442561,"adult":false},{"id":7443,"adult":false},{"id":59279,"adult":false},{"id":10674,"adult":false},{"id":13761,"adult":false},{"id":12448,"adult":false},{"id":12242,"adult":false},{"id":16690,"adult":false},{"id":168901,"adult":false},{"id":318948,"adult":false},{"id":397582,"adult":false},{"id":12133,"adult":false},{"id":8988,"adult":false},{"id":372240,"adult":false},{"id":40030,"adult":false},{"id":14220,"adult":false},{"id":171540,"adult":false},{"id":10665,"adult":false},{"id":524,"adult":false},{"id":1266,"adult":false},{"id":442562,"adult":false},{"id":442563,"adult":true},{"id":45243,"adult":false},{"id":442564,"adult":false},{"id":405067,"adult":false},{"id":348390,"adult":false},{"id":15838,"adult":false},{"id":387893,"adult":false},{"id":13090,"adult":false},{"id":11918,"adult":false},{"id":227933,"adult":false},{"id":13827,"adult":false},{"id":442566,"adult":true}],"page":57,"total_pages":149,"total_results":14854}