{"results":[{"id":345875,"adult":false},{"id":4437,"adult":false},{"id":255157,"adult":false},{"id":9444,"adult":false},{"id":9647,"adult":false},{"id":405684,"adult":false},{"id":75712,"adult":false},{"id":8922,"adult":false},{"id":171863,"adult":false},{"id":297239,"adult":false},{"id":15144,"adult":false},{"id":364873,"adult":false},{"id":445981,"adult":false},{"id":8839,"adult":false},{"id":354979,"adult":false},{"id":171133,"adult":false},{"id":268105,"adult":false},{"id":445982,"adult":false},{"id":445983,"adult":false},{"id":48827,"adult":false},{"id":118628,"adult":false},{"id":375282,"adult":false},{"id":10837,"adult":false},{"id":22023,"adult":false},{"id":84858,"adult":false},{"id":445984,"adult":false},{"id":48890,"adult":false},{"id":69559,"adult":false},{"id":175447,"adult":false},{"id":102212,"adult":false},{"id":258290,"adult":false},{"id":148107,"adult":false},{"id":370800,"adult":false},{"id":50910,"adult":false},{"id":150949,"adult":false},{"id":9030,"adult":false},{"id":348342,"adult":false},{"id":208802,"adult":false},{"id":9645,"adult":false},{"id":338119,"adult":false},{"id":30586,"adult":false},{"id":48902,"adult":false},{"id":63,"adult":false},{"id":356296,"adult":false},{"id":210149,"adult":false},{"id":445985,"adult":false},{"id":418641,"adult":false},{"id":129,"adult":false},{"id":75745,"adult":false},{"id":445986,"adult":true},{"id":347183,"adult":false},{"id":261159,"adult":false},{"id":127040,"adult":false},{"id":210155,"adult":false},{"id":50482,"adult":false},{"id":433308,"adult":false},{"id":111317,"adult":false},{"id":445987,"adult":false},{"id":210157,"adult":false},{"id":247554,"adult":false},{"id":304023,"adult":false},{"id":436607,"adult":false},{"id":210159,"adult":false},{"id":10861,"adult":false},{"id":38866,"adult":false},{"id":11313,"adult":false},{"id":64689,"adult":false},{"id":345923,"adult":false},{"id":87311,"adult":false},{"id":10310,"adult":false},{"id":210158,"adult":false},{"id":366672,"adult":false},{"id":210161,"adult":false},{"id":347186,"adult":false},{"id":312966,"adult":false},{"id":445988,"adult":false},{"id":426825,"adult":false},{"id":428707,"adult":false},{"id":321959,"adult":false},{"id":10195,"adult":false},{"id":386042,"adult":false},{"id":11090,"adult":false},{"id":425766,"adult":false},{"id":38559,"adult":false},{"id":48843,"adult":false},{"id":55788,"adult":false},{"id":255143,"adult":false},{"id":11561,"adult":false},{"id":445989,"adult":false},{"id":10658,"adult":false},{"id":335777,"adult":false},{"id":32293,"adult":false},{"id":27621,"adult":false},{"id":345468,"adult":false},{"id":24731,"adult":false},{"id":13956,"adult":false},{"id":399184,"adult":false},{"id":9043,"adult":false},{"id":21043,"adult":false},{"id":11495,"adult":false}],"page":108,"total_pages":162,"total_results":16167}