{"results":[{"id":249846,"adult":false},{"id":443693,"adult":false},{"id":408133,"adult":false},{"id":76715,"adult":false},{"id":408063,"adult":false},{"id":443694,"adult":false},{"id":9374,"adult":false},{"id":405405,"adult":false},{"id":443695,"adult":false},{"id":405402,"adult":false},{"id":10445,"adult":false},{"id":355060,"adult":false},{"id":443696,"adult":false},{"id":394737,"adult":false},{"id":407922,"adult":false},{"id":443697,"adult":false},{"id":408125,"adult":false},{"id":370947,"adult":null},{"id":16305,"adult":false},{"id":208989,"adult":false},{"id":384751,"adult":null},{"id":352923,"adult":false},{"id":443698,"adult":false},{"id":345497,"adult":false},{"id":201740,"adult":false},{"id":408475,"adult":false},{"id":443699,"adult":false},{"id":25009,"adult":false},{"id":443700,"adult":false},{"id":364911,"adult":false},{"id":201550,"adult":false},{"id":239566,"adult":false},{"id":205596,"adult":false},{"id":293646,"adult":false},{"id":218483,"adult":false},{"id":118289,"adult":false},{"id":76726,"adult":false},{"id":76494,"adult":false},{"id":312831,"adult":false},{"id":398792,"adult":false},{"id":440811,"adult":false},{"id":443701,"adult":false},{"id":91982,"adult":false},{"id":443704,"adult":false},{"id":329829,"adult":false},{"id":443705,"adult":false},{"id":127801,"adult":false},{"id":4824,"adult":false},{"id":9445,"adult":false},{"id":11831,"adult":false},{"id":65584,"adult":false},{"id":627,"adult":false},{"id":10684,"adult":false},{"id":181206,"adult":false},{"id":9482,"adult":false},{"id":65799,"adult":false},{"id":10909,"adult":false},{"id":500,"adult":false},{"id":415483,"adult":false},{"id":71924,"adult":false},{"id":417565,"adult":false},{"id":10537,"adult":false},{"id":4105,"adult":false},{"id":25503,"adult":false},{"id":113130,"adult":false},{"id":865,"adult":false},{"id":801,"adult":false},{"id":443706,"adult":false},{"id":13763,"adult":false},{"id":435483,"adult":false},{"id":436306,"adult":false},{"id":10489,"adult":false},{"id":9453,"adult":false},{"id":11327,"adult":false},{"id":443707,"adult":false},{"id":273854,"adult":false},{"id":246569,"adult":false},{"id":422425,"adult":false},{"id":9693,"adult":false},{"id":443708,"adult":false},{"id":12508,"adult":false},{"id":2667,"adult":false},{"id":37708,"adult":false},{"id":355071,"adult":false},{"id":443709,"adult":false},{"id":136212,"adult":false},{"id":9455,"adult":false},{"id":348375,"adult":false},{"id":1073,"adult":false},{"id":8195,"adult":false},{"id":28093,"adult":false},{"id":8741,"adult":false},{"id":200824,"adult":false},{"id":100,"adult":false},{"id":443710,"adult":false},{"id":9834,"adult":false},{"id":496,"adult":false},{"id":4349,"adult":false},{"id":11401,"adult":false},{"id":398,"adult":false}],"page":120,"total_pages":149,"total_results":14854}