{"results":[{"id":267765,"adult":false},{"id":442965,"adult":false},{"id":355065,"adult":false},{"id":46138,"adult":false},{"id":110903,"adult":false},{"id":442966,"adult":false},{"id":18519,"adult":false},{"id":93456,"adult":false},{"id":206461,"adult":false},{"id":199415,"adult":false},{"id":416240,"adult":false},{"id":388940,"adult":false},{"id":9073,"adult":false},{"id":146301,"adult":false},{"id":442967,"adult":false},{"id":48200,"adult":false},{"id":61560,"adult":false},{"id":418012,"adult":false},{"id":9616,"adult":false},{"id":18937,"adult":false},{"id":132156,"adult":false},{"id":44817,"adult":false},{"id":307663,"adult":false},{"id":442968,"adult":false},{"id":10110,"adult":false},{"id":64133,"adult":false},{"id":425756,"adult":false},{"id":227719,"adult":false},{"id":414190,"adult":false},{"id":63330,"adult":false},{"id":28214,"adult":false},{"id":6488,"adult":false},{"id":442969,"adult":false},{"id":220289,"adult":false},{"id":442970,"adult":false},{"id":1164,"adult":false},{"id":284305,"adult":false},{"id":52885,"adult":false},{"id":159824,"adult":false},{"id":65720,"adult":false},{"id":440767,"adult":false},{"id":340677,"adult":false},{"id":442971,"adult":false},{"id":98566,"adult":false},{"id":285423,"adult":false},{"id":40162,"adult":false},{"id":376540,"adult":false},{"id":442972,"adult":false},{"id":52321,"adult":false},{"id":76748,"adult":false},{"id":442973,"adult":false},{"id":11821,"adult":false},{"id":442974,"adult":false},{"id":359412,"adult":false},{"id":442975,"adult":false},{"id":442976,"adult":false},{"id":243938,"adult":false},{"id":318279,"adult":false},{"id":328387,"adult":false},{"id":284536,"adult":false},{"id":442977,"adult":false},{"id":326215,"adult":false},{"id":234004,"adult":false},{"id":18387,"adult":false},{"id":442978,"adult":false},{"id":422224,"adult":false},{"id":288818,"adult":false},{"id":63985,"adult":false},{"id":77812,"adult":false},{"id":111420,"adult":false},{"id":280531,"adult":false},{"id":435690,"adult":false},{"id":442979,"adult":false},{"id":111695,"adult":false},{"id":35006,"adult":false},{"id":423878,"adult":false},{"id":18647,"adult":false},{"id":442980,"adult":false},{"id":292747,"adult":false},{"id":442981,"adult":false},{"id":227683,"adult":false},{"id":261023,"adult":false},{"id":419959,"adult":true},{"id":240646,"adult":false},{"id":442982,"adult":false},{"id":236813,"adult":false},{"id":442983,"adult":false},{"id":442984,"adult":false},{"id":442985,"adult":false},{"id":442986,"adult":false},{"id":93828,"adult":false},{"id":442987,"adult":false},{"id":407828,"adult":false},{"id":73829,"adult":false},{"id":24738,"adult":false},{"id":321757,"adult":false},{"id":399268,"adult":false},{"id":388541,"adult":false},{"id":97764,"adult":false},{"id":279595,"adult":false}],"page":79,"total_pages":149,"total_results":14854}