{"results":[{"id":151368,"adult":false},{"id":444132,"adult":false},{"id":429,"adult":false},{"id":291540,"adult":false},{"id":386861,"adult":false},{"id":144293,"adult":false},{"id":370928,"adult":false},{"id":168535,"adult":false},{"id":287796,"adult":null},{"id":289541,"adult":false},{"id":35685,"adult":false},{"id":92241,"adult":true},{"id":339877,"adult":false},{"id":444133,"adult":false},{"id":11086,"adult":false},{"id":444134,"adult":false},{"id":444135,"adult":false},{"id":444136,"adult":false},{"id":148706,"adult":false},{"id":444137,"adult":false},{"id":387844,"adult":false},{"id":444138,"adult":false},{"id":29813,"adult":false},{"id":387773,"adult":false},{"id":16539,"adult":false},{"id":203641,"adult":false},{"id":444139,"adult":false},{"id":265760,"adult":false},{"id":572,"adult":false},{"id":444140,"adult":false},{"id":127544,"adult":false},{"id":444141,"adult":false},{"id":322418,"adult":false},{"id":144923,"adult":false},{"id":444142,"adult":false},{"id":99765,"adult":false},{"id":25537,"adult":false},{"id":85115,"adult":false},{"id":4034,"adult":false},{"id":11647,"adult":false},{"id":18118,"adult":false},{"id":163085,"adult":false},{"id":273038,"adult":false},{"id":341042,"adult":null},{"id":120472,"adult":false},{"id":363858,"adult":false},{"id":170245,"adult":false},{"id":257314,"adult":false},{"id":96597,"adult":false},{"id":185427,"adult":false},{"id":96590,"adult":false},{"id":53520,"adult":false},{"id":39241,"adult":false},{"id":15339,"adult":false},{"id":444143,"adult":false},{"id":321336,"adult":false},{"id":223395,"adult":null},{"id":59954,"adult":false},{"id":363706,"adult":false},{"id":51869,"adult":false},{"id":226157,"adult":false},{"id":54002,"adult":false},{"id":186039,"adult":null},{"id":126725,"adult":null},{"id":444144,"adult":false},{"id":77061,"adult":false},{"id":444145,"adult":null},{"id":210734,"adult":false},{"id":133234,"adult":false},{"id":27178,"adult":false},{"id":352997,"adult":false},{"id":37400,"adult":null},{"id":271782,"adult":false},{"id":34690,"adult":false},{"id":436611,"adult":false},{"id":304548,"adult":null},{"id":440617,"adult":true},{"id":444146,"adult":false},{"id":66881,"adult":false},{"id":393306,"adult":false},{"id":444147,"adult":false},{"id":367548,"adult":false},{"id":222767,"adult":false},{"id":444148,"adult":true},{"id":274757,"adult":null},{"id":406188,"adult":null},{"id":406726,"adult":null},{"id":406432,"adult":null},{"id":10398,"adult":false},{"id":414503,"adult":null},{"id":444149,"adult":false},{"id":414507,"adult":false},{"id":287903,"adult":false},{"id":366531,"adult":null},{"id":404198,"adult":null},{"id":266054,"adult":false},{"id":444150,"adult":false},{"id":53517,"adult":false},{"id":38532,"adult":null},{"id":103765,"adult":false}],"page":147,"total_pages":149,"total_results":14854}