{"results":[{"id":254736,"adult":false},{"id":342179,"adult":false},{"id":435761,"adult":false},{"id":88498,"adult":false},{"id":149326,"adult":false},{"id":10029,"adult":false},{"id":411519,"adult":false},{"id":17494,"adult":false},{"id":435762,"adult":false},{"id":435763,"adult":false},{"id":287391,"adult":false},{"id":389809,"adult":false},{"id":213366,"adult":false},{"id":13391,"adult":false},{"id":376534,"adult":false},{"id":435764,"adult":false},{"id":206388,"adult":false},{"id":283233,"adult":false},{"id":5038,"adult":false},{"id":435765,"adult":false},{"id":340676,"adult":false},{"id":435766,"adult":false},{"id":407528,"adult":false},{"id":435767,"adult":false},{"id":312167,"adult":false},{"id":350060,"adult":false},{"id":431017,"adult":false},{"id":339988,"adult":false},{"id":33997,"adult":false},{"id":435768,"adult":false},{"id":115360,"adult":false},{"id":222144,"adult":false},{"id":299290,"adult":false},{"id":544,"adult":false},{"id":364177,"adult":false},{"id":786,"adult":false},{"id":390403,"adult":false},{"id":160588,"adult":false},{"id":435769,"adult":false},{"id":435770,"adult":false},{"id":9571,"adult":false},{"id":109491,"adult":false},{"id":8358,"adult":false},{"id":338766,"adult":false},{"id":416146,"adult":false},{"id":376290,"adult":false},{"id":317945,"adult":false},{"id":346172,"adult":false},{"id":7340,"adult":false},{"id":48185,"adult":false},{"id":435771,"adult":false},{"id":376134,"adult":false},{"id":380879,"adult":false},{"id":435772,"adult":false},{"id":807,"adult":false},{"id":376660,"adult":false},{"id":435773,"adult":false},{"id":416786,"adult":false},{"id":435774,"adult":false},{"id":435776,"adult":false},{"id":17335,"adult":false},{"id":371463,"adult":false},{"id":391698,"adult":false},{"id":253021,"adult":false},{"id":361787,"adult":false},{"id":412256,"adult":false},{"id":393857,"adult":false},{"id":254661,"adult":false},{"id":435777,"adult":false},{"id":94183,"adult":false},{"id":30974,"adult":false},{"id":8469,"adult":false},{"id":381141,"adult":false},{"id":68,"adult":false},{"id":378064,"adult":false},{"id":196,"adult":false},{"id":34462,"adult":false},{"id":7191,"adult":false},{"id":73481,"adult":false},{"id":793,"adult":false},{"id":10178,"adult":false},{"id":72570,"adult":false},{"id":376092,"adult":false},{"id":1640,"adult":false},{"id":218688,"adult":false},{"id":196867,"adult":false},{"id":206419,"adult":false},{"id":920,"adult":false},{"id":435778,"adult":false},{"id":246804,"adult":false},{"id":251609,"adult":false},{"id":370978,"adult":false},{"id":290930,"adult":false},{"id":152532,"adult":false},{"id":246793,"adult":false},{"id":251607,"adult":false},{"id":221670,"adult":false},{"id":25237,"adult":false},{"id":351183,"adult":false},{"id":20024,"adult":false}],"page":47,"total_pages":144,"total_results":14325}