{"results":[{"id":278154,"adult":false},{"id":438598,"adult":null},{"id":33676,"adult":false},{"id":365676,"adult":false},{"id":10805,"adult":false},{"id":438599,"adult":false},{"id":12417,"adult":false},{"id":14553,"adult":false},{"id":438600,"adult":false},{"id":432995,"adult":false},{"id":44966,"adult":false},{"id":329833,"adult":false},{"id":240926,"adult":false},{"id":256120,"adult":false},{"id":50837,"adult":false},{"id":71206,"adult":false},{"id":33638,"adult":false},{"id":13700,"adult":false},{"id":334524,"adult":false},{"id":12473,"adult":false},{"id":184796,"adult":false},{"id":438601,"adult":false},{"id":3063,"adult":false},{"id":308545,"adult":false},{"id":4148,"adult":false},{"id":438602,"adult":false},{"id":15411,"adult":false},{"id":1593,"adult":false},{"id":18360,"adult":false},{"id":4513,"adult":false},{"id":408921,"adult":false},{"id":277834,"adult":false},{"id":205058,"adult":null},{"id":412583,"adult":false},{"id":437594,"adult":false},{"id":43015,"adult":false},{"id":191714,"adult":false},{"id":438603,"adult":false},{"id":438323,"adult":false},{"id":420245,"adult":false},{"id":331392,"adult":false},{"id":434119,"adult":false},{"id":329350,"adult":false},{"id":143248,"adult":false},{"id":438604,"adult":false},{"id":209907,"adult":false},{"id":61594,"adult":false},{"id":438605,"adult":null},{"id":295273,"adult":false},{"id":438370,"adult":true},{"id":8681,"adult":false},{"id":849,"adult":false},{"id":20210,"adult":false},{"id":438606,"adult":false},{"id":376424,"adult":false},{"id":150108,"adult":false},{"id":243956,"adult":false},{"id":202789,"adult":false},{"id":50364,"adult":false},{"id":118894,"adult":false},{"id":1366,"adult":false},{"id":244600,"adult":false},{"id":80785,"adult":false},{"id":100697,"adult":false},{"id":32823,"adult":false},{"id":10733,"adult":false},{"id":12709,"adult":false},{"id":367997,"adult":false},{"id":438607,"adult":false},{"id":277378,"adult":null},{"id":438608,"adult":false},{"id":2100,"adult":false},{"id":363676,"adult":false},{"id":278924,"adult":false},{"id":297761,"adult":false},{"id":316023,"adult":false},{"id":438609,"adult":false},{"id":420472,"adult":false},{"id":388399,"adult":false},{"id":25705,"adult":false},{"id":9708,"adult":false},{"id":248684,"adult":false},{"id":438610,"adult":false},{"id":212518,"adult":false},{"id":322456,"adult":false},{"id":382512,"adult":false},{"id":396330,"adult":false},{"id":62089,"adult":false},{"id":332786,"adult":false},{"id":192112,"adult":false},{"id":15969,"adult":false},{"id":192105,"adult":false},{"id":34093,"adult":false},{"id":41414,"adult":false},{"id":21485,"adult":false},{"id":104546,"adult":false},{"id":283606,"adult":false},{"id":97889,"adult":false},{"id":52250,"adult":false},{"id":438512,"adult":null}],"page":6,"total_pages":158,"total_results":15756}