{"results":[{"id":25918,"adult":false},{"id":434837,"adult":false},{"id":283329,"adult":false},{"id":15121,"adult":false},{"id":17332,"adult":false},{"id":87428,"adult":false},{"id":137343,"adult":false},{"id":423,"adult":false},{"id":434838,"adult":null},{"id":382393,"adult":false},{"id":343112,"adult":false},{"id":434839,"adult":false},{"id":243684,"adult":false},{"id":146454,"adult":false},{"id":93427,"adult":false},{"id":13692,"adult":false},{"id":85350,"adult":false},{"id":242835,"adult":false},{"id":1630,"adult":false},{"id":257740,"adult":false},{"id":11036,"adult":false},{"id":10313,"adult":false},{"id":86302,"adult":false},{"id":35690,"adult":false},{"id":3027,"adult":false},{"id":50014,"adult":false},{"id":27584,"adult":false},{"id":115,"adult":false},{"id":1944,"adult":false},{"id":157687,"adult":false},{"id":353313,"adult":null},{"id":259693,"adult":false},{"id":336681,"adult":false},{"id":107028,"adult":false},{"id":1813,"adult":false},{"id":65642,"adult":false},{"id":434840,"adult":false},{"id":35834,"adult":false},{"id":155688,"adult":false},{"id":74643,"adult":false},{"id":35118,"adult":false},{"id":311054,"adult":false},{"id":82693,"adult":false},{"id":434841,"adult":false},{"id":810,"adult":false},{"id":5915,"adult":false},{"id":10192,"adult":false},{"id":212217,"adult":false},{"id":387354,"adult":false},{"id":74747,"adult":false},{"id":25602,"adult":false},{"id":434842,"adult":false},{"id":9533,"adult":false},{"id":411516,"adult":false},{"id":434843,"adult":false},{"id":57352,"adult":false},{"id":318257,"adult":false},{"id":268060,"adult":false},{"id":714,"adult":false},{"id":434844,"adult":false},{"id":434845,"adult":null},{"id":64524,"adult":false},{"id":434846,"adult":false},{"id":42807,"adult":false},{"id":38416,"adult":false},{"id":125520,"adult":false},{"id":41768,"adult":false},{"id":434847,"adult":false},{"id":28059,"adult":false},{"id":317573,"adult":false},{"id":6694,"adult":false},{"id":126408,"adult":false},{"id":5128,"adult":false},{"id":338964,"adult":false},{"id":24807,"adult":false},{"id":434848,"adult":false},{"id":24811,"adult":false},{"id":262269,"adult":false},{"id":434849,"adult":false},{"id":434850,"adult":false},{"id":434851,"adult":false},{"id":60723,"adult":false},{"id":434852,"adult":false},{"id":434853,"adult":false},{"id":270226,"adult":false},{"id":25638,"adult":false},{"id":257605,"adult":false},{"id":96198,"adult":false},{"id":403132,"adult":false},{"id":129539,"adult":false},{"id":434854,"adult":false},{"id":291022,"adult":false},{"id":411756,"adult":false},{"id":249538,"adult":false},{"id":404388,"adult":false},{"id":75439,"adult":false},{"id":356185,"adult":false},{"id":434855,"adult":false},{"id":49684,"adult":false},{"id":229081,"adult":false}],"page":130,"total_pages":133,"total_results":13251}