{"results":[{"id":981,"adult":false},{"id":14537,"adult":false},{"id":434374,"adult":false},{"id":13600,"adult":false},{"id":845,"adult":false},{"id":311323,"adult":false},{"id":1561,"adult":false},{"id":19884,"adult":false},{"id":940,"adult":false},{"id":356381,"adult":false},{"id":4498,"adult":false},{"id":435946,"adult":false},{"id":405,"adult":false},{"id":11898,"adult":false},{"id":198,"adult":false},{"id":254320,"adult":false},{"id":19150,"adult":false},{"id":303991,"adult":false},{"id":130694,"adult":false},{"id":401035,"adult":false},{"id":29794,"adult":false},{"id":43787,"adult":false},{"id":3062,"adult":false},{"id":68773,"adult":false},{"id":435947,"adult":false},{"id":22130,"adult":false},{"id":435948,"adult":false},{"id":5677,"adult":false},{"id":40740,"adult":false},{"id":15080,"adult":false},{"id":55584,"adult":false},{"id":435949,"adult":false},{"id":31516,"adult":false},{"id":435950,"adult":false},{"id":79123,"adult":false},{"id":4043,"adult":false},{"id":435951,"adult":false},{"id":381069,"adult":false},{"id":435952,"adult":false},{"id":24739,"adult":false},{"id":435953,"adult":false},{"id":435954,"adult":false},{"id":435955,"adult":false},{"id":201043,"adult":false},{"id":228384,"adult":false},{"id":435956,"adult":false},{"id":94509,"adult":false},{"id":435957,"adult":false},{"id":435958,"adult":false},{"id":143816,"adult":false},{"id":34937,"adult":false},{"id":149144,"adult":false},{"id":1059,"adult":false},{"id":435959,"adult":false},{"id":24256,"adult":false},{"id":435960,"adult":null},{"id":149143,"adult":false},{"id":1957,"adult":false},{"id":435961,"adult":null},{"id":267480,"adult":false},{"id":431990,"adult":false},{"id":18875,"adult":false},{"id":72419,"adult":false},{"id":4538,"adult":false},{"id":434336,"adult":false},{"id":274817,"adult":false},{"id":46138,"adult":false},{"id":362283,"adult":false},{"id":1247,"adult":false},{"id":377847,"adult":false},{"id":87349,"adult":false},{"id":51491,"adult":false},{"id":56909,"adult":false},{"id":284140,"adult":false},{"id":117246,"adult":null},{"id":72153,"adult":false},{"id":52850,"adult":false},{"id":435962,"adult":false},{"id":296574,"adult":false},{"id":252627,"adult":false},{"id":435963,"adult":false},{"id":264233,"adult":false},{"id":435964,"adult":false},{"id":60413,"adult":false},{"id":379932,"adult":false},{"id":263841,"adult":false},{"id":84590,"adult":false},{"id":421114,"adult":false},{"id":265031,"adult":false},{"id":334028,"adult":false},{"id":288721,"adult":false},{"id":300353,"adult":false},{"id":435965,"adult":false},{"id":265784,"adult":false},{"id":26796,"adult":false},{"id":300102,"adult":false},{"id":141263,"adult":false},{"id":435966,"adult":false},{"id":304390,"adult":false},{"id":435967,"adult":false}],"page":58,"total_pages":144,"total_results":14325}