{"results":[{"id":200458,"adult":false},{"id":68007,"adult":false},{"id":215848,"adult":false},{"id":331614,"adult":false},{"id":442083,"adult":false},{"id":443289,"adult":false},{"id":56647,"adult":false},{"id":121143,"adult":false},{"id":445068,"adult":false},{"id":438151,"adult":false},{"id":2321,"adult":false},{"id":100251,"adult":false},{"id":76321,"adult":false},{"id":426264,"adult":false},{"id":4476,"adult":false},{"id":371741,"adult":false},{"id":397278,"adult":false},{"id":241,"adult":false},{"id":50035,"adult":false},{"id":450491,"adult":false},{"id":381034,"adult":false},{"id":11416,"adult":false},{"id":43788,"adult":false},{"id":415786,"adult":false},{"id":7508,"adult":false},{"id":19797,"adult":false},{"id":10278,"adult":false},{"id":123557,"adult":false},{"id":49920,"adult":false},{"id":297792,"adult":false},{"id":922,"adult":false},{"id":43943,"adult":false},{"id":63139,"adult":false},{"id":60566,"adult":false},{"id":109421,"adult":false},{"id":51743,"adult":false},{"id":11040,"adult":false},{"id":261818,"adult":false},{"id":22358,"adult":false},{"id":267137,"adult":false},{"id":253283,"adult":false},{"id":450492,"adult":false},{"id":11575,"adult":false},{"id":11532,"adult":false},{"id":450493,"adult":true},{"id":320703,"adult":false},{"id":56698,"adult":false},{"id":450494,"adult":false},{"id":52796,"adult":false},{"id":87513,"adult":false},{"id":175161,"adult":false},{"id":42390,"adult":false},{"id":24754,"adult":false},{"id":9369,"adult":false},{"id":8325,"adult":false},{"id":393559,"adult":false},{"id":450495,"adult":false},{"id":10747,"adult":false},{"id":246096,"adult":false},{"id":278090,"adult":false},{"id":383703,"adult":false},{"id":27586,"adult":false},{"id":28167,"adult":false},{"id":394918,"adult":false},{"id":6643,"adult":false},{"id":30121,"adult":false},{"id":26331,"adult":false},{"id":28174,"adult":false},{"id":28089,"adult":false},{"id":54951,"adult":false},{"id":449785,"adult":false},{"id":11015,"adult":false},{"id":11096,"adult":false},{"id":17496,"adult":false},{"id":258318,"adult":false},{"id":450496,"adult":false},{"id":2000,"adult":false},{"id":48885,"adult":false},{"id":9746,"adult":false},{"id":88478,"adult":false},{"id":284306,"adult":false},{"id":438493,"adult":false},{"id":61880,"adult":false},{"id":440087,"adult":false},{"id":93910,"adult":false},{"id":158240,"adult":false},{"id":124210,"adult":false},{"id":78041,"adult":false},{"id":55377,"adult":false},{"id":10283,"adult":false},{"id":43275,"adult":false},{"id":84726,"adult":false},{"id":10720,"adult":false},{"id":81052,"adult":false},{"id":241819,"adult":false},{"id":382212,"adult":false},{"id":441834,"adult":false},{"id":70476,"adult":false},{"id":50357,"adult":false},{"id":81225,"adult":false}],"page":37,"total_pages":129,"total_results":12803}