{"results":[{"id":385955,"adult":false},{"id":362571,"adult":false},{"id":218582,"adult":false},{"id":35992,"adult":false},{"id":345594,"adult":false},{"id":145930,"adult":false},{"id":273176,"adult":false},{"id":323392,"adult":false},{"id":437463,"adult":false},{"id":437464,"adult":false},{"id":437467,"adult":false},{"id":38756,"adult":false},{"id":155539,"adult":false},{"id":437468,"adult":null},{"id":15382,"adult":false},{"id":412090,"adult":false},{"id":149351,"adult":false},{"id":266077,"adult":false},{"id":142305,"adult":false},{"id":437469,"adult":null},{"id":254642,"adult":false},{"id":302711,"adult":false},{"id":399792,"adult":false},{"id":437470,"adult":false},{"id":358432,"adult":false},{"id":588,"adult":false},{"id":256595,"adult":false},{"id":13155,"adult":false},{"id":85249,"adult":false},{"id":28912,"adult":false},{"id":5916,"adult":false},{"id":437471,"adult":null},{"id":13440,"adult":false},{"id":73083,"adult":false},{"id":233364,"adult":false},{"id":71577,"adult":false},{"id":414835,"adult":false},{"id":129416,"adult":false},{"id":332502,"adult":false},{"id":340845,"adult":false},{"id":30274,"adult":false},{"id":202192,"adult":false},{"id":437472,"adult":false},{"id":437473,"adult":null},{"id":265,"adult":false},{"id":30197,"adult":false},{"id":9528,"adult":false},{"id":432124,"adult":false},{"id":199851,"adult":false},{"id":62585,"adult":false},{"id":8388,"adult":false},{"id":437474,"adult":null},{"id":306872,"adult":false},{"id":69594,"adult":false},{"id":121800,"adult":false},{"id":304382,"adult":false},{"id":437475,"adult":false},{"id":18667,"adult":false},{"id":156077,"adult":false},{"id":11909,"adult":false},{"id":326292,"adult":false},{"id":5137,"adult":false},{"id":437476,"adult":null},{"id":41417,"adult":false},{"id":232003,"adult":false},{"id":393407,"adult":false},{"id":203801,"adult":false},{"id":281746,"adult":false},{"id":13713,"adult":false},{"id":246926,"adult":false},{"id":371163,"adult":false},{"id":366566,"adult":false},{"id":423310,"adult":false},{"id":418450,"adult":false},{"id":437477,"adult":null},{"id":40631,"adult":false},{"id":437478,"adult":false},{"id":15379,"adult":false},{"id":419747,"adult":false},{"id":220514,"adult":false},{"id":36635,"adult":false},{"id":328291,"adult":false},{"id":118998,"adult":false},{"id":18419,"adult":false},{"id":85968,"adult":false},{"id":19590,"adult":false},{"id":363579,"adult":false},{"id":281435,"adult":false},{"id":85673,"adult":false},{"id":418218,"adult":false},{"id":40526,"adult":false},{"id":38766,"adult":false},{"id":421868,"adult":false},{"id":159469,"adult":false},{"id":355128,"adult":false},{"id":38279,"adult":false},{"id":37223,"adult":false},{"id":259292,"adult":false},{"id":339447,"adult":false},{"id":421598,"adult":true}],"page":134,"total_pages":144,"total_results":14325}