{"results":[{"id":286681,"adult":false},{"id":40088,"adult":false},{"id":30200,"adult":false},{"id":443578,"adult":true},{"id":5068,"adult":false},{"id":369152,"adult":false},{"id":443579,"adult":false},{"id":443580,"adult":false},{"id":64032,"adult":false},{"id":2897,"adult":false},{"id":443581,"adult":false},{"id":311539,"adult":false},{"id":428777,"adult":false},{"id":111877,"adult":false},{"id":119670,"adult":false},{"id":435580,"adult":false},{"id":74646,"adult":false},{"id":59011,"adult":false},{"id":105907,"adult":false},{"id":256012,"adult":false},{"id":995,"adult":false},{"id":416087,"adult":false},{"id":394953,"adult":false},{"id":250525,"adult":false},{"id":443582,"adult":false},{"id":443583,"adult":false},{"id":30522,"adult":false},{"id":419559,"adult":false},{"id":443584,"adult":false},{"id":270439,"adult":false},{"id":9426,"adult":false},{"id":8439,"adult":false},{"id":292834,"adult":false},{"id":147641,"adult":false},{"id":22334,"adult":false},{"id":10159,"adult":false},{"id":370416,"adult":false},{"id":70335,"adult":false},{"id":88270,"adult":false},{"id":143377,"adult":false},{"id":70,"adult":false},{"id":443585,"adult":false},{"id":429059,"adult":false},{"id":24919,"adult":false},{"id":208409,"adult":false},{"id":420166,"adult":true},{"id":113270,"adult":true},{"id":386845,"adult":true},{"id":366181,"adult":true},{"id":162954,"adult":false},{"id":443586,"adult":false},{"id":419452,"adult":true},{"id":391011,"adult":true},{"id":387217,"adult":true},{"id":41787,"adult":false},{"id":429133,"adult":false},{"id":429181,"adult":false},{"id":443587,"adult":false},{"id":378361,"adult":false},{"id":287486,"adult":false},{"id":87987,"adult":false},{"id":215042,"adult":false},{"id":522,"adult":false},{"id":443588,"adult":false},{"id":4476,"adult":false},{"id":755,"adult":false},{"id":167658,"adult":false},{"id":3682,"adult":false},{"id":56639,"adult":false},{"id":9008,"adult":false},{"id":258746,"adult":false},{"id":9563,"adult":false},{"id":73174,"adult":false},{"id":305341,"adult":false},{"id":57990,"adult":false},{"id":4247,"adult":false},{"id":57989,"adult":false},{"id":76446,"adult":false},{"id":322740,"adult":false},{"id":443589,"adult":false},{"id":443590,"adult":false},{"id":250710,"adult":false},{"id":443591,"adult":false},{"id":250556,"adult":false},{"id":11026,"adult":false},{"id":25714,"adult":false},{"id":7299,"adult":false},{"id":8489,"adult":false},{"id":4248,"adult":false},{"id":10632,"adult":false},{"id":398987,"adult":false},{"id":320,"adult":false},{"id":4256,"adult":false},{"id":82776,"adult":false},{"id":6466,"adult":false},{"id":181955,"adult":false},{"id":4970,"adult":false},{"id":1599,"adult":false},{"id":421864,"adult":false},{"id":924,"adult":false}],"page":114,"total_pages":149,"total_results":14854}