{"results":[{"id":63968,"adult":false},{"id":274430,"adult":false},{"id":186635,"adult":false},{"id":136472,"adult":false},{"id":433165,"adult":false},{"id":54755,"adult":false},{"id":117352,"adult":false},{"id":117214,"adult":false},{"id":37280,"adult":false},{"id":15662,"adult":false},{"id":68821,"adult":false},{"id":261103,"adult":false},{"id":433166,"adult":false},{"id":433167,"adult":false},{"id":368140,"adult":false},{"id":375273,"adult":false},{"id":95152,"adult":false},{"id":344196,"adult":false},{"id":94590,"adult":false},{"id":433168,"adult":false},{"id":109445,"adult":false},{"id":192499,"adult":false},{"id":294795,"adult":false},{"id":407531,"adult":false},{"id":863,"adult":false},{"id":10193,"adult":false},{"id":355193,"adult":false},{"id":38153,"adult":false},{"id":312809,"adult":false},{"id":392795,"adult":false},{"id":204435,"adult":false},{"id":417518,"adult":false},{"id":79698,"adult":false},{"id":433169,"adult":false},{"id":358807,"adult":false},{"id":329829,"adult":false},{"id":63057,"adult":false},{"id":85052,"adult":false},{"id":2096,"adult":false},{"id":384726,"adult":false},{"id":269173,"adult":false},{"id":433170,"adult":null},{"id":224947,"adult":false},{"id":426928,"adult":false},{"id":381125,"adult":false},{"id":433171,"adult":false},{"id":788,"adult":false},{"id":2267,"adult":false},{"id":371469,"adult":false},{"id":27318,"adult":false},{"id":111833,"adult":false},{"id":410829,"adult":false},{"id":342094,"adult":false},{"id":8960,"adult":false},{"id":12114,"adult":false},{"id":262742,"adult":false},{"id":167613,"adult":false},{"id":429633,"adult":false},{"id":26172,"adult":false},{"id":411794,"adult":false},{"id":298844,"adult":false},{"id":433172,"adult":false},{"id":284665,"adult":false},{"id":216526,"adult":false},{"id":2153,"adult":false},{"id":12233,"adult":false},{"id":280535,"adult":false},{"id":2242,"adult":false},{"id":433173,"adult":false},{"id":297200,"adult":false},{"id":289493,"adult":false},{"id":420694,"adult":false},{"id":421298,"adult":false},{"id":351721,"adult":false},{"id":210344,"adult":false},{"id":38080,"adult":false},{"id":45156,"adult":false},{"id":414223,"adult":false},{"id":5689,"adult":false},{"id":405406,"adult":false},{"id":135161,"adult":false},{"id":137700,"adult":false},{"id":9328,"adult":false},{"id":433174,"adult":false},{"id":428770,"adult":false},{"id":23574,"adult":false},{"id":404367,"adult":false},{"id":55725,"adult":false},{"id":133396,"adult":false},{"id":39013,"adult":false},{"id":374720,"adult":false},{"id":244786,"adult":false},{"id":62174,"adult":false},{"id":127493,"adult":false},{"id":41010,"adult":false},{"id":212716,"adult":false},{"id":198789,"adult":false},{"id":433175,"adult":false},{"id":293982,"adult":false},{"id":14791,"adult":false}],"page":43,"total_pages":133,"total_results":13251}