{"results":[{"id":445946,"adult":false},{"id":3084,"adult":false},{"id":316944,"adult":false},{"id":155157,"adult":false},{"id":296248,"adult":false},{"id":447385,"adult":false},{"id":333141,"adult":false},{"id":289460,"adult":false},{"id":352364,"adult":false},{"id":13041,"adult":false},{"id":427756,"adult":false},{"id":254200,"adult":false},{"id":441714,"adult":false},{"id":447386,"adult":false},{"id":31776,"adult":false},{"id":447387,"adult":false},{"id":447388,"adult":false},{"id":106717,"adult":false},{"id":284019,"adult":false},{"id":443778,"adult":false},{"id":406115,"adult":false},{"id":392216,"adult":false},{"id":6520,"adult":false},{"id":8816,"adult":false},{"id":71689,"adult":false},{"id":140692,"adult":false},{"id":197225,"adult":false},{"id":1634,"adult":false},{"id":194166,"adult":false},{"id":366795,"adult":false},{"id":279026,"adult":false},{"id":214597,"adult":false},{"id":446345,"adult":false},{"id":447389,"adult":false},{"id":298055,"adult":false},{"id":31595,"adult":false},{"id":284341,"adult":false},{"id":347765,"adult":false},{"id":447390,"adult":null},{"id":424513,"adult":false},{"id":447391,"adult":false},{"id":397671,"adult":false},{"id":104532,"adult":false},{"id":301337,"adult":false},{"id":447392,"adult":false},{"id":232175,"adult":false},{"id":4567,"adult":false},{"id":363138,"adult":false},{"id":447393,"adult":false},{"id":86307,"adult":false},{"id":168502,"adult":false},{"id":400409,"adult":false},{"id":2614,"adult":false},{"id":447394,"adult":false},{"id":40640,"adult":false},{"id":335970,"adult":false},{"id":447395,"adult":false},{"id":23530,"adult":false},{"id":227735,"adult":false},{"id":294254,"adult":false},{"id":88613,"adult":false},{"id":157820,"adult":false},{"id":65364,"adult":false},{"id":39833,"adult":false},{"id":426419,"adult":false},{"id":58495,"adult":false},{"id":11517,"adult":false},{"id":447396,"adult":false},{"id":321761,"adult":false},{"id":447397,"adult":false},{"id":11028,"adult":false},{"id":14765,"adult":false},{"id":11478,"adult":false},{"id":261026,"adult":false},{"id":43002,"adult":false},{"id":345874,"adult":false},{"id":5921,"adult":false},{"id":11397,"adult":false},{"id":441834,"adult":false},{"id":379019,"adult":false},{"id":61791,"adult":false},{"id":90315,"adult":false},{"id":85682,"adult":false},{"id":447398,"adult":false},{"id":354857,"adult":false},{"id":424124,"adult":false},{"id":85674,"adult":false},{"id":86742,"adult":false},{"id":415253,"adult":false},{"id":429199,"adult":false},{"id":4995,"adult":false},{"id":10,"adult":false},{"id":84586,"adult":false},{"id":19616,"adult":false},{"id":389272,"adult":false},{"id":98213,"adult":false},{"id":54942,"adult":false},{"id":445721,"adult":false},{"id":42517,"adult":false},{"id":164,"adult":false}],"page":35,"total_pages":168,"total_results":16730}