{"results":[{"id":209799,"adult":false},{"id":10996,"adult":false},{"id":51359,"adult":false},{"id":436731,"adult":false},{"id":5145,"adult":false},{"id":400020,"adult":false},{"id":17081,"adult":false},{"id":436976,"adult":false},{"id":436988,"adult":false},{"id":213456,"adult":false},{"id":107846,"adult":false},{"id":89258,"adult":false},{"id":440487,"adult":false},{"id":81772,"adult":false},{"id":425104,"adult":false},{"id":437351,"adult":false},{"id":228148,"adult":false},{"id":397680,"adult":false},{"id":437573,"adult":false},{"id":39041,"adult":false},{"id":398415,"adult":false},{"id":440488,"adult":false},{"id":365961,"adult":false},{"id":440489,"adult":false},{"id":432964,"adult":false},{"id":440490,"adult":false},{"id":103132,"adult":false},{"id":440491,"adult":false},{"id":437723,"adult":false},{"id":440492,"adult":false},{"id":437795,"adult":false},{"id":440493,"adult":false},{"id":341460,"adult":false},{"id":21588,"adult":false},{"id":156252,"adult":false},{"id":11011,"adult":false},{"id":440494,"adult":false},{"id":438018,"adult":false},{"id":440495,"adult":false},{"id":34806,"adult":false},{"id":354974,"adult":false},{"id":15192,"adult":false},{"id":435344,"adult":false},{"id":440496,"adult":false},{"id":334356,"adult":false},{"id":440497,"adult":false},{"id":159622,"adult":false},{"id":27905,"adult":false},{"id":440498,"adult":false},{"id":434605,"adult":false},{"id":10137,"adult":false},{"id":440499,"adult":false},{"id":354978,"adult":false},{"id":440500,"adult":false},{"id":27579,"adult":false},{"id":75952,"adult":false},{"id":20235,"adult":false},{"id":437881,"adult":false},{"id":244267,"adult":false},{"id":437875,"adult":false},{"id":110110,"adult":false},{"id":283088,"adult":false},{"id":437879,"adult":false},{"id":437874,"adult":false},{"id":440501,"adult":false},{"id":321494,"adult":false},{"id":30959,"adult":false},{"id":231555,"adult":false},{"id":440502,"adult":false},{"id":179921,"adult":false},{"id":37079,"adult":false},{"id":440503,"adult":false},{"id":230236,"adult":false},{"id":291984,"adult":false},{"id":38745,"adult":false},{"id":440504,"adult":false},{"id":399019,"adult":false},{"id":257088,"adult":false},{"id":52277,"adult":false},{"id":307090,"adult":false},{"id":297032,"adult":false},{"id":30178,"adult":false},{"id":46503,"adult":false},{"id":22049,"adult":false},{"id":72443,"adult":false},{"id":299549,"adult":false},{"id":41668,"adult":false},{"id":261239,"adult":false},{"id":140992,"adult":false},{"id":15947,"adult":false},{"id":72355,"adult":false},{"id":440505,"adult":false},{"id":428377,"adult":null},{"id":440506,"adult":false},{"id":143292,"adult":false},{"id":234162,"adult":false},{"id":440507,"adult":false},{"id":440508,"adult":false},{"id":433367,"adult":null},{"id":440509,"adult":false}],"page":97,"total_pages":158,"total_results":15756}