{"results":[{"id":16295,"adult":false},{"id":435706,"adult":false},{"id":435707,"adult":false},{"id":20649,"adult":false},{"id":29586,"adult":false},{"id":427424,"adult":false},{"id":131323,"adult":false},{"id":9408,"adult":false},{"id":34584,"adult":false},{"id":58884,"adult":false},{"id":935,"adult":false},{"id":196840,"adult":false},{"id":256478,"adult":false},{"id":435708,"adult":true},{"id":435709,"adult":false},{"id":31530,"adult":false},{"id":30458,"adult":false},{"id":340270,"adult":false},{"id":326859,"adult":false},{"id":282517,"adult":false},{"id":435711,"adult":null},{"id":406130,"adult":false},{"id":399417,"adult":false},{"id":9278,"adult":false},{"id":435712,"adult":false},{"id":435713,"adult":false},{"id":20304,"adult":false},{"id":435714,"adult":true},{"id":435715,"adult":false},{"id":6217,"adult":false},{"id":66546,"adult":false},{"id":2927,"adult":false},{"id":362247,"adult":false},{"id":435716,"adult":false},{"id":9465,"adult":false},{"id":355515,"adult":false},{"id":435717,"adult":false},{"id":22244,"adult":false},{"id":435718,"adult":false},{"id":71373,"adult":false},{"id":118619,"adult":false},{"id":282812,"adult":false},{"id":257117,"adult":false},{"id":428956,"adult":false},{"id":10014,"adult":false},{"id":11284,"adult":false},{"id":435719,"adult":false},{"id":276,"adult":false},{"id":10072,"adult":false},{"id":308529,"adult":false},{"id":398427,"adult":null},{"id":425298,"adult":false},{"id":292280,"adult":false},{"id":434873,"adult":false},{"id":11596,"adult":false},{"id":399062,"adult":false},{"id":10160,"adult":false},{"id":245891,"adult":false},{"id":10131,"adult":false},{"id":412762,"adult":false},{"id":141996,"adult":false},{"id":66125,"adult":false},{"id":406111,"adult":false},{"id":7735,"adult":false},{"id":435720,"adult":false},{"id":11217,"adult":false},{"id":20320,"adult":false},{"id":408439,"adult":false},{"id":435721,"adult":false},{"id":435722,"adult":true},{"id":342183,"adult":false},{"id":10929,"adult":false},{"id":421663,"adult":false},{"id":435723,"adult":false},{"id":271110,"adult":false},{"id":398444,"adult":false},{"id":398446,"adult":false},{"id":398436,"adult":false},{"id":36542,"adult":false},{"id":434937,"adult":null},{"id":78480,"adult":false},{"id":268253,"adult":false},{"id":39939,"adult":false},{"id":434960,"adult":false},{"id":434939,"adult":null},{"id":280467,"adult":false},{"id":435724,"adult":true},{"id":13585,"adult":false},{"id":333122,"adult":false},{"id":367163,"adult":false},{"id":17398,"adult":false},{"id":285704,"adult":false},{"id":434938,"adult":false},{"id":94639,"adult":false},{"id":431514,"adult":false},{"id":434384,"adult":false},{"id":39301,"adult":false},{"id":433115,"adult":null},{"id":34597,"adult":false},{"id":435728,"adult":false}],"page":44,"total_pages":144,"total_results":14325}