{"results":[{"id":220094,"adult":false},{"id":6068,"adult":false},{"id":431742,"adult":false},{"id":240364,"adult":false},{"id":25038,"adult":false},{"id":53174,"adult":false},{"id":38317,"adult":false},{"id":440248,"adult":false},{"id":261103,"adult":false},{"id":57157,"adult":false},{"id":440249,"adult":false},{"id":9928,"adult":false},{"id":253105,"adult":false},{"id":105177,"adult":false},{"id":31031,"adult":false},{"id":440250,"adult":false},{"id":355234,"adult":false},{"id":9281,"adult":false},{"id":340197,"adult":false},{"id":387373,"adult":false},{"id":378570,"adult":false},{"id":427857,"adult":false},{"id":440251,"adult":false},{"id":53572,"adult":false},{"id":127040,"adult":false},{"id":422727,"adult":false},{"id":440252,"adult":false},{"id":223192,"adult":false},{"id":440253,"adult":false},{"id":49964,"adult":false},{"id":433050,"adult":null},{"id":433225,"adult":null},{"id":401503,"adult":true},{"id":6107,"adult":false},{"id":6030,"adult":false},{"id":21125,"adult":false},{"id":440254,"adult":false},{"id":9005,"adult":false},{"id":433038,"adult":null},{"id":433015,"adult":null},{"id":432998,"adult":null},{"id":361475,"adult":false},{"id":334685,"adult":false},{"id":440255,"adult":false},{"id":6105,"adult":false},{"id":440256,"adult":false},{"id":16969,"adult":false},{"id":84057,"adult":false},{"id":326285,"adult":false},{"id":432981,"adult":null},{"id":430780,"adult":false},{"id":432973,"adult":null},{"id":440257,"adult":false},{"id":440258,"adult":false},{"id":432876,"adult":null},{"id":432860,"adult":null},{"id":4584,"adult":false},{"id":440259,"adult":false},{"id":432746,"adult":null},{"id":432744,"adult":null},{"id":432736,"adult":null},{"id":78492,"adult":false},{"id":593,"adult":false},{"id":805,"adult":false},{"id":432477,"adult":null},{"id":306031,"adult":false},{"id":142390,"adult":false},{"id":432366,"adult":null},{"id":427684,"adult":null},{"id":454,"adult":false},{"id":420396,"adult":null},{"id":420042,"adult":null},{"id":1584,"adult":false},{"id":440260,"adult":false},{"id":420392,"adult":null},{"id":641,"adult":false},{"id":420148,"adult":null},{"id":420178,"adult":null},{"id":47721,"adult":false},{"id":114354,"adult":false},{"id":43325,"adult":false},{"id":2062,"adult":false},{"id":34996,"adult":false},{"id":872,"adult":false},{"id":3019,"adult":false},{"id":357904,"adult":false},{"id":440261,"adult":false},{"id":111,"adult":false},{"id":30855,"adult":false},{"id":408,"adult":false},{"id":43250,"adult":false},{"id":29959,"adult":false},{"id":106,"adult":false},{"id":284,"adult":false},{"id":2326,"adult":false},{"id":4474,"adult":false},{"id":11697,"adult":false},{"id":371163,"adult":false},{"id":440262,"adult":false},{"id":9300,"adult":false}],"page":84,"total_pages":158,"total_results":15756}