{"results":[{"id":444381,"adult":false},{"id":444382,"adult":false},{"id":21259,"adult":false},{"id":278464,"adult":false},{"id":310431,"adult":false},{"id":151141,"adult":false},{"id":52752,"adult":false},{"id":245792,"adult":false},{"id":86978,"adult":false},{"id":130052,"adult":false},{"id":444383,"adult":false},{"id":429070,"adult":false},{"id":80897,"adult":false},{"id":198062,"adult":false},{"id":42556,"adult":false},{"id":400001,"adult":false},{"id":46526,"adult":false},{"id":315664,"adult":false},{"id":428753,"adult":false},{"id":14094,"adult":false},{"id":264948,"adult":false},{"id":394143,"adult":false},{"id":444161,"adult":false},{"id":386170,"adult":false},{"id":444033,"adult":false},{"id":345920,"adult":false},{"id":262067,"adult":false},{"id":412093,"adult":false},{"id":24653,"adult":false},{"id":55562,"adult":false},{"id":394969,"adult":null},{"id":407654,"adult":null},{"id":403549,"adult":null},{"id":365360,"adult":false},{"id":406496,"adult":null},{"id":406495,"adult":null},{"id":404637,"adult":true},{"id":17806,"adult":false},{"id":403552,"adult":null},{"id":403553,"adult":null},{"id":260787,"adult":false},{"id":13673,"adult":false},{"id":442875,"adult":false},{"id":144648,"adult":false},{"id":82378,"adult":false},{"id":412039,"adult":false},{"id":237384,"adult":null},{"id":103701,"adult":false},{"id":341174,"adult":false},{"id":42169,"adult":false},{"id":444384,"adult":false},{"id":151794,"adult":false},{"id":320413,"adult":false},{"id":147132,"adult":false},{"id":406744,"adult":null},{"id":405692,"adult":null},{"id":54561,"adult":false},{"id":511,"adult":false},{"id":375973,"adult":null},{"id":375999,"adult":null},{"id":72140,"adult":false},{"id":375993,"adult":null},{"id":375984,"adult":null},{"id":343284,"adult":false},{"id":444241,"adult":true},{"id":375957,"adult":null},{"id":437784,"adult":true},{"id":95267,"adult":false},{"id":375960,"adult":null},{"id":400557,"adult":true},{"id":75765,"adult":false},{"id":286821,"adult":false},{"id":376001,"adult":null},{"id":106665,"adult":false},{"id":53980,"adult":false},{"id":266540,"adult":false},{"id":375949,"adult":null},{"id":13764,"adult":false},{"id":375966,"adult":null},{"id":375979,"adult":null},{"id":444385,"adult":false},{"id":378373,"adult":false},{"id":70074,"adult":false},{"id":219049,"adult":false},{"id":265116,"adult":false},{"id":18721,"adult":false},{"id":444386,"adult":false},{"id":444387,"adult":false},{"id":102780,"adult":false},{"id":151223,"adult":false},{"id":397873,"adult":false},{"id":444388,"adult":false},{"id":21610,"adult":false},{"id":444389,"adult":false},{"id":309672,"adult":false},{"id":50840,"adult":false},{"id":188161,"adult":false},{"id":231385,"adult":false},{"id":314365,"adult":false},{"id":83394,"adult":false}],"page":5,"total_pages":162,"total_results":16167}