{"results":[{"id":10571,"adult":false},{"id":44458,"adult":false},{"id":167693,"adult":false},{"id":11675,"adult":false},{"id":443053,"adult":false},{"id":443054,"adult":false},{"id":204634,"adult":false},{"id":423083,"adult":false},{"id":15573,"adult":false},{"id":353184,"adult":false},{"id":443055,"adult":false},{"id":443056,"adult":false},{"id":38757,"adult":false},{"id":83761,"adult":false},{"id":1811,"adult":false},{"id":34309,"adult":false},{"id":443057,"adult":false},{"id":443058,"adult":false},{"id":400285,"adult":null},{"id":443059,"adult":false},{"id":258096,"adult":false},{"id":443060,"adult":false},{"id":56419,"adult":false},{"id":43361,"adult":false},{"id":104471,"adult":false},{"id":160156,"adult":false},{"id":266037,"adult":false},{"id":443061,"adult":false},{"id":375273,"adult":false},{"id":308203,"adult":false},{"id":427330,"adult":false},{"id":418788,"adult":true},{"id":96192,"adult":false},{"id":2010,"adult":false},{"id":308195,"adult":false},{"id":443062,"adult":false},{"id":443063,"adult":false},{"id":11087,"adult":false},{"id":443064,"adult":false},{"id":29030,"adult":false},{"id":323661,"adult":false},{"id":50977,"adult":false},{"id":255439,"adult":false},{"id":113329,"adult":false},{"id":69635,"adult":false},{"id":11110,"adult":false},{"id":351286,"adult":false},{"id":119446,"adult":false},{"id":118403,"adult":false},{"id":420700,"adult":true},{"id":443065,"adult":false},{"id":148531,"adult":true},{"id":164699,"adult":false},{"id":158739,"adult":false},{"id":422735,"adult":false},{"id":443066,"adult":false},{"id":101006,"adult":false},{"id":443067,"adult":false},{"id":84427,"adult":false},{"id":25205,"adult":false},{"id":112090,"adult":false},{"id":443068,"adult":false},{"id":441079,"adult":false},{"id":1819,"adult":false},{"id":420705,"adult":true},{"id":306622,"adult":false},{"id":20123,"adult":false},{"id":20645,"adult":false},{"id":4203,"adult":false},{"id":11863,"adult":false},{"id":271736,"adult":false},{"id":4958,"adult":false},{"id":1621,"adult":false},{"id":48397,"adult":false},{"id":331749,"adult":false},{"id":27310,"adult":false},{"id":190847,"adult":false},{"id":443069,"adult":false},{"id":30640,"adult":false},{"id":443070,"adult":false},{"id":9297,"adult":false},{"id":233795,"adult":false},{"id":15458,"adult":false},{"id":33224,"adult":false},{"id":280996,"adult":false},{"id":4112,"adult":false},{"id":4896,"adult":false},{"id":51945,"adult":false},{"id":11178,"adult":false},{"id":24170,"adult":false},{"id":9260,"adult":false},{"id":27973,"adult":false},{"id":256876,"adult":false},{"id":13007,"adult":false},{"id":443071,"adult":false},{"id":401469,"adult":false},{"id":65889,"adult":false},{"id":427151,"adult":false},{"id":443072,"adult":false},{"id":8292,"adult":false}],"page":83,"total_pages":149,"total_results":14854}