{"results":[{"id":278766,"adult":false},{"id":407689,"adult":false},{"id":268993,"adult":false},{"id":236325,"adult":false},{"id":372858,"adult":false},{"id":81228,"adult":false},{"id":184061,"adult":false},{"id":427746,"adult":false},{"id":318029,"adult":false},{"id":441812,"adult":false},{"id":404944,"adult":false},{"id":408220,"adult":false},{"id":429069,"adult":false},{"id":103416,"adult":false},{"id":331931,"adult":false},{"id":441813,"adult":false},{"id":326523,"adult":false},{"id":441814,"adult":false},{"id":30168,"adult":false},{"id":428313,"adult":false},{"id":105855,"adult":false},{"id":304370,"adult":false},{"id":378422,"adult":false},{"id":75704,"adult":false},{"id":262065,"adult":false},{"id":291328,"adult":false},{"id":51850,"adult":false},{"id":253573,"adult":false},{"id":423501,"adult":false},{"id":434268,"adult":false},{"id":363436,"adult":false},{"id":186203,"adult":false},{"id":92563,"adult":false},{"id":440425,"adult":false},{"id":412360,"adult":false},{"id":441432,"adult":false},{"id":331791,"adult":false},{"id":303488,"adult":false},{"id":215830,"adult":false},{"id":272363,"adult":false},{"id":236092,"adult":false},{"id":259995,"adult":false},{"id":63524,"adult":false},{"id":441509,"adult":false},{"id":93519,"adult":false},{"id":63045,"adult":false},{"id":70561,"adult":false},{"id":46403,"adult":false},{"id":42870,"adult":false},{"id":441815,"adult":false},{"id":178200,"adult":false},{"id":147958,"adult":false},{"id":229182,"adult":false},{"id":70639,"adult":false},{"id":69796,"adult":false},{"id":106852,"adult":false},{"id":441816,"adult":false},{"id":441817,"adult":false},{"id":74756,"adult":false},{"id":389450,"adult":false},{"id":369885,"adult":false},{"id":381288,"adult":false},{"id":441721,"adult":false},{"id":441818,"adult":false},{"id":162871,"adult":false},{"id":395560,"adult":false},{"id":441819,"adult":false},{"id":375355,"adult":false},{"id":3078,"adult":false},{"id":441820,"adult":false},{"id":6393,"adult":false},{"id":89319,"adult":false},{"id":39113,"adult":false},{"id":11912,"adult":false},{"id":63493,"adult":false},{"id":441821,"adult":false},{"id":441822,"adult":false},{"id":50646,"adult":false},{"id":397767,"adult":false},{"id":441823,"adult":false},{"id":441824,"adult":false},{"id":441825,"adult":false},{"id":373117,"adult":false},{"id":394150,"adult":false},{"id":441826,"adult":false},{"id":345813,"adult":false},{"id":47971,"adult":false},{"id":369090,"adult":false},{"id":174772,"adult":false},{"id":441827,"adult":false},{"id":51823,"adult":false},{"id":441828,"adult":false},{"id":441829,"adult":false},{"id":15122,"adult":false},{"id":199926,"adult":false},{"id":441830,"adult":false},{"id":241863,"adult":false},{"id":217705,"adult":false},{"id":239439,"adult":false},{"id":14367,"adult":false}],"page":4,"total_pages":149,"total_results":14854}