{"results":[{"id":85167,"adult":false},{"id":381519,"adult":false},{"id":164526,"adult":false},{"id":18839,"adult":false},{"id":384217,"adult":false},{"id":342122,"adult":false},{"id":13762,"adult":false},{"id":437209,"adult":false},{"id":442171,"adult":false},{"id":436983,"adult":false},{"id":255699,"adult":false},{"id":32720,"adult":false},{"id":442172,"adult":false},{"id":442173,"adult":false},{"id":342019,"adult":null},{"id":442174,"adult":false},{"id":139692,"adult":false},{"id":360814,"adult":false},{"id":18,"adult":false},{"id":14373,"adult":false},{"id":604,"adult":false},{"id":605,"adult":false},{"id":376812,"adult":false},{"id":55931,"adult":false},{"id":5548,"adult":false},{"id":5549,"adult":false},{"id":46934,"adult":false},{"id":442175,"adult":false},{"id":442176,"adult":false},{"id":15588,"adult":false},{"id":5550,"adult":false},{"id":438493,"adult":false},{"id":861,"adult":false},{"id":442177,"adult":false},{"id":3509,"adult":false},{"id":285270,"adult":false},{"id":43658,"adult":false},{"id":9739,"adult":false},{"id":85229,"adult":false},{"id":21078,"adult":false},{"id":438528,"adult":false},{"id":442178,"adult":false},{"id":124726,"adult":false},{"id":367304,"adult":false},{"id":18872,"adult":false},{"id":293795,"adult":false},{"id":199753,"adult":false},{"id":134623,"adult":false},{"id":72972,"adult":false},{"id":442179,"adult":false},{"id":10881,"adult":false},{"id":287233,"adult":false},{"id":344830,"adult":false},{"id":343977,"adult":false},{"id":43956,"adult":false},{"id":60293,"adult":false},{"id":435664,"adult":false},{"id":15450,"adult":false},{"id":337167,"adult":false},{"id":7916,"adult":false},{"id":16324,"adult":false},{"id":14582,"adult":false},{"id":13012,"adult":false},{"id":438437,"adult":false},{"id":382602,"adult":false},{"id":300821,"adult":false},{"id":8266,"adult":false},{"id":264669,"adult":false},{"id":17631,"adult":false},{"id":82576,"adult":false},{"id":33035,"adult":false},{"id":13065,"adult":false},{"id":16999,"adult":false},{"id":14438,"adult":false},{"id":63339,"adult":false},{"id":293167,"adult":false},{"id":424874,"adult":false},{"id":330716,"adult":false},{"id":1491,"adult":false},{"id":14423,"adult":false},{"id":16025,"adult":false},{"id":4204,"adult":false},{"id":42246,"adult":false},{"id":442181,"adult":false},{"id":440376,"adult":false},{"id":442182,"adult":false},{"id":18570,"adult":false},{"id":100461,"adult":false},{"id":8884,"adult":false},{"id":442183,"adult":false},{"id":330698,"adult":false},{"id":8889,"adult":false},{"id":442184,"adult":false},{"id":54315,"adult":false},{"id":419224,"adult":false},{"id":438468,"adult":false},{"id":3580,"adult":false},{"id":377213,"adult":false},{"id":33871,"adult":false},{"id":12689,"adult":false}],"page":30,"total_pages":149,"total_results":14854}