{"results":[{"id":307230,"adult":false},{"id":364107,"adult":false},{"id":78442,"adult":false},{"id":433253,"adult":false},{"id":862,"adult":false},{"id":21765,"adult":false},{"id":51608,"adult":false},{"id":225030,"adult":false},{"id":16941,"adult":false},{"id":293271,"adult":false},{"id":36350,"adult":false},{"id":11042,"adult":false},{"id":12777,"adult":false},{"id":72363,"adult":false},{"id":377468,"adult":false},{"id":1893,"adult":false},{"id":110000,"adult":false},{"id":9839,"adult":false},{"id":99987,"adult":false},{"id":407322,"adult":false},{"id":331066,"adult":false},{"id":391095,"adult":false},{"id":30973,"adult":false},{"id":397594,"adult":false},{"id":397593,"adult":false},{"id":9486,"adult":false},{"id":1894,"adult":false},{"id":24616,"adult":false},{"id":391111,"adult":false},{"id":222878,"adult":false},{"id":254928,"adult":false},{"id":391110,"adult":false},{"id":391107,"adult":false},{"id":330985,"adult":false},{"id":354508,"adult":false},{"id":262020,"adult":false},{"id":191442,"adult":false},{"id":128312,"adult":false},{"id":31246,"adult":false},{"id":47353,"adult":false},{"id":1895,"adult":false},{"id":11572,"adult":false},{"id":10628,"adult":false},{"id":433254,"adult":false},{"id":433255,"adult":false},{"id":10588,"adult":false},{"id":24,"adult":false},{"id":115383,"adult":false},{"id":10708,"adult":false},{"id":11083,"adult":false},{"id":433256,"adult":false},{"id":10716,"adult":false},{"id":433257,"adult":false},{"id":38209,"adult":false},{"id":221241,"adult":false},{"id":47499,"adult":false},{"id":9875,"adult":false},{"id":9256,"adult":false},{"id":11189,"adult":false},{"id":330302,"adult":false},{"id":433258,"adult":false},{"id":15347,"adult":false},{"id":433259,"adult":false},{"id":172385,"adult":false},{"id":290825,"adult":false},{"id":433260,"adult":false},{"id":433261,"adult":false},{"id":433262,"adult":false},{"id":346650,"adult":false},{"id":391663,"adult":false},{"id":376210,"adult":false},{"id":407547,"adult":false},{"id":316784,"adult":false},{"id":433263,"adult":false},{"id":433264,"adult":false},{"id":403997,"adult":false},{"id":404264,"adult":false},{"id":308776,"adult":false},{"id":433265,"adult":false},{"id":433266,"adult":false},{"id":433267,"adult":false},{"id":433268,"adult":false},{"id":11,"adult":false},{"id":433269,"adult":false},{"id":431789,"adult":false},{"id":433270,"adult":false},{"id":433271,"adult":false},{"id":426578,"adult":false},{"id":1891,"adult":false},{"id":433272,"adult":false},{"id":433273,"adult":false},{"id":433274,"adult":false},{"id":433275,"adult":false},{"id":1892,"adult":false},{"id":209195,"adult":false},{"id":368629,"adult":false},{"id":7458,"adult":false},{"id":383579,"adult":false},{"id":433276,"adult":false},{"id":433277,"adult":false}],"page":49,"total_pages":133,"total_results":13251}