{"results":[{"id":256005,"adult":false},{"id":406997,"adult":false},{"id":10735,"adult":false},{"id":322487,"adult":false},{"id":425001,"adult":false},{"id":433213,"adult":false},{"id":250059,"adult":false},{"id":68212,"adult":false},{"id":433214,"adult":false},{"id":427343,"adult":false},{"id":412105,"adult":false},{"id":433215,"adult":false},{"id":242606,"adult":false},{"id":289222,"adult":false},{"id":9748,"adult":false},{"id":399217,"adult":false},{"id":340101,"adult":false},{"id":433216,"adult":false},{"id":408508,"adult":false},{"id":431630,"adult":false},{"id":384218,"adult":false},{"id":405775,"adult":false},{"id":433217,"adult":false},{"id":71883,"adult":false},{"id":433218,"adult":false},{"id":262551,"adult":false},{"id":198440,"adult":false},{"id":230622,"adult":false},{"id":25935,"adult":false},{"id":431631,"adult":false},{"id":361906,"adult":false},{"id":155017,"adult":false},{"id":136997,"adult":false},{"id":321053,"adult":false},{"id":34208,"adult":false},{"id":160393,"adult":false},{"id":433220,"adult":false},{"id":133458,"adult":false},{"id":433221,"adult":false},{"id":155154,"adult":false},{"id":10877,"adult":false},{"id":28750,"adult":false},{"id":336209,"adult":false},{"id":14173,"adult":false},{"id":238215,"adult":false},{"id":150540,"adult":false},{"id":217666,"adult":false},{"id":31630,"adult":false},{"id":289857,"adult":false},{"id":421550,"adult":false},{"id":405513,"adult":null},{"id":433222,"adult":false},{"id":340152,"adult":false},{"id":17824,"adult":false},{"id":93424,"adult":false},{"id":52916,"adult":false},{"id":21427,"adult":false},{"id":159865,"adult":false},{"id":279966,"adult":false},{"id":14289,"adult":false},{"id":8845,"adult":false},{"id":433223,"adult":null},{"id":157303,"adult":false},{"id":433224,"adult":false},{"id":385080,"adult":false},{"id":433225,"adult":null},{"id":415394,"adult":false},{"id":433226,"adult":false},{"id":116149,"adult":false},{"id":16318,"adult":false},{"id":64375,"adult":false},{"id":22511,"adult":false},{"id":128149,"adult":false},{"id":66596,"adult":false},{"id":431256,"adult":false},{"id":14035,"adult":false},{"id":433227,"adult":false},{"id":58447,"adult":false},{"id":433228,"adult":false},{"id":291264,"adult":false},{"id":433229,"adult":false},{"id":37717,"adult":false},{"id":29079,"adult":false},{"id":162336,"adult":false},{"id":109116,"adult":false},{"id":2662,"adult":false},{"id":10678,"adult":false},{"id":9776,"adult":false},{"id":283866,"adult":false},{"id":95466,"adult":false},{"id":194698,"adult":false},{"id":101045,"adult":false},{"id":245454,"adult":false},{"id":5559,"adult":false},{"id":72966,"adult":false},{"id":62489,"adult":false},{"id":10752,"adult":false},{"id":19099,"adult":false},{"id":260514,"adult":false},{"id":433230,"adult":false}],"page":47,"total_pages":133,"total_results":13251}