{"results":[{"id":366214,"adult":false},{"id":403232,"adult":false},{"id":44027,"adult":false},{"id":98017,"adult":false},{"id":35759,"adult":false},{"id":356995,"adult":false},{"id":176,"adult":false},{"id":48490,"adult":false},{"id":1954,"adult":false},{"id":214564,"adult":false},{"id":1592,"adult":false},{"id":44914,"adult":false},{"id":18901,"adult":false},{"id":404584,"adult":false},{"id":28384,"adult":false},{"id":41192,"adult":false},{"id":390582,"adult":false},{"id":444097,"adult":false},{"id":22554,"adult":false},{"id":444098,"adult":false},{"id":90863,"adult":false},{"id":73414,"adult":false},{"id":374331,"adult":false},{"id":230731,"adult":false},{"id":62719,"adult":false},{"id":173137,"adult":false},{"id":444099,"adult":false},{"id":444100,"adult":false},{"id":444101,"adult":false},{"id":329440,"adult":false},{"id":38205,"adult":false},{"id":28189,"adult":false},{"id":444102,"adult":false},{"id":337561,"adult":false},{"id":30419,"adult":false},{"id":334474,"adult":false},{"id":253154,"adult":false},{"id":59275,"adult":false},{"id":439923,"adult":false},{"id":56836,"adult":false},{"id":376929,"adult":false},{"id":413778,"adult":false},{"id":444103,"adult":false},{"id":444104,"adult":false},{"id":12113,"adult":false},{"id":444105,"adult":null},{"id":13156,"adult":false},{"id":378373,"adult":false},{"id":444106,"adult":false},{"id":80837,"adult":false},{"id":444107,"adult":false},{"id":444108,"adult":false},{"id":12123,"adult":false},{"id":427416,"adult":false},{"id":57247,"adult":false},{"id":348359,"adult":false},{"id":148265,"adult":false},{"id":17736,"adult":false},{"id":262327,"adult":false},{"id":343858,"adult":false},{"id":413730,"adult":false},{"id":14047,"adult":false},{"id":395331,"adult":false},{"id":9469,"adult":false},{"id":43548,"adult":false},{"id":8909,"adult":false},{"id":12506,"adult":false},{"id":444109,"adult":false},{"id":444110,"adult":null},{"id":444111,"adult":false},{"id":19221,"adult":false},{"id":444112,"adult":false},{"id":42026,"adult":false},{"id":98562,"adult":false},{"id":5128,"adult":false},{"id":444114,"adult":null},{"id":1257,"adult":false},{"id":79365,"adult":false},{"id":40454,"adult":false},{"id":283110,"adult":false},{"id":426828,"adult":null},{"id":259633,"adult":false},{"id":31654,"adult":false},{"id":83723,"adult":false},{"id":236735,"adult":false},{"id":416578,"adult":false},{"id":121789,"adult":false},{"id":315243,"adult":false},{"id":310590,"adult":false},{"id":34053,"adult":false},{"id":21845,"adult":false},{"id":434583,"adult":false},{"id":444115,"adult":false},{"id":38556,"adult":false},{"id":155341,"adult":false},{"id":14635,"adult":false},{"id":151168,"adult":false},{"id":127585,"adult":false},{"id":13893,"adult":false},{"id":44475,"adult":false}],"page":145,"total_pages":149,"total_results":14854}