{"results":[{"id":444744,"adult":false},{"id":38309,"adult":false},{"id":18437,"adult":false},{"id":22105,"adult":false},{"id":444745,"adult":false},{"id":444746,"adult":false},{"id":34599,"adult":false},{"id":11177,"adult":false},{"id":188659,"adult":false},{"id":182248,"adult":false},{"id":444747,"adult":false},{"id":77195,"adult":false},{"id":16367,"adult":false},{"id":444748,"adult":false},{"id":292412,"adult":false},{"id":444749,"adult":false},{"id":20312,"adult":false},{"id":444750,"adult":false},{"id":6557,"adult":false},{"id":444751,"adult":false},{"id":341009,"adult":false},{"id":189675,"adult":false},{"id":444752,"adult":false},{"id":50241,"adult":false},{"id":444753,"adult":false},{"id":365194,"adult":false},{"id":444754,"adult":false},{"id":79926,"adult":false},{"id":444755,"adult":false},{"id":323437,"adult":false},{"id":321822,"adult":false},{"id":68676,"adult":false},{"id":444756,"adult":false},{"id":444757,"adult":false},{"id":444758,"adult":false},{"id":373922,"adult":false},{"id":37333,"adult":false},{"id":135886,"adult":false},{"id":444759,"adult":false},{"id":309225,"adult":false},{"id":444760,"adult":false},{"id":444761,"adult":false},{"id":444762,"adult":false},{"id":434203,"adult":false},{"id":444763,"adult":false},{"id":6309,"adult":false},{"id":11653,"adult":false},{"id":444764,"adult":false},{"id":444765,"adult":false},{"id":444766,"adult":false},{"id":128604,"adult":false},{"id":86023,"adult":false},{"id":444767,"adult":false},{"id":103838,"adult":false},{"id":444768,"adult":false},{"id":24189,"adult":false},{"id":444769,"adult":false},{"id":48916,"adult":false},{"id":375315,"adult":false},{"id":292095,"adult":false},{"id":444770,"adult":false},{"id":444771,"adult":false},{"id":6418,"adult":false},{"id":444772,"adult":false},{"id":292953,"adult":false},{"id":444773,"adult":false},{"id":384664,"adult":false},{"id":2335,"adult":false},{"id":137147,"adult":false},{"id":444774,"adult":false},{"id":444775,"adult":false},{"id":444776,"adult":false},{"id":244318,"adult":false},{"id":377153,"adult":false},{"id":444777,"adult":false},{"id":444778,"adult":false},{"id":444779,"adult":false},{"id":441259,"adult":false},{"id":444780,"adult":false},{"id":444781,"adult":false},{"id":444782,"adult":false},{"id":293768,"adult":false},{"id":405775,"adult":false},{"id":77801,"adult":false},{"id":286341,"adult":false},{"id":340676,"adult":false},{"id":354285,"adult":false},{"id":417644,"adult":false},{"id":295693,"adult":false},{"id":289222,"adult":false},{"id":444783,"adult":null},{"id":398738,"adult":false},{"id":339967,"adult":false},{"id":353070,"adult":false},{"id":345009,"adult":false},{"id":340101,"adult":false},{"id":314095,"adult":false},{"id":260372,"adult":false},{"id":403114,"adult":false},{"id":418437,"adult":false}],"page":31,"total_pages":162,"total_results":16167}