{"results":[{"id":13701,"adult":false},{"id":293863,"adult":false},{"id":1621,"adult":false},{"id":364909,"adult":false},{"id":280922,"adult":false},{"id":434812,"adult":false},{"id":264660,"adult":false},{"id":4497,"adult":false},{"id":434813,"adult":false},{"id":198586,"adult":false},{"id":297354,"adult":false},{"id":325348,"adult":false},{"id":434814,"adult":false},{"id":50953,"adult":false},{"id":145979,"adult":false},{"id":434815,"adult":false},{"id":148667,"adult":false},{"id":416838,"adult":false},{"id":434816,"adult":false},{"id":294476,"adult":false},{"id":325078,"adult":false},{"id":434817,"adult":false},{"id":140549,"adult":false},{"id":218389,"adult":false},{"id":434818,"adult":false},{"id":216404,"adult":false},{"id":407794,"adult":false},{"id":818,"adult":false},{"id":173032,"adult":false},{"id":434819,"adult":false},{"id":397680,"adult":false},{"id":366793,"adult":false},{"id":434820,"adult":false},{"id":265320,"adult":null},{"id":427288,"adult":false},{"id":292477,"adult":null},{"id":68116,"adult":false},{"id":434821,"adult":false},{"id":323469,"adult":false},{"id":434822,"adult":false},{"id":434823,"adult":false},{"id":434824,"adult":null},{"id":209087,"adult":false},{"id":276376,"adult":null},{"id":76368,"adult":null},{"id":187169,"adult":false},{"id":377487,"adult":null},{"id":253454,"adult":false},{"id":234252,"adult":false},{"id":327472,"adult":false},{"id":434825,"adult":false},{"id":39563,"adult":false},{"id":31652,"adult":false},{"id":336201,"adult":false},{"id":224897,"adult":false},{"id":292834,"adult":false},{"id":434826,"adult":false},{"id":587,"adult":false},{"id":147473,"adult":false},{"id":47953,"adult":false},{"id":434827,"adult":false},{"id":434828,"adult":null},{"id":47852,"adult":false},{"id":227679,"adult":false},{"id":262569,"adult":false},{"id":347031,"adult":false},{"id":256201,"adult":false},{"id":323124,"adult":false},{"id":434829,"adult":false},{"id":269096,"adult":false},{"id":408509,"adult":false},{"id":147471,"adult":false},{"id":147483,"adult":false},{"id":47363,"adult":false},{"id":294268,"adult":false},{"id":20726,"adult":false},{"id":28356,"adult":false},{"id":320288,"adult":false},{"id":365345,"adult":false},{"id":329257,"adult":false},{"id":434830,"adult":false},{"id":765,"adult":false},{"id":334520,"adult":false},{"id":434831,"adult":false},{"id":371345,"adult":false},{"id":85365,"adult":false},{"id":349340,"adult":false},{"id":147482,"adult":false},{"id":232304,"adult":false},{"id":129666,"adult":false},{"id":434832,"adult":false},{"id":147481,"adult":false},{"id":348475,"adult":false},{"id":124510,"adult":false},{"id":98187,"adult":false},{"id":339656,"adult":false},{"id":311251,"adult":false},{"id":362585,"adult":false},{"id":17566,"adult":false},{"id":61337,"adult":false}],"page":128,"total_pages":133,"total_results":13251}