{"results":[{"id":16136,"adult":false},{"id":108450,"adult":false},{"id":9264,"adult":false},{"id":10618,"adult":false},{"id":13365,"adult":false},{"id":340621,"adult":false},{"id":451088,"adult":false},{"id":419154,"adult":false},{"id":419125,"adult":false},{"id":419143,"adult":false},{"id":326375,"adult":false},{"id":88018,"adult":false},{"id":294272,"adult":false},{"id":414969,"adult":false},{"id":451089,"adult":false},{"id":419767,"adult":false},{"id":418444,"adult":false},{"id":30870,"adult":false},{"id":16355,"adult":false},{"id":291881,"adult":false},{"id":307127,"adult":false},{"id":19665,"adult":false},{"id":423583,"adult":false},{"id":451090,"adult":false},{"id":280,"adult":false},{"id":30526,"adult":false},{"id":242582,"adult":false},{"id":194101,"adult":false},{"id":30620,"adult":false},{"id":17455,"adult":false},{"id":216731,"adult":false},{"id":17618,"adult":false},{"id":361892,"adult":false},{"id":109843,"adult":false},{"id":451091,"adult":false},{"id":149,"adult":false},{"id":90748,"adult":false},{"id":373072,"adult":false},{"id":311100,"adult":true},{"id":41276,"adult":false},{"id":13363,"adult":false},{"id":86194,"adult":false},{"id":451092,"adult":false},{"id":448723,"adult":false},{"id":308260,"adult":false},{"id":451093,"adult":false},{"id":451094,"adult":false},{"id":291571,"adult":false},{"id":273516,"adult":false},{"id":32969,"adult":false},{"id":41637,"adult":false},{"id":13470,"adult":false},{"id":172767,"adult":false},{"id":84249,"adult":false},{"id":286567,"adult":false},{"id":54525,"adult":false},{"id":451095,"adult":false},{"id":104975,"adult":false},{"id":115878,"adult":false},{"id":118487,"adult":false},{"id":364116,"adult":false},{"id":144750,"adult":false},{"id":13401,"adult":false},{"id":8872,"adult":false},{"id":451096,"adult":false},{"id":30941,"adult":false},{"id":54755,"adult":false},{"id":11133,"adult":false},{"id":783,"adult":false},{"id":85985,"adult":false},{"id":451097,"adult":false},{"id":9629,"adult":false},{"id":373399,"adult":false},{"id":448369,"adult":null},{"id":283378,"adult":false},{"id":451098,"adult":false},{"id":402529,"adult":false},{"id":34746,"adult":false},{"id":6529,"adult":false},{"id":348545,"adult":false},{"id":1403,"adult":false},{"id":227932,"adult":false},{"id":10564,"adult":false},{"id":10915,"adult":false},{"id":26263,"adult":false},{"id":296288,"adult":false},{"id":8366,"adult":false},{"id":451099,"adult":false},{"id":53426,"adult":false},{"id":451100,"adult":false},{"id":362434,"adult":false},{"id":218784,"adult":false},{"id":157283,"adult":false},{"id":11694,"adult":false},{"id":25748,"adult":false},{"id":10046,"adult":false},{"id":254065,"adult":false},{"id":49953,"adult":false},{"id":378018,"adult":false},{"id":86869,"adult":false}],"page":74,"total_pages":105,"total_results":10420}