{"results":[{"id":444081,"adult":false},{"id":132269,"adult":false},{"id":92052,"adult":null},{"id":269532,"adult":null},{"id":329929,"adult":null},{"id":92013,"adult":null},{"id":25628,"adult":false},{"id":92024,"adult":null},{"id":92027,"adult":null},{"id":349412,"adult":null},{"id":42916,"adult":false},{"id":92043,"adult":null},{"id":75888,"adult":false},{"id":92036,"adult":null},{"id":144229,"adult":false},{"id":43739,"adult":false},{"id":92045,"adult":null},{"id":54318,"adult":false},{"id":92029,"adult":null},{"id":92023,"adult":null},{"id":92032,"adult":null},{"id":92057,"adult":null},{"id":92065,"adult":null},{"id":92053,"adult":null},{"id":92026,"adult":null},{"id":92021,"adult":null},{"id":92064,"adult":null},{"id":423557,"adult":false},{"id":349405,"adult":null},{"id":349415,"adult":null},{"id":349408,"adult":null},{"id":98386,"adult":null},{"id":92062,"adult":null},{"id":92040,"adult":null},{"id":44711,"adult":false},{"id":92046,"adult":null},{"id":267246,"adult":false},{"id":92033,"adult":null},{"id":22638,"adult":false},{"id":193212,"adult":false},{"id":92049,"adult":null},{"id":8224,"adult":false},{"id":92066,"adult":null},{"id":5279,"adult":false},{"id":56736,"adult":false},{"id":32847,"adult":false},{"id":24795,"adult":false},{"id":5769,"adult":false},{"id":360300,"adult":false},{"id":444082,"adult":false},{"id":313099,"adult":false},{"id":356983,"adult":false},{"id":444083,"adult":null},{"id":444084,"adult":false},{"id":219335,"adult":false},{"id":444085,"adult":false},{"id":62932,"adult":false},{"id":328429,"adult":false},{"id":104282,"adult":false},{"id":444086,"adult":false},{"id":29065,"adult":false},{"id":25808,"adult":false},{"id":441415,"adult":false},{"id":98030,"adult":true},{"id":60495,"adult":false},{"id":215379,"adult":false},{"id":101103,"adult":null},{"id":103366,"adult":null},{"id":101451,"adult":null},{"id":101099,"adult":null},{"id":101079,"adult":null},{"id":101093,"adult":null},{"id":444087,"adult":false},{"id":108054,"adult":null},{"id":101069,"adult":null},{"id":105628,"adult":null},{"id":105603,"adult":null},{"id":101077,"adult":null},{"id":114987,"adult":null},{"id":113805,"adult":null},{"id":113075,"adult":null},{"id":444088,"adult":null},{"id":444089,"adult":false},{"id":112872,"adult":null},{"id":97268,"adult":null},{"id":97677,"adult":null},{"id":96675,"adult":null},{"id":11807,"adult":false},{"id":350729,"adult":null},{"id":39105,"adult":false},{"id":101942,"adult":null},{"id":113480,"adult":null},{"id":9593,"adult":false},{"id":113077,"adult":null},{"id":285935,"adult":false},{"id":130427,"adult":null},{"id":132872,"adult":null},{"id":383992,"adult":false},{"id":42531,"adult":false},{"id":127958,"adult":null}],"page":143,"total_pages":149,"total_results":14854}