{"results":[{"id":432956,"adult":false},{"id":304372,"adult":false},{"id":9557,"adult":false},{"id":376280,"adult":false},{"id":432957,"adult":false},{"id":10173,"adult":false},{"id":77069,"adult":false},{"id":1253,"adult":false},{"id":64959,"adult":false},{"id":51509,"adult":false},{"id":41517,"adult":false},{"id":432958,"adult":false},{"id":37062,"adult":false},{"id":136405,"adult":false},{"id":119471,"adult":false},{"id":432959,"adult":false},{"id":432960,"adult":false},{"id":432961,"adult":false},{"id":26677,"adult":false},{"id":170027,"adult":false},{"id":196676,"adult":false},{"id":333141,"adult":false},{"id":429801,"adult":false},{"id":47055,"adult":false},{"id":432962,"adult":false},{"id":432963,"adult":false},{"id":314404,"adult":false},{"id":10283,"adult":false},{"id":976,"adult":false},{"id":432964,"adult":false},{"id":634,"adult":false},{"id":431320,"adult":false},{"id":432965,"adult":false},{"id":131137,"adult":false},{"id":339396,"adult":false},{"id":10393,"adult":false},{"id":303126,"adult":false},{"id":430826,"adult":false},{"id":360613,"adult":false},{"id":325789,"adult":false},{"id":85872,"adult":false},{"id":432966,"adult":false},{"id":219077,"adult":false},{"id":297676,"adult":false},{"id":9799,"adult":false},{"id":150473,"adult":false},{"id":76758,"adult":false},{"id":323401,"adult":false},{"id":13,"adult":false},{"id":380770,"adult":false},{"id":308342,"adult":false},{"id":308335,"adult":false},{"id":34131,"adult":false},{"id":25904,"adult":false},{"id":106456,"adult":false},{"id":110813,"adult":false},{"id":386817,"adult":false},{"id":69294,"adult":false},{"id":432967,"adult":false},{"id":14149,"adult":false},{"id":20645,"adult":false},{"id":63020,"adult":false},{"id":42630,"adult":false},{"id":432968,"adult":false},{"id":86835,"adult":false},{"id":317442,"adult":false},{"id":428501,"adult":false},{"id":41821,"adult":false},{"id":389371,"adult":false},{"id":314405,"adult":false},{"id":335778,"adult":false},{"id":300673,"adult":false},{"id":339669,"adult":false},{"id":381047,"adult":false},{"id":230946,"adult":false},{"id":382399,"adult":false},{"id":291870,"adult":false},{"id":301804,"adult":false},{"id":375572,"adult":false},{"id":409171,"adult":false},{"id":392832,"adult":false},{"id":235155,"adult":false},{"id":12154,"adult":false},{"id":418437,"adult":false},{"id":424167,"adult":null},{"id":207902,"adult":false},{"id":192142,"adult":false},{"id":171873,"adult":false},{"id":115150,"adult":false},{"id":321741,"adult":false},{"id":432969,"adult":false},{"id":173499,"adult":false},{"id":389107,"adult":false},{"id":292040,"adult":false},{"id":283707,"adult":false},{"id":166248,"adult":false},{"id":238865,"adult":null},{"id":430343,"adult":false},{"id":316023,"adult":false},{"id":383869,"adult":false}],"page":29,"total_pages":133,"total_results":13251}