{"results":[{"id":81972,"adult":false},{"id":77499,"adult":false},{"id":400316,"adult":false},{"id":73456,"adult":false},{"id":290802,"adult":false},{"id":50543,"adult":false},{"id":450555,"adult":false},{"id":276394,"adult":false},{"id":376668,"adult":false},{"id":450557,"adult":false},{"id":450558,"adult":false},{"id":308742,"adult":false},{"id":417483,"adult":false},{"id":15165,"adult":false},{"id":28936,"adult":false},{"id":374003,"adult":false},{"id":450559,"adult":false},{"id":13459,"adult":false},{"id":423412,"adult":false},{"id":15906,"adult":false},{"id":450560,"adult":false},{"id":268940,"adult":false},{"id":263982,"adult":false},{"id":44874,"adult":false},{"id":440040,"adult":false},{"id":133458,"adult":false},{"id":450561,"adult":false},{"id":2154,"adult":false},{"id":450562,"adult":false},{"id":34134,"adult":false},{"id":91342,"adult":false},{"id":441849,"adult":false},{"id":361380,"adult":false},{"id":450563,"adult":false},{"id":431460,"adult":true},{"id":329400,"adult":false},{"id":450564,"adult":false},{"id":15016,"adult":false},{"id":168903,"adult":false},{"id":367736,"adult":false},{"id":12626,"adult":false},{"id":11008,"adult":false},{"id":83136,"adult":false},{"id":2059,"adult":false},{"id":194798,"adult":false},{"id":450566,"adult":false},{"id":399404,"adult":false},{"id":158157,"adult":false},{"id":39400,"adult":false},{"id":450567,"adult":false},{"id":43098,"adult":false},{"id":450568,"adult":false},{"id":86472,"adult":false},{"id":101660,"adult":false},{"id":369579,"adult":false},{"id":450569,"adult":false},{"id":208835,"adult":false},{"id":204152,"adult":false},{"id":9672,"adult":false},{"id":450570,"adult":false},{"id":450571,"adult":false},{"id":24103,"adult":false},{"id":245913,"adult":false},{"id":450572,"adult":false},{"id":40585,"adult":false},{"id":408,"adult":false},{"id":450573,"adult":false},{"id":48198,"adult":false},{"id":450574,"adult":false},{"id":55316,"adult":false},{"id":450575,"adult":false},{"id":934,"adult":false},{"id":33336,"adult":false},{"id":450577,"adult":false},{"id":20343,"adult":false},{"id":44256,"adult":false},{"id":45213,"adult":false},{"id":27430,"adult":false},{"id":16187,"adult":false},{"id":9966,"adult":false},{"id":2459,"adult":false},{"id":237584,"adult":false},{"id":64428,"adult":false},{"id":228609,"adult":false},{"id":30462,"adult":false},{"id":401361,"adult":false},{"id":450578,"adult":false},{"id":28667,"adult":false},{"id":301334,"adult":false},{"id":20441,"adult":false},{"id":400617,"adult":false},{"id":16387,"adult":false},{"id":10030,"adult":false},{"id":1572,"adult":false},{"id":13654,"adult":false},{"id":282288,"adult":false},{"id":24486,"adult":false},{"id":153499,"adult":false},{"id":62712,"adult":false},{"id":44683,"adult":false}],"page":42,"total_pages":105,"total_results":10420}