{"results":[{"id":384875,"adult":null},{"id":2172,"adult":false},{"id":447337,"adult":false},{"id":447338,"adult":false},{"id":447339,"adult":false},{"id":116977,"adult":false},{"id":305024,"adult":false},{"id":447340,"adult":false},{"id":447341,"adult":false},{"id":9834,"adult":false},{"id":53172,"adult":false},{"id":382602,"adult":false},{"id":406898,"adult":true},{"id":55797,"adult":false},{"id":15158,"adult":false},{"id":242090,"adult":false},{"id":345117,"adult":false},{"id":11571,"adult":false},{"id":445571,"adult":false},{"id":3309,"adult":false},{"id":158908,"adult":false},{"id":309887,"adult":false},{"id":23566,"adult":false},{"id":24940,"adult":false},{"id":447342,"adult":false},{"id":377154,"adult":false},{"id":340174,"adult":false},{"id":20329,"adult":false},{"id":9296,"adult":false},{"id":340175,"adult":false},{"id":7548,"adult":false},{"id":22473,"adult":false},{"id":339987,"adult":false},{"id":340177,"adult":false},{"id":26269,"adult":false},{"id":80278,"adult":false},{"id":13649,"adult":false},{"id":16889,"adult":false},{"id":388202,"adult":false},{"id":17824,"adult":false},{"id":409125,"adult":true},{"id":340178,"adult":false},{"id":31938,"adult":false},{"id":332721,"adult":false},{"id":1642,"adult":false},{"id":409167,"adult":true},{"id":122126,"adult":false},{"id":57214,"adult":false},{"id":239067,"adult":false},{"id":42006,"adult":false},{"id":447343,"adult":false},{"id":447344,"adult":false},{"id":287948,"adult":false},{"id":18890,"adult":false},{"id":378064,"adult":false},{"id":10756,"adult":false},{"id":44446,"adult":false},{"id":413749,"adult":false},{"id":27632,"adult":false},{"id":447345,"adult":null},{"id":11329,"adult":false},{"id":447346,"adult":true},{"id":4141,"adult":false},{"id":400408,"adult":false},{"id":330947,"adult":false},{"id":4985,"adult":false},{"id":236191,"adult":false},{"id":447347,"adult":false},{"id":447348,"adult":true},{"id":30518,"adult":false},{"id":447349,"adult":false},{"id":264039,"adult":false},{"id":447350,"adult":true},{"id":5143,"adult":false},{"id":318047,"adult":false},{"id":114007,"adult":false},{"id":256982,"adult":false},{"id":430172,"adult":false},{"id":41377,"adult":false},{"id":79940,"adult":false},{"id":117123,"adult":false},{"id":369545,"adult":false},{"id":194429,"adult":false},{"id":27973,"adult":false},{"id":83214,"adult":false},{"id":447351,"adult":true},{"id":21621,"adult":false},{"id":335983,"adult":false},{"id":447352,"adult":false},{"id":351004,"adult":false},{"id":105825,"adult":false},{"id":83944,"adult":false},{"id":91463,"adult":false},{"id":324552,"adult":false},{"id":324849,"adult":false},{"id":135825,"adult":false},{"id":340837,"adult":false},{"id":422205,"adult":false},{"id":447353,"adult":true},{"id":387578,"adult":false}],"page":32,"total_pages":168,"total_results":16730}