{"results":[{"id":450410,"adult":false},{"id":9732,"adult":false},{"id":347763,"adult":false},{"id":11430,"adult":false},{"id":55733,"adult":false},{"id":384655,"adult":false},{"id":450411,"adult":false},{"id":9325,"adult":false},{"id":9051,"adult":false},{"id":14873,"adult":false},{"id":6477,"adult":false},{"id":450412,"adult":false},{"id":63369,"adult":false},{"id":12625,"adult":false},{"id":60069,"adult":false},{"id":12445,"adult":false},{"id":366885,"adult":false},{"id":364689,"adult":false},{"id":408205,"adult":false},{"id":432892,"adult":false},{"id":351475,"adult":false},{"id":46675,"adult":false},{"id":397837,"adult":false},{"id":351472,"adult":false},{"id":434369,"adult":false},{"id":421443,"adult":false},{"id":450413,"adult":false},{"id":64306,"adult":false},{"id":450414,"adult":false},{"id":450415,"adult":false},{"id":176524,"adult":false},{"id":396920,"adult":false},{"id":24330,"adult":false},{"id":187464,"adult":false},{"id":51539,"adult":false},{"id":187490,"adult":false},{"id":47854,"adult":false},{"id":85574,"adult":false},{"id":450416,"adult":false},{"id":332458,"adult":false},{"id":348345,"adult":false},{"id":64993,"adult":false},{"id":348348,"adult":false},{"id":156140,"adult":false},{"id":450417,"adult":false},{"id":246791,"adult":false},{"id":449700,"adult":false},{"id":66752,"adult":false},{"id":379997,"adult":null},{"id":348349,"adult":false},{"id":450418,"adult":false},{"id":254128,"adult":false},{"id":76757,"adult":false},{"id":1254,"adult":false},{"id":137113,"adult":false},{"id":335045,"adult":false},{"id":450419,"adult":false},{"id":206647,"adult":false},{"id":394650,"adult":false},{"id":10861,"adult":false},{"id":450420,"adult":false},{"id":450421,"adult":false},{"id":450422,"adult":false},{"id":27205,"adult":false},{"id":421313,"adult":false},{"id":45999,"adult":false},{"id":72923,"adult":false},{"id":401544,"adult":false},{"id":476,"adult":false},{"id":49047,"adult":false},{"id":450423,"adult":false},{"id":441640,"adult":false},{"id":133830,"adult":false},{"id":70981,"adult":false},{"id":9350,"adult":false},{"id":419878,"adult":false},{"id":450424,"adult":false},{"id":20178,"adult":false},{"id":106652,"adult":false},{"id":450425,"adult":false},{"id":50944,"adult":false},{"id":412702,"adult":false},{"id":11577,"adult":false},{"id":78450,"adult":false},{"id":374331,"adult":false},{"id":40461,"adult":false},{"id":142402,"adult":false},{"id":413273,"adult":false},{"id":323342,"adult":false},{"id":450426,"adult":false},{"id":73528,"adult":false},{"id":450427,"adult":false},{"id":322060,"adult":false},{"id":90130,"adult":false},{"id":2142,"adult":false},{"id":413741,"adult":false},{"id":351282,"adult":false},{"id":88005,"adult":false},{"id":10372,"adult":false},{"id":334532,"adult":false}],"page":32,"total_pages":129,"total_results":12803}