{"results":[{"id":26201,"adult":false},{"id":437301,"adult":null},{"id":136466,"adult":false},{"id":25197,"adult":false},{"id":188198,"adult":false},{"id":276207,"adult":false},{"id":4111,"adult":false},{"id":437302,"adult":false},{"id":309980,"adult":false},{"id":31512,"adult":false},{"id":437303,"adult":null},{"id":345861,"adult":false},{"id":407428,"adult":false},{"id":293912,"adult":false},{"id":3055,"adult":false},{"id":386464,"adult":false},{"id":437304,"adult":false},{"id":54918,"adult":false},{"id":167693,"adult":false},{"id":43614,"adult":false},{"id":437305,"adult":false},{"id":437306,"adult":false},{"id":14070,"adult":false},{"id":437307,"adult":false},{"id":266037,"adult":false},{"id":269444,"adult":false},{"id":270893,"adult":false},{"id":272158,"adult":false},{"id":8929,"adult":false},{"id":260382,"adult":true},{"id":34834,"adult":false},{"id":26373,"adult":false},{"id":77663,"adult":false},{"id":428398,"adult":false},{"id":50406,"adult":false},{"id":437308,"adult":false},{"id":86642,"adult":false},{"id":437309,"adult":false},{"id":400156,"adult":false},{"id":437310,"adult":false},{"id":433583,"adult":false},{"id":418764,"adult":false},{"id":74336,"adult":false},{"id":54940,"adult":false},{"id":437311,"adult":false},{"id":244472,"adult":false},{"id":334131,"adult":false},{"id":437312,"adult":false},{"id":8872,"adult":false},{"id":437313,"adult":false},{"id":433500,"adult":false},{"id":437314,"adult":false},{"id":296065,"adult":false},{"id":430185,"adult":false},{"id":392207,"adult":false},{"id":310356,"adult":false},{"id":398947,"adult":false},{"id":437315,"adult":false},{"id":62425,"adult":false},{"id":437316,"adult":false},{"id":85872,"adult":false},{"id":437317,"adult":false},{"id":437318,"adult":true},{"id":437319,"adult":false},{"id":437320,"adult":false},{"id":33709,"adult":false},{"id":120299,"adult":false},{"id":437321,"adult":false},{"id":367905,"adult":true},{"id":437322,"adult":false},{"id":62719,"adult":false},{"id":437323,"adult":false},{"id":229005,"adult":false},{"id":160234,"adult":false},{"id":193612,"adult":false},{"id":437324,"adult":false},{"id":437325,"adult":false},{"id":351454,"adult":false},{"id":53232,"adult":false},{"id":423153,"adult":false},{"id":9451,"adult":false},{"id":391862,"adult":false},{"id":437326,"adult":false},{"id":198989,"adult":true},{"id":19728,"adult":false},{"id":437327,"adult":false},{"id":437328,"adult":true},{"id":280960,"adult":false},{"id":19152,"adult":false},{"id":324670,"adult":false},{"id":434869,"adult":null},{"id":62444,"adult":false},{"id":226444,"adult":false},{"id":75679,"adult":false},{"id":249252,"adult":false},{"id":379242,"adult":false},{"id":118663,"adult":false},{"id":437329,"adult":false},{"id":42014,"adult":false},{"id":353446,"adult":false}],"page":128,"total_pages":144,"total_results":14325}