{"results":[{"id":27412,"adult":false},{"id":43988,"adult":false},{"id":59434,"adult":false},{"id":52581,"adult":false},{"id":423377,"adult":false},{"id":59944,"adult":false},{"id":43355,"adult":false},{"id":34899,"adult":false},{"id":62981,"adult":false},{"id":26030,"adult":false},{"id":26690,"adult":false},{"id":1088,"adult":false},{"id":18801,"adult":false},{"id":94915,"adult":false},{"id":430644,"adult":false},{"id":432904,"adult":false},{"id":432905,"adult":false},{"id":399747,"adult":false},{"id":11908,"adult":false},{"id":202059,"adult":false},{"id":432906,"adult":false},{"id":432907,"adult":false},{"id":53335,"adult":false},{"id":32041,"adult":false},{"id":42345,"adult":false},{"id":43780,"adult":false},{"id":40655,"adult":false},{"id":108387,"adult":false},{"id":5924,"adult":false},{"id":432908,"adult":false},{"id":432909,"adult":false},{"id":266647,"adult":false},{"id":9518,"adult":false},{"id":432910,"adult":false},{"id":36373,"adult":false},{"id":432911,"adult":null},{"id":363579,"adult":false},{"id":432912,"adult":true},{"id":396535,"adult":false},{"id":585,"adult":false},{"id":384127,"adult":false},{"id":130862,"adult":false},{"id":9802,"adult":false},{"id":139805,"adult":false},{"id":62211,"adult":false},{"id":432913,"adult":false},{"id":432914,"adult":false},{"id":63636,"adult":false},{"id":15668,"adult":false},{"id":135416,"adult":false},{"id":432915,"adult":false},{"id":242454,"adult":false},{"id":416468,"adult":false},{"id":432916,"adult":false},{"id":432001,"adult":false},{"id":376453,"adult":false},{"id":432917,"adult":false},{"id":230408,"adult":false},{"id":432918,"adult":false},{"id":72190,"adult":false},{"id":285213,"adult":false},{"id":195474,"adult":false},{"id":300934,"adult":false},{"id":238,"adult":false},{"id":240,"adult":false},{"id":13387,"adult":false},{"id":432919,"adult":false},{"id":9335,"adult":false},{"id":353728,"adult":false},{"id":4108,"adult":false},{"id":69581,"adult":false},{"id":300504,"adult":false},{"id":82733,"adult":false},{"id":194513,"adult":false},{"id":287499,"adult":false},{"id":231202,"adult":false},{"id":149870,"adult":false},{"id":249660,"adult":false},{"id":432920,"adult":false},{"id":12536,"adult":false},{"id":657,"adult":false},{"id":667,"adult":false},{"id":681,"adult":false},{"id":253,"adult":false},{"id":707,"adult":false},{"id":8835,"adult":false},{"id":56153,"adult":false},{"id":432921,"adult":false},{"id":10327,"adult":false},{"id":3601,"adult":false},{"id":420949,"adult":false},{"id":129734,"adult":false},{"id":228446,"adult":false},{"id":45839,"adult":false},{"id":316021,"adult":false},{"id":405180,"adult":false},{"id":15433,"adult":false},{"id":42306,"adult":false},{"id":244242,"adult":false},{"id":682,"adult":false}],"page":26,"total_pages":133,"total_results":13251}