{"results":[{"id":449918,"adult":false},{"id":371865,"adult":false},{"id":84552,"adult":false},{"id":330348,"adult":false},{"id":415749,"adult":false},{"id":366170,"adult":false},{"id":45388,"adult":false},{"id":76134,"adult":false},{"id":3119,"adult":false},{"id":71796,"adult":false},{"id":12791,"adult":false},{"id":377897,"adult":false},{"id":450221,"adult":false},{"id":49704,"adult":false},{"id":262025,"adult":false},{"id":770,"adult":false},{"id":70193,"adult":false},{"id":21810,"adult":false},{"id":101519,"adult":false},{"id":328346,"adult":false},{"id":400638,"adult":false},{"id":17665,"adult":false},{"id":409671,"adult":false},{"id":341392,"adult":false},{"id":50780,"adult":false},{"id":27102,"adult":false},{"id":77545,"adult":false},{"id":445768,"adult":false},{"id":228060,"adult":false},{"id":292280,"adult":false},{"id":400319,"adult":false},{"id":261000,"adult":false},{"id":53487,"adult":false},{"id":450224,"adult":false},{"id":195160,"adult":false},{"id":39434,"adult":false},{"id":100542,"adult":false},{"id":302401,"adult":false},{"id":152584,"adult":false},{"id":428687,"adult":false},{"id":320873,"adult":false},{"id":25705,"adult":false},{"id":24066,"adult":false},{"id":238,"adult":false},{"id":314402,"adult":false},{"id":27465,"adult":false},{"id":14578,"adult":false},{"id":352492,"adult":false},{"id":450225,"adult":false},{"id":18775,"adult":false},{"id":38461,"adult":false},{"id":9812,"adult":false},{"id":406449,"adult":false},{"id":13551,"adult":false},{"id":422949,"adult":false},{"id":31541,"adult":false},{"id":385753,"adult":false},{"id":403390,"adult":false},{"id":177677,"adult":false},{"id":68256,"adult":false},{"id":3963,"adult":false},{"id":422753,"adult":false},{"id":101325,"adult":false},{"id":357416,"adult":false},{"id":85545,"adult":false},{"id":17925,"adult":false},{"id":19404,"adult":false},{"id":11838,"adult":false},{"id":411840,"adult":false},{"id":48217,"adult":false},{"id":395452,"adult":false},{"id":30970,"adult":false},{"id":9666,"adult":false},{"id":64942,"adult":false},{"id":16635,"adult":false},{"id":64131,"adult":false},{"id":671,"adult":false},{"id":283691,"adult":false},{"id":146742,"adult":false},{"id":279086,"adult":false},{"id":278154,"adult":false},{"id":206265,"adult":false},{"id":228150,"adult":false},{"id":411268,"adult":false},{"id":6976,"adult":false},{"id":40692,"adult":false},{"id":447236,"adult":false},{"id":56373,"adult":false},{"id":58281,"adult":false},{"id":450226,"adult":false},{"id":21778,"adult":false},{"id":108124,"adult":false},{"id":19150,"adult":false},{"id":81778,"adult":false},{"id":369453,"adult":false},{"id":348112,"adult":false},{"id":333545,"adult":false},{"id":105404,"adult":false},{"id":427751,"adult":false},{"id":47941,"adult":false}],"page":18,"total_pages":105,"total_results":10418}