{"results":[{"id":121038,"adult":false},{"id":22314,"adult":false},{"id":408439,"adult":false},{"id":422834,"adult":false},{"id":52918,"adult":false},{"id":62441,"adult":false},{"id":324668,"adult":false},{"id":11248,"adult":false},{"id":439365,"adult":false},{"id":341185,"adult":false},{"id":284050,"adult":false},{"id":437810,"adult":false},{"id":439366,"adult":false},{"id":343173,"adult":false},{"id":439367,"adult":false},{"id":13688,"adult":false},{"id":26627,"adult":false},{"id":424031,"adult":false},{"id":432567,"adult":false},{"id":4481,"adult":false},{"id":439368,"adult":false},{"id":439369,"adult":false},{"id":11347,"adult":false},{"id":15105,"adult":false},{"id":227306,"adult":false},{"id":435555,"adult":false},{"id":31081,"adult":false},{"id":439370,"adult":false},{"id":75051,"adult":false},{"id":100965,"adult":false},{"id":439371,"adult":null},{"id":43317,"adult":false},{"id":83322,"adult":false},{"id":12144,"adult":false},{"id":295059,"adult":false},{"id":404829,"adult":false},{"id":15997,"adult":false},{"id":279409,"adult":false},{"id":364622,"adult":false},{"id":62509,"adult":false},{"id":27352,"adult":false},{"id":281084,"adult":false},{"id":421397,"adult":false},{"id":83191,"adult":false},{"id":37865,"adult":false},{"id":208740,"adult":false},{"id":265934,"adult":false},{"id":20721,"adult":false},{"id":439372,"adult":false},{"id":8980,"adult":false},{"id":73083,"adult":false},{"id":76,"adult":false},{"id":26491,"adult":false},{"id":439373,"adult":false},{"id":439374,"adult":false},{"id":439375,"adult":false},{"id":26263,"adult":false},{"id":439376,"adult":false},{"id":439377,"adult":false},{"id":19004,"adult":false},{"id":244786,"adult":false},{"id":439378,"adult":false},{"id":439379,"adult":false},{"id":42493,"adult":false},{"id":42198,"adult":false},{"id":47964,"adult":false},{"id":439380,"adult":false},{"id":439381,"adult":false},{"id":47178,"adult":false},{"id":1572,"adult":false},{"id":258216,"adult":false},{"id":24153,"adult":false},{"id":439382,"adult":false},{"id":257740,"adult":false},{"id":35711,"adult":false},{"id":86237,"adult":false},{"id":439383,"adult":false},{"id":439384,"adult":false},{"id":439385,"adult":false},{"id":439386,"adult":false},{"id":439387,"adult":false},{"id":21879,"adult":false},{"id":249397,"adult":false},{"id":439388,"adult":false},{"id":988,"adult":false},{"id":439389,"adult":false},{"id":12104,"adult":false},{"id":439390,"adult":false},{"id":13635,"adult":false},{"id":439391,"adult":false},{"id":15362,"adult":false},{"id":439392,"adult":false},{"id":439393,"adult":false},{"id":439394,"adult":false},{"id":22832,"adult":false},{"id":439395,"adult":false},{"id":439396,"adult":false},{"id":218262,"adult":false},{"id":439397,"adult":false},{"id":61756,"adult":false}],"page":47,"total_pages":158,"total_results":15756}