{"results":[{"id":324197,"adult":false},{"id":324202,"adult":false},{"id":324207,"adult":false},{"id":199491,"adult":false},{"id":324394,"adult":false},{"id":326004,"adult":false},{"id":326582,"adult":false},{"id":242325,"adult":false},{"id":331920,"adult":false},{"id":146136,"adult":false},{"id":335304,"adult":false},{"id":335305,"adult":false},{"id":265128,"adult":false},{"id":335880,"adult":false},{"id":336020,"adult":false},{"id":336022,"adult":false},{"id":422278,"adult":false},{"id":336023,"adult":false},{"id":336025,"adult":false},{"id":338350,"adult":false},{"id":338352,"adult":false},{"id":280479,"adult":false},{"id":338362,"adult":false},{"id":5547,"adult":false},{"id":338363,"adult":false},{"id":338366,"adult":false},{"id":77068,"adult":false},{"id":338367,"adult":false},{"id":338370,"adult":false},{"id":291068,"adult":false},{"id":288080,"adult":false},{"id":7294,"adult":false},{"id":428361,"adult":false},{"id":9338,"adult":false},{"id":338371,"adult":false},{"id":263366,"adult":false},{"id":338372,"adult":false},{"id":179641,"adult":false},{"id":340051,"adult":false},{"id":46512,"adult":false},{"id":302553,"adult":false},{"id":340052,"adult":false},{"id":292448,"adult":false},{"id":340273,"adult":false},{"id":340635,"adult":false},{"id":340959,"adult":false},{"id":343268,"adult":false},{"id":343273,"adult":false},{"id":343275,"adult":false},{"id":354393,"adult":false},{"id":354397,"adult":false},{"id":354629,"adult":false},{"id":362718,"adult":false},{"id":46843,"adult":false},{"id":382563,"adult":false},{"id":411606,"adult":false},{"id":412121,"adult":false},{"id":269098,"adult":false},{"id":435572,"adult":false},{"id":16617,"adult":false},{"id":4614,"adult":false},{"id":558,"adult":false},{"id":415704,"adult":false},{"id":169971,"adult":false},{"id":371446,"adult":false},{"id":435575,"adult":false},{"id":274699,"adult":false},{"id":559,"adult":false},{"id":3210,"adult":false},{"id":9766,"adult":false},{"id":426825,"adult":false},{"id":156588,"adult":false},{"id":272845,"adult":false},{"id":422280,"adult":false},{"id":82675,"adult":false},{"id":51997,"adult":false},{"id":8681,"adult":false},{"id":435576,"adult":false},{"id":260346,"adult":false},{"id":38365,"adult":false},{"id":435577,"adult":false},{"id":435578,"adult":false},{"id":174992,"adult":false},{"id":45243,"adult":false},{"id":276844,"adult":false},{"id":435579,"adult":false},{"id":67817,"adult":false},{"id":174998,"adult":false},{"id":76604,"adult":false},{"id":236831,"adult":false},{"id":412452,"adult":false},{"id":242969,"adult":false},{"id":59480,"adult":false},{"id":435580,"adult":false},{"id":344779,"adult":false},{"id":9977,"adult":false},{"id":242996,"adult":false},{"id":243181,"adult":false},{"id":435581,"adult":false},{"id":435582,"adult":false}],"page":36,"total_pages":144,"total_results":14325}