{"results":[{"id":95636,"adult":false},{"id":451593,"adult":false},{"id":292020,"adult":false},{"id":55301,"adult":false},{"id":411041,"adult":false},{"id":135483,"adult":false},{"id":451594,"adult":false},{"id":50135,"adult":false},{"id":255572,"adult":false},{"id":19425,"adult":false},{"id":147949,"adult":false},{"id":147944,"adult":false},{"id":451595,"adult":false},{"id":36669,"adult":false},{"id":451597,"adult":false},{"id":451598,"adult":false},{"id":27495,"adult":false},{"id":90806,"adult":false},{"id":229124,"adult":false},{"id":366360,"adult":false},{"id":372859,"adult":false}],"page":105,"total_pages":105,"total_results":10421}