{"results":[{"id":249524,"adult":false},{"id":9728,"adult":false},{"id":9730,"adult":false},{"id":277216,"adult":false},{"id":291347,"adult":false},{"id":10285,"adult":false},{"id":6466,"adult":false},{"id":450929,"adult":false},{"id":327528,"adult":false},{"id":28624,"adult":false},{"id":450930,"adult":false},{"id":19137,"adult":false},{"id":80713,"adult":false},{"id":442124,"adult":false},{"id":291549,"adult":false},{"id":450931,"adult":false},{"id":334376,"adult":false},{"id":450932,"adult":false},{"id":339116,"adult":false},{"id":329653,"adult":false},{"id":450933,"adult":false},{"id":355644,"adult":false},{"id":199379,"adult":false},{"id":446047,"adult":false},{"id":291616,"adult":false},{"id":20762,"adult":false},{"id":449978,"adult":false},{"id":450934,"adult":false},{"id":450935,"adult":false},{"id":446714,"adult":false},{"id":253210,"adult":false},{"id":440051,"adult":false},{"id":47634,"adult":false},{"id":336752,"adult":false},{"id":276121,"adult":false},{"id":64270,"adult":false},{"id":419209,"adult":false},{"id":450936,"adult":false},{"id":365429,"adult":false},{"id":450937,"adult":false},{"id":306937,"adult":false},{"id":110675,"adult":false},{"id":450938,"adult":false},{"id":87496,"adult":false},{"id":293616,"adult":false},{"id":437628,"adult":false},{"id":232462,"adult":false},{"id":297702,"adult":false},{"id":35950,"adult":false},{"id":92679,"adult":false},{"id":448964,"adult":false},{"id":450939,"adult":false},{"id":450940,"adult":false},{"id":89675,"adult":false},{"id":390056,"adult":false},{"id":378918,"adult":false},{"id":338312,"adult":false},{"id":70337,"adult":false},{"id":68724,"adult":false},{"id":382591,"adult":false},{"id":358901,"adult":false},{"id":450941,"adult":false},{"id":404733,"adult":false},{"id":162143,"adult":false},{"id":433165,"adult":false},{"id":127372,"adult":false},{"id":8129,"adult":false},{"id":450942,"adult":false},{"id":49527,"adult":false},{"id":283552,"adult":false},{"id":450943,"adult":false},{"id":27601,"adult":false},{"id":417631,"adult":false},{"id":326285,"adult":false},{"id":444343,"adult":false},{"id":401743,"adult":false},{"id":421386,"adult":false},{"id":437844,"adult":false},{"id":164543,"adult":false},{"id":374475,"adult":false},{"id":342473,"adult":false},{"id":450944,"adult":false},{"id":450945,"adult":false},{"id":195916,"adult":false},{"id":369860,"adult":false},{"id":410791,"adult":false},{"id":450946,"adult":false},{"id":157829,"adult":false},{"id":267192,"adult":false},{"id":181092,"adult":false},{"id":348799,"adult":false},{"id":450947,"adult":false},{"id":14234,"adult":false},{"id":103620,"adult":false},{"id":14211,"adult":false},{"id":446867,"adult":false},{"id":67003,"adult":false},{"id":4413,"adult":false},{"id":342472,"adult":false},{"id":293122,"adult":false}],"page":65,"total_pages":105,"total_results":10420}