{"results":[{"id":442410,"adult":false},{"id":442411,"adult":false},{"id":437717,"adult":false},{"id":39919,"adult":false},{"id":437711,"adult":false},{"id":442412,"adult":false},{"id":86508,"adult":false},{"id":19158,"adult":false},{"id":437710,"adult":false},{"id":117923,"adult":false},{"id":437207,"adult":false},{"id":59961,"adult":false},{"id":30801,"adult":false},{"id":51876,"adult":false},{"id":82693,"adult":false},{"id":138697,"adult":false},{"id":7277,"adult":false},{"id":437203,"adult":false},{"id":432133,"adult":false},{"id":41902,"adult":false},{"id":43490,"adult":false},{"id":440818,"adult":false},{"id":413221,"adult":false},{"id":54081,"adult":false},{"id":356856,"adult":false},{"id":116063,"adult":false},{"id":442413,"adult":false},{"id":158076,"adult":false},{"id":116067,"adult":false},{"id":241644,"adult":false},{"id":436981,"adult":false},{"id":49022,"adult":false},{"id":116070,"adult":false},{"id":429047,"adult":false},{"id":78179,"adult":false},{"id":13798,"adult":false},{"id":442414,"adult":false},{"id":152584,"adult":false},{"id":116071,"adult":false},{"id":356857,"adult":false},{"id":226252,"adult":false},{"id":116073,"adult":false},{"id":62215,"adult":false},{"id":253371,"adult":false},{"id":116074,"adult":false},{"id":406431,"adult":false},{"id":411851,"adult":false},{"id":116075,"adult":false},{"id":442415,"adult":false},{"id":116076,"adult":false},{"id":72515,"adult":false},{"id":77422,"adult":false},{"id":442416,"adult":null},{"id":116077,"adult":false},{"id":442417,"adult":false},{"id":442418,"adult":false},{"id":553,"adult":false},{"id":163145,"adult":false},{"id":17609,"adult":false},{"id":27528,"adult":false},{"id":27230,"adult":false},{"id":442419,"adult":false},{"id":24153,"adult":false},{"id":421005,"adult":null},{"id":53006,"adult":false},{"id":425508,"adult":false},{"id":88273,"adult":false},{"id":16,"adult":false},{"id":47462,"adult":false},{"id":65086,"adult":false},{"id":432023,"adult":false},{"id":184125,"adult":false},{"id":359611,"adult":false},{"id":243997,"adult":false},{"id":431483,"adult":false},{"id":137375,"adult":false},{"id":54138,"adult":false},{"id":442420,"adult":true},{"id":2293,"adult":false},{"id":321717,"adult":false},{"id":76203,"adult":false},{"id":128353,"adult":false},{"id":390782,"adult":false},{"id":106646,"adult":false},{"id":442421,"adult":true},{"id":430333,"adult":false},{"id":39368,"adult":false},{"id":126243,"adult":false},{"id":387554,"adult":false},{"id":442422,"adult":true},{"id":418916,"adult":false},{"id":442423,"adult":false},{"id":323140,"adult":false},{"id":335051,"adult":false},{"id":7500,"adult":false},{"id":417047,"adult":false},{"id":311113,"adult":false},{"id":190018,"adult":false},{"id":77883,"adult":false},{"id":21775,"adult":false}],"page":46,"total_pages":149,"total_results":14854}