{"results":[{"id":186919,"adult":false},{"id":362409,"adult":false},{"id":448339,"adult":false},{"id":227859,"adult":false},{"id":184323,"adult":false},{"id":171648,"adult":false},{"id":134350,"adult":false},{"id":82692,"adult":false},{"id":424959,"adult":true},{"id":59109,"adult":false},{"id":80255,"adult":false},{"id":424960,"adult":true},{"id":448340,"adult":false},{"id":400106,"adult":false},{"id":14082,"adult":false},{"id":448341,"adult":false},{"id":14081,"adult":false},{"id":14080,"adult":false},{"id":14083,"adult":false},{"id":14084,"adult":false},{"id":424963,"adult":null},{"id":448342,"adult":false},{"id":161850,"adult":true},{"id":114256,"adult":false},{"id":161860,"adult":true},{"id":448343,"adult":false},{"id":253943,"adult":false},{"id":424966,"adult":null},{"id":448344,"adult":false},{"id":161876,"adult":true},{"id":448345,"adult":false},{"id":424967,"adult":null},{"id":6068,"adult":false},{"id":161892,"adult":true},{"id":18823,"adult":false},{"id":424968,"adult":null},{"id":26444,"adult":false},{"id":299546,"adult":true},{"id":448346,"adult":false},{"id":52229,"adult":false},{"id":424969,"adult":null},{"id":396152,"adult":false},{"id":1851,"adult":false},{"id":448347,"adult":false},{"id":18446,"adult":false},{"id":448348,"adult":false},{"id":94565,"adult":false},{"id":448349,"adult":false},{"id":448350,"adult":false},{"id":394405,"adult":false},{"id":18229,"adult":false},{"id":448351,"adult":false},{"id":59964,"adult":false},{"id":89020,"adult":true},{"id":425642,"adult":null},{"id":37296,"adult":false},{"id":53287,"adult":false},{"id":402546,"adult":false},{"id":25698,"adult":false},{"id":383429,"adult":false},{"id":31659,"adult":false},{"id":25894,"adult":false},{"id":448352,"adult":false},{"id":448353,"adult":false},{"id":50073,"adult":false},{"id":18146,"adult":false},{"id":448354,"adult":false},{"id":13358,"adult":false},{"id":69090,"adult":true},{"id":448355,"adult":true},{"id":425644,"adult":null},{"id":448356,"adult":false},{"id":185273,"adult":false},{"id":448357,"adult":false},{"id":60158,"adult":false},{"id":1873,"adult":false},{"id":448358,"adult":false},{"id":38685,"adult":false},{"id":448359,"adult":false},{"id":5917,"adult":false},{"id":265067,"adult":false},{"id":41590,"adult":false},{"id":75900,"adult":false},{"id":438817,"adult":false},{"id":448360,"adult":false},{"id":59870,"adult":false},{"id":1834,"adult":false},{"id":45974,"adult":false},{"id":448361,"adult":false},{"id":284184,"adult":true},{"id":259024,"adult":false},{"id":28303,"adult":false},{"id":448362,"adult":false},{"id":425645,"adult":null},{"id":448363,"adult":false},{"id":176650,"adult":false},{"id":45928,"adult":false},{"id":290802,"adult":false},{"id":37222,"adult":false},{"id":439613,"adult":false}],"page":111,"total_pages":168,"total_results":16730}