{"results":[{"id":279833,"adult":false},{"id":979,"adult":false},{"id":14745,"adult":false},{"id":442476,"adult":null},{"id":12809,"adult":false},{"id":46829,"adult":false},{"id":442477,"adult":true},{"id":38694,"adult":false},{"id":259700,"adult":false},{"id":275192,"adult":false},{"id":398694,"adult":false},{"id":1693,"adult":false},{"id":18044,"adult":false},{"id":14765,"adult":false},{"id":1735,"adult":false},{"id":127941,"adult":false},{"id":208544,"adult":false},{"id":389086,"adult":false},{"id":13256,"adult":false},{"id":442478,"adult":null},{"id":14197,"adult":false},{"id":58075,"adult":false},{"id":64700,"adult":false},{"id":79927,"adult":false},{"id":235828,"adult":false},{"id":64938,"adult":false},{"id":43595,"adult":false},{"id":14771,"adult":false},{"id":302168,"adult":false},{"id":14637,"adult":false},{"id":16179,"adult":false},{"id":18616,"adult":false},{"id":16436,"adult":false},{"id":12565,"adult":false},{"id":8927,"adult":false},{"id":14556,"adult":false},{"id":40619,"adult":false},{"id":15285,"adult":false},{"id":282984,"adult":false},{"id":27438,"adult":false},{"id":136347,"adult":false},{"id":10529,"adult":false},{"id":442479,"adult":false},{"id":9017,"adult":false},{"id":1939,"adult":false},{"id":353475,"adult":false},{"id":315541,"adult":false},{"id":265856,"adult":false},{"id":336972,"adult":false},{"id":397873,"adult":false},{"id":8886,"adult":false},{"id":326562,"adult":false},{"id":433205,"adult":null},{"id":15457,"adult":false},{"id":255689,"adult":false},{"id":15671,"adult":false},{"id":441614,"adult":false},{"id":13944,"adult":false},{"id":41539,"adult":false},{"id":288635,"adult":false},{"id":12192,"adult":false},{"id":19487,"adult":false},{"id":15179,"adult":false},{"id":60664,"adult":false},{"id":14408,"adult":false},{"id":19079,"adult":false},{"id":53290,"adult":false},{"id":330610,"adult":false},{"id":418662,"adult":false},{"id":63287,"adult":false},{"id":391970,"adult":false},{"id":45600,"adult":false},{"id":23963,"adult":false},{"id":12429,"adult":false},{"id":16091,"adult":false},{"id":8617,"adult":false},{"id":267797,"adult":false},{"id":31340,"adult":false},{"id":13635,"adult":false},{"id":13812,"adult":false},{"id":1103,"adult":false},{"id":373441,"adult":false},{"id":160139,"adult":false},{"id":374440,"adult":false},{"id":303854,"adult":false},{"id":14976,"adult":false},{"id":25781,"adult":false},{"id":10664,"adult":false},{"id":14050,"adult":false},{"id":12400,"adult":false},{"id":104,"adult":false},{"id":18940,"adult":false},{"id":202456,"adult":false},{"id":14353,"adult":false},{"id":109118,"adult":false},{"id":15451,"adult":false},{"id":63907,"adult":false},{"id":431480,"adult":true},{"id":51916,"adult":false},{"id":432575,"adult":false}],"page":50,"total_pages":149,"total_results":14854}