{"results":[{"id":2333,"adult":false},{"id":363916,"adult":false},{"id":411214,"adult":false},{"id":412533,"adult":false},{"id":158015,"adult":false},{"id":11333,"adult":false},{"id":650,"adult":false},{"id":139251,"adult":false},{"id":10622,"adult":false},{"id":433397,"adult":false},{"id":56598,"adult":false},{"id":8645,"adult":false},{"id":418827,"adult":false},{"id":38438,"adult":false},{"id":76739,"adult":false},{"id":411502,"adult":false},{"id":309298,"adult":false},{"id":22314,"adult":false},{"id":4477,"adult":false},{"id":1262,"adult":false},{"id":5354,"adult":false},{"id":564,"adult":false},{"id":9959,"adult":false},{"id":24140,"adult":false},{"id":83218,"adult":false},{"id":78621,"adult":false},{"id":20012,"adult":false},{"id":11578,"adult":false},{"id":12523,"adult":false},{"id":309503,"adult":false},{"id":271969,"adult":false},{"id":411532,"adult":false},{"id":170522,"adult":false},{"id":273001,"adult":false},{"id":390777,"adult":false},{"id":43267,"adult":false},{"id":920,"adult":false},{"id":133008,"adult":false},{"id":321751,"adult":false},{"id":369557,"adult":false},{"id":950,"adult":false},{"id":351759,"adult":false},{"id":8355,"adult":false},{"id":271,"adult":false},{"id":227973,"adult":false},{"id":224207,"adult":false},{"id":433398,"adult":false},{"id":19505,"adult":false},{"id":45698,"adult":false},{"id":10316,"adult":false},{"id":264656,"adult":false},{"id":399790,"adult":false},{"id":250538,"adult":false},{"id":7454,"adult":false},{"id":227156,"adult":false},{"id":352504,"adult":false},{"id":433399,"adult":false},{"id":18,"adult":false},{"id":387773,"adult":false},{"id":214087,"adult":false},{"id":120225,"adult":false},{"id":156022,"adult":false},{"id":350,"adult":false},{"id":36142,"adult":false},{"id":46195,"adult":false},{"id":240629,"adult":false},{"id":309,"adult":false},{"id":55101,"adult":false},{"id":1954,"adult":false},{"id":49040,"adult":false},{"id":20139,"adult":false},{"id":121516,"adult":false},{"id":158011,"adult":false},{"id":153518,"adult":false},{"id":400710,"adult":false},{"id":84185,"adult":false},{"id":433400,"adult":false},{"id":433401,"adult":false},{"id":398812,"adult":null},{"id":239571,"adult":false},{"id":887,"adult":false},{"id":347645,"adult":false},{"id":182240,"adult":false},{"id":175,"adult":false},{"id":210278,"adult":false},{"id":346491,"adult":false},{"id":77949,"adult":false},{"id":24761,"adult":false},{"id":346501,"adult":false},{"id":145247,"adult":false},{"id":38050,"adult":false},{"id":11121,"adult":false},{"id":205998,"adult":false},{"id":60370,"adult":false},{"id":96438,"adult":false},{"id":123678,"adult":false},{"id":124221,"adult":false},{"id":87101,"adult":false},{"id":22257,"adult":false},{"id":98566,"adult":false}],"page":56,"total_pages":133,"total_results":13251}