{"results":[{"id":87093,"adult":false},{"id":257932,"adult":false},{"id":445170,"adult":false},{"id":254578,"adult":false},{"id":445171,"adult":false},{"id":267999,"adult":false},{"id":433085,"adult":false},{"id":433305,"adult":false},{"id":188222,"adult":false},{"id":87034,"adult":false},{"id":150540,"adult":false},{"id":33927,"adult":false},{"id":238628,"adult":false},{"id":87101,"adult":false},{"id":445172,"adult":false},{"id":385186,"adult":false},{"id":401600,"adult":false},{"id":236737,"adult":false},{"id":289358,"adult":false},{"id":45369,"adult":false},{"id":445173,"adult":false},{"id":348537,"adult":false},{"id":74495,"adult":false},{"id":27730,"adult":false},{"id":62103,"adult":false},{"id":41409,"adult":false},{"id":296099,"adult":false},{"id":26,"adult":false},{"id":273447,"adult":false},{"id":179308,"adult":false},{"id":371196,"adult":false},{"id":317463,"adult":false},{"id":57705,"adult":false},{"id":274854,"adult":false},{"id":439677,"adult":false},{"id":295964,"adult":false},{"id":51142,"adult":false},{"id":283317,"adult":false},{"id":10214,"adult":false},{"id":315956,"adult":true},{"id":214750,"adult":false},{"id":445174,"adult":false},{"id":47359,"adult":false},{"id":261023,"adult":false},{"id":296100,"adult":false},{"id":31589,"adult":false},{"id":400246,"adult":false},{"id":310593,"adult":false},{"id":321751,"adult":false},{"id":410002,"adult":false},{"id":62957,"adult":false},{"id":309302,"adult":false},{"id":409886,"adult":false},{"id":249070,"adult":false},{"id":187671,"adult":false},{"id":70223,"adult":false},{"id":315872,"adult":false},{"id":409762,"adult":false},{"id":409706,"adult":false},{"id":409865,"adult":false},{"id":276907,"adult":false},{"id":409903,"adult":false},{"id":445175,"adult":false},{"id":445176,"adult":false},{"id":409670,"adult":false},{"id":187432,"adult":false},{"id":445177,"adult":false},{"id":409724,"adult":false},{"id":409911,"adult":false},{"id":12716,"adult":false},{"id":183407,"adult":false},{"id":409686,"adult":false},{"id":291870,"adult":false},{"id":409699,"adult":false},{"id":259694,"adult":false},{"id":403274,"adult":false},{"id":435794,"adult":false},{"id":409733,"adult":false},{"id":91049,"adult":false},{"id":234004,"adult":false},{"id":333669,"adult":false},{"id":333352,"adult":false},{"id":445178,"adult":false},{"id":356568,"adult":false},{"id":445179,"adult":false},{"id":38055,"adult":false},{"id":153141,"adult":false},{"id":43539,"adult":false},{"id":409712,"adult":false},{"id":292014,"adult":false},{"id":50671,"adult":false},{"id":409734,"adult":false},{"id":431416,"adult":false},{"id":409685,"adult":false},{"id":445180,"adult":false},{"id":49494,"adult":false},{"id":45658,"adult":false},{"id":74137,"adult":false},{"id":409867,"adult":false},{"id":42188,"adult":false}],"page":62,"total_pages":162,"total_results":16167}