{"results":[{"id":64414,"adult":false},{"id":296812,"adult":false},{"id":450043,"adult":false},{"id":86114,"adult":false},{"id":294889,"adult":false},{"id":450044,"adult":false},{"id":450045,"adult":false},{"id":86764,"adult":false},{"id":279139,"adult":false},{"id":411626,"adult":false},{"id":81399,"adult":false},{"id":20333,"adult":false},{"id":378046,"adult":false},{"id":15347,"adult":false},{"id":66195,"adult":false},{"id":74100,"adult":false},{"id":23550,"adult":false},{"id":4837,"adult":false},{"id":16407,"adult":false},{"id":333838,"adult":false},{"id":445731,"adult":false},{"id":372518,"adult":false},{"id":128406,"adult":false},{"id":45077,"adult":false},{"id":203819,"adult":false},{"id":321612,"adult":false},{"id":408529,"adult":false},{"id":225975,"adult":false},{"id":269149,"adult":false},{"id":98639,"adult":false},{"id":9335,"adult":false},{"id":448510,"adult":false},{"id":450046,"adult":false},{"id":20914,"adult":false},{"id":258002,"adult":false},{"id":11899,"adult":false},{"id":293167,"adult":false},{"id":347026,"adult":false},{"id":395992,"adult":false},{"id":324552,"adult":false},{"id":279950,"adult":false},{"id":423628,"adult":false},{"id":14564,"adult":false},{"id":426547,"adult":false},{"id":137607,"adult":false},{"id":60799,"adult":false},{"id":338766,"adult":false},{"id":333484,"adult":false},{"id":20053,"adult":false},{"id":450047,"adult":false},{"id":223702,"adult":false},{"id":313369,"adult":false},{"id":322470,"adult":false},{"id":329865,"adult":false},{"id":445004,"adult":false},{"id":214756,"adult":false},{"id":383869,"adult":false},{"id":296360,"adult":false},{"id":1088,"adult":false},{"id":271110,"adult":false},{"id":72105,"adult":false},{"id":414977,"adult":false},{"id":261036,"adult":false},{"id":10309,"adult":false},{"id":35113,"adult":false},{"id":199890,"adult":false},{"id":3083,"adult":false},{"id":2209,"adult":false},{"id":270564,"adult":false},{"id":102899,"adult":false},{"id":98482,"adult":false},{"id":166798,"adult":false},{"id":450048,"adult":false},{"id":319072,"adult":false},{"id":169781,"adult":false},{"id":822,"adult":false},{"id":425495,"adult":false},{"id":100095,"adult":false},{"id":449255,"adult":false},{"id":78858,"adult":false},{"id":358458,"adult":false},{"id":366057,"adult":false},{"id":27858,"adult":false},{"id":358844,"adult":false},{"id":352563,"adult":false},{"id":355927,"adult":false},{"id":152607,"adult":false},{"id":304130,"adult":false},{"id":280965,"adult":false},{"id":896,"adult":false},{"id":103590,"adult":false},{"id":396026,"adult":false},{"id":450049,"adult":false},{"id":450050,"adult":false},{"id":332721,"adult":false},{"id":284652,"adult":false},{"id":389113,"adult":false},{"id":403542,"adult":false},{"id":363764,"adult":false},{"id":59239,"adult":false}],"page":4,"total_pages":129,"total_results":12803}