{"results":[{"id":354861,"adult":false},{"id":428707,"adult":false},{"id":38718,"adult":false},{"id":450301,"adult":false},{"id":37189,"adult":false},{"id":133727,"adult":false},{"id":53975,"adult":false},{"id":373571,"adult":false},{"id":450302,"adult":false},{"id":272128,"adult":false},{"id":42554,"adult":false},{"id":2266,"adult":false},{"id":35680,"adult":false},{"id":429445,"adult":false},{"id":10798,"adult":false},{"id":70831,"adult":false},{"id":450303,"adult":true},{"id":296366,"adult":false},{"id":450304,"adult":false},{"id":447771,"adult":false},{"id":34295,"adult":false},{"id":341234,"adult":false},{"id":100241,"adult":false},{"id":329505,"adult":false},{"id":450305,"adult":false},{"id":354511,"adult":false},{"id":43817,"adult":false},{"id":450306,"adult":false},{"id":448898,"adult":null},{"id":279781,"adult":false},{"id":450307,"adult":false},{"id":2274,"adult":false},{"id":450308,"adult":false},{"id":79906,"adult":false},{"id":356442,"adult":false},{"id":450309,"adult":true},{"id":368356,"adult":false},{"id":417419,"adult":false},{"id":4307,"adult":false},{"id":450310,"adult":false},{"id":46195,"adult":false},{"id":421401,"adult":false},{"id":43545,"adult":false},{"id":61826,"adult":false},{"id":387399,"adult":false},{"id":450311,"adult":false},{"id":9485,"adult":false},{"id":385128,"adult":false},{"id":385687,"adult":false},{"id":331991,"adult":false},{"id":202659,"adult":false},{"id":19405,"adult":false},{"id":99,"adult":false},{"id":159,"adult":false},{"id":438518,"adult":false},{"id":27958,"adult":false},{"id":2003,"adult":false},{"id":10563,"adult":false},{"id":244260,"adult":false},{"id":12554,"adult":false},{"id":417044,"adult":false},{"id":12105,"adult":false},{"id":130269,"adult":false},{"id":374671,"adult":false},{"id":382475,"adult":false},{"id":52608,"adult":false},{"id":11624,"adult":false},{"id":327785,"adult":false},{"id":136714,"adult":false},{"id":400326,"adult":false},{"id":10440,"adult":false},{"id":49931,"adult":false},{"id":386328,"adult":false},{"id":329451,"adult":false},{"id":450312,"adult":false},{"id":383751,"adult":null},{"id":272391,"adult":false},{"id":195071,"adult":false},{"id":450313,"adult":true},{"id":276614,"adult":false},{"id":348198,"adult":false},{"id":334681,"adult":false},{"id":450314,"adult":false},{"id":361505,"adult":false},{"id":297736,"adult":false},{"id":450315,"adult":false},{"id":357533,"adult":false},{"id":361075,"adult":false},{"id":88051,"adult":false},{"id":337747,"adult":false},{"id":413328,"adult":false},{"id":367215,"adult":false},{"id":339362,"adult":false},{"id":434474,"adult":false},{"id":450316,"adult":false},{"id":332661,"adult":false},{"id":407709,"adult":false},{"id":449863,"adult":false},{"id":289174,"adult":false},{"id":97187,"adult":false}],"page":25,"total_pages":129,"total_results":12803}