{"results":[{"id":8435,"adult":false},{"id":41414,"adult":false},{"id":9472,"adult":false},{"id":52591,"adult":false},{"id":561,"adult":false},{"id":15624,"adult":false},{"id":17350,"adult":false},{"id":397852,"adult":false},{"id":2313,"adult":false},{"id":429625,"adult":false},{"id":11421,"adult":false},{"id":437051,"adult":false},{"id":10744,"adult":false},{"id":9927,"adult":false},{"id":17,"adult":false},{"id":5177,"adult":false},{"id":18045,"adult":false},{"id":32062,"adult":false},{"id":106334,"adult":false},{"id":437052,"adult":false},{"id":372401,"adult":false},{"id":142205,"adult":false},{"id":377372,"adult":true},{"id":348678,"adult":false},{"id":39008,"adult":false},{"id":437053,"adult":false},{"id":303413,"adult":false},{"id":11801,"adult":false},{"id":26850,"adult":false},{"id":137349,"adult":false},{"id":437054,"adult":false},{"id":69511,"adult":false},{"id":11669,"adult":false},{"id":437055,"adult":false},{"id":2024,"adult":false},{"id":141015,"adult":false},{"id":427871,"adult":false},{"id":24808,"adult":false},{"id":9383,"adult":false},{"id":437056,"adult":false},{"id":437057,"adult":false},{"id":10137,"adult":false},{"id":109924,"adult":false},{"id":140036,"adult":false},{"id":15895,"adult":false},{"id":429236,"adult":false},{"id":21522,"adult":false},{"id":24100,"adult":false},{"id":89287,"adult":false},{"id":437058,"adult":false},{"id":167073,"adult":false},{"id":409307,"adult":false},{"id":137649,"adult":false},{"id":9442,"adult":false},{"id":437059,"adult":false},{"id":291270,"adult":false},{"id":14868,"adult":false},{"id":80918,"adult":false},{"id":431314,"adult":true},{"id":34151,"adult":false},{"id":32579,"adult":false},{"id":437060,"adult":false},{"id":352498,"adult":false},{"id":47688,"adult":false},{"id":80207,"adult":false},{"id":390,"adult":false},{"id":32622,"adult":false},{"id":412998,"adult":false},{"id":11779,"adult":false},{"id":118257,"adult":false},{"id":5857,"adult":false},{"id":69576,"adult":false},{"id":204082,"adult":false},{"id":290274,"adult":false},{"id":31214,"adult":false},{"id":437061,"adult":false},{"id":272694,"adult":false},{"id":286232,"adult":false},{"id":437062,"adult":false},{"id":357805,"adult":false},{"id":337154,"adult":false},{"id":340594,"adult":false},{"id":309207,"adult":false},{"id":316669,"adult":false},{"id":391356,"adult":false},{"id":333355,"adult":false},{"id":385775,"adult":false},{"id":9740,"adult":false},{"id":437063,"adult":false},{"id":271492,"adult":false},{"id":437064,"adult":false},{"id":228591,"adult":false},{"id":7095,"adult":false},{"id":129611,"adult":false},{"id":10658,"adult":false},{"id":274,"adult":false},{"id":437065,"adult":false},{"id":136676,"adult":false},{"id":2026,"adult":false},{"id":333365,"adult":false}],"page":117,"total_pages":144,"total_results":14325}