{"results":[{"id":11395,"adult":false},{"id":11104,"adult":false},{"id":11934,"adult":false},{"id":27066,"adult":false},{"id":2502,"adult":false},{"id":52505,"adult":false},{"id":27804,"adult":false},{"id":447442,"adult":false},{"id":22724,"adult":false},{"id":447443,"adult":false},{"id":287620,"adult":false},{"id":147936,"adult":false},{"id":54720,"adult":false},{"id":66651,"adult":false},{"id":53882,"adult":false},{"id":82086,"adult":false},{"id":227493,"adult":false},{"id":274288,"adult":false},{"id":130502,"adult":false},{"id":161097,"adult":false},{"id":27962,"adult":false},{"id":402333,"adult":false},{"id":20575,"adult":false},{"id":22258,"adult":false},{"id":54143,"adult":false},{"id":197719,"adult":false},{"id":325634,"adult":false},{"id":139979,"adult":false},{"id":83913,"adult":false},{"id":401544,"adult":false},{"id":420893,"adult":false},{"id":447444,"adult":false},{"id":442458,"adult":false},{"id":447015,"adult":false},{"id":82549,"adult":false},{"id":447445,"adult":false},{"id":385203,"adult":false},{"id":59150,"adult":false},{"id":447446,"adult":false},{"id":53827,"adult":false},{"id":333665,"adult":false},{"id":287,"adult":false},{"id":50670,"adult":false},{"id":377273,"adult":false},{"id":421443,"adult":false},{"id":11336,"adult":false},{"id":447447,"adult":false},{"id":19027,"adult":false},{"id":24983,"adult":false},{"id":20349,"adult":false},{"id":36037,"adult":false},{"id":40861,"adult":false},{"id":277296,"adult":false},{"id":11877,"adult":false},{"id":447448,"adult":false},{"id":154287,"adult":false},{"id":412093,"adult":false},{"id":410117,"adult":false},{"id":333381,"adult":false},{"id":66969,"adult":false},{"id":447449,"adult":true},{"id":3541,"adult":false},{"id":381767,"adult":false},{"id":10837,"adult":false},{"id":5846,"adult":false},{"id":276496,"adult":false},{"id":41103,"adult":false},{"id":40461,"adult":false},{"id":438347,"adult":false},{"id":447450,"adult":false},{"id":359790,"adult":false},{"id":225888,"adult":false},{"id":40441,"adult":false},{"id":83911,"adult":false},{"id":136528,"adult":false},{"id":117111,"adult":false},{"id":240097,"adult":false},{"id":184627,"adult":false},{"id":318934,"adult":false},{"id":136210,"adult":false},{"id":378435,"adult":false},{"id":11135,"adult":false},{"id":447451,"adult":false},{"id":36102,"adult":false},{"id":447452,"adult":null},{"id":447453,"adult":false},{"id":276317,"adult":false},{"id":15567,"adult":false},{"id":276829,"adult":false},{"id":150540,"adult":false},{"id":447454,"adult":false},{"id":21316,"adult":false},{"id":447455,"adult":false},{"id":283995,"adult":false},{"id":280773,"adult":false},{"id":296029,"adult":false},{"id":447456,"adult":false},{"id":438142,"adult":false},{"id":447457,"adult":false},{"id":356296,"adult":false}],"page":41,"total_pages":168,"total_results":16730}