{"results":[{"id":31345,"adult":false},{"id":148142,"adult":false},{"id":366433,"adult":false},{"id":505,"adult":false},{"id":85699,"adult":false},{"id":193828,"adult":false},{"id":32308,"adult":false},{"id":26940,"adult":false},{"id":22021,"adult":false},{"id":347882,"adult":false},{"id":57165,"adult":false},{"id":4516,"adult":false},{"id":17455,"adult":false},{"id":448978,"adult":false},{"id":11559,"adult":false},{"id":335837,"adult":false},{"id":138820,"adult":false},{"id":14831,"adult":false},{"id":448979,"adult":false},{"id":365500,"adult":false},{"id":429245,"adult":false},{"id":13908,"adult":false},{"id":448980,"adult":false},{"id":126397,"adult":false},{"id":11638,"adult":false},{"id":109410,"adult":false},{"id":232082,"adult":false},{"id":38096,"adult":false},{"id":362180,"adult":false},{"id":12480,"adult":false},{"id":64686,"adult":false},{"id":448981,"adult":false},{"id":204085,"adult":false},{"id":178687,"adult":false},{"id":80527,"adult":false},{"id":11942,"adult":false},{"id":448982,"adult":false},{"id":14871,"adult":false},{"id":377985,"adult":false},{"id":84342,"adult":false},{"id":216,"adult":false},{"id":117942,"adult":false},{"id":185198,"adult":false},{"id":4879,"adult":false},{"id":437081,"adult":false},{"id":4398,"adult":false},{"id":11894,"adult":false},{"id":21733,"adult":false},{"id":280922,"adult":false},{"id":50426,"adult":false},{"id":59145,"adult":false},{"id":289391,"adult":false},{"id":18647,"adult":false},{"id":4954,"adult":false},{"id":21719,"adult":false},{"id":43258,"adult":false},{"id":281240,"adult":false},{"id":448983,"adult":false},{"id":277105,"adult":false},{"id":448984,"adult":false},{"id":448985,"adult":false},{"id":352050,"adult":false},{"id":73824,"adult":false},{"id":330447,"adult":false},{"id":334585,"adult":false},{"id":42252,"adult":false},{"id":365043,"adult":false},{"id":414372,"adult":false},{"id":448986,"adult":false},{"id":433726,"adult":false},{"id":285948,"adult":false},{"id":273481,"adult":false},{"id":448987,"adult":false},{"id":448988,"adult":false},{"id":448989,"adult":false},{"id":266396,"adult":false},{"id":333652,"adult":false},{"id":67818,"adult":false},{"id":2636,"adult":false},{"id":111469,"adult":false},{"id":207257,"adult":false},{"id":448990,"adult":false},{"id":448991,"adult":false},{"id":130956,"adult":false},{"id":412991,"adult":false},{"id":448992,"adult":false},{"id":448993,"adult":false},{"id":84204,"adult":false},{"id":448994,"adult":false},{"id":365414,"adult":false},{"id":851,"adult":false},{"id":28013,"adult":false},{"id":53426,"adult":false},{"id":448995,"adult":null},{"id":19065,"adult":false},{"id":342818,"adult":false},{"id":376873,"adult":false},{"id":448996,"adult":false},{"id":391486,"adult":false},{"id":77361,"adult":false}],"page":150,"total_pages":168,"total_results":16730}